{
	"slinger":{
		"atk":1,
		"hea":4,
		"rng":2,
		"skills":["volley","intimidate","scavenge"]
	},
	"scutati":{
		"atk":2,
		"hea":4,
		"rng":1,
		"skills":["attack","shieldwall","volley"]
	},
	"caestrati":{
		"atk":3,
		"hea":4,
		"rng":0,
		"skills":["attack","rally","snipe"]
	},
	"jinete":{
		"atk":4,
		"hea":4,
		"rng":0,
		"skills":["attack","charge","snipe"]
	},
	"archer":{
		"atk":1,
		"hea":4,
		"rng":2,
		"skills":["volley","fire at will","cease fire"]
	},
	"elephant":{
		"atk":6,
		"hea":8,
		"rng":1,
		"skills":["volley","charge","intimidate"]
	},
	"cavalry":{
		"atk":3,
		"hea":4,
		"rng":1,
		"skills":["attack","charge","volley"]
	},
	"skirmisher":{
		"atk":2,
		"hea":4,
		"rng":1,
		"skills":["attack","scavenge","volley"]
	},
	"swordsman":{
		"atk":3,
		"hea":4,
		"rng":0,
		"skills":["attack","intimidate","rally"]
	},
	"ballista":{
		"atk":0,
		"def":0,
		"hea":8,
		"rng":0,
		"skills":["snipe","reload","aim"]
	},
}