[gd_scene load_steps=4 format=2]

[ext_resource path="res://battle/menu.tscn" type="PackedScene" id=1]
[ext_resource path="res://battle/battle.gd" type="Script" id=2]
[ext_resource path="res://images/fields.jpg" type="Texture" id=3]

[node name="battle" type="Node2D"]
script = ExtResource( 2 )

[node name="image" type="TextureRect" parent="."]
modulate = Color( 0.396078, 0.396078, 0.396078, 1 )
anchor_right = 1.0
anchor_bottom = 1.0
margin_left = -1.0
margin_right = 718.0
margin_bottom = 597.0
texture = ExtResource( 3 )
expand = true
stretch_mode = 7
__meta__ = {
"_edit_use_anchors_": false
}

[node name="nodes" type="YSort" parent="."]

[node name="Controls" type="Node2D" parent="."]
z_index = 4096
z_as_relative = false

[node name="Panel" parent="Controls" instance=ExtResource( 1 )]

[node name="Camera2D" type="Camera2D" parent="."]
position = Vector2( 510.808, 301 )
