[gd_scene load_steps=7 format=2]

[ext_resource path="res://tilesets/main.tres" type="TileSet" id=1]
[ext_resource path="res://tilesets/floor.tres" type="TileSet" id=2]
[ext_resource path="res://object/player.tscn" type="PackedScene" id=3]
[ext_resource path="res://scenarios/scenario.gd" type="Script" id=4]
[ext_resource path="res://object/door.tscn" type="PackedScene" id=5]
[ext_resource path="res://tilesets/mask.tres" type="TileSet" id=9]

[node name="overworld" type="Node2D"]
script = ExtResource( 4 )

[node name="Floor" type="TileMap" parent="."]
tile_set = ExtResource( 2 )
format = 1
tile_data = PoolIntArray( 131072, 4, 0, 131073, 4, 0, 131074, 4, 0, 131075, 4, 0, 131076, 4, 0, 131077, 4, 0, 131078, 4, 0, 131079, 4, 0, 131080, 4, 0, 131081, 4, 0, 131082, 4, 0, 131083, 4, 0, 131084, 4, 0, 131085, 4, 0, 131086, 4, 0, 131087, 4, 0, 196608, 4, 0, 196609, 4, 0, 196610, 4, 0, 196611, 4, 0, 196612, 4, 0, 196613, 4, 0, 196614, 4, 0, 196615, 4, 0, 196616, 4, 0, 196617, 4, 0, 196618, 4, 0, 196619, 4, 0, 196620, 4, 0, 196621, 4, 0, 196622, 4, 0, 196623, 4, 0, 262144, 4, 0, 262145, 4, 0, 262146, 4, 0, 262147, 4, 0, 262148, 4, 0, 262149, 5, 0, 262150, 4, 0, 262151, 5, 0, 262152, 5, 0, 262153, 4, 0, 262154, 5, 0, 262155, 4, 0, 262156, 4, 0, 262157, 4, 0, 262158, 4, 0, 262159, 4, 0, 327680, 4, 0, 327681, 4, 0, 327682, 4, 0, 327683, 4, 0, 327684, 4, 0, 327685, 5, 0, 327686, 4, 0, 327687, 5, 0, 327688, 5, 0, 327689, 4, 0, 327690, 5, 0, 327691, 4, 0, 327692, 4, 0, 327693, 4, 0, 327694, 4, 0, 327695, 4, 0, 393216, 4, 0, 393217, 4, 0, 393218, 4, 0, 393219, 4, 0, 393220, 4, 0, 393221, 5, 0, 393222, 4, 0, 393223, 5, 0, 393224, 5, 0, 393225, 4, 0, 393226, 5, 0, 393227, 4, 0, 393228, 4, 0, 393229, 4, 0, 393230, 4, 0, 393231, 4, 0, 458752, 4, 0, 458753, 4, 0, 458754, 4, 0, 458755, 4, 0, 458756, 4, 0, 458757, 5, 0, 458758, 4, 0, 458759, 5, 0, 458760, 5, 0, 458761, 4, 0, 458762, 5, 0, 458763, 4, 0, 458764, 4, 0, 458765, 4, 0, 458766, 4, 0, 458767, 4, 0, 524288, 4, 0, 524289, 4, 0, 524290, 4, 0, 524291, 4, 0, 524292, 4, 0, 524293, 5, 0, 524294, 4, 0, 524295, 5, 0, 524296, 5, 0, 524297, 4, 0, 524298, 5, 0, 524299, 4, 0, 524300, 4, 0, 524301, 4, 0, 524302, 4, 0, 524303, 4, 0, 589824, 4, 0, 589825, 4, 0, 589826, 4, 0, 589827, 4, 0, 589828, 4, 0, 589829, 5, 0, 589830, 4, 0, 589831, 5, 0, 589832, 5, 0, 589833, 4, 0, 589834, 5, 0, 589835, 4, 0, 589836, 4, 0, 589837, 4, 0, 589838, 4, 0, 589839, 4, 0 )

[node name="FloorOverlay" type="TileMap" parent="."]
tile_set = ExtResource( 2 )
format = 1
tile_data = PoolIntArray( 262149, 13, 0, 262151, 13, 0, 262152, 13, 0, 262154, 13, 0 )

[node name="MainBelow" type="TileMap" parent="."]
tile_set = ExtResource( 1 )
format = 1
tile_data = PoolIntArray( 0, 29, 0, 1, 29, 0, 2, 29, 0, 3, 29, 0, 4, 29, 0, 5, 29, 0, 6, 29, 0, 7, 29, 0, 8, 29, 0, 9, 29, 0, 10, 29, 0, 11, 29, 0, 12, 29, 0, 13, 29, 0, 14, 29, 0, 15, 29, 0, 65536, 29, 0, 65537, 29, 0, 65538, 29, 0, 65539, 29, 0, 65540, 29, 0, 65541, 29, 0, 65542, 29, 0, 65543, 29, 0, 65544, 29, 0, 65545, 29, 0, 65546, 29, 0, 65547, 29, 0, 65548, 29, 0, 65549, 29, 0, 65550, 29, 0, 65551, 29, 0, 131074, 29, 0, 131075, 24, 0, 131076, 29, 0, 131077, 29, 0, 131078, 29, 0, 131079, 29, 0, 131080, 29, 0, 131081, 29, 0, 131082, 29, 0, 131083, 29, 0, 131084, 24, 0, 131085, 29, 0, 196611, 24, 0, 196612, 29, 0, 196613, 29, 0, 196614, 29, 0, 196615, 29, 0, 196616, 29, 0, 196617, 29, 0, 196618, 29, 0, 196619, 29, 0, 196620, 24, 0, 262144, 24, 0, 262145, 24, 0, 262146, 24, 0, 262147, 24, 0, 262156, 24, 0, 262157, 24, 0, 262158, 24, 0, 262159, 24, 0, 327680, 21, 0, 327681, 21, 0, 327682, 21, 0, 327683, 21, 0, 327692, 21, 0, 327693, 21, 0, 327694, 21, 0, 327695, 21, 0 )

[node name="MainBelowOverlay" type="TileMap" parent="."]
tile_set = ExtResource( 1 )
format = 1
tile_data = PoolIntArray( 65536, 53, 0, 65537, 53, 0, 65541, 75, 0, 65543, 536870985, 0, 65544, 73, 0, 65546, 75, 0, 131073, 47, 0, 131074, 53, 0, 131077, 536870942, 0, 131082, 536870942, 0, 131085, 47, 0, 196611, 47, 0, 196612, 53, 0, 196613, 536870942, 0, 196614, 53, 0, 196615, 536870942, 0, 196616, 536870942, 0, 196617, 53, 0, 196618, 536870942, 0, 196619, 47, 0 )

[node name="MainBelowOverlay2" type="TileMap" parent="."]
tile_set = ExtResource( 1 )
format = 1
tile_data = PoolIntArray( 1, 536870959, 0, 3, 536870959, 0, 11, 536870959, 0, 13, 47, 0, 65537, 536870959, 0, 65539, 536870959, 0, 65547, 536870959, 0, 65549, 47, 0, 65550, 53, 0, 65551, 53, 0, 131075, 536870959, 0, 131083, 536870959, 0, 131085, 53, 0, 196619, 53, 0 )

[node name="Nodes" type="YSort" parent="."]

[node name="door" parent="Nodes" instance=ExtResource( 5 )]
position = Vector2( 448, 192 )
scale = Vector2( 2, 1 )
door = "arena_fight"

[node name="player" parent="Nodes" instance=ExtResource( 3 )]
position = Vector2( 512, 576 )
doorOut = "zerua/hiri_berria"
cameraLimit = Vector2( 93, 49 )

[node name="Main" type="TileMap" parent="."]
tile_set = ExtResource( 1 )
format = 1
tile_data = PoolIntArray( 458752, 37, 0, 458767, 37, 0, 524288, 37, 0, 524289, 37, 0, 524290, 37, 0, 524301, 37, 0, 524302, 37, 0, 524303, 37, 0, 589824, 29, 0, 589825, 29, 0, 589826, 37, 0, 589827, 37, 0, 589828, 37, 0, 589835, 37, 0, 589836, 37, 0, 589837, 37, 0, 589838, 29, 0, 589839, 29, 0 )

[node name="MainDetail" type="TileMap" parent="."]
tile_set = ExtResource( 1 )
format = 1
tile_data = PoolIntArray( 393216, 53, 0, 393231, 53, 0, 458753, 53, 0, 458754, 53, 0, 458765, 53, 0, 458766, 53, 0, 524288, 53, 0, 524289, 53, 0, 524291, 53, 0, 524292, 53, 0, 524299, 53, 0, 524300, 53, 0, 524302, 53, 0, 524303, 53, 0, 589825, 47, 0, 589837, 47, 0 )

[node name="MainOverlay" type="TileMap" parent="."]
tile_set = ExtResource( 1 )
format = 1
tile_data = PoolIntArray( 458752, 47, 0, 458766, 47, 0, 524290, 47, 0, 524300, 47, 0, 589828, 47, 0, 589834, 47, 0 )

[node name="collision" type="TileMap" parent="."]
visible = false
tile_set = ExtResource( 9 )
format = 1
tile_data = PoolIntArray( 131075, 0, 0, 131076, 0, 0, 131077, 0, 0, 131078, 0, 0, 131079, 0, 0, 131080, 0, 0, 131081, 0, 0, 131082, 0, 0, 131083, 0, 0, 131084, 0, 0, 196611, 0, 0, 196612, 0, 0, 196614, 0, 0, 196617, 0, 0, 196619, 0, 0, 196620, 0, 0, 262147, 0, 0, 262156, 0, 0, 393215, 0, 0, 327680, 0, 0, 327681, 0, 0, 327682, 0, 0, 327683, 0, 0, 327692, 0, 0, 327693, 0, 0, 327694, 0, 0, 327695, 0, 0, 327696, 0, 0, 458751, 0, 0, 393232, 0, 0, 524287, 0, 0, 458768, 0, 0, 589823, 0, 0, 524304, 0, 0, 655359, 0, 0, 589840, 0, 0, 720895, 0, 0, 655360, 0, 0, 655361, 0, 0, 655362, 0, 0, 655363, 0, 0, 655364, 0, 0, 655371, 0, 0, 655372, 0, 0, 655373, 0, 0, 655374, 0, 0, 655375, 0, 0, 655376, 0, 0 )
