[gd_scene load_steps=8 format=2]

[ext_resource path="res://tilesets/main.tres" type="TileSet" id=1]
[ext_resource path="res://tilesets/floor.tres" type="TileSet" id=2]
[ext_resource path="res://object/player.tscn" type="PackedScene" id=3]
[ext_resource path="res://scenarios/scenario.gd" type="Script" id=4]
[ext_resource path="res://object/door.tscn" type="PackedScene" id=5]
[ext_resource path="res://object/npc.tscn" type="PackedScene" id=6]
[ext_resource path="res://tilesets/mask.tres" type="TileSet" id=9]

[node name="overworld" type="Node2D"]
script = ExtResource( 4 )

[node name="Floor" type="TileMap" parent="."]
tile_set = ExtResource( 2 )
format = 1
tile_data = PoolIntArray( 0, 4, 0, 1, 4, 0, 2, 4, 0, 3, 4, 0, 4, 4, 0, 5, 4, 0, 6, 4, 0, 7, 4, 0, 8, 4, 0, 9, 4, 0, 10, 4, 0, 11, 4, 0, 12, 4, 0, 13, 4, 0, 14, 4, 0, 15, 4, 0, 16, 4, 0, 17, 4, 0, 18, 4, 0, 19, 4, 0, 20, 4, 0, 21, 4, 0, 22, 4, 0, 23, 4, 0, 24, 4, 0, 25, 4, 0, 26, 4, 0, 27, 4, 0, 28, 4, 0, 29, 4, 0, 30, 4, 0, 31, 4, 0, 32, 4, 0, 65536, 4, 0, 65537, 4, 0, 65538, 4, 0, 65539, 4, 0, 65540, 4, 0, 65541, 4, 0, 65542, 4, 0, 65543, 4, 0, 65544, 4, 0, 65545, 4, 0, 65546, 4, 0, 65547, 4, 0, 65548, 4, 0, 65549, 4, 0, 65550, 4, 0, 65551, 4, 0, 65552, 4, 0, 65553, 4, 0, 65554, 4, 0, 65555, 4, 0, 65556, 4, 0, 65557, 4, 0, 65558, 4, 0, 65559, 4, 0, 65560, 4, 0, 65561, 4, 0, 65562, 4, 0, 65563, 4, 0, 65564, 4, 0, 65565, 4, 0, 65566, 4, 0, 65567, 4, 0, 65568, 4, 0, 131072, 4, 0, 131073, 4, 0, 131074, 4, 0, 131075, 4, 0, 131076, 4, 0, 131077, 4, 0, 131078, 4, 0, 131079, 4, 0, 131080, 4, 0, 131081, 4, 0, 131082, 4, 0, 131083, 4, 0, 131084, 4, 0, 131085, 4, 0, 131086, 4, 0, 131087, 4, 0, 131088, 4, 0, 131089, 4, 0, 131090, 4, 0, 131091, 4, 0, 131092, 4, 0, 131093, 4, 0, 131094, 4, 0, 131095, 4, 0, 131096, 4, 0, 131097, 4, 0, 131098, 4, 0, 131099, 4, 0, 131100, 4, 0, 131101, 4, 0, 131102, 4, 0, 131103, 4, 0, 131104, 4, 0, 196608, 4, 0, 196609, 4, 0, 196610, 4, 0, 196611, 4, 0, 196612, 4, 0, 196613, 4, 0, 196614, 4, 0, 196615, 4, 0, 196616, 4, 0, 196617, 4, 0, 196618, 4, 0, 196619, 4, 0, 196620, 4, 0, 196621, 4, 0, 196622, 4, 0, 196623, 4, 0, 196624, 4, 0, 196625, 4, 0, 196626, 4, 0, 196627, 4, 0, 196628, 4, 0, 196629, 4, 0, 196630, 4, 0, 196631, 4, 0, 196632, 4, 0, 196633, 4, 0, 196634, 4, 0, 196635, 4, 0, 196636, 4, 0, 196637, 4, 0, 196638, 4, 0, 196639, 4, 0, 196640, 4, 0, 262144, 4, 0, 262145, 4, 0, 262146, 4, 0, 262147, 4, 0, 262148, 4, 0, 262149, 4, 0, 262150, 4, 0, 262151, 4, 0, 262152, 4, 0, 262153, 4, 0, 262154, 4, 0, 262155, 4, 0, 262156, 4, 0, 262157, 4, 0, 262158, 4, 0, 262159, 4, 0, 262160, 4, 0, 262161, 4, 0, 262162, 4, 0, 262163, 4, 0, 262164, 4, 0, 262165, 4, 0, 262166, 4, 0, 262167, 4, 0, 262168, 4, 0, 262169, 4, 0, 262170, 4, 0, 262171, 4, 0, 262172, 4, 0, 262173, 4, 0, 262174, 4, 0, 262175, 4, 0, 262176, 4, 0, 327680, 4, 0, 327681, 4, 0, 327682, 4, 0, 327683, 4, 0, 327684, 4, 0, 327685, 4, 0, 327686, 4, 0, 327687, 4, 0, 327688, 4, 0, 327689, 4, 0, 327690, 4, 0, 327691, 4, 0, 327692, 4, 0, 327693, 4, 0, 327694, 4, 0, 327695, 4, 0, 327696, 4, 0, 327697, 4, 0, 327698, 4, 0, 327699, 4, 0, 327700, 4, 0, 327701, 4, 0, 327702, 4, 0, 327703, 4, 0, 327704, 4, 0, 327705, 4, 0, 327706, 4, 0, 327707, 4, 0, 327708, 4, 0, 327709, 4, 0, 327710, 4, 0, 327711, 4, 0, 327712, 4, 0, 393216, 4, 0, 393217, 4, 0, 393218, 4, 0, 393219, 4, 0, 393220, 4, 0, 393221, 4, 0, 393222, 4, 0, 393223, 4, 0, 393224, 4, 0, 393225, 4, 0, 393226, 4, 0, 393227, 4, 0, 393228, 4, 0, 393229, 4, 0, 393230, 4, 0, 393231, 4, 0, 393232, 4, 0, 393233, 4, 0, 393234, 4, 0, 393235, 4, 0, 393236, 4, 0, 393237, 4, 0, 393238, 4, 0, 393239, 4, 0, 393240, 4, 0, 393241, 4, 0, 393242, 4, 0, 393243, 4, 0, 393244, 4, 0, 393245, 4, 0, 393246, 4, 0, 393247, 4, 0, 393248, 4, 0, 458752, 4, 0, 458753, 4, 0, 458754, 4, 0, 458755, 4, 0, 458756, 4, 0, 458757, 4, 0, 458758, 4, 0, 458759, 4, 0, 458760, 4, 0, 458761, 4, 0, 458762, 4, 0, 458763, 4, 0, 458764, 4, 0, 458765, 4, 0, 458766, 4, 0, 458767, 4, 0, 458768, 4, 0, 458769, 4, 0, 458770, 4, 0, 458771, 4, 0, 458772, 4, 0, 458773, 4, 0, 458774, 4, 0, 458775, 4, 0, 458776, 4, 0, 458777, 4, 0, 458778, 4, 0, 458779, 4, 0, 458780, 4, 0, 458781, 4, 0, 458782, 4, 0, 458783, 4, 0, 458784, 4, 0, 524288, 4, 0, 524289, 4, 0, 524290, 4, 0, 524291, 4, 0, 524292, 4, 0, 524293, 4, 0, 524294, 4, 0, 524295, 4, 0, 524296, 4, 0, 524297, 4, 0, 524298, 4, 0, 524299, 4, 0, 524300, 4, 0, 524301, 4, 0, 524302, 4, 0, 524303, 4, 0, 524304, 4, 0, 524305, 4, 0, 524306, 4, 0, 524307, 4, 0, 524308, 4, 0, 524309, 4, 0, 524310, 4, 0, 524311, 4, 0, 524312, 4, 0, 524313, 4, 0, 524314, 4, 0, 524315, 4, 0, 524316, 4, 0, 524317, 4, 0, 524318, 4, 0, 524319, 4, 0, 524320, 4, 0, 589824, 4, 0, 589825, 4, 0, 589826, 4, 0, 589827, 4, 0, 589828, 4, 0, 589829, 4, 0, 589830, 4, 0, 589831, 4, 0, 589832, 4, 0, 589833, 4, 0, 589834, 4, 0, 589835, 4, 0, 589836, 4, 0, 589837, 4, 0, 589838, 4, 0, 589839, 4, 0, 589840, 4, 0, 589841, 4, 0, 589842, 4, 0, 589843, 4, 0, 589844, 4, 0, 589845, 4, 0, 589846, 4, 0, 589847, 4, 0, 589848, 4, 0, 589849, 4, 0, 589850, 4, 0, 589851, 4, 0, 589852, 4, 0, 589853, 4, 0, 589854, 4, 0, 589855, 4, 0, 589856, 4, 0, 655360, 4, 0, 655361, 4, 0, 655362, 4, 0, 655363, 4, 0, 655364, 4, 0, 655365, 4, 0, 655366, 4, 0, 655367, 4, 0, 655368, 4, 0, 655369, 4, 0, 655370, 4, 0, 655371, 4, 0, 655372, 4, 0, 655373, 4, 0, 655374, 4, 0, 655375, 4, 0, 655376, 4, 0, 655377, 4, 0, 655378, 4, 0, 655379, 4, 0, 655380, 4, 0, 655381, 4, 0, 655382, 4, 0, 655383, 4, 0, 655384, 4, 0, 655385, 4, 0, 655386, 4, 0, 655387, 4, 0, 655388, 4, 0, 655389, 4, 0, 655390, 4, 0, 655391, 4, 0, 655392, 4, 0, 720896, 4, 0, 720897, 4, 0, 720898, 4, 0, 720899, 4, 0, 720900, 4, 0, 720901, 4, 0, 720902, 4, 0, 720903, 4, 0, 720904, 4, 0, 720905, 4, 0, 720906, 4, 0, 720907, 4, 0, 720908, 4, 0, 720909, 4, 0, 720910, 4, 0, 720911, 4, 0, 720912, 4, 0, 720913, 4, 0, 720914, 4, 0, 720915, 4, 0, 720916, 4, 0, 720917, 4, 0, 720918, 4, 0, 720919, 4, 0, 720920, 4, 0, 720921, 4, 0, 720922, 4, 0, 720923, 4, 0, 720924, 4, 0, 720925, 4, 0, 720926, 4, 0, 720927, 4, 0, 720928, 4, 0, 786432, 4, 0, 786433, 4, 0, 786434, 4, 0, 786435, 4, 0, 786436, 4, 0, 786437, 4, 0, 786438, 4, 0, 786439, 4, 0, 786440, 4, 0, 786441, 4, 0, 786442, 4, 0, 786443, 4, 0, 786444, 4, 0, 786445, 4, 0, 786446, 4, 0, 786447, 4, 0, 786448, 4, 0, 786449, 4, 0, 786450, 4, 0, 786451, 4, 0, 786452, 4, 0, 786453, 4, 0, 786454, 4, 0, 786455, 4, 0, 786456, 4, 0, 786457, 4, 0, 786458, 4, 0, 786459, 4, 0, 786460, 4, 0, 786461, 4, 0, 786462, 4, 0, 786463, 4, 0, 786464, 4, 0, 851968, 4, 0, 851969, 4, 0, 851970, 4, 0, 851971, 4, 0, 851972, 4, 0, 851973, 4, 0, 851974, 4, 0, 851975, 4, 0, 851976, 4, 0, 851977, 4, 0, 851978, 4, 0, 851979, 4, 0, 851980, 4, 0, 851981, 4, 0, 851982, 4, 0, 851983, 4, 0, 851984, 4, 0, 851985, 4, 0, 851986, 4, 0, 851987, 4, 0, 851988, 4, 0, 851989, 4, 0, 851990, 4, 0, 851991, 4, 0, 851992, 4, 0, 851993, 4, 0, 851994, 4, 0, 851995, 4, 0, 851996, 4, 0, 851997, 4, 0, 851998, 4, 0, 851999, 4, 0, 852000, 4, 0, 917504, 4, 0, 917505, 4, 0, 917506, 4, 0, 917507, 4, 0, 917508, 4, 0, 917509, 4, 0, 917510, 4, 0, 917511, 4, 0, 917512, 4, 0, 917513, 4, 0, 917514, 4, 0, 917515, 4, 0, 917516, 4, 0, 917517, 4, 0, 917518, 4, 0, 917519, 4, 0, 917520, 4, 0, 917521, 4, 0, 917522, 4, 0, 917523, 4, 0, 917524, 4, 0, 917525, 4, 0, 917526, 4, 0, 917527, 4, 0, 917528, 4, 0, 917529, 4, 0, 917530, 4, 0, 917531, 4, 0, 917532, 4, 0, 917533, 4, 0, 917534, 4, 0, 917535, 4, 0, 917536, 4, 0, 983040, 4, 0, 983041, 4, 0, 983042, 4, 0, 983043, 4, 0, 983044, 4, 0, 983045, 4, 0, 983046, 4, 0, 983047, 4, 0, 983048, 4, 0, 983049, 4, 0, 983050, 4, 0, 983051, 4, 0, 983052, 4, 0, 983053, 4, 0, 983054, 4, 0, 983055, 4, 0, 983056, 4, 0, 983057, 4, 0, 983058, 4, 0, 983059, 4, 0, 983060, 4, 0, 983061, 4, 0, 983062, 4, 0, 983063, 4, 0, 983064, 4, 0, 983065, 4, 0, 983066, 4, 0, 983067, 4, 0, 983068, 4, 0, 983069, 4, 0, 983070, 4, 0, 983071, 4, 0, 983072, 4, 0, 1048576, 4, 0, 1048577, 4, 0, 1048578, 4, 0, 1048579, 4, 0, 1048580, 4, 0, 1048581, 4, 0, 1048582, 4, 0, 1048583, 4, 0, 1048584, 4, 0, 1048585, 4, 0, 1048586, 4, 0, 1048587, 4, 0, 1048588, 4, 0, 1048589, 4, 0, 1048590, 4, 0, 1048591, 4, 0, 1048592, 4, 0, 1048593, 4, 0, 1048594, 4, 0, 1048595, 4, 0, 1048596, 4, 0, 1048597, 4, 0, 1048598, 4, 0, 1048599, 4, 0, 1048600, 4, 0, 1048601, 4, 0, 1048602, 4, 0, 1048603, 4, 0, 1048604, 4, 0, 1048605, 4, 0, 1048606, 4, 0, 1048607, 4, 0, 1048608, 4, 0, 1114112, 4, 0, 1114113, 4, 0, 1114114, 4, 0, 1114115, 4, 0, 1114116, 4, 0, 1114117, 4, 0, 1114118, 4, 0, 1114119, 4, 0, 1114120, 4, 0, 1114121, 4, 0, 1114122, 4, 0, 1114123, 4, 0, 1114124, 4, 0, 1114125, 4, 0, 1114126, 4, 0, 1114127, 4, 0, 1114128, 4, 0, 1114129, 4, 0, 1114130, 4, 0, 1114131, 4, 0, 1114132, 4, 0, 1114133, 4, 0, 1114134, 4, 0, 1114135, 4, 0, 1114136, 4, 0, 1114137, 4, 0, 1114138, 4, 0, 1114139, 4, 0, 1114140, 4, 0, 1114141, 4, 0, 1114142, 4, 0, 1114143, 4, 0, 1114144, 4, 0, 1179648, 4, 0, 1179649, 4, 0, 1179650, 4, 0, 1179651, 4, 0, 1179652, 4, 0, 1179653, 4, 0, 1179654, 4, 0, 1179655, 4, 0, 1179656, 4, 0, 1179657, 4, 0, 1179658, 4, 0, 1179659, 4, 0, 1179660, 4, 0, 1179661, 4, 0, 1179662, 4, 0, 1179663, 4, 0, 1179664, 4, 0, 1179665, 4, 0, 1179666, 4, 0, 1179667, 4, 0, 1179668, 4, 0, 1179669, 4, 0, 1179670, 4, 0, 1179671, 4, 0, 1179672, 4, 0, 1179673, 4, 0, 1179674, 4, 0, 1179675, 4, 0, 1179676, 4, 0, 1179677, 4, 0, 1179678, 4, 0, 1179679, 4, 0, 1179680, 4, 0, 1245184, 4, 0, 1245185, 4, 0, 1245186, 4, 0, 1245187, 4, 0, 1245188, 4, 0, 1245189, 4, 0, 1245190, 4, 0, 1245191, 4, 0, 1245192, 4, 0, 1245193, 4, 0, 1245194, 4, 0, 1245195, 4, 0, 1245196, 4, 0, 1245197, 4, 0, 1245198, 4, 0, 1245199, 4, 0, 1245200, 4, 0, 1245201, 4, 0, 1245202, 4, 0, 1245203, 4, 0, 1245204, 4, 0, 1245205, 4, 0, 1245206, 4, 0, 1245207, 4, 0, 1245208, 4, 0, 1245209, 4, 0, 1245210, 4, 0, 1245211, 4, 0, 1245212, 4, 0, 1245213, 4, 0, 1245214, 4, 0, 1245215, 4, 0, 1245216, 4, 0, 1310720, 4, 0, 1310721, 4, 0, 1310722, 4, 0, 1310723, 4, 0, 1310724, 4, 0, 1310725, 4, 0, 1310726, 4, 0, 1310727, 4, 0, 1310728, 4, 0, 1310729, 4, 0, 1310730, 4, 0, 1310731, 4, 0, 1310732, 4, 0, 1310733, 4, 0, 1310734, 4, 0, 1310735, 4, 0, 1310736, 4, 0, 1310737, 4, 0, 1310738, 4, 0, 1310739, 4, 0, 1310740, 4, 0, 1310741, 4, 0, 1310742, 4, 0, 1310743, 4, 0, 1310744, 4, 0, 1310745, 4, 0, 1310746, 4, 0, 1310747, 4, 0, 1310748, 4, 0, 1310749, 4, 0, 1310750, 4, 0, 1310751, 4, 0, 1310752, 4, 0, 1376256, 4, 0, 1376257, 4, 0, 1376258, 4, 0, 1376259, 4, 0, 1376260, 4, 0, 1376261, 4, 0, 1376262, 4, 0, 1376263, 4, 0, 1376264, 4, 0, 1376265, 4, 0, 1376266, 4, 0, 1376267, 4, 0, 1376268, 4, 0, 1376269, 4, 0, 1376270, 4, 0, 1376271, 4, 0, 1376272, 4, 0, 1376273, 4, 0, 1376274, 4, 0, 1376275, 4, 0, 1376276, 4, 0, 1376277, 4, 0, 1376278, 4, 0, 1376279, 4, 0, 1376280, 4, 0, 1376281, 4, 0, 1376282, 4, 0, 1376283, 4, 0, 1376284, 4, 0, 1376285, 4, 0, 1376286, 4, 0, 1376287, 4, 0, 1376288, 4, 0, 1441792, 4, 0, 1441793, 4, 0, 1441794, 4, 0, 1441795, 4, 0, 1441796, 4, 0, 1441797, 4, 0, 1441798, 4, 0, 1441799, 4, 0, 1441800, 4, 0, 1441801, 4, 0, 1441802, 4, 0, 1441803, 4, 0, 1441804, 4, 0, 1441805, 4, 0, 1441806, 4, 0, 1441807, 4, 0, 1441808, 4, 0, 1441809, 4, 0, 1441810, 4, 0, 1441811, 4, 0, 1441812, 4, 0, 1441813, 4, 0, 1441814, 4, 0, 1441815, 4, 0, 1441816, 4, 0, 1441817, 4, 0, 1441818, 4, 0, 1441819, 4, 0, 1441820, 4, 0, 1441821, 4, 0, 1441822, 4, 0, 1441823, 4, 0, 1441824, 4, 0, 1507328, 4, 0, 1507329, 4, 0, 1507330, 4, 0, 1507331, 4, 0, 1507332, 4, 0, 1507333, 4, 0, 1507334, 4, 0, 1507335, 4, 0, 1507336, 4, 0, 1507337, 4, 0, 1507338, 4, 0, 1507339, 4, 0, 1507340, 4, 0, 1507341, 4, 0, 1507342, 4, 0, 1507343, 4, 0, 1507344, 4, 0, 1507345, 4, 0, 1507346, 4, 0, 1507347, 4, 0, 1507348, 4, 0, 1507349, 4, 0, 1507350, 4, 0, 1507351, 4, 0, 1507352, 4, 0, 1507353, 4, 0, 1507354, 4, 0, 1507355, 4, 0, 1507356, 4, 0, 1507357, 4, 0, 1507358, 4, 0, 1507359, 4, 0, 1507360, 4, 0, 1572864, 4, 0, 1572865, 4, 0, 1572866, 4, 0, 1572867, 4, 0, 1572868, 4, 0, 1572869, 4, 0, 1572870, 4, 0, 1572871, 4, 0, 1572872, 4, 0, 1572873, 4, 0, 1572874, 4, 0, 1572875, 4, 0, 1572876, 4, 0, 1572877, 4, 0, 1572878, 4, 0, 1572879, 4, 0, 1572880, 4, 0, 1572881, 4, 0, 1572882, 4, 0, 1572883, 4, 0, 1572884, 4, 0, 1572885, 4, 0, 1572886, 4, 0, 1572887, 4, 0, 1572888, 4, 0, 1572889, 4, 0, 1572890, 4, 0, 1572891, 4, 0, 1572892, 4, 0, 1572893, 4, 0, 1572894, 4, 0, 1572895, 4, 0, 1572896, 4, 0, 1638400, 4, 0, 1638401, 4, 0, 1638402, 4, 0, 1638403, 4, 0, 1638404, 4, 0, 1638405, 4, 0, 1638406, 4, 0, 1638407, 4, 0, 1638408, 4, 0, 1638409, 4, 0, 1638410, 4, 0, 1638411, 4, 0, 1638412, 4, 0, 1638413, 4, 0, 1638414, 4, 0, 1638415, 4, 0, 1638416, 4, 0, 1638417, 4, 0, 1638418, 4, 0, 1638419, 4, 0, 1638420, 4, 0, 1638421, 4, 0, 1638422, 4, 0, 1638423, 4, 0, 1638424, 4, 0, 1638425, 4, 0, 1638426, 4, 0, 1638427, 4, 0, 1638428, 4, 0, 1638429, 4, 0, 1638430, 4, 0, 1638431, 4, 0, 1638432, 4, 0, 1703936, 4, 0, 1703937, 4, 0, 1703938, 4, 0, 1703939, 4, 0, 1703940, 4, 0, 1703941, 4, 0, 1703942, 4, 0, 1703943, 4, 0, 1703944, 4, 0, 1703945, 4, 0, 1703946, 4, 0, 1703947, 4, 0, 1703948, 4, 0, 1703949, 4, 0, 1703950, 4, 0, 1703951, 4, 0, 1703952, 4, 0, 1703953, 4, 0, 1703954, 4, 0, 1703955, 4, 0, 1703956, 4, 0, 1703957, 4, 0, 1703958, 4, 0, 1703959, 4, 0, 1703960, 4, 0, 1703961, 4, 0, 1703962, 4, 0, 1703963, 4, 0, 1703964, 4, 0, 1703965, 4, 0, 1703966, 4, 0, 1703967, 4, 0, 1703968, 4, 0, 1769472, 4, 0, 1769473, 4, 0, 1769474, 4, 0, 1769475, 4, 0, 1769476, 4, 0, 1769477, 4, 0, 1769478, 4, 0, 1769479, 4, 0, 1769480, 4, 0, 1769481, 4, 0, 1769482, 4, 0, 1769483, 4, 0, 1769484, 4, 0, 1769485, 4, 0, 1769486, 4, 0, 1769487, 4, 0, 1769488, 4, 0, 1769489, 4, 0, 1769490, 4, 0, 1769491, 4, 0, 1769492, 4, 0, 1769493, 4, 0, 1769494, 4, 0, 1769495, 4, 0, 1769496, 4, 0, 1769497, 4, 0, 1769498, 4, 0, 1769499, 4, 0, 1769500, 4, 0, 1769501, 4, 0, 1769502, 4, 0, 1769503, 4, 0, 1769504, 4, 0, 1900543, 7, 7, 1835008, 7, 196612, 1835009, 7, 8, 1835010, 4, 0, 1835011, 4, 0, 1835012, 4, 0, 1835013, 4, 0, 1835014, 4, 0, 1835015, 4, 0, 1835016, 4, 0, 1835017, 4, 0, 1835018, 4, 0, 1835019, 4, 0, 1835020, 4, 0, 1835021, 4, 0, 1835022, 4, 0, 1835023, 4, 0, 1835024, 4, 0, 1835025, 4, 0, 1835026, 4, 0, 1835027, 4, 0, 1835028, 4, 0, 1835029, 4, 0, 1835030, 4, 0, 1835031, 4, 0, 1835032, 4, 0, 1835033, 7, 7, 1835034, 7, 196612, 1835035, 7, 196612, 1835036, 7, 196612, 1835037, 7, 196612, 1835038, 7, 196612, 1835039, 7, 196612, 1835040, 7, 196612, 1835041, 7, 8, 1966079, 7, 131076, 1900544, 7, 131078, 1900545, 7, 196608, 1900546, 7, 196612, 1900547, 7, 196612, 1900548, 7, 8, 1900549, 4, 0, 1900550, 4, 0, 1900551, 4, 0, 1900552, 4, 0, 1900553, 4, 0, 1900554, 4, 0, 1900555, 4, 0, 1900556, 4, 0, 1900557, 4, 0, 1900558, 4, 0, 1900559, 4, 0, 1900560, 4, 0, 1900561, 4, 0, 1900562, 4, 0, 1900563, 4, 0, 1900564, 4, 0, 1900565, 4, 0, 1900566, 4, 0, 1900567, 7, 7, 1900568, 7, 196612, 1900569, 7, 196609, 1900570, 7, 131078, 1900571, 7, 131078, 1900572, 7, 131078, 1900573, 7, 131078, 1900574, 7, 131078, 1900575, 7, 131078, 1900576, 7, 131078, 1900577, 7, 131077, 2031615, 7, 131076, 1966080, 7, 131078, 1966081, 7, 131078, 1966082, 7, 131078, 1966083, 7, 131078, 1966084, 7, 196608, 1966085, 7, 196612, 1966086, 7, 196612, 1966087, 7, 196612, 1966088, 7, 196612, 1966089, 7, 8, 1966090, 4, 0, 1966091, 4, 0, 1966092, 4, 0, 1966093, 7, 7, 1966094, 7, 196612, 1966095, 7, 196612, 1966096, 7, 196612, 1966097, 7, 196612, 1966098, 7, 196612, 1966099, 7, 196612, 1966100, 7, 196612, 1966101, 7, 196612, 1966102, 7, 196612, 1966103, 7, 196609, 1966104, 7, 131078, 1966105, 7, 131078, 1966106, 7, 131078, 1966107, 7, 131078, 1966108, 7, 131078, 1966109, 7, 131078, 1966110, 7, 131078, 1966111, 7, 131078, 1966112, 7, 131078, 1966113, 7, 131077, 2097151, 7, 131076, 2031616, 7, 131078, 2031617, 7, 131078, 2031618, 7, 131078, 2031619, 7, 131078, 2031620, 7, 131078, 2031621, 7, 131078, 2031622, 7, 131078, 2031623, 7, 131078, 2031624, 7, 131078, 2031625, 7, 196608, 2031626, 7, 196612, 2031627, 7, 196612, 2031628, 7, 196612, 2031629, 7, 196609, 2031630, 7, 131078, 2031631, 7, 131078, 2031632, 7, 131078, 2031633, 7, 131078, 2031634, 7, 131078, 2031635, 7, 131078, 2031636, 7, 131078, 2031637, 7, 131078, 2031638, 7, 131078, 2031639, 7, 131078, 2031640, 7, 131078, 2031641, 7, 131078, 2031642, 7, 131078, 2031643, 7, 131078, 2031644, 7, 131078, 2031645, 7, 131078, 2031646, 7, 131078, 2031647, 7, 131078, 2031648, 7, 131078, 2031649, 7, 131077, 2162687, 7, 131076, 2097152, 7, 131078, 2097153, 7, 131078, 2097154, 7, 131078, 2097155, 7, 131078, 2097156, 7, 131078, 2097157, 7, 131078, 2097158, 7, 131078, 2097159, 7, 131078, 2097160, 7, 131078, 2097161, 7, 131078, 2097162, 7, 131078, 2097163, 7, 131078, 2097164, 7, 131078, 2097165, 7, 131078, 2097166, 7, 131078, 2097167, 7, 131078, 2097168, 7, 131078, 2097169, 7, 131078, 2097170, 7, 131078, 2097171, 7, 131078, 2097172, 7, 131078, 2097173, 7, 131078, 2097174, 7, 131078, 2097175, 7, 131078, 2097176, 7, 131078, 2097177, 7, 131078, 2097178, 7, 131078, 2097179, 7, 131078, 2097180, 7, 131078, 2097181, 7, 131078, 2097182, 7, 131078, 2097183, 7, 131078, 2097184, 7, 131078, 2097185, 7, 131077, 2228223, 7, 65543, 2162688, 7, 196613, 2162689, 7, 196613, 2162690, 7, 196613, 2162691, 7, 196613, 2162692, 7, 196613, 2162693, 7, 196613, 2162694, 7, 196613, 2162695, 7, 196613, 2162696, 7, 196613, 2162697, 7, 196613, 2162698, 7, 196613, 2162699, 7, 196613, 2162700, 7, 196613, 2162701, 7, 196613, 2162702, 7, 196613, 2162703, 7, 196613, 2162704, 7, 196613, 2162705, 7, 196613, 2162706, 7, 196613, 2162707, 7, 196613, 2162708, 7, 196613, 2162709, 7, 196613, 2162710, 7, 196613, 2162711, 7, 196613, 2162712, 7, 196613, 2162713, 7, 196613, 2162714, 7, 196613, 2162715, 7, 196613, 2162716, 7, 196613, 2162717, 7, 196613, 2162718, 7, 196613, 2162719, 7, 196613, 2162720, 7, 196613, 2162721, 7, 65544 )

[node name="FloorOverlay" type="TileMap" parent="."]
tile_set = ExtResource( 2 )
format = 1
tile_data = PoolIntArray( 0, 4, 0, 1, 4, 0, 2, 4, 0, 3, 4, 0, 4, 4, 0, 5, 4, 0, 6, 4, 0, 7, 4, 0, 8, 4, 0, 9, 4, 0, 10, 4, 0, 11, 4, 0, 12, 4, 0, 13, 4, 0, 14, 4, 0, 15, 4, 0, 16, 4, 0, 17, 4, 0, 18, 4, 0, 19, 4, 0, 20, 4, 0, 21, 4, 0, 22, 4, 0, 23, 4, 0, 24, 4, 0, 25, 4, 0, 26, 4, 0, 27, 4, 0, 28, 4, 0, 29, 4, 0, 30, 4, 0, 31, 4, 0, 32, 4, 0, 65536, 4, 0, 65537, 4, 0, 65538, 4, 0, 65539, 4, 0, 65540, 4, 0, 65541, 4, 0, 65542, 4, 0, 65543, 4, 0, 65544, 4, 0, 65545, 4, 0, 65546, 4, 0, 65547, 4, 0, 65548, 4, 0, 65549, 4, 0, 65550, 4, 0, 65551, 4, 0, 65552, 4, 0, 65553, 4, 0, 65554, 4, 0, 65555, 4, 0, 65556, 4, 0, 65557, 4, 0, 65558, 4, 0, 65559, 4, 0, 65560, 4, 0, 65561, 4, 0, 65562, 4, 0, 65563, 4, 0, 65564, 4, 0, 65565, 4, 0, 65566, 4, 0, 65567, 4, 0, 65568, 4, 0, 131072, 4, 0, 131073, 4, 0, 131074, 4, 0, 131075, 4, 0, 131076, 4, 0, 131077, 4, 0, 131078, 4, 0, 131079, 4, 0, 131080, 4, 0, 131081, 4, 0, 131082, 4, 0, 131083, 4, 0, 131084, 4, 0, 131085, 4, 0, 131086, 4, 0, 131087, 4, 0, 131088, 4, 0, 131089, 4, 0, 131090, 4, 0, 131091, 4, 0, 131092, 4, 0, 131093, 4, 0, 131094, 4, 0, 131095, 4, 0, 131096, 4, 0, 131097, 4, 0, 131098, 4, 0, 131099, 4, 0, 131100, 4, 0, 131101, 4, 0, 131102, 4, 0, 131103, 4, 0, 131104, 4, 0, 196608, 4, 0, 196609, 4, 0, 196610, 4, 0, 196611, 4, 0, 196612, 4, 0, 196613, 4, 0, 196614, 4, 0, 196615, 4, 0, 196616, 4, 0, 196617, 4, 0, 196618, 4, 0, 196619, 4, 0, 196620, 4, 0, 196621, 4, 0, 196622, 4, 0, 196623, 4, 0, 196624, 4, 0, 196625, 4, 0, 196626, 4, 0, 196627, 4, 0, 196628, 4, 0, 196629, 4, 0, 196630, 4, 0, 196631, 4, 0, 196632, 4, 0, 196633, 4, 0, 196634, 4, 0, 196635, 4, 0, 196636, 4, 0, 196637, 4, 0, 196638, 4, 0, 196639, 4, 0, 196640, 4, 0, 262144, 4, 0, 262145, 4, 0, 262146, 4, 0, 262147, 4, 0, 262148, 4, 0, 262149, 4, 0, 262150, 4, 0, 262151, 4, 0, 262152, 4, 0, 262153, 4, 0, 262154, 4, 0, 262155, 4, 0, 262156, 4, 0, 262157, 4, 0, 262158, 4, 0, 262159, 4, 0, 262160, 4, 0, 262161, 4, 0, 262162, 4, 0, 262163, 4, 0, 262164, 4, 0, 262165, 4, 0, 262166, 4, 0, 262167, 4, 0, 262168, 4, 0, 262169, 4, 0, 262170, 4, 0, 262171, 4, 0, 262172, 4, 0, 262173, 4, 0, 262174, 4, 0, 262175, 4, 0, 262176, 4, 0, 327680, 4, 0, 327681, 4, 0, 327682, 4, 0, 327683, 4, 0, 327684, 4, 0, 327685, 4, 0, 327686, 4, 0, 327687, 4, 0, 327688, 4, 0, 327689, 4, 0, 327690, 4, 0, 327691, 4, 0, 327692, 4, 0, 327693, 4, 0, 327694, 4, 0, 327695, 4, 0, 327696, 4, 0, 327697, 4, 0, 327698, 4, 0, 327699, 4, 0, 327700, 4, 0, 327701, 4, 0, 327702, 4, 0, 327703, 4, 0, 327704, 4, 0, 327705, 4, 0, 327706, 4, 0, 327707, 4, 0, 327708, 4, 0, 327709, 4, 0, 327710, 4, 0, 327711, 4, 0, 327712, 4, 0, 393216, 4, 0, 393217, 4, 0, 393218, 4, 0, 393219, 4, 0, 393220, 4, 0, 393221, 4, 0, 393222, 4, 0, 393223, 4, 0, 393224, 4, 0, 393225, 4, 0, 393226, 4, 0, 393227, 4, 0, 393228, 4, 0, 393229, 4, 0, 393230, 4, 0, 393231, 4, 0, 393232, 4, 0, 393233, 4, 0, 393234, 4, 0, 393235, 4, 0, 393236, 4, 0, 393237, 4, 0, 393238, 4, 0, 393239, 4, 0, 393240, 4, 0, 393241, 4, 0, 393242, 4, 0, 393243, 4, 0, 393244, 4, 0, 393245, 4, 0, 393246, 4, 0, 393247, 4, 0, 393248, 4, 0, 458752, 4, 0, 458753, 4, 0, 458754, 4, 0, 458755, 4, 0, 458756, 4, 0, 458757, 4, 0, 458758, 4, 0, 458759, 4, 0, 458760, 4, 0, 458761, 4, 0, 458762, 4, 0, 458763, 4, 0, 458764, 4, 0, 458765, 4, 0, 458766, 4, 0, 458767, 4, 0, 458768, 4, 0, 458769, 4, 0, 458770, 4, 0, 458771, 4, 0, 458772, 4, 0, 458773, 4, 0, 458774, 4, 0, 458775, 4, 0, 458776, 4, 0, 458777, 4, 0, 458778, 4, 0, 458779, 4, 0, 458780, 4, 0, 458781, 4, 0, 458782, 4, 0, 458783, 4, 0, 458784, 4, 0, 524288, 4, 0, 524289, 4, 0, 524290, 4, 0, 524291, 4, 0, 524292, 4, 0, 524293, 4, 0, 524294, 4, 0, 524295, 4, 0, 524296, 4, 0, 524297, 4, 0, 524298, 4, 0, 524299, 4, 0, 524300, 4, 0, 524301, 4, 0, 524302, 4, 0, 524303, 4, 0, 524304, 4, 0, 524305, 4, 0, 524306, 4, 0, 524307, 4, 0, 524308, 4, 0, 524309, 4, 0, 524310, 4, 0, 524311, 4, 0, 524312, 4, 0, 524313, 4, 0, 524314, 4, 0, 524315, 4, 0, 524316, 4, 0, 524317, 4, 0, 524318, 4, 0, 524319, 4, 0, 524320, 4, 0, 589824, 4, 0, 589825, 4, 0, 589826, 4, 0, 589827, 4, 0, 589828, 4, 0, 589829, 4, 0, 589830, 4, 0, 589831, 4, 0, 589832, 4, 0, 589833, 4, 0, 589834, 4, 0, 589835, 4, 0, 589836, 4, 0, 589837, 4, 0, 589838, 4, 0, 589839, 4, 0, 589840, 4, 0, 589841, 4, 0, 589842, 4, 0, 589843, 4, 0, 589844, 4, 0, 589845, 4, 0, 589846, 4, 0, 589847, 4, 0, 589848, 4, 0, 589849, 4, 0, 589850, 4, 0, 589851, 4, 0, 589852, 4, 0, 589853, 4, 0, 589854, 4, 0, 589855, 4, 0, 589856, 4, 0, 655360, 4, 0, 655361, 4, 0, 655362, 4, 0, 655363, 4, 0, 655364, 4, 0, 655365, 4, 0, 655366, 4, 0, 655367, 4, 0, 655368, 4, 0, 655369, 4, 0, 655370, 4, 0, 655371, 4, 0, 655372, 4, 0, 655373, 4, 0, 655374, 4, 0, 655375, 4, 0, 655376, 4, 0, 655377, 4, 0, 655378, 4, 0, 655379, 4, 0, 655380, 4, 0, 655381, 4, 0, 655382, 4, 0, 655383, 4, 0, 655384, 4, 0, 655385, 4, 0, 655386, 4, 0, 655387, 4, 0, 655388, 4, 0, 655389, 4, 0, 655390, 4, 0, 655391, 4, 0, 655392, 4, 0, 720896, 4, 0, 720897, 4, 0, 720898, 4, 0, 720899, 4, 0, 720900, 4, 0, 720901, 4, 0, 720902, 4, 0, 720903, 4, 0, 720904, 4, 0, 720905, 4, 0, 720906, 4, 0, 720907, 4, 0, 720908, 4, 0, 720909, 4, 0, 720910, 4, 0, 720911, 4, 0, 720912, 4, 0, 720913, 4, 0, 720914, 4, 0, 720915, 4, 0, 720916, 4, 0, 720917, 4, 0, 720918, 4, 0, 720919, 4, 0, 720920, 4, 0, 720921, 4, 0, 720922, 4, 0, 720923, 4, 0, 720924, 4, 0, 720925, 4, 0, 720926, 4, 0, 720927, 4, 0, 720928, 4, 0, 786432, 4, 0, 786433, 4, 0, 786434, 4, 0, 786435, 4, 0, 786436, 4, 0, 786437, 4, 0, 786438, 4, 0, 786439, 4, 0, 786440, 4, 0, 786441, 4, 0, 786442, 4, 0, 786443, 4, 0, 786444, 4, 0, 786445, 4, 0, 786446, 4, 0, 786447, 4, 0, 786448, 4, 0, 786449, 4, 0, 786450, 4, 0, 786451, 4, 0, 786452, 4, 0, 786453, 4, 0, 786454, 4, 0, 786455, 4, 0, 786456, 4, 0, 786457, 4, 0, 786458, 4, 0, 786459, 4, 0, 786460, 4, 0, 786461, 4, 0, 786462, 4, 0, 786463, 4, 0, 786464, 4, 0, 851968, 4, 0, 851969, 4, 0, 851970, 4, 0, 851971, 4, 0, 851972, 4, 0, 851973, 4, 0, 851974, 4, 0, 851975, 4, 0, 851976, 4, 0, 851977, 4, 0, 851978, 4, 0, 851979, 4, 0, 851980, 4, 0, 851981, 4, 0, 851982, 4, 0, 851983, 4, 0, 851984, 4, 0, 851985, 4, 0, 851986, 4, 0, 851987, 4, 0, 851988, 4, 0, 851989, 4, 0, 851990, 4, 0, 851991, 4, 0, 851992, 4, 0, 851993, 4, 0, 851994, 4, 0, 851995, 4, 0, 851996, 4, 0, 851997, 4, 0, 851998, 4, 0, 851999, 4, 0, 852000, 4, 0, 917504, 4, 0, 917505, 4, 0, 917506, 4, 0, 917507, 4, 0, 917508, 4, 0, 917509, 4, 0, 917510, 4, 0, 917511, 4, 0, 917512, 4, 0, 917513, 4, 0, 917514, 4, 0, 917515, 4, 0, 917516, 4, 0, 917517, 4, 0, 917518, 4, 0, 917519, 4, 0, 917520, 4, 0, 917521, 4, 0, 917522, 4, 0, 917523, 4, 0, 917524, 4, 0, 917525, 4, 0, 917526, 4, 0, 917527, 4, 0, 917528, 4, 0, 917529, 4, 0, 917530, 4, 0, 917531, 4, 0, 917532, 4, 0, 917533, 4, 0, 917534, 4, 0, 917535, 4, 0, 917536, 4, 0, 983040, 4, 0, 983041, 4, 0, 983042, 4, 0, 983043, 4, 0, 983044, 4, 0, 983045, 4, 0, 983046, 4, 0, 983047, 4, 0, 983048, 4, 0, 983049, 4, 0, 983050, 4, 0, 983051, 4, 0, 983052, 4, 0, 983053, 4, 0, 983054, 4, 0, 983055, 4, 0, 983056, 4, 0, 983057, 4, 0, 983058, 4, 0, 983059, 4, 0, 983060, 4, 0, 983061, 4, 0, 983062, 4, 0, 983063, 4, 0, 983064, 4, 0, 983065, 4, 0, 983066, 4, 0, 983067, 4, 0, 983068, 4, 0, 983069, 4, 0, 983070, 4, 0, 983071, 4, 0, 983072, 4, 0, 1048576, 4, 0, 1048577, 4, 0, 1048578, 4, 0, 1048579, 4, 0, 1048580, 4, 0, 1048581, 4, 0, 1048582, 4, 0, 1048583, 4, 0, 1048584, 4, 0, 1048585, 4, 0, 1048586, 4, 0, 1048587, 4, 0, 1048588, 4, 0, 1048589, 4, 0, 1048590, 4, 0, 1048591, 4, 0, 1048592, 4, 0, 1048593, 4, 0, 1048594, 4, 0, 1048595, 4, 0, 1048596, 4, 0, 1048597, 4, 0, 1048598, 4, 0, 1048599, 4, 0, 1048600, 4, 0, 1048601, 4, 0, 1048602, 4, 0, 1048603, 4, 0, 1048604, 4, 0, 1048605, 4, 0, 1048606, 4, 0, 1048607, 4, 0, 1048608, 4, 0, 1114112, 4, 0, 1114113, 4, 0, 1114114, 4, 0, 1114115, 4, 0, 1114116, 4, 0, 1114117, 4, 0, 1114118, 4, 0, 1114119, 4, 0, 1114120, 4, 0, 1114121, 4, 0, 1114122, 4, 0, 1114123, 4, 0, 1114124, 4, 0, 1114125, 4, 0, 1114126, 4, 0, 1114127, 4, 0, 1114128, 4, 0, 1114129, 4, 0, 1114130, 4, 0, 1114131, 4, 0, 1114132, 4, 0, 1114133, 4, 0, 1114134, 4, 0, 1114135, 4, 0, 1114136, 4, 0, 1114137, 4, 0, 1114138, 4, 0, 1114139, 4, 0, 1114140, 4, 0, 1114141, 4, 0, 1114142, 4, 0, 1114143, 4, 0, 1114144, 4, 0, 1179648, 4, 0, 1179649, 4, 0, 1179650, 4, 0, 1179651, 4, 0, 1179652, 4, 0, 1179653, 4, 0, 1179654, 4, 0, 1179655, 4, 0, 1179656, 4, 0, 1179657, 4, 0, 1179658, 4, 0, 1179659, 4, 0, 1179660, 4, 0, 1179661, 4, 0, 1179662, 4, 0, 1179663, 4, 0, 1179664, 4, 0, 1179665, 4, 0, 1179666, 4, 0, 1179667, 4, 0, 1179668, 4, 0, 1179669, 4, 0, 1179670, 4, 0, 1179671, 4, 0, 1179672, 4, 0, 1179673, 4, 0, 1179674, 4, 0, 1179675, 4, 0, 1179676, 4, 0, 1179677, 4, 0, 1179678, 4, 0, 1179679, 4, 0, 1179680, 4, 0, 1245184, 4, 0, 1245185, 4, 0, 1245186, 4, 0, 1245187, 4, 0, 1245188, 4, 0, 1245189, 4, 0, 1245190, 4, 0, 1245191, 4, 0, 1245192, 4, 0, 1245193, 4, 0, 1245194, 4, 0, 1245195, 4, 0, 1245196, 4, 0, 1245197, 4, 0, 1245198, 4, 0, 1245199, 4, 0, 1245200, 4, 0, 1245201, 4, 0, 1245202, 4, 0, 1245203, 4, 0, 1245204, 4, 0, 1245205, 4, 0, 1245206, 4, 0, 1245207, 4, 0, 1245208, 4, 0, 1245209, 4, 0, 1245210, 4, 0, 1245211, 4, 0, 1245212, 4, 0, 1245213, 4, 0, 1245214, 4, 0, 1245215, 4, 0, 1245216, 4, 0, 1310720, 4, 0, 1310721, 4, 0, 1310722, 4, 0, 1310723, 4, 0, 1310724, 4, 0, 1310725, 4, 0, 1310726, 4, 0, 1310727, 4, 0, 1310728, 4, 0, 1310729, 4, 0, 1310730, 4, 0, 1310731, 4, 0, 1310732, 4, 0, 1310733, 4, 0, 1310734, 4, 0, 1310735, 4, 0, 1310736, 4, 0, 1310737, 4, 0, 1310738, 4, 0, 1310739, 4, 0, 1310740, 4, 0, 1310741, 4, 0, 1310742, 4, 0, 1310743, 4, 0, 1310744, 4, 0, 1310745, 4, 0, 1310746, 4, 0, 1310747, 4, 0, 1310748, 4, 0, 1310749, 4, 0, 1310750, 4, 0, 1310751, 4, 0, 1310752, 4, 0, 1376256, 4, 0, 1376257, 4, 0, 1376258, 4, 0, 1376259, 4, 0, 1376260, 4, 0, 1376261, 4, 0, 1376262, 4, 0, 1376263, 4, 0, 1376264, 4, 0, 1376265, 4, 0, 1376266, 4, 0, 1376267, 4, 0, 1376268, 4, 0, 1376269, 4, 0, 1376270, 4, 0, 1376271, 4, 0, 1376272, 4, 0, 1376273, 4, 0, 1376274, 4, 0, 1376275, 4, 0, 1376276, 4, 0, 1376277, 4, 0, 1376278, 4, 0, 1376279, 4, 0, 1376280, 4, 0, 1376281, 4, 0, 1376282, 4, 0, 1376283, 4, 0, 1376284, 4, 0, 1376285, 4, 0, 1376286, 4, 0, 1376287, 4, 0, 1376288, 4, 0, 1441792, 4, 0, 1441793, 4, 0, 1441794, 4, 0, 1441795, 4, 0, 1441796, 4, 0, 1441797, 4, 0, 1441798, 4, 0, 1441799, 4, 0, 1441800, 4, 0, 1441801, 4, 0, 1441802, 4, 0, 1441803, 4, 0, 1441804, 4, 0, 1441805, 4, 0, 1441806, 4, 0, 1441807, 4, 0, 1441808, 4, 0, 1441809, 4, 0, 1441810, 4, 0, 1441811, 4, 0, 1441812, 4, 0, 1441813, 4, 0, 1441814, 4, 0, 1441815, 4, 0, 1441816, 4, 0, 1441817, 4, 0, 1441818, 4, 0, 1441819, 4, 0, 1441820, 4, 0, 1441821, 4, 0, 1441822, 4, 0, 1441823, 4, 0, 1441824, 4, 0, 1507328, 4, 0, 1507329, 4, 0, 1507330, 4, 0, 1507331, 4, 0, 1507332, 4, 0, 1507333, 4, 0, 1507334, 4, 0, 1507335, 4, 0, 1507336, 4, 0, 1507337, 4, 0, 1507338, 4, 0, 1507339, 4, 0, 1507340, 4, 0, 1507341, 4, 0, 1507342, 4, 0, 1507343, 4, 0, 1507344, 4, 0, 1507345, 4, 0, 1507346, 4, 0, 1507347, 4, 0, 1507348, 4, 0, 1507349, 4, 0, 1507350, 4, 0, 1507351, 4, 0, 1507352, 4, 0, 1507353, 4, 0, 1507354, 4, 0, 1507355, 4, 0, 1507356, 4, 0, 1507357, 3, 7, 1507358, 3, 196612, 1507359, 3, 196612, 1507360, 3, 196612, 1507361, 3, 8, 1638399, 3, 7, 1572864, 3, 196612, 1572865, 3, 196612, 1572866, 3, 8, 1572867, 4, 0, 1572868, 4, 0, 1572869, 4, 0, 1572870, 4, 0, 1572871, 4, 0, 1572872, 4, 0, 1572873, 4, 0, 1572874, 4, 0, 1572875, 4, 0, 1572876, 4, 0, 1572877, 4, 0, 1572878, 4, 0, 1572879, 4, 0, 1572880, 4, 0, 1572881, 4, 0, 1572882, 4, 0, 1572883, 4, 0, 1572884, 4, 0, 1572885, 3, 7, 1572886, 3, 196612, 1572887, 3, 196612, 1572888, 3, 196612, 1572889, 3, 196612, 1572890, 3, 196612, 1572891, 3, 196612, 1572892, 3, 196612, 1572893, 3, 196609, 1572894, 3, 131078, 1572895, 3, 131078, 1572896, 3, 131078, 1572897, 3, 131077, 1703935, 3, 131076, 1638400, 3, 131078, 1638401, 3, 131078, 1638402, 3, 196608, 1638403, 3, 196612, 1638404, 3, 8, 1638405, 4, 0, 1638406, 4, 0, 1638407, 4, 0, 1638408, 4, 0, 1638409, 4, 0, 1638410, 4, 0, 1638411, 4, 0, 1638412, 4, 0, 1638413, 4, 0, 1638414, 4, 0, 1638415, 4, 0, 1638416, 4, 0, 1638417, 4, 0, 1638418, 4, 0, 1638419, 3, 7, 1638420, 3, 196612, 1638421, 3, 196609, 1638422, 3, 131078, 1638423, 3, 131078, 1638424, 3, 131078, 1638425, 3, 131078, 1638426, 3, 131078, 1638427, 3, 131078, 1638428, 3, 131078, 1638429, 3, 131078, 1638430, 3, 131078, 1638431, 3, 131078, 1638432, 3, 131078, 1638433, 3, 131077, 1769471, 3, 131076, 1703936, 3, 131078, 1703937, 3, 131078, 1703938, 3, 131078, 1703939, 3, 131078, 1703940, 3, 196608, 1703941, 3, 196612, 1703942, 3, 8, 1703943, 4, 0, 1703944, 4, 0, 1703945, 4, 0, 1703946, 4, 0, 1703947, 4, 0, 1703948, 4, 0, 1703949, 4, 0, 1703950, 4, 0, 1703951, 4, 0, 1703952, 3, 7, 1703953, 3, 196612, 1703954, 3, 196612, 1703955, 3, 196609, 1703956, 3, 131078, 1703957, 3, 131078, 1703958, 3, 131078, 1703959, 3, 131078, 1703960, 3, 131078, 1703961, 3, 131078, 1703962, 3, 131078, 1703963, 3, 131078, 1703964, 3, 131078, 1703965, 3, 131078, 1703966, 3, 131078, 1703967, 3, 131078, 1703968, 3, 131078, 1703969, 3, 131077, 1835007, 3, 131076, 1769472, 3, 131078, 1769473, 3, 131078, 1769474, 3, 131078, 1769475, 3, 131078, 1769476, 3, 131078, 1769477, 3, 131078, 1769478, 3, 196608, 1769479, 3, 196612, 1769480, 3, 196612, 1769481, 3, 196612, 1769482, 3, 8, 1769483, 4, 0, 1769484, 4, 0, 1769485, 3, 7, 1769486, 3, 196612, 1769487, 3, 196612, 1769488, 3, 196609, 1769489, 3, 131078, 1769490, 3, 131078, 1769491, 3, 131078, 1769492, 3, 131078, 1769493, 3, 131078, 1769494, 3, 131078, 1769495, 3, 131078, 1769496, 3, 131078, 1769497, 3, 131078, 1769498, 3, 131078, 1769499, 3, 131078, 1769500, 3, 131078, 1769501, 3, 131078, 1769502, 3, 131078, 1769503, 3, 131078, 1769504, 3, 131078, 1769505, 3, 131077, 1900543, 3, 65543, 1835008, 3, 196613, 1835009, 3, 131073, 1835010, 3, 131078, 1835011, 3, 131078, 1835012, 3, 131078, 1835013, 3, 131078, 1835014, 3, 131078, 1835015, 3, 131078, 1835016, 3, 131078, 1835017, 3, 131078, 1835018, 3, 196608, 1835019, 3, 196612, 1835020, 3, 196612, 1835021, 3, 196609, 1835022, 3, 131078, 1835023, 3, 131078, 1835024, 3, 131078, 1835025, 3, 131078, 1835026, 3, 131078, 1835027, 3, 131078, 1835028, 3, 131078, 1835029, 3, 131078, 1835030, 3, 131078, 1835031, 3, 131078, 1835032, 3, 131078, 1835033, 3, 131078, 1835034, 3, 131072, 1835035, 3, 196613, 1835036, 3, 196613, 1835037, 3, 131073, 1835038, 3, 131072, 1835039, 3, 196613, 1835040, 3, 196613, 1835041, 3, 65544, 1900545, 3, 65543, 1900546, 3, 196613, 1900547, 3, 196613, 1900548, 3, 131073, 1900549, 3, 131078, 1900550, 3, 131078, 1900551, 3, 131078, 1900552, 3, 131078, 1900553, 3, 131078, 1900554, 3, 131078, 1900555, 3, 131078, 1900556, 3, 131078, 1900557, 3, 131078, 1900558, 3, 131078, 1900559, 3, 131078, 1900560, 3, 131078, 1900561, 3, 131078, 1900562, 3, 131078, 1900563, 3, 131078, 1900564, 3, 131078, 1900565, 3, 131078, 1900566, 3, 131078, 1900567, 3, 131072, 1900568, 3, 196613, 1900569, 3, 196613, 1900570, 3, 65544, 1900573, 3, 65543, 1900574, 3, 65544, 2031615, 7, 7, 1966080, 7, 8, 1966084, 3, 65543, 1966085, 3, 196613, 1966086, 3, 196613, 1966087, 3, 196613, 1966088, 3, 131073, 1966089, 3, 131078, 1966090, 3, 131078, 1966091, 3, 131078, 1966092, 3, 131078, 1966093, 3, 131078, 1966094, 3, 131078, 1966095, 3, 131078, 1966096, 3, 131078, 1966097, 3, 131078, 1966098, 3, 131072, 1966099, 3, 196613, 1966100, 3, 196613, 1966101, 3, 196613, 1966102, 3, 196613, 1966103, 3, 65544, 1966108, 7, 7, 1966109, 7, 196612, 1966110, 7, 196612, 1966111, 7, 196612, 1966112, 7, 8, 2097151, 7, 131076, 2031616, 7, 196608, 2031617, 7, 8, 2031624, 3, 65543, 2031625, 3, 196613, 2031626, 3, 196613, 2031627, 3, 196613, 2031628, 3, 196613, 2031629, 3, 196613, 2031630, 3, 196613, 2031631, 3, 196613, 2031632, 3, 196613, 2031633, 3, 196613, 2031634, 3, 65544, 2031641, 3, 196614, 2031642, 7, 7, 2031643, 7, 196612, 2031644, 7, 196609, 2031645, 7, 131078, 2031646, 7, 131078, 2031647, 7, 131078, 2031648, 7, 131077, 2162687, 7, 131076, 2097152, 7, 131078, 2097153, 7, 196608, 2097154, 7, 196612, 2097155, 7, 8, 2097176, 7, 7, 2097177, 7, 196612, 2097178, 7, 196609, 2097179, 7, 131078, 2097180, 7, 131078, 2097181, 7, 131078, 2097182, 7, 131078, 2097183, 7, 131078, 2097184, 7, 131077, 2228223, 7, 65543, 2162688, 7, 196613, 2162689, 7, 196613, 2162690, 7, 196613, 2162691, 7, 327685, 2162692, 7, 2, 2162693, 7, 2, 2162694, 7, 2, 2162695, 7, 2, 2162696, 7, 2, 2162697, 7, 2, 2162698, 7, 2, 2162699, 7, 2, 2162700, 7, 2, 2162701, 7, 2, 2162702, 7, 2, 2162703, 7, 2, 2162704, 7, 2, 2162705, 7, 2, 2162706, 7, 2, 2162707, 7, 2, 2162708, 7, 2, 2162709, 7, 2, 2162710, 7, 2, 2162711, 7, 2, 2162712, 7, 327684, 2162713, 7, 196613, 2162714, 7, 196613, 2162715, 7, 196613, 2162716, 7, 196613, 2162717, 7, 196613, 2162718, 7, 196613, 2162719, 7, 196613, 2162720, 7, 65544 )

[node name="MainBelow" type="TileMap" parent="."]
tile_set = ExtResource( 1 )
format = 1
tile_data = PoolIntArray( 196639, 536870942, 0, 262144, 29, 0, 262145, 29, 0, 262146, 29, 0, 327680, 536870941, 0, 327681, 536870941, 0, 327682, 536870941, 0, 327683, 536870941, 0, 327684, 536870941, 0, 327710, 536870942, 0, 393223, 37, 0, 458760, 37, 0, 458761, 536870942, 0, 458762, 37, 0, 458782, 37, 0, 458783, 536870942, 0, 458784, 37, 0, 524299, 37, 0, 524300, 536870942, 0, 524301, 37, 0, 524302, 536870942, 0, 524303, 37, 0, 524313, 37, 0, 524314, 536870942, 0, 524315, 37, 0, 524316, 536870942, 0, 524317, 37, 0, 589840, 37, 0, 589841, 536870942, 0, 589842, 37, 0, 589843, 536870942, 0, 589844, 536870942, 0, 589845, 536870942, 0, 589846, 37, 0, 589847, 536870942, 0, 589848, 37, 0, 851978, 536870941, 0, 851979, 536870941, 0, 851980, 536870941, 0, 851981, 536870941, 0, 917506, 536870941, 0, 917507, 536870941, 0, 917508, 536870941, 0, 917509, 536870941, 0, 917510, 536870941, 0, 917530, 536870941, 0, 917531, 536870941, 0, 917532, 536870941, 0, 917533, 536870941, 0, 1114129, 536870941, 0, 1114130, 536870941, 0, 1114131, 536870941, 0, 1114132, 536870941, 0, 1114133, 536870941, 0, 1114143, 536870941, 0, 1114144, 536870941, 0, 1179659, 536870941, 0, 1179660, 536870941, 0, 1179661, 536870941, 0, 1179662, 536870941, 0, 1245211, 29, 0, 1245212, 29, 0, 1310745, 536870941, 0, 1310746, 536870941, 0, 1310747, 536870941, 0, 1310748, 536870941, 0, 1310749, 536870941, 0, 1376256, 536870941, 0, 1376257, 536870941, 0, 1376258, 536870941, 0, 1376259, 536870941, 0, 1441798, 29, 0, 1441799, 29, 0, 1441800, 29, 0, 1441801, 29, 0, 1441802, 29, 0, 1441803, 29, 0, 1441805, 29, 0, 1441806, 29, 0, 1441812, 536870941, 0, 1441813, 536870941, 0, 1441814, 536870941, 0, 1441815, 536870941, 0, 1507340, 536870941, 0, 1507341, 536870941, 0, 1507342, 536870941, 0, 1507343, 536870941, 0 )

[node name="MainBelowOverlay" type="TileMap" parent="."]
tile_set = ExtResource( 1 )
format = 1
tile_data = PoolIntArray( 262144, 536870986, 0, 262145, 74, 0, 327684, 536870954, 0, 851978, 42, 0, 917506, 42, 0, 917508, 536870989, 0, 917510, 536870954, 0, 1114129, 42, 0, 1114143, 42, 0, 1245211, 75, 0, 1310745, 42, 0, 1310747, 30, 0, 1310749, 536870954, 0, 1376259, 536870954, 0, 1441798, 42, 0, 1441805, 536870985, 0, 1441806, 73, 0, 1441812, 42, 0, 1441815, 536870954, 0, 1507340, 42, 0, 1507343, 536870954, 0 )

[node name="MainBelowOverlay2" type="TileMap" parent="."]
tile_set = ExtResource( 1 )
format = 1

[node name="Nodes" type="YSort" parent="."]

[node name="player" parent="Nodes" instance=ExtResource( 3 )]
position = Vector2( 384, 64 )
doorOut = "worldmap_full"
cameraLimit = Vector2( 33, 33 )

[node name="door" parent="Nodes" instance=ExtResource( 5 )]
position = Vector2( 1216, 576 )
scale = Vector2( 3, 1 )
door = "zerua/arena"

[node name="npc" parent="Nodes" instance=ExtResource( 6 )]
position = Vector2( 2112, 1216 )

[node name="Main" type="TileMap" parent="."]
tile_set = ExtResource( 1 )
format = 1
tile_data = PoolIntArray( 7, 37, 0, 8, 37, 0, 9, 37, 0, 10, 37, 0, 29, 536870941, 0, 30, 37, 0, 31, 37, 0, 32, 37, 0, 65536, 536870941, 0, 65537, 536870941, 0, 65538, 536870941, 0, 65539, 536870941, 0, 65540, 536870941, 0, 65543, 37, 0, 65544, 37, 0, 65545, 37, 0, 65546, 37, 0, 65547, 37, 0, 65548, 37, 0, 65549, 37, 0, 65550, 37, 0, 65551, 37, 0, 65559, 536870941, 0, 65560, 536870941, 0, 65561, 37, 0, 65562, 37, 0, 65563, 37, 0, 65564, 37, 0, 65565, 37, 0, 65566, 37, 0, 65567, 37, 0, 65568, 37, 0, 131072, 536870941, 0, 131073, 536870941, 0, 131074, 536870941, 0, 131075, 536870941, 0, 131076, 536870941, 0, 131079, 37, 0, 131080, 37, 0, 131081, 37, 0, 131082, 37, 0, 131083, 37, 0, 131084, 37, 0, 131085, 37, 0, 131086, 37, 0, 131087, 37, 0, 131088, 37, 0, 131089, 37, 0, 131090, 37, 0, 131091, 37, 0, 131092, 37, 0, 131093, 37, 0, 131094, 37, 0, 131095, 37, 0, 131096, 37, 0, 131097, 37, 0, 131098, 37, 0, 131099, 37, 0, 131100, 37, 0, 131101, 37, 0, 131102, 37, 0, 131103, 37, 0, 131104, 37, 0, 196608, 536870941, 0, 196609, 536870941, 0, 196610, 536870941, 0, 196611, 536870941, 0, 196612, 536870941, 0, 196615, 37, 0, 196616, 37, 0, 196617, 37, 0, 196618, 37, 0, 196619, 37, 0, 196620, 37, 0, 196621, 37, 0, 196622, 37, 0, 196623, 37, 0, 196624, 37, 0, 196625, 37, 0, 196626, 37, 0, 196627, 37, 0, 196628, 37, 0, 196629, 37, 0, 196630, 37, 0, 196631, 37, 0, 196632, 37, 0, 196633, 37, 0, 196634, 37, 0, 196635, 37, 0, 196636, 37, 0, 196637, 37, 0, 196638, 37, 0, 196639, 536870942, 0, 196640, 37, 0, 262146, 536870941, 0, 262147, 536870941, 0, 262148, 536870941, 0, 262151, 37, 0, 262152, 37, 0, 262153, 37, 0, 262154, 37, 0, 262155, 37, 0, 262156, 37, 0, 262157, 37, 0, 262158, 37, 0, 262159, 37, 0, 262160, 37, 0, 262161, 37, 0, 262162, 37, 0, 262163, 37, 0, 262164, 37, 0, 262165, 37, 0, 262166, 37, 0, 262167, 37, 0, 262168, 37, 0, 262169, 37, 0, 262170, 37, 0, 262171, 37, 0, 262172, 37, 0, 262173, 37, 0, 262174, 37, 0, 262175, 37, 0, 262176, 37, 0, 327687, 37, 0, 327688, 37, 0, 327689, 37, 0, 327690, 37, 0, 327691, 37, 0, 327692, 37, 0, 327693, 37, 0, 327694, 37, 0, 327695, 37, 0, 327696, 37, 0, 327697, 37, 0, 327698, 37, 0, 327699, 37, 0, 327700, 37, 0, 327701, 37, 0, 327702, 37, 0, 327703, 37, 0, 327704, 37, 0, 327705, 37, 0, 327706, 37, 0, 327707, 37, 0, 327708, 37, 0, 327709, 37, 0, 327710, 37, 0, 327711, 37, 0, 327712, 37, 0, 393224, 37, 0, 393225, 37, 0, 393226, 37, 0, 393227, 37, 0, 393228, 37, 0, 393229, 37, 0, 393230, 37, 0, 393231, 37, 0, 393232, 37, 0, 393233, 37, 0, 393234, 37, 0, 393235, 37, 0, 393236, 37, 0, 393237, 37, 0, 393238, 37, 0, 393239, 37, 0, 393240, 37, 0, 393241, 37, 0, 393242, 37, 0, 393243, 37, 0, 393244, 37, 0, 393245, 37, 0, 393246, 37, 0, 393247, 37, 0, 393248, 37, 0, 458756, 27, 0, 458763, 37, 0, 458764, 37, 0, 458765, 37, 0, 458766, 37, 0, 458767, 37, 0, 458768, 37, 0, 458769, 37, 0, 458770, 37, 0, 458771, 37, 0, 458772, 37, 0, 458773, 37, 0, 458774, 37, 0, 458775, 37, 0, 458776, 37, 0, 458777, 37, 0, 458778, 37, 0, 458779, 37, 0, 458780, 37, 0, 458781, 37, 0, 524292, 27, 0, 524304, 37, 0, 524305, 37, 0, 524306, 37, 0, 524307, 37, 0, 524308, 37, 0, 524309, 37, 0, 524310, 37, 0, 524311, 37, 0, 524312, 37, 0, 524314, 27, 0, 524315, 27, 0, 524316, 27, 0, 524317, 27, 0, 589828, 27, 0, 589834, 536870941, 0, 589835, 536870941, 0, 589836, 536870941, 0, 589837, 536870941, 0, 589850, 27, 0, 589851, 27, 0, 589852, 27, 0, 589853, 27, 0, 655362, 536870941, 0, 655363, 536870941, 0, 655364, 536870941, 0, 655365, 536870941, 0, 655366, 536870941, 0, 655370, 536870941, 0, 655371, 536870941, 0, 655372, 536870941, 0, 655373, 536870941, 0, 655386, 27, 0, 655387, 27, 0, 655388, 27, 0, 655389, 27, 0, 720898, 536870941, 0, 720899, 536870941, 0, 720900, 536870941, 0, 720901, 536870941, 0, 720902, 536870941, 0, 720906, 536870941, 0, 720907, 536870941, 0, 720908, 536870941, 0, 720909, 536870941, 0, 720922, 536870941, 0, 720923, 536870941, 0, 720924, 536870941, 0, 720925, 536870941, 0, 786434, 536870941, 0, 786435, 536870941, 0, 786436, 536870941, 0, 786437, 536870941, 0, 786438, 536870941, 0, 786442, 536870941, 0, 786443, 27, 0, 786444, 27, 0, 786445, 27, 0, 786446, 27, 0, 786458, 536870941, 0, 786459, 536870941, 0, 786460, 536870941, 0, 786461, 536870941, 0, 851970, 536870941, 0, 851971, 536870941, 0, 851972, 536870941, 0, 851973, 536870941, 0, 851974, 536870941, 0, 851979, 27, 0, 851980, 27, 0, 851981, 27, 0, 851982, 27, 0, 851985, 536870941, 0, 851986, 536870941, 0, 851987, 536870941, 0, 851988, 536870941, 0, 851989, 536870941, 0, 851994, 536870941, 0, 851995, 536870941, 0, 851996, 536870941, 0, 851997, 536870941, 0, 851999, 536870941, 0, 852000, 536870941, 0, 917515, 27, 0, 917516, 27, 0, 917517, 27, 0, 917518, 27, 0, 917521, 536870941, 0, 917522, 536870941, 0, 917523, 536870941, 0, 917524, 536870941, 0, 917525, 536870941, 0, 917535, 536870941, 0, 917536, 536870941, 0, 983040, 27, 0, 983041, 27, 0, 983042, 27, 0, 983043, 27, 0, 983051, 536870941, 0, 983052, 536870941, 0, 983053, 536870941, 0, 983054, 536870941, 0, 983057, 536870941, 0, 983058, 536870941, 0, 983059, 536870941, 0, 983060, 536870941, 0, 983061, 536870941, 0, 983071, 536870941, 0, 983072, 536870941, 0, 1048576, 27, 0, 1048577, 27, 0, 1048578, 27, 0, 1048579, 27, 0, 1048587, 536870941, 0, 1048588, 27, 0, 1048589, 27, 0, 1048590, 536870941, 0, 1048593, 536870941, 0, 1048594, 536870941, 0, 1048595, 536870941, 0, 1048596, 536870941, 0, 1048597, 536870941, 0, 1048601, 536870941, 0, 1048602, 536870941, 0, 1048603, 536870941, 0, 1048604, 536870941, 0, 1048605, 536870941, 0, 1048607, 536870941, 0, 1048608, 536870941, 0, 1114112, 27, 0, 1114113, 27, 0, 1114114, 27, 0, 1114115, 27, 0, 1114123, 536870941, 0, 1114124, 536870941, 0, 1114125, 536870941, 0, 1114126, 536870941, 0, 1114137, 536870941, 0, 1114138, 536870941, 0, 1114139, 536870941, 0, 1114140, 536870941, 0, 1114141, 536870941, 0, 1179648, 536870941, 0, 1179649, 536870941, 0, 1179650, 536870941, 0, 1179651, 536870941, 0, 1179668, 536870941, 0, 1179669, 536870941, 0, 1179670, 536870941, 0, 1179671, 536870941, 0, 1179673, 536870941, 0, 1179674, 536870941, 0, 1179675, 536870941, 0, 1179676, 536870941, 0, 1179677, 536870941, 0, 1245184, 536870941, 0, 1245185, 536870941, 0, 1245186, 536870941, 0, 1245187, 536870941, 0, 1245190, 536870941, 0, 1245191, 536870941, 0, 1245192, 536870941, 0, 1245193, 536870941, 0, 1245194, 536870941, 0, 1245195, 536870941, 0, 1245196, 536870941, 0, 1245197, 536870941, 0, 1245198, 536870941, 0, 1245199, 536870941, 0, 1245204, 536870941, 0, 1245205, 536870941, 0, 1245206, 536870941, 0, 1245207, 536870941, 0, 1245209, 536870941, 0, 1245210, 536870941, 0, 1245213, 536870941, 0, 1310720, 536870941, 0, 1310721, 536870941, 0, 1310722, 536870941, 0, 1310723, 536870941, 0, 1310726, 536870941, 0, 1310727, 536870941, 0, 1310728, 536870941, 0, 1310729, 536870941, 0, 1310730, 536870941, 0, 1310731, 536870941, 0, 1310732, 536870941, 0, 1310733, 536870941, 0, 1310734, 536870941, 0, 1310735, 536870941, 0, 1310740, 536870941, 0, 1310741, 536870941, 0, 1310742, 536870941, 0, 1310743, 536870941, 0, 1376262, 536870941, 0, 1376263, 536870941, 0, 1376264, 536870941, 0, 1376265, 536870941, 0, 1376266, 536870941, 0, 1376267, 536870941, 0, 1376268, 536870941, 0, 1376269, 536870941, 0, 1376270, 536870941, 0, 1376271, 536870941, 0, 1376276, 536870941, 0, 1376277, 536870941, 0, 1376278, 536870941, 0, 1376279, 536870941, 0, 1441798, 536870941, 0, 1441799, 536870941, 0, 1441800, 536870941, 0, 1441801, 536870941, 0, 1441802, 536870941, 0, 1441803, 536870941, 0, 1441804, 536870941, 0, 1441807, 536870941, 0 )

[node name="MainDetail" type="TileMap" parent="."]
tile_set = ExtResource( 1 )
format = 1
tile_data = PoolIntArray( -1, 536870917, 0, -65535, 5, 0, -65533, 5, 0, 65535, 536870917, 0, 1, 5, 0, 3, 5, 0, 8, 536870965, 0, 9, 536870965, 0, 10, 536870965, 0, 11, 536870941, 0, 12, 536870941, 0, 13, 536870941, 0, 14, 536870941, 0, 15, 536870941, 0, 16, 536870941, 0, 17, 536870941, 0, 18, 536870941, 0, 19, 536870941, 0, 20, 536870941, 0, 21, 536870941, 0, 22, 536870941, 0, 23, 536870941, 0, 24, 536870941, 0, 25, 536870941, 0, 26, 536870941, 0, 27, 536870941, 0, 28, 536870941, 0, 29, 536870959, 0, 30, 536870965, 0, 31, 536870965, 0, 32, 536870965, 0, 65539, 5, 0, 65545, 536870987, 0, 65547, 536870965, 0, 65548, 536870965, 0, 65549, 536870965, 0, 65550, 536870965, 0, 65551, 536870965, 0, 65552, 536870941, 0, 65553, 536870941, 0, 65554, 536870941, 0, 65555, 536870941, 0, 65556, 536870941, 0, 65557, 536870941, 0, 65558, 536870941, 0, 65559, 536870941, 0, 65560, 536870959, 0, 65561, 536870965, 0, 65562, 536870965, 0, 65563, 536870965, 0, 65564, 536870965, 0, 65565, 536870965, 0, 65567, 536870987, 0, 131072, 43, 0, 131073, 43, 0, 131074, 43, 0, 131081, 536870942, 0, 131084, 536870987, 0, 131086, 536870987, 0, 131088, 536870965, 0, 131089, 536870965, 0, 131090, 536870965, 0, 131091, 536870965, 0, 131092, 536870965, 0, 131093, 536870965, 0, 131094, 536870965, 0, 131095, 536870965, 0, 131096, 536870965, 0, 131098, 536870987, 0, 131100, 536870987, 0, 131103, 536870942, 0, 196610, 43, 0, 196611, 43, 0, 196612, 536870954, 0, 196615, 536870965, 0, 196617, 536870942, 0, 196620, 536870942, 0, 196622, 536870942, 0, 196625, 75, 0, 196627, 75, 0, 196629, 75, 0, 196631, 75, 0, 196634, 536870942, 0, 196636, 536870942, 0, 262148, 536870954, 0, 262152, 536870965, 0, 262153, 536870965, 0, 262154, 536870965, 0, 262156, 536870942, 0, 262158, 536870942, 0, 262161, 536870942, 0, 262163, 536870942, 0, 262165, 536870942, 0, 262167, 536870942, 0, 262170, 536870942, 0, 262172, 536870942, 0, 262174, 536870965, 0, 262175, 536870965, 0, 262176, 536870965, 0, 327689, 536870987, 0, 327691, 536870965, 0, 327692, 536870965, 0, 327693, 536870965, 0, 327694, 536870965, 0, 327695, 536870965, 0, 327697, 536870942, 0, 327699, 536870942, 0, 327701, 536870942, 0, 327703, 536870942, 0, 327705, 536870965, 0, 327706, 536870965, 0, 327707, 536870965, 0, 327708, 536870965, 0, 327709, 536870965, 0, 327711, 536870987, 0, 393225, 536870942, 0, 393228, 536870987, 0, 393230, 536870987, 0, 393232, 536870965, 0, 393233, 536870965, 0, 393234, 536870965, 0, 393235, 536870965, 0, 393236, 536870965, 0, 393237, 536870965, 0, 393238, 536870965, 0, 393239, 536870965, 0, 393240, 536870965, 0, 393242, 536870987, 0, 393244, 536870987, 0, 393247, 536870942, 0, 458754, 536870917, 0, 458757, 5, 0, 458762, 536870959, 0, 458764, 536870942, 0, 458766, 536870942, 0, 458769, 75, 0, 458771, 536870985, 0, 458772, 536870942, 0, 458773, 73, 0, 458775, 75, 0, 458778, 536870942, 0, 458780, 536870942, 0, 524290, 536870917, 0, 524293, 5, 0, 524305, 536870942, 0, 524308, 536870942, 0, 524311, 536870942, 0, 589826, 536870917, 0, 589829, 5, 0, 589834, 536870917, 0, 589836, 5, 0, 589855, 536870917, 0, 655391, 536870917, 0, 720898, 42, 0, 720899, 43, 0, 720901, 43, 0, 720902, 536870954, 0, 720906, 42, 0, 720907, 43, 0, 720908, 43, 0, 720909, 536870954, 0, 720913, 27, 0, 720914, 27, 0, 720915, 27, 0, 720916, 27, 0, 720917, 27, 0, 720922, 42, 0, 720923, 43, 0, 720924, 43, 0, 720925, 536870954, 0, 720927, 536870917, 0, 786434, 42, 0, 786435, 43, 0, 786437, 43, 0, 786438, 536870954, 0, 786442, 42, 0, 786449, 27, 0, 786450, 27, 0, 786451, 27, 0, 786452, 27, 0, 786453, 27, 0, 786458, 42, 0, 786459, 43, 0, 786460, 43, 0, 786461, 536870954, 0, 786463, 536870917, 0, 851970, 42, 0, 851972, 76, 0, 851974, 536870954, 0, 851985, 27, 0, 851986, 27, 0, 851987, 27, 0, 851988, 27, 0, 851989, 27, 0, 851994, 42, 0, 851997, 536870954, 0, 851999, 536870917, 0, 917521, 42, 0, 917523, 43, 0, 917524, 536870917, 0, 917526, 5, 0, 917529, 27, 0, 917530, 27, 0, 917531, 27, 0, 917532, 27, 0, 917533, 27, 0, 983051, 42, 0, 983054, 536870954, 0, 983057, 42, 0, 983058, 43, 0, 983060, 536870917, 0, 983062, 5, 0, 983065, 27, 0, 983066, 27, 0, 983067, 27, 0, 983068, 27, 0, 983069, 27, 0, 983071, 42, 0, 983072, 43, 0, 1048582, 27, 0, 1048583, 27, 0, 1048584, 27, 0, 1048585, 27, 0, 1048586, 27, 0, 1048587, 27, 0, 1048588, 536870917, 0, 1048590, 5, 0, 1048593, 42, 0, 1048595, 43, 0, 1048596, 536870917, 0, 1048598, 5, 0, 1048601, 27, 0, 1048602, 27, 0, 1048603, 27, 0, 1048604, 27, 0, 1048605, 27, 0, 1048607, 42, 0, 1114118, 27, 0, 1114119, 27, 0, 1114120, 27, 0, 1114121, 27, 0, 1114122, 27, 0, 1114123, 27, 0, 1114124, 536870917, 0, 1114126, 5, 0, 1114132, 536870917, 0, 1114134, 5, 0, 1114137, 42, 0, 1114139, 43, 0, 1114141, 536870954, 0, 1179648, 43, 0, 1179650, 536870958, 0, 1179651, 536870954, 0, 1179654, 27, 0, 1179655, 27, 0, 1179656, 27, 0, 1179657, 27, 0, 1179658, 27, 0, 1179659, 27, 0, 1179660, 536870917, 0, 1179662, 5, 0, 1179673, 42, 0, 1179674, 43, 0, 1179676, 43, 0, 1179677, 536870954, 0, 1245185, 43, 0, 1245186, 536870958, 0, 1245187, 536870954, 0, 1245190, 27, 0, 1245191, 27, 0, 1245192, 27, 0, 1245193, 27, 0, 1245194, 27, 0, 1245195, 27, 0, 1245204, 42, 0, 1245205, 43, 0, 1245206, 43, 0, 1245207, 536870954, 0, 1245209, 42, 0, 1245211, 43, 0, 1245213, 536870954, 0, 1310720, 43, 0, 1310722, 536870958, 0, 1310723, 536870954, 0, 1310726, 42, 0, 1310728, 69, 0, 1310730, 536870958, 0, 1310732, 42, 0, 1310733, 43, 0, 1310734, 43, 0, 1310735, 536870954, 0, 1310740, 42, 0, 1310741, 43, 0, 1310742, 43, 0, 1310743, 536870954, 0, 1376258, 536870958, 0, 1376262, 42, 0, 1376266, 536870958, 0, 1376268, 42, 0, 1376271, 536870954, 0, 1376276, 42, 0, 1376279, 536870954, 0, 1441802, 536870958, 0, 1441804, 42, 0, 1441807, 536870954, 0 )

[node name="MainOverlay" type="TileMap" parent="."]
tile_set = ExtResource( 1 )
format = 1
tile_data = PoolIntArray( 7, 536870959, 0, 10, 536870959, 0, 11, 536870965, 0, 12, 536870965, 0, 13, 536870965, 0, 14, 536870965, 0, 15, 536870965, 0, 25, 536870965, 0, 26, 536870965, 0, 27, 536870965, 0, 28, 536870965, 0, 29, 536870965, 0, 65536, 46, 0, 65543, 536870959, 0, 65546, 536870959, 0, 65551, 536870959, 0, 65552, 536870965, 0, 65553, 536870965, 0, 65554, 536870965, 0, 65555, 536870965, 0, 65556, 536870965, 0, 65557, 536870965, 0, 65558, 536870965, 0, 65559, 536870965, 0, 65560, 536870965, 0, 65565, 536870959, 0, 131072, 46, 0, 131079, 536870959, 0, 131082, 536870959, 0, 131087, 536870959, 0, 131096, 536870959, 0, 131101, 536870959, 0, 196608, 46, 0, 196615, 536870959, 0, 196618, 536870959, 0, 196623, 536870959, 0, 196632, 536870959, 0, 196637, 536870959, 0, 262151, 536870959, 0, 262154, 536870959, 0, 262159, 536870959, 0, 262168, 536870959, 0, 262173, 536870959, 0, 327687, 536870959, 0, 327690, 536870959, 0, 327695, 536870959, 0, 327704, 536870959, 0, 327709, 536870959, 0, 393223, 536870959, 0, 393226, 536870959, 0, 393231, 536870959, 0, 393240, 536870959, 0, 393245, 536870959, 0, 458762, 536870917, 0, 458764, 5, 0, 458767, 536870959, 0, 458776, 536870959, 0, 458781, 536870959, 0, 524298, 536870917, 0, 524300, 5, 0, 524303, 536870959, 0, 524312, 536870959, 0, 655371, 46, 0, 720907, 46, 0, 720922, 46, 0, 720924, 46, 0, 786458, 46, 0, 786460, 46, 0, 851994, 46, 0, 851996, 46, 0, 917521, 46, 0, 983051, 46, 0, 983053, 46, 0, 983057, 46, 0, 1048593, 46, 0, 1114129, 46, 0, 1114137, 46, 0, 1114140, 46, 0, 1179673, 46, 0, 1179676, 46, 0, 1245209, 46, 0, 1245212, 46, 0, 1310726, 536870958, 0, 1310728, 82, 0, 1310745, 46, 0, 1310748, 46, 0, 1376262, 536870958, 0, 1441798, 536870958, 0 )

[node name="collision" type="TileMap" parent="."]
visible = false
tile_set = ExtResource( 9 )
format = 1
tile_data = PoolIntArray( 4, 0, 0, 7, 0, 0, 65540, 0, 0, 65543, 0, 0, 131076, 0, 0, 131079, 0, 0, 196612, 0, 0, 196615, 0, 0, 262148, 0, 0, 262151, 0, 0, 327680, 0, 0, 327681, 0, 0, 327682, 0, 0, 327683, 0, 0, 327684, 0, 0, 327687, 0, 0, 393223, 0, 0, 393224, 0, 0, 393225, 0, 0, 393226, 0, 0, 393246, 0, 0, 393247, 0, 0, 393248, 0, 0, 458760, 0, 0, 458761, 0, 0, 458762, 0, 0, 458763, 0, 0, 458764, 0, 0, 458765, 0, 0, 458766, 0, 0, 458767, 0, 0, 458777, 0, 0, 458778, 0, 0, 458779, 0, 0, 458780, 0, 0, 458781, 0, 0, 458782, 0, 0, 458783, 0, 0, 458784, 0, 0, 524299, 0, 0, 524300, 0, 0, 524301, 0, 0, 524302, 0, 0, 524303, 0, 0, 524304, 0, 0, 524305, 0, 0, 524306, 0, 0, 524307, 0, 0, 524308, 0, 0, 524309, 0, 0, 524310, 0, 0, 524312, 0, 0, 524313, 0, 0, 524314, 0, 0, 524315, 0, 0, 524316, 0, 0, 524317, 0, 0, 589840, 0, 0, 589841, 0, 0, 589842, 0, 0, 589846, 0, 0, 589847, 0, 0, 589848, 0, 0, 655370, 0, 0, 655371, 0, 0, 655372, 0, 0, 655373, 0, 0, 720898, 0, 0, 720899, 0, 0, 720900, 0, 0, 720901, 0, 0, 720902, 0, 0, 720906, 0, 0, 720909, 0, 0, 720922, 0, 0, 720923, 0, 0, 720924, 0, 0, 720925, 0, 0, 720927, 0, 0, 720928, 0, 0, 786434, 0, 0, 786438, 0, 0, 786442, 0, 0, 786445, 0, 0, 786458, 0, 0, 786461, 0, 0, 786463, 0, 0, 851970, 0, 0, 851974, 0, 0, 851978, 0, 0, 851979, 0, 0, 851980, 0, 0, 851981, 0, 0, 851994, 0, 0, 851997, 0, 0, 851999, 0, 0, 917506, 0, 0, 917507, 0, 0, 917508, 0, 0, 917509, 0, 0, 917510, 0, 0, 917515, 0, 0, 917518, 0, 0, 917521, 0, 0, 917522, 0, 0, 917523, 0, 0, 917524, 0, 0, 917525, 0, 0, 917530, 0, 0, 917531, 0, 0, 917532, 0, 0, 917533, 0, 0, 917535, 0, 0, 983051, 0, 0, 983054, 0, 0, 983057, 0, 0, 983061, 0, 0, 983071, 0, 0, 1048587, 0, 0, 1048590, 0, 0, 1048593, 0, 0, 1048597, 0, 0, 1048598, 0, 0, 1048599, 0, 0, 1048607, 0, 0, 1114112, 0, 0, 1114113, 0, 0, 1114114, 0, 0, 1114115, 0, 0, 1114118, 0, 0, 1114119, 0, 0, 1114120, 0, 0, 1114121, 0, 0, 1114122, 0, 0, 1114123, 0, 0, 1114124, 0, 0, 1114125, 0, 0, 1114126, 0, 0, 1114127, 0, 0, 1114129, 0, 0, 1114130, 0, 0, 1114131, 0, 0, 1114132, 0, 0, 1114133, 0, 0, 1114135, 0, 0, 1114137, 0, 0, 1114138, 0, 0, 1114139, 0, 0, 1114140, 0, 0, 1114141, 0, 0, 1114143, 0, 0, 1114144, 0, 0, 1179651, 0, 0, 1179654, 0, 0, 1179663, 0, 0, 1179668, 0, 0, 1179671, 0, 0, 1179673, 0, 0, 1179677, 0, 0, 1245187, 0, 0, 1245190, 0, 0, 1245199, 0, 0, 1245204, 0, 0, 1245207, 0, 0, 1245209, 0, 0, 1245210, 0, 0, 1245211, 0, 0, 1245212, 0, 0, 1245213, 0, 0, 1310723, 0, 0, 1310726, 0, 0, 1310735, 0, 0, 1310740, 0, 0, 1310743, 0, 0, 1310745, 0, 0, 1310746, 0, 0, 1310748, 0, 0, 1310749, 0, 0, 1376256, 0, 0, 1376257, 0, 0, 1376258, 0, 0, 1376259, 0, 0, 1376262, 0, 0, 1376271, 0, 0, 1376276, 0, 0, 1376279, 0, 0, 1441798, 0, 0, 1441799, 0, 0, 1441800, 0, 0, 1441801, 0, 0, 1441802, 0, 0, 1441803, 0, 0, 1441804, 0, 0, 1441805, 0, 0, 1441806, 0, 0, 1441807, 0, 0, 1441812, 0, 0, 1441813, 0, 0, 1441814, 0, 0, 1441815, 0, 0, 1507340, 0, 0, 1507343, 0, 0, 1900544, 0, 0, 1900571, 0, 0, 1900572, 0, 0, 1900575, 0, 0, 1900576, 0, 0, 1966080, 0, 0, 1966081, 0, 0, 1966082, 0, 0, 1966083, 0, 0, 1966104, 0, 0, 1966105, 0, 0, 1966106, 0, 0, 1966107, 0, 0, 1966108, 0, 0, 1966109, 0, 0, 1966110, 0, 0, 1966111, 0, 0, 1966112, 0, 0, 2031619, 0, 0, 2031620, 0, 0, 2031621, 0, 0, 2031622, 0, 0, 2031623, 0, 0, 2031635, 0, 0, 2031636, 0, 0, 2031637, 0, 0, 2031638, 0, 0, 2031639, 0, 0, 2031640, 0, 0, 2097159, 0, 0, 2097160, 0, 0, 2097161, 0, 0, 2097162, 0, 0, 2097163, 0, 0, 2097164, 0, 0, 2097165, 0, 0, 2097166, 0, 0, 2097167, 0, 0, 2097168, 0, 0, 2097169, 0, 0, 2097170, 0, 0, 2097171, 0, 0 )
