[gd_scene load_steps=14 format=2]

[ext_resource path="res://tilesets/items.tres" type="TileSet" id=1]
[ext_resource path="res://tilesets/floor.tres" type="TileSet" id=2]
[ext_resource path="res://object/player.tscn" type="PackedScene" id=3]
[ext_resource path="res://scenarios/scenario.gd" type="Script" id=4]
[ext_resource path="res://object/human.tscn" type="PackedScene" id=5]
[ext_resource path="res://object/npc.gd" type="Script" id=6]
[ext_resource path="res://object/npc.tscn" type="PackedScene" id=7]
[ext_resource path="res://object/door.tscn" type="PackedScene" id=8]
[ext_resource path="res://tilesets/mask.tres" type="TileSet" id=9]
[ext_resource path="res://object/path.gd" type="Script" id=10]

[sub_resource type="RectangleShape2D" id=1]
extents = Vector2( 32, 32 )

[sub_resource type="CircleShape2D" id=2]
radius = 45.4009

[sub_resource type="Curve2D" id=3]
_data = {
"points": PoolVector2Array( 0, 0, 0, 0, 1024, 2464, 0, 0, 0, 0, 2176, 2464, 0, 0, 0, 0, 1024, 2464 )
}

[node name="overworld" type="Node2D"]
script = ExtResource( 4 )

[node name="Floor" type="TileMap" parent="."]
tile_set = ExtResource( 2 )
format = 1
tile_data = PoolIntArray( 0, 536870925, 0, 1, 536870925, 0, 2, 536870925, 0, 3, 536870925, 0, 4, 536870925, 0, 5, 536870925, 0, 6, 536870925, 0, 7, 536870925, 0, 8, 536870925, 0, 9, 536870925, 0, 10, 536870925, 0, 11, 536870925, 0, 12, 536870925, 0, 13, 536870925, 0, 14, 536870925, 0, 15, 536870925, 0, 16, 536870925, 0, 17, 536870925, 0, 18, 536870925, 0, 19, 536870925, 0, 20, 536870925, 0, 21, 536870925, 0, 22, 536870925, 0, 23, 536870925, 0, 24, 536870925, 0, 25, 536870925, 0, 26, 536870925, 0, 27, 536870925, 0, 28, 536870925, 0, 29, 536870925, 0, 30, 536870926, 0, 31, 536870926, 0, 32, 536870925, 0, 33, 536870925, 0, 34, 536870925, 0, 35, 536870925, 0, 36, 536870925, 0, 37, 536870925, 0, 38, 536870925, 0, 39, 536870925, 0, 40, 536870925, 0, 65536, 536870925, 0, 65537, 536870925, 0, 65538, 536870925, 0, 65539, 536870925, 0, 65540, 536870925, 0, 65541, 536870925, 0, 65542, 536870925, 0, 65543, 536870925, 0, 65544, 536870926, 0, 65545, 536870926, 0, 65546, 536870926, 0, 65547, 536870926, 0, 65548, 536870926, 0, 65549, 536870926, 0, 65550, 536870926, 0, 65551, 536870926, 0, 65552, 536870926, 0, 65553, 536870926, 0, 65554, 536870926, 0, 65555, 536870926, 0, 65556, 536870926, 0, 65557, 536870926, 0, 65558, 536870926, 0, 65559, 536870926, 0, 65560, 536870926, 0, 65561, 536870925, 0, 65562, 536870926, 0, 65563, 536870926, 0, 65564, 536870926, 0, 65565, 536870926, 0, 65566, 536870926, 0, 65567, 536870926, 0, 65568, 536870926, 0, 65569, 536870925, 0, 65570, 536870926, 0, 65571, 536870926, 0, 65572, 536870926, 0, 65573, 536870926, 0, 65574, 536870926, 0, 65575, 536870926, 0, 65576, 536870925, 0, 131072, 536870925, 0, 131073, 536870925, 0, 131074, 536870925, 0, 131075, 536870925, 0, 131076, 536870925, 0, 131077, 536870925, 0, 131078, 536870925, 0, 131079, 536870925, 0, 131080, 536870926, 0, 131081, 536870926, 0, 131082, 536870925, 0, 131083, 536870925, 0, 131084, 536870925, 0, 131085, 536870925, 0, 131086, 536870925, 0, 131087, 536870925, 0, 131088, 536870925, 0, 131089, 536870925, 0, 131090, 536870925, 0, 131091, 536870925, 0, 131092, 536870925, 0, 131093, 536870925, 0, 131094, 536870926, 0, 131095, 536870926, 0, 131096, 536870926, 0, 131097, 536870926, 0, 131098, 536870926, 0, 131099, 536870926, 0, 131100, 536870926, 0, 131101, 536870926, 0, 131102, 536870926, 0, 131103, 536870926, 0, 131104, 536870926, 0, 131105, 536870925, 0, 131106, 536870926, 0, 131107, 536870926, 0, 131108, 536870925, 0, 131109, 536870925, 0, 131110, 536870926, 0, 131111, 536870926, 0, 131112, 536870925, 0, 196608, 536870925, 0, 196609, 536870926, 0, 196610, 536870926, 0, 196611, 536870926, 0, 196612, 536870926, 0, 196613, 536870926, 0, 196614, 536870926, 0, 196615, 536870926, 0, 196616, 536870926, 0, 196617, 536870926, 0, 196618, 536870925, 0, 196619, 536870925, 0, 196620, 536870925, 0, 196621, 536870925, 0, 196622, 536870925, 0, 196623, 536870925, 0, 196624, 536870925, 0, 196625, 536870925, 0, 196626, 536870925, 0, 196627, 536870925, 0, 196628, 536870925, 0, 196629, 536870925, 0, 196630, 536870926, 0, 196631, 536870926, 0, 196632, 536870926, 0, 196633, 536870925, 0, 196634, 536870926, 0, 196635, 536870926, 0, 196636, 536870926, 0, 196637, 536870926, 0, 196638, 536870926, 0, 196639, 536870926, 0, 196640, 536870926, 0, 196641, 536870925, 0, 196642, 536870926, 0, 196643, 536870926, 0, 196644, 536870925, 0, 196645, 536870925, 0, 196646, 536870926, 0, 196647, 536870926, 0, 196648, 536870925, 0, 262144, 536870925, 0, 262145, 536870926, 0, 262146, 536870926, 0, 262147, 536870925, 0, 262148, 536870925, 0, 262149, 536870925, 0, 262150, 536870925, 0, 262151, 536870925, 0, 262152, 536870926, 0, 262153, 536870926, 0, 262154, 536870925, 0, 262155, 536870926, 0, 262156, 536870926, 0, 262157, 536870926, 0, 262158, 536870926, 0, 262159, 536870926, 0, 262160, 536870926, 0, 262161, 536870926, 0, 262162, 536870926, 0, 262163, 536870926, 0, 262164, 536870926, 0, 262165, 536870925, 0, 262166, 536870926, 0, 262167, 536870926, 0, 262168, 536870926, 0, 262169, 536870925, 0, 262170, 536870925, 0, 262171, 536870925, 0, 262172, 536870925, 0, 262173, 536870925, 0, 262174, 536870925, 0, 262175, 536870925, 0, 262176, 536870925, 0, 262177, 536870925, 0, 262178, 536870926, 0, 262179, 536870926, 0, 262180, 536870925, 0, 262181, 536870925, 0, 262182, 536870926, 0, 262183, 536870926, 0, 262184, 536870925, 0, 327680, 536870925, 0, 327681, 536870926, 0, 327682, 536870926, 0, 327683, 536870925, 0, 327684, 536870925, 0, 327685, 536870925, 0, 327686, 536870925, 0, 327687, 536870925, 0, 327688, 536870926, 0, 327689, 536870926, 0, 327690, 536870925, 0, 327691, 536870926, 0, 327692, 536870926, 0, 327693, 536870926, 0, 327694, 536870926, 0, 327695, 536870926, 0, 327696, 536870926, 0, 327697, 536870926, 0, 327698, 536870926, 0, 327699, 536870926, 0, 327700, 536870926, 0, 327701, 536870925, 0, 327702, 536870926, 0, 327703, 536870926, 0, 327704, 536870926, 0, 327705, 536870925, 0, 327706, 536870925, 0, 327707, 536870925, 0, 327708, 536870925, 0, 327709, 536870925, 0, 327710, 536870925, 0, 327711, 536870925, 0, 327712, 536870925, 0, 327713, 536870925, 0, 327714, 536870926, 0, 327715, 536870926, 0, 327716, 536870925, 0, 327717, 536870925, 0, 327718, 536870926, 0, 327719, 536870926, 0, 327720, 536870925, 0, 393216, 536870925, 0, 393217, 536870926, 0, 393218, 536870926, 0, 393219, 536870925, 0, 393220, 536870925, 0, 393221, 536870925, 0, 393222, 536870925, 0, 393223, 536870925, 0, 393224, 536870926, 0, 393225, 536870926, 0, 393226, 536870925, 0, 393227, 536870926, 0, 393228, 536870926, 0, 393229, 536870925, 0, 393230, 536870925, 0, 393231, 536870925, 0, 393232, 536870925, 0, 393233, 536870925, 0, 393234, 536870925, 0, 393235, 536870926, 0, 393236, 536870926, 0, 393237, 536870925, 0, 393238, 536870926, 0, 393239, 536870926, 0, 393240, 536870926, 0, 393241, 536870926, 0, 393242, 536870926, 0, 393243, 536870926, 0, 393244, 536870926, 0, 393245, 536870926, 0, 393246, 536870926, 0, 393247, 536870926, 0, 393248, 536870926, 0, 393249, 536870926, 0, 393250, 536870926, 0, 393251, 536870926, 0, 393252, 536870925, 0, 393253, 536870925, 0, 393254, 536870926, 0, 393255, 536870926, 0, 393256, 536870925, 0, 458752, 536870925, 0, 458753, 536870926, 0, 458754, 536870926, 0, 458755, 536870925, 0, 458756, 536870925, 0, 458757, 536870925, 0, 458758, 536870925, 0, 458759, 536870925, 0, 458760, 536870926, 0, 458761, 536870926, 0, 458762, 536870925, 0, 458763, 536870926, 0, 458764, 536870926, 0, 458765, 536870925, 0, 458766, 536870925, 0, 458767, 536870925, 0, 458768, 536870925, 0, 458769, 536870925, 0, 458770, 536870925, 0, 458771, 536870926, 0, 458772, 536870926, 0, 458773, 536870925, 0, 458774, 536870925, 0, 458775, 536870925, 0, 458776, 536870925, 0, 458777, 536870925, 0, 458778, 536870925, 0, 458779, 536870925, 0, 458780, 536870925, 0, 458781, 536870925, 0, 458782, 536870925, 0, 458783, 536870925, 0, 458784, 536870925, 0, 458785, 536870925, 0, 458786, 536870925, 0, 458787, 536870925, 0, 458788, 536870925, 0, 458789, 536870925, 0, 458790, 536870926, 0, 458791, 536870926, 0, 458792, 536870925, 0, 524288, 536870925, 0, 524289, 536870926, 0, 524290, 536870926, 0, 524291, 536870925, 0, 524292, 536870925, 0, 524293, 536870925, 0, 524294, 536870925, 0, 524295, 536870925, 0, 524296, 536870926, 0, 524297, 536870926, 0, 524298, 536870925, 0, 524299, 536870926, 0, 524300, 536870926, 0, 524301, 536870925, 0, 524302, 536870925, 0, 524303, 536870925, 0, 524304, 536870925, 0, 524305, 536870925, 0, 524306, 536870925, 0, 524307, 536870926, 0, 524308, 536870926, 0, 524309, 536870925, 0, 524310, 536870925, 0, 524311, 536870925, 0, 524312, 536870925, 0, 524313, 536870925, 0, 524314, 536870925, 0, 524315, 536870925, 0, 524316, 536870925, 0, 524317, 536870925, 0, 524318, 536870925, 0, 524319, 536870925, 0, 524320, 536870925, 0, 524321, 536870925, 0, 524322, 536870925, 0, 524323, 536870925, 0, 524324, 536870925, 0, 524325, 536870925, 0, 524326, 536870926, 0, 524327, 536870926, 0, 524328, 536870925, 0, 589824, 536870925, 0, 589825, 536870926, 0, 589826, 536870926, 0, 589827, 536870925, 0, 589828, 536870925, 0, 589829, 536870925, 0, 589830, 536870925, 0, 589831, 536870925, 0, 589832, 536870926, 0, 589833, 536870926, 0, 589834, 536870925, 0, 589835, 536870926, 0, 589836, 536870926, 0, 589837, 536870925, 0, 589838, 536870925, 0, 589839, 536870925, 0, 589840, 536870925, 0, 589841, 536870925, 0, 589842, 536870925, 0, 589843, 536870926, 0, 589844, 536870926, 0, 589845, 536870925, 0, 589846, 536870925, 0, 589847, 536870925, 0, 589848, 536870925, 0, 589849, 536870925, 0, 589850, 536870925, 0, 589851, 536870925, 0, 589852, 536870925, 0, 589853, 536870925, 0, 589854, 536870925, 0, 589855, 536870925, 0, 589856, 536870925, 0, 589857, 536870925, 0, 589858, 536870925, 0, 589859, 536870925, 0, 589860, 536870925, 0, 589861, 536870925, 0, 589862, 536870926, 0, 589863, 536870926, 0, 589864, 536870925, 0, 655360, 536870925, 0, 655361, 536870926, 0, 655362, 536870926, 0, 655363, 536870925, 0, 655364, 536870925, 0, 655365, 536870925, 0, 655366, 536870925, 0, 655367, 536870925, 0, 655368, 536870926, 0, 655369, 536870926, 0, 655370, 536870925, 0, 655371, 536870926, 0, 655372, 536870926, 0, 655373, 536870926, 0, 655374, 536870926, 0, 655375, 536870926, 0, 655376, 536870926, 0, 655377, 536870926, 0, 655378, 536870926, 0, 655379, 536870926, 0, 655380, 536870926, 0, 655381, 536870925, 0, 655382, 536870925, 0, 655383, 536870925, 0, 655384, 536870925, 0, 655385, 536870925, 0, 655386, 536870925, 0, 655387, 536870925, 0, 655388, 536870925, 0, 655389, 536870925, 0, 655390, 536870925, 0, 655391, 536870925, 0, 655392, 536870925, 0, 655393, 536870925, 0, 655394, 536870926, 0, 655395, 536870926, 0, 655396, 536870926, 0, 655397, 536870926, 0, 655398, 536870926, 0, 655399, 536870926, 0, 655400, 536870925, 0, 720896, 536870925, 0, 720897, 536870926, 0, 720898, 536870926, 0, 720899, 536870925, 0, 720900, 536870925, 0, 720901, 536870925, 0, 720902, 536870925, 0, 720903, 536870925, 0, 720904, 536870926, 0, 720905, 536870926, 0, 720906, 536870925, 0, 720907, 536870926, 0, 720908, 536870926, 0, 720909, 536870926, 0, 720910, 536870926, 0, 720911, 536870926, 0, 720912, 536870926, 0, 720913, 536870926, 0, 720914, 536870926, 0, 720915, 536870926, 0, 720916, 536870926, 0, 720917, 536870925, 0, 720918, 536870925, 0, 720919, 536870925, 0, 720920, 536870925, 0, 720921, 536870925, 0, 720922, 536870925, 0, 720923, 536870925, 0, 720924, 536870925, 0, 720925, 536870925, 0, 720926, 536870925, 0, 720927, 536870925, 0, 720928, 536870925, 0, 720929, 536870925, 0, 720930, 536870926, 0, 720931, 536870926, 0, 720932, 536870925, 0, 720933, 536870925, 0, 720934, 536870925, 0, 720935, 536870925, 0, 720936, 536870925, 0, 786432, 536870925, 0, 786433, 536870926, 0, 786434, 536870926, 0, 786435, 536870925, 0, 786436, 536870925, 0, 786437, 536870925, 0, 786438, 536870925, 0, 786439, 536870925, 0, 786440, 536870926, 0, 786441, 536870926, 0, 786442, 536870925, 0, 786443, 536870925, 0, 786444, 536870925, 0, 786445, 536870925, 0, 786446, 536870925, 0, 786447, 536870926, 0, 786448, 536870926, 0, 786449, 536870925, 0, 786450, 536870925, 0, 786451, 536870925, 0, 786452, 536870925, 0, 786453, 536870925, 0, 786454, 536870925, 0, 786455, 536870925, 0, 786456, 536870925, 0, 786457, 536870925, 0, 786458, 536870925, 0, 786459, 536870925, 0, 786460, 536870925, 0, 786461, 536870925, 0, 786462, 536870925, 0, 786463, 536870925, 0, 786464, 536870925, 0, 786465, 536870925, 0, 786466, 536870926, 0, 786467, 536870926, 0, 786468, 536870925, 0, 786469, 536870925, 0, 786470, 536870925, 0, 786471, 536870925, 0, 786472, 536870925, 0, 851968, 536870925, 0, 851969, 536870926, 0, 851970, 536870926, 0, 851971, 536870925, 0, 851972, 536870925, 0, 851973, 536870925, 0, 851974, 536870925, 0, 851975, 536870925, 0, 851976, 536870926, 0, 851977, 536870926, 0, 851978, 536870925, 0, 851979, 536870925, 0, 851980, 536870925, 0, 851981, 536870925, 0, 851982, 536870925, 0, 851983, 536870926, 0, 851984, 536870926, 0, 851985, 536870925, 0, 851986, 536870925, 0, 851987, 536870925, 0, 851988, 536870925, 0, 851989, 536870925, 0, 851990, 536870925, 0, 851991, 536870925, 0, 851992, 536870925, 0, 851993, 536870925, 0, 851994, 536870925, 0, 851995, 536870925, 0, 851996, 536870925, 0, 851997, 536870925, 0, 851998, 536870925, 0, 851999, 536870925, 0, 852000, 536870925, 0, 852001, 536870925, 0, 852002, 536870926, 0, 852003, 536870926, 0, 852004, 536870925, 0, 852005, 536870925, 0, 852006, 536870925, 0, 852007, 536870925, 0, 852008, 536870925, 0, 917504, 536870925, 0, 917505, 536870926, 0, 917506, 536870926, 0, 917507, 536870925, 0, 917508, 536870925, 0, 917509, 536870925, 0, 917510, 536870925, 0, 917511, 536870925, 0, 917512, 536870926, 0, 917513, 536870926, 0, 917514, 536870925, 0, 917515, 536870925, 0, 917516, 536870925, 0, 917517, 536870925, 0, 917518, 536870925, 0, 917519, 536870926, 0, 917520, 536870926, 0, 917521, 536870925, 0, 917522, 536870925, 0, 917523, 536870925, 0, 917524, 536870925, 0, 917525, 536870925, 0, 917526, 536870925, 0, 917527, 536870925, 0, 917528, 536870925, 0, 917529, 536870925, 0, 917530, 536870925, 0, 917531, 536870925, 0, 917532, 536870925, 0, 917533, 536870925, 0, 917534, 536870925, 0, 917535, 536870925, 0, 917536, 536870925, 0, 917537, 536870925, 0, 917538, 536870926, 0, 917539, 536870926, 0, 917540, 536870925, 0, 917541, 536870925, 0, 917542, 536870925, 0, 917543, 536870925, 0, 917544, 536870925, 0, 983040, 536870925, 0, 983041, 536870926, 0, 983042, 536870926, 0, 983043, 536870925, 0, 983044, 536870925, 0, 983045, 536870925, 0, 983046, 536870925, 0, 983047, 536870925, 0, 983048, 536870926, 0, 983049, 536870926, 0, 983050, 536870925, 0, 983051, 536870925, 0, 983052, 536870925, 0, 983053, 536870925, 0, 983054, 536870925, 0, 983055, 536870926, 0, 983056, 536870926, 0, 983057, 536870925, 0, 983058, 536870925, 0, 983059, 536870925, 0, 983060, 536870925, 0, 983061, 536870925, 0, 983062, 536870925, 0, 983063, 536870925, 0, 983064, 536870925, 0, 983065, 536870925, 0, 983066, 536870925, 0, 983067, 536870925, 0, 983068, 536870925, 0, 983069, 536870925, 0, 983070, 536870925, 0, 983071, 536870925, 0, 983072, 536870925, 0, 983073, 536870925, 0, 983074, 536870926, 0, 983075, 536870926, 0, 983076, 536870925, 0, 983077, 536870925, 0, 983078, 536870925, 0, 983079, 536870925, 0, 983080, 536870925, 0, 1048576, 536870925, 0, 1048577, 536870926, 0, 1048578, 536870926, 0, 1048579, 536870925, 0, 1048580, 536870925, 0, 1048581, 536870925, 0, 1048582, 536870925, 0, 1048583, 536870925, 0, 1048584, 536870926, 0, 1048585, 536870926, 0, 1048586, 536870925, 0, 1048587, 536870925, 0, 1048588, 536870925, 0, 1048589, 536870925, 0, 1048590, 536870925, 0, 1048591, 536870926, 0, 1048592, 536870926, 0, 1048593, 536870925, 0, 1048594, 536870925, 0, 1048595, 536870925, 0, 1048596, 536870925, 0, 1048597, 536870925, 0, 1048598, 536870925, 0, 1048599, 536870925, 0, 1048600, 536870925, 0, 1048601, 536870925, 0, 1048602, 536870925, 0, 1048603, 536870925, 0, 1048604, 536870925, 0, 1048605, 536870925, 0, 1048606, 536870925, 0, 1048607, 536870925, 0, 1048608, 536870925, 0, 1048609, 536870925, 0, 1048610, 536870926, 0, 1048611, 536870926, 0, 1048612, 536870925, 0, 1048613, 536870925, 0, 1048614, 536870925, 0, 1048615, 536870925, 0, 1048616, 536870925, 0, 1114112, 536870925, 0, 1114113, 536870926, 0, 1114114, 536870926, 0, 1114115, 536870925, 0, 1114116, 536870925, 0, 1114117, 536870925, 0, 1114118, 536870925, 0, 1114119, 536870925, 0, 1114120, 536870926, 0, 1114121, 536870926, 0, 1114122, 536870925, 0, 1114123, 536870925, 0, 1114124, 536870925, 0, 1114125, 536870925, 0, 1114126, 536870925, 0, 1114127, 536870926, 0, 1114128, 536870926, 0, 1114129, 536870926, 0, 1114130, 536870926, 0, 1114131, 536870926, 0, 1114132, 536870926, 0, 1114133, 536870926, 0, 1114134, 536870926, 0, 1114135, 536870926, 0, 1114136, 536870926, 0, 1114137, 536870926, 0, 1114138, 536870926, 0, 1114139, 536870926, 0, 1114140, 536870926, 0, 1114141, 536870926, 0, 1114142, 536870926, 0, 1114143, 536870926, 0, 1114144, 536870926, 0, 1114145, 536870926, 0, 1114146, 536870926, 0, 1114147, 536870926, 0, 1114148, 536870925, 0, 1114149, 536870925, 0, 1114150, 536870925, 0, 1114151, 536870925, 0, 1114152, 536870925, 0, 1179648, 536870925, 0, 1179649, 536870926, 0, 1179650, 536870926, 0, 1179651, 536870925, 0, 1179652, 536870925, 0, 1179653, 536870925, 0, 1179654, 536870925, 0, 1179655, 536870925, 0, 1179656, 536870926, 0, 1179657, 536870926, 0, 1179658, 536870925, 0, 1179659, 536870925, 0, 1179660, 536870925, 0, 1179661, 536870925, 0, 1179662, 536870925, 0, 1179663, 536870926, 0, 1179664, 536870926, 0, 1179665, 536870926, 0, 1179666, 536870926, 0, 1179667, 536870926, 0, 1179668, 536870926, 0, 1179669, 536870926, 0, 1179670, 536870926, 0, 1179671, 536870926, 0, 1179672, 536870926, 0, 1179673, 536870926, 0, 1179674, 536870926, 0, 1179675, 536870926, 0, 1179676, 536870926, 0, 1179677, 536870926, 0, 1179678, 536870926, 0, 1179679, 536870926, 0, 1179680, 536870926, 0, 1179681, 536870926, 0, 1179682, 536870926, 0, 1179683, 536870926, 0, 1179684, 536870925, 0, 1179685, 536870925, 0, 1179686, 536870925, 0, 1179687, 536870925, 0, 1179688, 536870925, 0, 1245184, 536870925, 0, 1245185, 536870926, 0, 1245186, 536870926, 0, 1245187, 536870925, 0, 1245188, 536870925, 0, 1245189, 536870925, 0, 1245190, 536870925, 0, 1245191, 536870925, 0, 1245192, 536870926, 0, 1245193, 536870926, 0, 1245194, 536870925, 0, 1245195, 536870925, 0, 1245196, 536870925, 0, 1245197, 536870925, 0, 1245198, 536870925, 0, 1245199, 536870926, 0, 1245200, 536870926, 0, 1245201, 536870926, 0, 1245202, 536870926, 0, 1245203, 536870926, 0, 1245204, 536870926, 0, 1245205, 536870926, 0, 1245206, 536870926, 0, 1245207, 536870926, 0, 1245208, 536870926, 0, 1245209, 536870926, 0, 1245210, 536870926, 0, 1245211, 536870926, 0, 1245212, 536870926, 0, 1245213, 536870926, 0, 1245214, 536870926, 0, 1245215, 536870926, 0, 1245216, 536870926, 0, 1245217, 536870926, 0, 1245218, 536870926, 0, 1245219, 536870926, 0, 1245220, 536870925, 0, 1245221, 536870925, 0, 1245222, 536870925, 0, 1245223, 536870925, 0, 1245224, 536870925, 0, 1310720, 536870925, 0, 1310721, 536870926, 0, 1310722, 536870926, 0, 1310723, 536870925, 0, 1310724, 536870925, 0, 1310725, 536870925, 0, 1310726, 536870925, 0, 1310727, 536870925, 0, 1310728, 536870926, 0, 1310729, 536870926, 0, 1310730, 536870925, 0, 1310731, 536870925, 0, 1310732, 536870925, 0, 1310733, 536870925, 0, 1310734, 536870925, 0, 1310735, 536870926, 0, 1310736, 536870926, 0, 1310737, 536870926, 0, 1310738, 536870926, 0, 1310739, 536870926, 0, 1310740, 536870926, 0, 1310741, 536870926, 0, 1310742, 536870926, 0, 1310743, 536870926, 0, 1310744, 536870926, 0, 1310745, 536870926, 0, 1310746, 536870926, 0, 1310747, 536870926, 0, 1310748, 536870926, 0, 1310749, 536870926, 0, 1310750, 536870926, 0, 1310751, 536870926, 0, 1310752, 536870926, 0, 1310753, 536870926, 0, 1310754, 536870926, 0, 1310755, 536870926, 0, 1310756, 536870925, 0, 1310757, 536870925, 0, 1310758, 536870925, 0, 1310759, 536870925, 0, 1310760, 536870925, 0, 1376256, 536870925, 0, 1376257, 536870926, 0, 1376258, 536870926, 0, 1376259, 536870925, 0, 1376260, 536870925, 0, 1376261, 536870925, 0, 1376262, 536870925, 0, 1376263, 536870925, 0, 1376264, 536870926, 0, 1376265, 536870926, 0, 1376266, 536870925, 0, 1376267, 536870925, 0, 1376268, 536870925, 0, 1376269, 536870925, 0, 1376270, 536870925, 0, 1376271, 536870926, 0, 1376272, 536870926, 0, 1376273, 536870925, 0, 1376274, 536870925, 0, 1376275, 536870925, 0, 1376276, 536870925, 0, 1376277, 536870925, 0, 1376278, 536870925, 0, 1376279, 536870925, 0, 1376280, 536870925, 0, 1376281, 536870925, 0, 1376282, 536870925, 0, 1376283, 536870925, 0, 1376284, 536870925, 0, 1376285, 536870925, 0, 1376286, 536870925, 0, 1376287, 536870925, 0, 1376288, 536870925, 0, 1376289, 536870925, 0, 1376290, 536870926, 0, 1376291, 536870926, 0, 1376292, 536870925, 0, 1376293, 536870925, 0, 1376294, 536870925, 0, 1376295, 536870925, 0, 1376296, 536870925, 0, 1441792, 536870925, 0, 1441793, 536870926, 0, 1441794, 536870926, 0, 1441795, 536870925, 0, 1441796, 536870925, 0, 1441797, 536870925, 0, 1441798, 536870925, 0, 1441799, 536870925, 0, 1441800, 536870926, 0, 1441801, 536870926, 0, 1441802, 536870925, 0, 1441803, 536870925, 0, 1441804, 536870925, 0, 1441805, 536870925, 0, 1441806, 536870925, 0, 1441807, 536870926, 0, 1441808, 536870926, 0, 1441809, 536870925, 0, 1441810, 536870925, 0, 1441811, 536870925, 0, 1441812, 536870925, 0, 1441813, 536870925, 0, 1441814, 536870925, 0, 1441815, 536870925, 0, 1441816, 536870925, 0, 1441817, 536870925, 0, 1441818, 536870925, 0, 1441819, 536870925, 0, 1441820, 536870925, 0, 1441821, 536870925, 0, 1441822, 536870925, 0, 1441823, 536870925, 0, 1441824, 536870925, 0, 1441825, 536870925, 0, 1441826, 536870926, 0, 1441827, 536870926, 0, 1441828, 536870925, 0, 1441829, 536870925, 0, 1441830, 536870925, 0, 1441831, 536870925, 0, 1441832, 536870925, 0, 1507328, 536870925, 0, 1507329, 536870926, 0, 1507330, 536870926, 0, 1507331, 536870925, 0, 1507332, 536870925, 0, 1507333, 536870925, 0, 1507334, 536870925, 0, 1507335, 536870925, 0, 1507336, 536870926, 0, 1507337, 536870926, 0, 1507338, 536870925, 0, 1507339, 536870925, 0, 1507340, 536870925, 0, 1507341, 536870925, 0, 1507342, 536870925, 0, 1507343, 536870926, 0, 1507344, 536870926, 0, 1507345, 536870925, 0, 1507346, 536870925, 0, 1507347, 536870925, 0, 1507348, 536870925, 0, 1507349, 536870925, 0, 1507350, 536870925, 0, 1507351, 536870925, 0, 1507352, 536870925, 0, 1507353, 536870925, 0, 1507354, 536870925, 0, 1507355, 536870925, 0, 1507356, 536870925, 0, 1507357, 536870925, 0, 1507358, 536870925, 0, 1507359, 536870925, 0, 1507360, 536870925, 0, 1507361, 536870925, 0, 1507362, 536870926, 0, 1507363, 536870926, 0, 1507364, 536870925, 0, 1507365, 536870925, 0, 1507366, 536870925, 0, 1507367, 536870925, 0, 1507368, 536870925, 0, 1572864, 536870925, 0, 1572865, 536870926, 0, 1572866, 536870926, 0, 1572867, 536870925, 0, 1572868, 536870925, 0, 1572869, 536870925, 0, 1572870, 536870925, 0, 1572871, 536870925, 0, 1572872, 536870926, 0, 1572873, 536870926, 0, 1572874, 536870925, 0, 1572875, 536870925, 0, 1572876, 536870925, 0, 1572877, 536870925, 0, 1572878, 536870925, 0, 1572879, 536870926, 0, 1572880, 536870926, 0, 1572881, 536870925, 0, 1572882, 536870925, 0, 1572883, 536870925, 0, 1572884, 536870925, 0, 1572885, 536870925, 0, 1572886, 536870925, 0, 1572887, 536870925, 0, 1572888, 536870925, 0, 1572889, 536870925, 0, 1572890, 536870925, 0, 1572891, 536870925, 0, 1572892, 536870925, 0, 1572893, 536870925, 0, 1572894, 536870925, 0, 1572895, 536870925, 0, 1572896, 536870925, 0, 1572897, 536870925, 0, 1572898, 536870926, 0, 1572899, 536870926, 0, 1572900, 536870925, 0, 1572901, 536870925, 0, 1572902, 536870925, 0, 1572903, 536870925, 0, 1572904, 536870925, 0, 1638400, 536870925, 0, 1638401, 536870926, 0, 1638402, 536870926, 0, 1638403, 536870925, 0, 1638404, 536870925, 0, 1638405, 536870925, 0, 1638406, 536870925, 0, 1638407, 536870925, 0, 1638408, 536870926, 0, 1638409, 536870926, 0, 1638410, 536870925, 0, 1638411, 536870925, 0, 1638412, 536870925, 0, 1638413, 536870925, 0, 1638414, 536870925, 0, 1638415, 536870926, 0, 1638416, 536870926, 0, 1638417, 536870925, 0, 1638418, 536870925, 0, 1638419, 536870925, 0, 1638420, 536870925, 0, 1638421, 536870925, 0, 1638422, 536870925, 0, 1638423, 536870925, 0, 1638424, 536870925, 0, 1638425, 536870925, 0, 1638426, 536870925, 0, 1638427, 536870925, 0, 1638428, 536870925, 0, 1638429, 536870925, 0, 1638430, 536870925, 0, 1638431, 536870925, 0, 1638432, 536870925, 0, 1638433, 536870925, 0, 1638434, 536870926, 0, 1638435, 536870926, 0, 1638436, 536870925, 0, 1638437, 536870925, 0, 1638438, 536870925, 0, 1638439, 536870925, 0, 1638440, 536870925, 0, 1703936, 536870925, 0, 1703937, 536870926, 0, 1703938, 536870926, 0, 1703939, 536870926, 0, 1703940, 536870926, 0, 1703941, 536870926, 0, 1703942, 536870926, 0, 1703943, 536870926, 0, 1703944, 536870926, 0, 1703945, 536870926, 0, 1703946, 536870925, 0, 1703947, 536870925, 0, 1703948, 536870925, 0, 1703949, 536870925, 0, 1703950, 536870925, 0, 1703951, 536870926, 0, 1703952, 536870926, 0, 1703953, 536870925, 0, 1703954, 536870925, 0, 1703955, 536870925, 0, 1703956, 536870925, 0, 1703957, 536870925, 0, 1703958, 536870925, 0, 1703959, 536870925, 0, 1703960, 536870925, 0, 1703961, 536870925, 0, 1703962, 536870925, 0, 1703963, 536870925, 0, 1703964, 536870925, 0, 1703965, 536870925, 0, 1703966, 536870925, 0, 1703967, 536870925, 0, 1703968, 536870925, 0, 1703969, 536870925, 0, 1703970, 536870926, 0, 1703971, 536870926, 0, 1703972, 536870926, 0, 1703973, 536870926, 0, 1703974, 536870926, 0, 1703975, 536870926, 0, 1703976, 536870925, 0, 1769472, 536870925, 0, 1769473, 536870925, 0, 1769474, 536870925, 0, 1769475, 536870926, 0, 1769476, 536870926, 0, 1769477, 536870925, 0, 1769478, 536870925, 0, 1769479, 536870925, 0, 1769480, 536870925, 0, 1769481, 536870926, 0, 1769482, 536870925, 0, 1769483, 536870925, 0, 1769484, 536870925, 0, 1769485, 536870925, 0, 1769486, 536870925, 0, 1769487, 536870926, 0, 1769488, 536870926, 0, 1769489, 536870925, 0, 1769490, 536870925, 0, 1769491, 536870925, 0, 1769492, 536870925, 0, 1769493, 536870925, 0, 1769494, 536870925, 0, 1769495, 536870925, 0, 1769496, 536870925, 0, 1769497, 536870925, 0, 1769498, 536870925, 0, 1769499, 536870925, 0, 1769500, 536870925, 0, 1769501, 536870925, 0, 1769502, 536870925, 0, 1769503, 536870925, 0, 1769504, 536870925, 0, 1769505, 536870925, 0, 1769506, 536870926, 0, 1769507, 536870926, 0, 1769508, 536870926, 0, 1769509, 536870926, 0, 1769510, 536870926, 0, 1769511, 536870926, 0, 1769512, 536870925, 0, 1835008, 536870925, 0, 1835009, 536870925, 0, 1835010, 536870926, 0, 1835011, 536870926, 0, 1835012, 536870926, 0, 1835013, 536870925, 0, 1835014, 536870925, 0, 1835015, 536870925, 0, 1835016, 536870925, 0, 1835017, 536870925, 0, 1835018, 536870925, 0, 1835019, 536870925, 0, 1835020, 536870925, 0, 1835021, 536870925, 0, 1835022, 536870925, 0, 1835023, 536870926, 0, 1835024, 536870926, 0, 1835025, 536870925, 0, 1835026, 536870925, 0, 1835027, 536870925, 0, 1835028, 536870925, 0, 1835029, 536870925, 0, 1835030, 536870925, 0, 1835031, 536870925, 0, 1835032, 536870925, 0, 1835033, 536870925, 0, 1835034, 536870925, 0, 1835035, 536870925, 0, 1835036, 536870925, 0, 1835037, 536870925, 0, 1835038, 536870925, 0, 1835039, 536870925, 0, 1835040, 536870925, 0, 1835041, 536870925, 0, 1835042, 536870926, 0, 1835043, 536870926, 0, 1835044, 536870926, 0, 1835045, 536870926, 0, 1835046, 536870926, 0, 1835047, 536870926, 0, 1835048, 536870925, 0, 1900544, 536870925, 0, 1900545, 536870926, 0, 1900546, 536870926, 0, 1900547, 536870926, 0, 1900548, 536870926, 0, 1900549, 536870926, 0, 1900550, 536870926, 0, 1900551, 536870925, 0, 1900552, 536870925, 0, 1900553, 536870925, 0, 1900554, 536870925, 0, 1900555, 536870925, 0, 1900556, 536870925, 0, 1900557, 536870925, 0, 1900558, 536870925, 0, 1900559, 536870926, 0, 1900560, 536870926, 0, 1900561, 536870925, 0, 1900562, 536870925, 0, 1900563, 536870925, 0, 1900564, 536870925, 0, 1900565, 536870925, 0, 1900566, 536870925, 0, 1900567, 536870925, 0, 1900568, 536870925, 0, 1900569, 536870925, 0, 1900570, 536870925, 0, 1900571, 536870925, 0, 1900572, 536870925, 0, 1900573, 536870925, 0, 1900574, 536870925, 0, 1900575, 536870925, 0, 1900576, 536870925, 0, 1900577, 536870925, 0, 1900578, 536870926, 0, 1900579, 536870926, 0, 1900580, 536870926, 0, 1900581, 536870926, 0, 1900582, 536870926, 0, 1900583, 536870926, 0, 1900584, 536870925, 0, 1966080, 536870925, 0, 1966081, 536870926, 0, 1966082, 536870926, 0, 1966083, 536870926, 0, 1966084, 536870926, 0, 1966085, 536870926, 0, 1966086, 536870926, 0, 1966087, 536870926, 0, 1966088, 536870925, 0, 1966089, 536870925, 0, 1966090, 536870925, 0, 1966091, 536870925, 0, 1966092, 536870925, 0, 1966093, 536870925, 0, 1966094, 536870925, 0, 1966095, 536870926, 0, 1966096, 536870926, 0, 1966097, 536870926, 0, 1966098, 536870926, 0, 1966099, 536870926, 0, 1966100, 536870926, 0, 1966101, 536870926, 0, 1966102, 536870926, 0, 1966103, 536870926, 0, 1966104, 536870926, 0, 1966105, 536870926, 0, 1966106, 536870926, 0, 1966107, 536870926, 0, 1966108, 536870926, 0, 1966109, 536870926, 0, 1966110, 536870926, 0, 1966111, 536870926, 0, 1966112, 536870926, 0, 1966113, 536870926, 0, 1966114, 536870926, 0, 1966115, 536870926, 0, 1966116, 536870926, 0, 1966117, 536870926, 0, 1966118, 536870926, 0, 1966119, 536870926, 0, 1966120, 536870925, 0, 2031616, 536870925, 0, 2031617, 536870926, 0, 2031618, 536870926, 0, 2031619, 536870926, 0, 2031620, 536870926, 0, 2031621, 536870926, 0, 2031622, 536870926, 0, 2031623, 536870925, 0, 2031624, 536870925, 0, 2031625, 536870925, 0, 2031626, 536870925, 0, 2031627, 536870925, 0, 2031628, 536870925, 0, 2031629, 536870925, 0, 2031630, 536870925, 0, 2031631, 536870926, 0, 2031632, 536870926, 0, 2031633, 536870926, 0, 2031634, 536870926, 0, 2031635, 536870926, 0, 2031636, 536870926, 0, 2031637, 536870926, 0, 2031638, 536870926, 0, 2031639, 536870926, 0, 2031640, 536870926, 0, 2031641, 536870926, 0, 2031642, 536870926, 0, 2031643, 536870926, 0, 2031644, 536870926, 0, 2031645, 536870926, 0, 2031646, 536870926, 0, 2031647, 536870926, 0, 2031648, 536870926, 0, 2031649, 536870926, 0, 2031650, 536870926, 0, 2031651, 536870926, 0, 2031652, 536870926, 0, 2031653, 536870926, 0, 2031654, 536870926, 0, 2031655, 536870926, 0, 2031656, 536870925, 0, 2097152, 536870925, 0, 2097153, 536870926, 0, 2097154, 536870926, 0, 2097155, 536870926, 0, 2097156, 536870926, 0, 2097157, 536870926, 0, 2097158, 536870926, 0, 2097159, 536870925, 0, 2097160, 536870925, 0, 2097161, 536870925, 0, 2097162, 536870925, 0, 2097163, 536870925, 0, 2097164, 536870925, 0, 2097165, 536870925, 0, 2097166, 536870925, 0, 2097167, 536870926, 0, 2097168, 536870926, 0, 2097169, 536870925, 0, 2097170, 536870925, 0, 2097171, 536870925, 0, 2097172, 536870925, 0, 2097173, 536870925, 0, 2097174, 536870925, 0, 2097175, 536870925, 0, 2097176, 536870925, 0, 2097177, 536870925, 0, 2097178, 536870925, 0, 2097179, 536870925, 0, 2097180, 536870925, 0, 2097181, 536870925, 0, 2097182, 536870925, 0, 2097183, 536870925, 0, 2097184, 536870925, 0, 2097185, 536870925, 0, 2097186, 536870925, 0, 2097187, 536870925, 0, 2097188, 536870925, 0, 2097189, 536870925, 0, 2097190, 536870926, 0, 2097191, 536870926, 0, 2097192, 536870925, 0, 2162688, 536870925, 0, 2162689, 536870926, 0, 2162690, 536870926, 0, 2162691, 536870926, 0, 2162692, 536870926, 0, 2162693, 536870926, 0, 2162694, 536870926, 0, 2162695, 536870925, 0, 2162696, 536870925, 0, 2162697, 536870925, 0, 2162698, 536870925, 0, 2162699, 536870925, 0, 2162700, 536870925, 0, 2162701, 536870925, 0, 2162702, 536870925, 0, 2162703, 536870926, 0, 2162704, 536870926, 0, 2162705, 536870925, 0, 2162706, 536870925, 0, 2162707, 536870925, 0, 2162708, 536870925, 0, 2162709, 536870925, 0, 2162710, 536870925, 0, 2162711, 536870925, 0, 2162712, 536870925, 0, 2162713, 536870925, 0, 2162714, 536870925, 0, 2162715, 536870925, 0, 2162716, 536870925, 0, 2162717, 536870925, 0, 2162718, 536870925, 0, 2162719, 536870925, 0, 2162720, 536870925, 0, 2162721, 536870925, 0, 2162722, 536870925, 0, 2162723, 536870925, 0, 2162724, 536870925, 0, 2162725, 536870925, 0, 2162726, 536870926, 0, 2162727, 536870926, 0, 2162728, 536870925, 0, 2228224, 536870925, 0, 2228225, 536870925, 0, 2228226, 536870925, 0, 2228227, 536870926, 0, 2228228, 536870926, 0, 2228229, 536870925, 0, 2228230, 536870925, 0, 2228231, 536870925, 0, 2228232, 536870925, 0, 2228233, 536870925, 0, 2228234, 536870925, 0, 2228235, 536870925, 0, 2228236, 536870925, 0, 2228237, 536870925, 0, 2228238, 536870925, 0, 2228239, 536870926, 0, 2228240, 536870926, 0, 2228241, 536870925, 0, 2228242, 536870925, 0, 2228243, 536870925, 0, 2228244, 536870925, 0, 2228245, 536870925, 0, 2228246, 536870925, 0, 2228247, 536870925, 0, 2228248, 536870925, 0, 2228249, 536870925, 0, 2228250, 536870925, 0, 2228251, 536870925, 0, 2228252, 536870925, 0, 2228253, 536870925, 0, 2228254, 536870925, 0, 2228255, 536870925, 0, 2228256, 536870925, 0, 2228257, 536870925, 0, 2228258, 536870925, 0, 2228259, 536870925, 0, 2228260, 536870925, 0, 2228261, 536870925, 0, 2228262, 536870926, 0, 2228263, 536870926, 0, 2228264, 536870925, 0, 2293760, 536870925, 0, 2293761, 536870925, 0, 2293762, 536870925, 0, 2293763, 536870926, 0, 2293764, 536870926, 0, 2293765, 536870925, 0, 2293766, 536870925, 0, 2293767, 536870925, 0, 2293768, 536870925, 0, 2293769, 536870925, 0, 2293770, 536870925, 0, 2293771, 536870925, 0, 2293772, 536870925, 0, 2293773, 536870925, 0, 2293774, 536870925, 0, 2293775, 536870926, 0, 2293776, 536870926, 0, 2293777, 536870925, 0, 2293778, 536870925, 0, 2293779, 536870925, 0, 2293780, 536870925, 0, 2293781, 536870925, 0, 2293782, 536870925, 0, 2293783, 536870925, 0, 2293784, 536870925, 0, 2293785, 536870925, 0, 2293786, 536870925, 0, 2293787, 536870925, 0, 2293788, 536870925, 0, 2293789, 536870925, 0, 2293790, 536870925, 0, 2293791, 536870925, 0, 2293792, 536870925, 0, 2293793, 536870925, 0, 2293794, 536870925, 0, 2293795, 536870925, 0, 2293796, 536870925, 0, 2293797, 536870925, 0, 2293798, 536870926, 0, 2293799, 536870926, 0, 2293800, 536870925, 0, 2359296, 536870925, 0, 2359297, 536870926, 0, 2359298, 536870926, 0, 2359299, 536870926, 0, 2359300, 536870926, 0, 2359301, 536870926, 0, 2359302, 536870926, 0, 2359303, 536870926, 0, 2359304, 536870926, 0, 2359305, 536870926, 0, 2359306, 536870926, 0, 2359307, 536870926, 0, 2359308, 536870926, 0, 2359309, 536870926, 0, 2359310, 536870926, 0, 2359311, 536870926, 0, 2359312, 536870926, 0, 2359313, 536870925, 0, 2359314, 536870925, 0, 2359315, 536870925, 0, 2359316, 536870925, 0, 2359317, 536870925, 0, 2359318, 536870925, 0, 2359319, 536870925, 0, 2359320, 536870925, 0, 2359321, 536870925, 0, 2359322, 536870925, 0, 2359323, 536870925, 0, 2359324, 536870925, 0, 2359325, 536870925, 0, 2359326, 536870925, 0, 2359327, 536870925, 0, 2359328, 536870925, 0, 2359329, 536870925, 0, 2359330, 536870925, 0, 2359331, 536870925, 0, 2359332, 536870925, 0, 2359333, 536870925, 0, 2359334, 536870926, 0, 2359335, 536870926, 0, 2359336, 536870925, 0, 2424832, 536870925, 0, 2424833, 536870926, 0, 2424834, 536870926, 0, 2424835, 536870926, 0, 2424836, 536870926, 0, 2424837, 536870926, 0, 2424838, 536870926, 0, 2424839, 536870926, 0, 2424840, 536870926, 0, 2424841, 536870926, 0, 2424842, 536870926, 0, 2424843, 536870926, 0, 2424844, 536870926, 0, 2424845, 536870926, 0, 2424846, 536870926, 0, 2424847, 536870926, 0, 2424848, 536870926, 0, 2424849, 536870926, 0, 2424850, 536870926, 0, 2424851, 536870926, 0, 2424852, 536870926, 0, 2424853, 536870926, 0, 2424854, 536870926, 0, 2424855, 536870926, 0, 2424856, 536870926, 0, 2424857, 536870926, 0, 2424858, 536870926, 0, 2424859, 536870926, 0, 2424860, 536870926, 0, 2424861, 536870926, 0, 2424862, 536870926, 0, 2424863, 536870926, 0, 2424864, 536870926, 0, 2424865, 536870926, 0, 2424866, 536870926, 0, 2424867, 536870926, 0, 2424868, 536870926, 0, 2424869, 536870926, 0, 2424870, 536870926, 0, 2424871, 536870926, 0, 2424872, 536870925, 0, 2490368, 536870925, 0, 2490369, 536870926, 0, 2490370, 536870926, 0, 2490371, 536870926, 0, 2490372, 536870926, 0, 2490373, 536870926, 0, 2490374, 536870926, 0, 2490375, 536870925, 0, 2490376, 536870925, 0, 2490377, 536870925, 0, 2490378, 536870925, 0, 2490379, 536870925, 0, 2490380, 536870925, 0, 2490381, 536870925, 0, 2490382, 536870925, 0, 2490383, 536870926, 0, 2490384, 536870925, 0, 2490385, 536870926, 0, 2490386, 536870926, 0, 2490387, 536870926, 0, 2490388, 536870926, 0, 2490389, 536870926, 0, 2490390, 536870926, 0, 2490391, 536870926, 0, 2490392, 536870926, 0, 2490393, 536870926, 0, 2490394, 536870926, 0, 2490395, 536870926, 0, 2490396, 536870926, 0, 2490397, 536870926, 0, 2490398, 536870926, 0, 2490399, 536870926, 0, 2490400, 536870926, 0, 2490401, 536870926, 0, 2490402, 536870926, 0, 2490403, 536870926, 0, 2490404, 536870926, 0, 2490405, 536870926, 0, 2490406, 536870926, 0, 2490407, 536870926, 0, 2490408, 536870925, 0, 2555904, 536870925, 0, 2555905, 536870925, 0, 2555906, 536870925, 0, 2555907, 536870925, 0, 2555908, 536870925, 0, 2555909, 536870925, 0, 2555910, 536870925, 0, 2555911, 536870925, 0, 2555912, 536870925, 0, 2555913, 536870925, 0, 2555914, 536870925, 0, 2555915, 536870925, 0, 2555916, 536870925, 0, 2555917, 536870925, 0, 2555918, 536870925, 0, 2555919, 536870926, 0, 2555920, 536870926, 0, 2555921, 536870926, 0, 2555922, 536870926, 0, 2555923, 536870926, 0, 2555924, 536870926, 0, 2555925, 536870926, 0, 2555926, 536870926, 0, 2555927, 536870926, 0, 2555928, 536870926, 0, 2555929, 536870926, 0, 2555930, 536870926, 0, 2555931, 536870926, 0, 2555932, 536870926, 0, 2555933, 536870926, 0, 2555934, 536870926, 0, 2555935, 536870926, 0, 2555936, 536870926, 0, 2555937, 536870926, 0, 2555938, 536870926, 0, 2555939, 536870926, 0, 2555940, 536870926, 0, 2555941, 536870926, 0, 2555942, 536870926, 0, 2555943, 536870926, 0, 2555944, 536870925, 0, 2621440, 536870925, 0, 2621441, 536870925, 0, 2621442, 536870925, 0, 2621443, 536870925, 0, 2621444, 536870925, 0, 2621445, 536870925, 0, 2621446, 536870925, 0, 2621447, 536870925, 0, 2621448, 536870925, 0, 2621449, 536870925, 0, 2621450, 536870925, 0, 2621451, 536870925, 0, 2621452, 536870925, 0, 2621453, 536870925, 0, 2621454, 536870925, 0, 2621455, 536870925, 0, 2621456, 536870925, 0, 2621457, 536870925, 0, 2621458, 536870925, 0, 2621459, 536870925, 0, 2621460, 536870925, 0, 2621461, 536870925, 0, 2621462, 536870925, 0, 2621463, 536870925, 0, 2621464, 536870925, 0, 2621465, 536870925, 0, 2621466, 536870925, 0, 2621467, 536870925, 0, 2621468, 536870925, 0, 2621469, 536870925, 0, 2621470, 536870925, 0, 2621471, 536870925, 0, 2621472, 536870925, 0, 2621473, 536870925, 0, 2621474, 536870925, 0, 2621475, 536870925, 0, 2621476, 536870925, 0, 2621477, 536870925, 0, 2621478, 536870925, 0, 2621479, 536870925, 0, 2621480, 536870925, 0 )

[node name="items" type="TileMap" parent="."]
tile_set = ExtResource( 1 )
format = 1
tile_data = PoolIntArray( 7, 536870950, 0, 8, 536870950, 0, 9, 536870950, 0, 10, 536870950, 0, 11, 536870950, 0, 12, 536870950, 0, 13, 536870950, 0, 14, 536870950, 0, 15, 536870950, 0, 16, 536870950, 0, 17, 536870950, 0, 18, 536870950, 0, 19, 536870950, 0, 20, 536870950, 0, 21, 536870950, 0, 22, 536870950, 0, 23, 536870950, 0, 24, 536870950, 0, 25, 536870950, 0, 26, 536870950, 0, 27, 536870950, 0, 28, 536870950, 0, 29, 536870950, 0, 32, 536870950, 0, 34, 536870950, 0, 35, 536870950, 0, 36, 536870950, 0, 37, 536870950, 0, 38, 536870950, 0, 39, 536870950, 0, 65561, 536870950, 0, 131072, 536870950, 0, 131073, 536870950, 0, 131074, 536870950, 0, 131075, 536870950, 0, 131076, 536870950, 0, 131077, 536870950, 0, 131078, 536870950, 0, 131079, 536870950, 0, 196618, 536870950, 0, 196619, 536870950, 0, 196620, 536870950, 0, 196621, 536870950, 0, 196622, 536870950, 0, 196623, 536870950, 0, 196624, 536870950, 0, 196625, 536870950, 0, 196626, 536870950, 0, 196627, 536870950, 0, 196628, 536870950, 0, 196629, 536870950, 0, 327683, 536870950, 0, 327684, 536870950, 0, 327685, 536870950, 0, 327686, 536870950, 0, 327687, 536870950, 0, 327705, 536870950, 0, 327706, 536870950, 0, 327707, 536870950, 0, 327708, 536870950, 0, 327709, 536870950, 0, 327710, 536870950, 0, 327711, 536870950, 0, 327712, 536870950, 0, 327713, 536870950, 0, 524310, 536870950, 0, 524311, 536870950, 0, 524312, 536870950, 0, 524314, 536870950, 0, 524315, 536870950, 0, 524316, 536870950, 0, 524318, 536870950, 0, 524319, 536870950, 0, 524320, 536870950, 0, 589827, 536870950, 0, 589828, 536870950, 0, 589829, 536870950, 0, 589830, 536870950, 0, 589831, 536870950, 0, 589837, 536870950, 0, 589838, 536870950, 0, 589839, 536870950, 0, 589840, 536870950, 0, 589841, 536870950, 0, 589842, 536870950, 0, 589858, 536870950, 0, 589859, 536870950, 0, 589860, 536870950, 0, 589861, 536870950, 0, 786442, 536870950, 0, 786443, 536870950, 0, 786444, 536870950, 0, 786445, 536870950, 0, 786446, 536870950, 0, 786450, 536870950, 0, 786451, 536870950, 0, 786452, 536870950, 0, 786454, 536870950, 0, 786455, 536870950, 0, 786456, 536870950, 0, 786458, 536870950, 0, 786459, 536870950, 0, 786460, 536870950, 0, 786461, 536870950, 0, 786462, 536870950, 0, 786463, 536870950, 0, 786464, 536870950, 0, 786465, 536870950, 0, 786469, 536870950, 0, 786470, 536870950, 0, 786471, 536870950, 0, 851971, 536870950, 0, 851972, 536870950, 0, 851973, 536870950, 0, 851974, 536870950, 0, 851975, 536870950, 0, 851997, 536870950, 0, 852001, 536870950, 0, 917533, 536870950, 0, 917537, 536870950, 0, 983069, 536870950, 0, 983073, 536870950, 0, 1048586, 536870950, 0, 1048587, 536870950, 0, 1048588, 536870950, 0, 1048589, 536870950, 0, 1048590, 536870950, 0, 1048593, 536870950, 0, 1048594, 536870950, 0, 1048596, 536870950, 0, 1048597, 536870950, 0, 1048598, 536870950, 0, 1048599, 536870950, 0, 1048600, 536870950, 0, 1048601, 536870950, 0, 1048602, 536870950, 0, 1048603, 536870950, 0, 1048604, 536870950, 0, 1048605, 536870950, 0, 1048606, 536870950, 0, 1048608, 536870950, 0, 1048609, 536870950, 0, 1048613, 536870950, 0, 1048614, 536870950, 0, 1048615, 536870950, 0, 1114115, 536870950, 0, 1114116, 536870950, 0, 1114117, 536870950, 0, 1114118, 536870950, 0, 1114119, 536870950, 0, 1310730, 536870950, 0, 1310731, 536870950, 0, 1310732, 536870950, 0, 1310733, 536870950, 0, 1310734, 536870950, 0, 1376259, 536870950, 0, 1376260, 536870950, 0, 1376261, 536870950, 0, 1376262, 536870950, 0, 1376263, 536870950, 0, 1376273, 536870950, 0, 1376274, 536870950, 0, 1376275, 536870950, 0, 1376276, 536870950, 0, 1376277, 536870950, 0, 1376278, 536870950, 0, 1376279, 536870950, 0, 1376280, 536870950, 0, 1376281, 536870950, 0, 1376282, 536870950, 0, 1376283, 536870950, 0, 1376284, 536870950, 0, 1376285, 536870950, 0, 1376286, 536870950, 0, 1376287, 536870950, 0, 1376288, 536870950, 0, 1376289, 536870950, 0, 1572874, 536870950, 0, 1572875, 536870950, 0, 1572876, 536870950, 0, 1572877, 536870950, 0, 1572878, 536870950, 0, 1638403, 536870950, 0, 1638404, 536870950, 0, 1638405, 536870950, 0, 1638406, 536870950, 0, 1638407, 536870950, 0, 1638411, 5, 0, 1638417, 536870950, 0, 1638418, 536870950, 0, 1638419, 536870950, 0, 1638420, 536870950, 0, 1638421, 536870950, 0, 1638422, 536870950, 0, 1638423, 536870950, 0, 1638424, 536870950, 0, 1638425, 536870950, 0, 1638426, 536870950, 0, 1638427, 536870950, 0, 1638428, 536870950, 0, 1638429, 536870950, 0, 1638430, 536870950, 0, 1638431, 536870950, 0, 1638432, 536870950, 0, 1638433, 536870950, 0, 1638436, 536870950, 0, 1638437, 536870950, 0, 1638438, 536870950, 0, 1638439, 536870950, 0, 1835008, 536870950, 0, 1835009, 536870950, 0, 1835010, 536870950, 0, 1835013, 536870950, 0, 1835014, 536870950, 0, 1835015, 536870950, 0, 1835016, 536870950, 0, 1835017, 536870950, 0, 1835018, 536870950, 0, 1835019, 536870950, 0, 1835020, 536870950, 0, 1835021, 536870950, 0, 1835022, 536870950, 0, 1900552, 536870917, 0, 1900553, 536870917, 0, 1900554, 536870917, 0, 1900556, 536870917, 0, 1900557, 536870917, 0, 1900561, 536870950, 0, 1900562, 536870950, 0, 1900563, 536870950, 0, 1900564, 536870950, 0, 1900565, 536870950, 0, 1900566, 536870950, 0, 1900567, 536870950, 0, 1900568, 536870950, 0, 1900569, 536870950, 0, 1900570, 536870950, 0, 1900572, 536870950, 0, 1900573, 536870950, 0, 1900574, 536870950, 0, 1900575, 536870950, 0, 1900576, 536870950, 0, 1900577, 536870950, 0, 1966088, 536870917, 0, 1966093, 536870941, 0, 2031627, 536870917, 0, 2031628, 536870917, 0, 2031629, 536870917, 0, 2097153, 4, 0, 2097154, 4, 0, 2097157, 4, 0, 2097158, 4, 0, 2097160, 536870941, 0, 2097169, 536870950, 0, 2097170, 536870950, 0, 2097172, 536870950, 0, 2097173, 536870950, 0, 2097174, 536870950, 0, 2097175, 536870950, 0, 2097176, 536870950, 0, 2097177, 536870950, 0, 2097178, 536870950, 0, 2097179, 536870950, 0, 2097180, 536870950, 0, 2097181, 536870950, 0, 2097182, 536870950, 0, 2097183, 536870950, 0, 2097184, 536870950, 0, 2097185, 536870950, 0, 2097186, 536870950, 0, 2097187, 536870950, 0, 2097188, 536870950, 0, 2097189, 536870950, 0, 2162689, 4, 0, 2162690, 4, 0, 2162693, 4, 0, 2162694, 4, 0, 2162696, 536870941, 0, 2162697, 536870941, 0, 2162699, 536870941, 0, 2162701, 536870917, 0, 2162705, 536870950, 0, 2162725, 536870950, 0, 2228241, 536870950, 0, 2228242, 536870950, 0, 2228243, 536870950, 0, 2228244, 536870950, 0, 2228245, 536870950, 0, 2228246, 536870950, 0, 2228247, 536870950, 0, 2228248, 536870950, 0, 2228249, 536870950, 0, 2228250, 536870950, 0, 2228251, 536870950, 0, 2228252, 536870950, 0, 2228253, 536870950, 0, 2228254, 536870950, 0, 2228256, 536870950, 0, 2228257, 536870950, 0, 2228258, 536870950, 0, 2228259, 536870950, 0, 2228260, 536870950, 0, 2228261, 536870950, 0, 2293760, 536870950, 0, 2293761, 536870950, 0, 2293762, 536870950, 0, 2293765, 536870950, 0, 2293766, 536870950, 0, 2293767, 536870950, 0, 2293768, 536870950, 0, 2293769, 536870950, 0, 2293770, 536870950, 0, 2293771, 536870950, 0, 2293772, 536870950, 0, 2293773, 536870950, 0, 2293774, 536870950, 0, 2293777, 536870950, 0, 2293797, 536870950, 0, 2359313, 536870950, 0, 2359314, 536870950, 0, 2359316, 536870950, 0, 2359317, 536870950, 0, 2359318, 536870950, 0, 2359319, 536870950, 0, 2359320, 536870950, 0, 2359321, 536870950, 0, 2359322, 536870950, 0, 2359323, 536870950, 0, 2359324, 536870950, 0, 2359325, 536870950, 0, 2359326, 536870950, 0, 2359327, 536870950, 0, 2359328, 536870950, 0, 2359329, 536870950, 0, 2359330, 536870950, 0, 2359331, 536870950, 0, 2359332, 536870950, 0, 2359333, 536870950, 0, 2555912, 536870941, 0, 2555913, 536870941, 0, 2555915, 3, 0, 2555917, 536870941, 0, 2621440, 536870950, 0, 2621441, 536870950, 0, 2621442, 536870950, 0, 2621443, 536870950, 0, 2621444, 536870950, 0, 2621445, 536870950, 0, 2621446, 536870950, 0, 2621447, 536870950, 0, 2621448, 536870941, 0, 2621449, 536870941, 0, 2621452, 20, 0, 2621454, 536870950, 0, 2621455, 536870950, 0, 2621456, 536870950, 0, 2621457, 536870950, 0, 2621458, 536870950, 0, 2621459, 536870950, 0, 2621460, 536870950, 0, 2621461, 536870950, 0, 2621462, 536870950, 0, 2621463, 536870950, 0, 2621464, 536870950, 0, 2621465, 536870950, 0, 2621466, 536870950, 0, 2621467, 536870950, 0, 2621468, 536870950, 0, 2621469, 536870950, 0, 2621470, 536870950, 0, 2621471, 536870950, 0, 2621472, 536870950, 0, 2621473, 536870950, 0, 2621474, 536870950, 0, 2621475, 536870950, 0, 2621476, 536870950, 0, 2621477, 536870950, 0, 2621478, 536870950, 0, 2621479, 536870950, 0, 2621480, 536870950, 0 )

[node name="Nodes" type="YSort" parent="."]

[node name="player" parent="Nodes" instance=ExtResource( 3 )]
position = Vector2( 2048, 864 )
doorOut = "worldmap_full"
cameraLimit = Vector2( 93, 49 )

[node name="finbar" parent="Nodes" instance=ExtResource( 7 )]
position = Vector2( 1920, 864 )
type = "finbar"

[node name="npc" type="KinematicBody2D" parent="Nodes"]
position = Vector2( 2208, 224 )
script = ExtResource( 6 )
type = "zerua_ward"
dialog = "prison_ward"
direction = "up"

[node name="human" parent="Nodes/npc" instance=ExtResource( 5 )]

[node name="collision" type="CollisionShape2D" parent="Nodes/npc"]
position = Vector2( 32, 32 )
scale = Vector2( 0.5, 0.5 )
shape = SubResource( 1 )
__meta__ = {
"_edit_lock_": true
}

[node name="Area2D" type="Area2D" parent="Nodes/npc"]
position = Vector2( 32, 32 )
scale = Vector2( 3, 3 )
__meta__ = {
"_edit_lock_": true
}

[node name="CollisionShape2D" type="CollisionShape2D" parent="Nodes/npc/Area2D"]
shape = SubResource( 2 )

[node name="npc2" type="KinematicBody2D" parent="Nodes"]
position = Vector2( 992, 1952 )
script = ExtResource( 6 )
type = "zerua_ward"
dialog = "prison_ward"
direction = "up"

[node name="human" parent="Nodes/npc2" instance=ExtResource( 5 )]

[node name="collision" type="CollisionShape2D" parent="Nodes/npc2"]
position = Vector2( 32, 32 )
scale = Vector2( 0.5, 0.5 )
shape = SubResource( 1 )
__meta__ = {
"_edit_lock_": true
}

[node name="Area2D" type="Area2D" parent="Nodes/npc2"]
position = Vector2( 32, 32 )
__meta__ = {
"_edit_lock_": true
}

[node name="CollisionShape2D" type="CollisionShape2D" parent="Nodes/npc2/Area2D"]
scale = Vector2( 3, 3 )
shape = SubResource( 2 )

[node name="npc3" type="KinematicBody2D" parent="Nodes"]
position = Vector2( 1024, 2464 )
script = ExtResource( 6 )
type = "zerua_ward"
dialog = "prison_ward"
direction = "up"

[node name="human" parent="Nodes/npc3" instance=ExtResource( 5 )]

[node name="collision" type="CollisionShape2D" parent="Nodes/npc3"]
position = Vector2( 32, 32 )
scale = Vector2( 0.5, 0.5 )
shape = SubResource( 1 )
__meta__ = {
"_edit_lock_": true
}

[node name="Area2D" type="Area2D" parent="Nodes/npc3"]
position = Vector2( 32, 32 )
__meta__ = {
"_edit_lock_": true
}

[node name="CollisionShape2D" type="CollisionShape2D" parent="Nodes/npc3/Area2D"]
scale = Vector2( 3, 3 )
shape = SubResource( 2 )

[node name="npc4" type="KinematicBody2D" parent="Nodes"]
position = Vector2( 1056, 1184 )
script = ExtResource( 6 )
type = "zerua_ward"
dialog = "prison_ward"
direction = "up"

[node name="human" parent="Nodes/npc4" instance=ExtResource( 5 )]

[node name="collision" type="CollisionShape2D" parent="Nodes/npc4"]
position = Vector2( 32, 32 )
scale = Vector2( 0.5, 0.5 )
shape = SubResource( 1 )
__meta__ = {
"_edit_lock_": true
}

[node name="Area2D" type="Area2D" parent="Nodes/npc4"]
position = Vector2( 32, 32 )
__meta__ = {
"_edit_lock_": true
}

[node name="CollisionShape2D" type="CollisionShape2D" parent="Nodes/npc4/Area2D"]
scale = Vector2( 3, 3 )
shape = SubResource( 2 )

[node name="door" parent="Nodes" instance=ExtResource( 8 )]
position = Vector2( 1920, 0 )
scale = Vector2( 2, 1 )
door = "zerua/zerua"

[node name="items2" type="TileMap" parent="."]
tile_set = ExtResource( 1 )
format = 1
tile_data = PoolIntArray( 0, 40, 0, 1, 40, 0, 2, 40, 0, 3, 40, 0, 4, 40, 0, 5, 40, 0, 6, 40, 0, 7, 536870950, 0, 30, 40, 0, 31, 40, 0, 33, 536870950, 0, 40, 536870950, 0, 65536, 536870950, 0, 65537, 536870950, 0, 65538, 536870950, 0, 65539, 536870950, 0, 65540, 536870950, 0, 65541, 536870950, 0, 65542, 536870950, 0, 65543, 536870950, 0, 65562, 40, 0, 65563, 40, 0, 65564, 40, 0, 65565, 40, 0, 65566, 40, 0, 65567, 40, 0, 65568, 40, 0, 65569, 536870950, 0, 65576, 536870950, 0, 131082, 536870950, 0, 131083, 536870950, 0, 131084, 536870950, 0, 131085, 536870950, 0, 131086, 536870950, 0, 131087, 536870950, 0, 131088, 536870950, 0, 131089, 536870950, 0, 131090, 536870950, 0, 131091, 536870950, 0, 131092, 536870950, 0, 131093, 536870950, 0, 131098, 40, 0, 131099, 40, 0, 131100, 40, 0, 131101, 40, 0, 131102, 40, 0, 131103, 40, 0, 131104, 40, 0, 131105, 536870950, 0, 131108, 536870950, 0, 131109, 536870950, 0, 131112, 536870950, 0, 196608, 536870950, 0, 196618, 536870950, 0, 196629, 536870950, 0, 196633, 536870950, 0, 196634, 40, 0, 196635, 40, 0, 196636, 40, 0, 196637, 40, 0, 196638, 40, 0, 196639, 40, 0, 196640, 40, 0, 196641, 536870950, 0, 196644, 536870950, 0, 196645, 536870950, 0, 196648, 536870950, 0, 262144, 536870950, 0, 262147, 536870950, 0, 262148, 536870950, 0, 262149, 536870950, 0, 262150, 536870950, 0, 262151, 536870950, 0, 262154, 536870950, 0, 262165, 536870950, 0, 262169, 536870950, 0, 262170, 536870950, 0, 262171, 536870950, 0, 262172, 536870950, 0, 262173, 536870950, 0, 262174, 536870950, 0, 262175, 536870950, 0, 262176, 536870950, 0, 262177, 536870950, 0, 262180, 536870950, 0, 262181, 536870950, 0, 262184, 536870950, 0, 327680, 536870950, 0, 327683, 536870950, 0, 327687, 536870950, 0, 327690, 536870950, 0, 327693, 536870950, 0, 327694, 536870950, 0, 327695, 536870950, 0, 327696, 536870950, 0, 327697, 536870950, 0, 327698, 536870950, 0, 327701, 536870950, 0, 327716, 536870950, 0, 327717, 536870950, 0, 327720, 536870950, 0, 393216, 536870950, 0, 393219, 536870950, 0, 393220, 40, 0, 393221, 40, 0, 393222, 40, 0, 393223, 536870950, 0, 393226, 536870950, 0, 393229, 536870950, 0, 393230, 536870950, 0, 393231, 536870950, 0, 393232, 536870950, 0, 393233, 536870950, 0, 393234, 536870950, 0, 393237, 536870950, 0, 393252, 536870950, 0, 393253, 536870950, 0, 393256, 536870950, 0, 458752, 536870950, 0, 458755, 536870950, 0, 458756, 40, 0, 458757, 40, 0, 458758, 40, 0, 458759, 536870950, 0, 458762, 536870950, 0, 458765, 536870950, 0, 458766, 40, 0, 458767, 40, 0, 458768, 40, 0, 458769, 40, 0, 458770, 536870950, 0, 458773, 536870950, 0, 458774, 536870950, 0, 458775, 536870950, 0, 458776, 536870950, 0, 458777, 536870950, 0, 458778, 536870950, 0, 458779, 536870950, 0, 458780, 536870950, 0, 458781, 536870950, 0, 458782, 536870950, 0, 458783, 536870950, 0, 458784, 536870950, 0, 458785, 536870950, 0, 458786, 536870950, 0, 458787, 536870950, 0, 458788, 536870950, 0, 458789, 536870950, 0, 458792, 536870950, 0, 524288, 536870950, 0, 524291, 536870950, 0, 524292, 536870950, 0, 524293, 536870950, 0, 524294, 536870950, 0, 524295, 536870950, 0, 524298, 536870950, 0, 524301, 536870950, 0, 524302, 536870950, 0, 524303, 536870950, 0, 524304, 536870950, 0, 524305, 536870950, 0, 524306, 536870950, 0, 524309, 536870950, 0, 524313, 536870950, 0, 524317, 536870950, 0, 524321, 536870950, 0, 524322, 536870950, 0, 524323, 536870950, 0, 524324, 536870950, 0, 524325, 536870950, 0, 524328, 536870950, 0, 589824, 536870950, 0, 589827, 536870950, 0, 589831, 536870950, 0, 589834, 536870950, 0, 589845, 536870950, 0, 589846, 40, 0, 589847, 40, 0, 589848, 40, 0, 589849, 536870950, 0, 589850, 40, 0, 589851, 40, 0, 589852, 40, 0, 589853, 536870950, 0, 589854, 40, 0, 589855, 40, 0, 589856, 40, 0, 589857, 536870950, 0, 589864, 536870950, 0, 655360, 536870950, 0, 655363, 536870950, 0, 655364, 40, 0, 655365, 40, 0, 655366, 40, 0, 655367, 536870950, 0, 655370, 536870950, 0, 655381, 536870950, 0, 655382, 40, 0, 655383, 40, 0, 655384, 40, 0, 655385, 536870950, 0, 655386, 40, 0, 655387, 40, 0, 655388, 40, 0, 655389, 536870950, 0, 655390, 40, 0, 655391, 40, 0, 655392, 40, 0, 655393, 536870950, 0, 655400, 536870950, 0, 720896, 536870950, 0, 720899, 536870950, 0, 720900, 40, 0, 720901, 40, 0, 720902, 40, 0, 720903, 536870950, 0, 720906, 536870950, 0, 720907, 536870950, 0, 720908, 536870950, 0, 720909, 536870950, 0, 720910, 536870950, 0, 720913, 536870950, 0, 720914, 536870950, 0, 720915, 536870950, 0, 720916, 536870950, 0, 720917, 536870950, 0, 720918, 536870950, 0, 720919, 536870950, 0, 720920, 536870950, 0, 720921, 536870950, 0, 720922, 536870950, 0, 720923, 536870950, 0, 720924, 536870950, 0, 720925, 536870950, 0, 720926, 536870950, 0, 720927, 536870950, 0, 720928, 536870950, 0, 720929, 536870950, 0, 720932, 536870950, 0, 720933, 536870950, 0, 720934, 536870950, 0, 720935, 536870950, 0, 720936, 536870950, 0, 786432, 536870950, 0, 786435, 536870950, 0, 786436, 536870950, 0, 786437, 536870950, 0, 786438, 536870950, 0, 786439, 536870950, 0, 786442, 536870950, 0, 786449, 536870950, 0, 786450, 536870952, 0, 786451, 536870952, 0, 786452, 536870952, 0, 786453, 536870950, 0, 786454, 536870952, 0, 786455, 536870952, 0, 786456, 536870952, 0, 786457, 536870950, 0, 786458, 536870952, 0, 786459, 536870952, 0, 786460, 536870952, 0, 786462, 536870952, 0, 786463, 536870952, 0, 786464, 536870952, 0, 786468, 536870950, 0, 786472, 536870950, 0, 851968, 536870950, 0, 851971, 536870950, 0, 851975, 536870950, 0, 851978, 536870950, 0, 851979, 40, 0, 851980, 40, 0, 851981, 40, 0, 851982, 536870950, 0, 851985, 536870950, 0, 851986, 536870952, 0, 851987, 536870952, 0, 851988, 536870952, 0, 851989, 536870950, 0, 851990, 536870952, 0, 851991, 536870952, 0, 851992, 536870952, 0, 851993, 536870950, 0, 851994, 536870952, 0, 851995, 536870952, 0, 851996, 536870952, 0, 851998, 536870952, 0, 851999, 536870952, 0, 852000, 536870952, 0, 852004, 536870950, 0, 852005, 40, 0, 852006, 40, 0, 852007, 40, 0, 852008, 536870950, 0, 917504, 536870950, 0, 917507, 536870950, 0, 917508, 40, 0, 917509, 40, 0, 917510, 40, 0, 917511, 536870950, 0, 917514, 536870950, 0, 917515, 40, 0, 917516, 40, 0, 917517, 40, 0, 917518, 536870950, 0, 917521, 536870950, 0, 917522, 536870952, 0, 917523, 536870952, 0, 917524, 536870952, 0, 917525, 536870950, 0, 917526, 536870952, 0, 917527, 536870952, 0, 917528, 536870952, 0, 917529, 536870950, 0, 917530, 536870952, 0, 917531, 536870952, 0, 917532, 536870952, 0, 917534, 536870952, 0, 917535, 536870952, 0, 917536, 536870952, 0, 917540, 536870950, 0, 917541, 40, 0, 917542, 40, 0, 917543, 40, 0, 917544, 536870950, 0, 983040, 536870950, 0, 983043, 536870950, 0, 983044, 40, 0, 983045, 40, 0, 983046, 40, 0, 983047, 536870950, 0, 983050, 536870950, 0, 983051, 536870950, 0, 983052, 536870950, 0, 983053, 536870950, 0, 983054, 536870950, 0, 983057, 536870950, 0, 983058, 536870950, 0, 983060, 536870950, 0, 983061, 536870950, 0, 983062, 536870950, 0, 983063, 536870950, 0, 983064, 536870950, 0, 983065, 536870950, 0, 983066, 536870950, 0, 983067, 536870950, 0, 983068, 536870950, 0, 983069, 536870950, 0, 983070, 536870950, 0, 983071, 38, 0, 983072, 536870950, 0, 983073, 38, 0, 983076, 536870950, 0, 983077, 536870950, 0, 983078, 536870950, 0, 983079, 536870950, 0, 983080, 536870950, 0, 1048576, 536870950, 0, 1048579, 536870950, 0, 1048580, 536870950, 0, 1048581, 536870950, 0, 1048582, 536870950, 0, 1048583, 536870950, 0, 1048590, 536870950, 0, 1048607, 38, 0, 1048612, 536870950, 0, 1048616, 536870950, 0, 1114112, 536870950, 0, 1114115, 536870950, 0, 1114119, 536870950, 0, 1114122, 536870950, 0, 1114123, 40, 0, 1114124, 40, 0, 1114125, 40, 0, 1114126, 536870950, 0, 1114148, 536870950, 0, 1114149, 40, 0, 1114150, 40, 0, 1114151, 40, 0, 1114152, 536870950, 0, 1179648, 536870950, 0, 1179651, 536870950, 0, 1179652, 40, 0, 1179653, 40, 0, 1179654, 40, 0, 1179655, 536870950, 0, 1179658, 536870950, 0, 1179659, 40, 0, 1179660, 40, 0, 1179661, 40, 0, 1179662, 536870950, 0, 1179684, 536870950, 0, 1179685, 40, 0, 1179686, 40, 0, 1179687, 40, 0, 1179688, 536870950, 0, 1245184, 536870950, 0, 1245187, 536870950, 0, 1245188, 40, 0, 1245189, 40, 0, 1245190, 40, 0, 1245191, 536870950, 0, 1245194, 536870950, 0, 1245195, 536870950, 0, 1245196, 536870950, 0, 1245197, 536870950, 0, 1245198, 536870950, 0, 1245220, 536870950, 0, 1245221, 40, 0, 1245222, 40, 0, 1245223, 40, 0, 1245224, 536870950, 0, 1310720, 536870950, 0, 1310723, 536870950, 0, 1310724, 536870950, 0, 1310725, 536870950, 0, 1310726, 536870950, 0, 1310727, 536870950, 0, 1310734, 536870950, 0, 1310737, 536870950, 0, 1310738, 536870950, 0, 1310739, 536870950, 0, 1310740, 536870950, 0, 1310741, 536870950, 0, 1310742, 536870950, 0, 1310743, 536870950, 0, 1310744, 536870950, 0, 1310745, 536870950, 0, 1310746, 536870950, 0, 1310747, 536870950, 0, 1310748, 536870950, 0, 1310749, 536870950, 0, 1310750, 536870950, 0, 1310751, 536870950, 0, 1310752, 536870950, 0, 1310753, 536870950, 0, 1310756, 536870950, 0, 1310757, 40, 0, 1310758, 40, 0, 1310759, 40, 0, 1310760, 536870950, 0, 1376256, 536870950, 0, 1376266, 536870950, 0, 1376267, 40, 0, 1376268, 40, 0, 1376269, 40, 0, 1376270, 536870950, 0, 1376292, 536870950, 0, 1376293, 40, 0, 1376294, 40, 0, 1376295, 40, 0, 1376296, 536870950, 0, 1441792, 536870950, 0, 1441795, 536870950, 0, 1441796, 40, 0, 1441797, 40, 0, 1441798, 40, 0, 1441799, 536870950, 0, 1441802, 536870950, 0, 1441803, 40, 0, 1441804, 40, 0, 1441805, 40, 0, 1441806, 536870950, 0, 1441809, 536870950, 0, 1441810, 40, 0, 1441811, 40, 0, 1441812, 40, 0, 1441813, 536870950, 0, 1441814, 40, 0, 1441815, 40, 0, 1441816, 40, 0, 1441817, 536870950, 0, 1441818, 40, 0, 1441819, 40, 0, 1441820, 40, 0, 1441821, 536870950, 0, 1441822, 40, 0, 1441823, 40, 0, 1441824, 40, 0, 1441825, 536870950, 0, 1441828, 536870950, 0, 1441829, 40, 0, 1441830, 40, 0, 1441831, 40, 0, 1441832, 536870950, 0, 1507328, 536870950, 0, 1507331, 536870950, 0, 1507332, 40, 0, 1507333, 40, 0, 1507334, 40, 0, 1507335, 536870950, 0, 1507338, 536870950, 0, 1507339, 536870950, 0, 1507340, 536870950, 0, 1507341, 536870950, 0, 1507342, 536870950, 0, 1507345, 536870950, 0, 1507346, 40, 0, 1507347, 40, 0, 1507348, 40, 0, 1507349, 536870950, 0, 1507350, 40, 0, 1507351, 40, 0, 1507352, 40, 0, 1507353, 536870950, 0, 1507354, 40, 0, 1507355, 40, 0, 1507356, 40, 0, 1507357, 536870950, 0, 1507358, 40, 0, 1507359, 40, 0, 1507360, 40, 0, 1507361, 536870950, 0, 1507364, 536870950, 0, 1507365, 40, 0, 1507366, 40, 0, 1507367, 40, 0, 1507368, 536870950, 0, 1572864, 536870950, 0, 1572867, 536870950, 0, 1572868, 536870950, 0, 1572869, 536870950, 0, 1572870, 536870950, 0, 1572871, 536870950, 0, 1572874, 536870950, 0, 1572881, 536870950, 0, 1572882, 536870950, 0, 1572883, 536870950, 0, 1572884, 536870950, 0, 1572885, 536870950, 0, 1572886, 536870950, 0, 1572887, 536870950, 0, 1572888, 536870950, 0, 1572889, 536870950, 0, 1572890, 536870950, 0, 1572891, 536870950, 0, 1572892, 536870950, 0, 1572893, 536870950, 0, 1572894, 536870950, 0, 1572895, 536870950, 0, 1572896, 536870950, 0, 1572897, 536870950, 0, 1572900, 536870950, 0, 1572901, 536870950, 0, 1572902, 536870950, 0, 1572903, 536870950, 0, 1572904, 536870950, 0, 1638400, 536870950, 0, 1638410, 536870950, 0, 1638411, 40, 0, 1638412, 40, 0, 1638413, 40, 0, 1638414, 536870950, 0, 1638417, 536870950, 0, 1638433, 536870950, 0, 1638440, 536870950, 0, 1703936, 536870950, 0, 1703946, 536870950, 0, 1703947, 40, 0, 1703948, 40, 0, 1703949, 40, 0, 1703950, 536870952, 0, 1703953, 536870950, 0, 1703954, 40, 0, 1703955, 40, 0, 1703956, 40, 0, 1703957, 536870950, 0, 1703958, 40, 0, 1703959, 40, 0, 1703960, 40, 0, 1703961, 536870950, 0, 1703962, 40, 0, 1703963, 40, 0, 1703964, 40, 0, 1703965, 536870950, 0, 1703966, 40, 0, 1703967, 40, 0, 1703968, 40, 0, 1703969, 536870950, 0, 1703976, 536870950, 0, 1769472, 536870950, 0, 1769473, 536870950, 0, 1769474, 536870950, 0, 1769477, 536870950, 0, 1769478, 536870950, 0, 1769479, 536870950, 0, 1769480, 536870950, 0, 1769481, 536870950, 0, 1769482, 536870950, 0, 1769483, 536870950, 0, 1769484, 536870950, 0, 1769485, 536870950, 0, 1769486, 536870950, 0, 1769489, 536870950, 0, 1769490, 40, 0, 1769491, 40, 0, 1769492, 40, 0, 1769493, 536870950, 0, 1769494, 40, 0, 1769495, 40, 0, 1769496, 40, 0, 1769497, 536870950, 0, 1769498, 40, 0, 1769499, 40, 0, 1769500, 40, 0, 1769501, 536870950, 0, 1769502, 40, 0, 1769503, 40, 0, 1769504, 40, 0, 1769505, 536870950, 0, 1769512, 536870950, 0, 1835008, 536870950, 0, 1835009, 20, 0, 1835010, 20, 0, 1835013, 20, 0, 1835014, 20, 0, 1835018, 536870950, 0, 1835025, 536870950, 0, 1835026, 536870950, 0, 1835027, 536870950, 0, 1835028, 536870950, 0, 1835029, 536870950, 0, 1835030, 536870950, 0, 1835031, 536870950, 0, 1835032, 536870950, 0, 1835033, 536870950, 0, 1835034, 536870950, 0, 1835036, 536870950, 0, 1835037, 536870950, 0, 1835038, 536870950, 0, 1835039, 536870950, 0, 1835040, 536870950, 0, 1835041, 536870950, 0, 1835048, 536870950, 0, 1900544, 536870950, 0, 1900545, 20, 0, 1900546, 20, 0, 1900549, 20, 0, 1900550, 20, 0, 1900551, 536870950, 0, 1900552, 40, 0, 1900553, 40, 0, 1900554, 40, 0, 1900555, 40, 0, 1900556, 40, 0, 1900557, 40, 0, 1900558, 536870950, 0, 1900565, 536870950, 0, 1900566, 536870950, 0, 1900567, 536870950, 0, 1900568, 536870950, 0, 1900569, 536870950, 0, 1900570, 536870950, 0, 1900584, 536870950, 0, 1966080, 536870950, 0, 1966081, 20, 0, 1966082, 4, 0, 1966085, 4, 0, 1966086, 20, 0, 1966087, 536870950, 0, 1966088, 40, 0, 1966089, 40, 0, 1966090, 40, 0, 1966091, 40, 0, 1966092, 40, 0, 1966093, 40, 0, 1966094, 536870950, 0, 1966120, 536870950, 0, 2031616, 536870950, 0, 2031617, 20, 0, 2031618, 20, 0, 2031621, 20, 0, 2031622, 20, 0, 2031623, 536870950, 0, 2031624, 40, 0, 2031625, 40, 0, 2031626, 40, 0, 2031627, 40, 0, 2031628, 40, 0, 2031629, 40, 0, 2031630, 536870950, 0, 2031633, 40, 0, 2031634, 40, 0, 2031636, 40, 0, 2031637, 40, 0, 2031638, 40, 0, 2031639, 40, 0, 2031640, 40, 0, 2031641, 40, 0, 2031642, 40, 0, 2031643, 40, 0, 2031644, 40, 0, 2031645, 40, 0, 2031646, 40, 0, 2031647, 40, 0, 2031648, 40, 0, 2031649, 40, 0, 2031650, 40, 0, 2031651, 40, 0, 2031652, 40, 0, 2031653, 40, 0, 2031656, 536870950, 0, 2097152, 536870950, 0, 2097159, 536870950, 0, 2097160, 40, 0, 2097161, 40, 0, 2097162, 40, 0, 2097163, 40, 0, 2097164, 40, 0, 2097165, 40, 0, 2097166, 536870950, 0, 2097192, 536870950, 0, 2162688, 536870950, 0, 2162695, 536870950, 0, 2162696, 40, 0, 2162697, 40, 0, 2162698, 40, 0, 2162699, 40, 0, 2162700, 40, 0, 2162701, 40, 0, 2162702, 536870950, 0, 2162706, 536870952, 0, 2162707, 536870952, 0, 2162708, 536870952, 0, 2162709, 536870952, 0, 2162710, 536870952, 0, 2162711, 536870952, 0, 2162712, 536870952, 0, 2162713, 536870952, 0, 2162714, 536870952, 0, 2162715, 536870952, 0, 2162716, 536870952, 0, 2162717, 536870952, 0, 2162718, 536870952, 0, 2162720, 536870952, 0, 2162721, 536870952, 0, 2162722, 536870952, 0, 2162723, 536870952, 0, 2162724, 536870952, 0, 2162728, 536870950, 0, 2228224, 536870950, 0, 2228225, 536870950, 0, 2228226, 536870950, 0, 2228229, 536870950, 0, 2228230, 536870950, 0, 2228231, 536870950, 0, 2228232, 536870950, 0, 2228233, 536870950, 0, 2228234, 536870950, 0, 2228235, 536870950, 0, 2228236, 536870950, 0, 2228237, 536870950, 0, 2228238, 536870950, 0, 2228264, 536870950, 0, 2293760, 536870950, 0, 2293777, 536870950, 0, 2293778, 40, 0, 2293780, 40, 0, 2293781, 40, 0, 2293782, 40, 0, 2293783, 40, 0, 2293784, 40, 0, 2293785, 40, 0, 2293786, 40, 0, 2293787, 40, 0, 2293788, 40, 0, 2293789, 40, 0, 2293790, 40, 0, 2293791, 40, 0, 2293792, 40, 0, 2293793, 40, 0, 2293794, 40, 0, 2293795, 40, 0, 2293796, 40, 0, 2293800, 536870950, 0, 2359296, 536870950, 0, 2359336, 536870950, 0, 2424832, 536870950, 0, 2424839, 536870950, 0, 2424840, 536870950, 0, 2424841, 536870950, 0, 2424842, 536870950, 0, 2424843, 536870950, 0, 2424844, 536870950, 0, 2424845, 536870950, 0, 2424846, 536870950, 0, 2424872, 536870950, 0, 2490368, 536870950, 0, 2490375, 536870950, 0, 2490376, 536870950, 0, 2490377, 536870950, 0, 2490378, 536870950, 0, 2490379, 536870950, 0, 2490380, 536870950, 0, 2490381, 536870950, 0, 2490382, 536870950, 0, 2490408, 536870950, 0, 2555904, 536870950, 0, 2555905, 536870950, 0, 2555906, 536870950, 0, 2555907, 536870950, 0, 2555908, 536870950, 0, 2555909, 536870950, 0, 2555910, 536870950, 0, 2555911, 536870950, 0, 2555912, 40, 0, 2555913, 40, 0, 2555914, 40, 0, 2555915, 40, 0, 2555916, 40, 0, 2555917, 40, 0, 2555918, 536870950, 0, 2555919, 536870950, 0, 2555920, 536870950, 0, 2555921, 536870950, 0, 2555922, 536870950, 0, 2555923, 536870950, 0, 2555924, 536870950, 0, 2555925, 536870950, 0, 2555926, 536870950, 0, 2555927, 536870950, 0, 2555928, 536870950, 0, 2555929, 536870950, 0, 2555930, 536870950, 0, 2555931, 536870950, 0, 2555932, 536870950, 0, 2555933, 536870950, 0, 2555934, 536870950, 0, 2555935, 536870950, 0, 2555936, 536870950, 0, 2555937, 536870950, 0, 2555938, 536870950, 0, 2555939, 536870950, 0, 2555940, 536870950, 0, 2555941, 536870950, 0, 2555942, 536870950, 0, 2555943, 536870950, 0, 2555944, 536870950, 0, 2621440, 536870950, 0, 2621448, 40, 0, 2621449, 40, 0, 2621450, 40, 0, 2621451, 40, 0, 2621452, 40, 0, 2621453, 40, 0 )

[node name="collision" type="TileMap" parent="."]
visible = false
tile_set = ExtResource( 9 )
format = 1
tile_data = PoolIntArray( 7, 536870912, 0, 8, 536870912, 0, 9, 536870912, 0, 10, 536870912, 0, 11, 536870912, 0, 12, 536870912, 0, 13, 536870912, 0, 14, 536870912, 0, 15, 536870912, 0, 16, 536870912, 0, 17, 536870912, 0, 18, 536870912, 0, 19, 536870912, 0, 20, 536870912, 0, 21, 536870912, 0, 22, 536870912, 0, 23, 536870912, 0, 24, 536870912, 0, 25, 536870912, 0, 26, 536870912, 0, 27, 536870912, 0, 28, 536870912, 0, 29, 536870912, 0, 32, 536870912, 0, 33, 536870912, 0, 34, 536870912, 0, 35, 536870912, 0, 36, 536870912, 0, 37, 536870912, 0, 38, 536870912, 0, 39, 536870912, 0, 40, 536870912, 0, 65543, 536870912, 0, 65561, 536870912, 0, 65569, 536870912, 0, 65576, 536870912, 0, 131072, 536870912, 0, 131073, 536870912, 0, 131074, 536870912, 0, 131075, 536870912, 0, 131076, 536870912, 0, 131077, 536870912, 0, 131078, 536870912, 0, 131079, 536870912, 0, 131105, 536870912, 0, 131112, 536870912, 0, 196608, 536870912, 0, 196618, 536870912, 0, 196619, 536870912, 0, 196620, 536870912, 0, 196621, 536870912, 0, 196622, 536870912, 0, 196623, 536870912, 0, 196624, 536870912, 0, 196625, 536870912, 0, 196626, 536870912, 0, 196627, 536870912, 0, 196628, 536870912, 0, 196629, 536870912, 0, 196641, 536870912, 0, 196644, 536870912, 0, 196645, 536870912, 0, 196648, 536870912, 0, 262144, 536870912, 0, 262154, 536870912, 0, 262165, 536870912, 0, 262169, 536870912, 0, 262177, 536870912, 0, 262180, 536870912, 0, 262181, 536870912, 0, 262184, 536870912, 0, 327680, 536870912, 0, 327683, 536870912, 0, 327684, 536870912, 0, 327685, 536870912, 0, 327686, 536870912, 0, 327687, 536870912, 0, 327690, 536870912, 0, 327701, 536870912, 0, 327705, 536870912, 0, 327706, 536870912, 0, 327707, 536870912, 0, 327708, 536870912, 0, 327709, 536870912, 0, 327710, 536870912, 0, 327711, 536870912, 0, 327712, 536870912, 0, 327713, 536870912, 0, 327716, 536870912, 0, 327717, 536870912, 0, 327720, 536870912, 0, 393216, 536870912, 0, 393219, 536870912, 0, 393223, 536870912, 0, 393226, 536870912, 0, 393229, 536870912, 0, 393230, 536870912, 0, 393231, 536870912, 0, 393232, 536870912, 0, 393233, 536870912, 0, 393234, 536870912, 0, 393237, 536870912, 0, 393252, 536870912, 0, 393253, 536870912, 0, 393256, 536870912, 0, 458752, 536870912, 0, 458755, 536870912, 0, 458759, 536870912, 0, 458762, 536870912, 0, 458765, 536870912, 0, 458770, 536870912, 0, 458773, 536870912, 0, 458788, 536870912, 0, 458789, 536870912, 0, 458792, 536870912, 0, 524288, 536870912, 0, 524291, 536870912, 0, 524295, 536870912, 0, 524298, 536870912, 0, 524301, 536870912, 0, 524306, 536870912, 0, 524309, 536870912, 0, 524310, 536870912, 0, 524311, 536870912, 0, 524312, 536870912, 0, 524313, 536870912, 0, 524314, 536870912, 0, 524315, 536870912, 0, 524316, 536870912, 0, 524317, 536870912, 0, 524318, 536870912, 0, 524319, 536870912, 0, 524320, 536870912, 0, 524321, 536870912, 0, 524322, 536870912, 0, 524323, 536870912, 0, 524324, 536870912, 0, 524325, 536870912, 0, 524328, 536870912, 0, 589824, 536870912, 0, 589827, 536870912, 0, 589828, 536870912, 0, 589829, 536870912, 0, 589830, 536870912, 0, 589831, 536870912, 0, 589834, 536870912, 0, 589837, 536870912, 0, 589838, 536870912, 0, 589839, 536870912, 0, 589840, 536870912, 0, 589841, 536870912, 0, 589842, 536870912, 0, 589845, 536870912, 0, 589849, 536870912, 0, 589853, 536870912, 0, 589857, 536870912, 0, 589858, 536870912, 0, 589859, 536870912, 0, 589860, 536870912, 0, 589861, 536870912, 0, 589864, 536870912, 0, 655360, 536870912, 0, 655363, 536870912, 0, 655367, 536870912, 0, 655370, 536870912, 0, 655381, 536870912, 0, 655385, 536870912, 0, 655389, 536870912, 0, 655393, 536870912, 0, 655400, 536870912, 0, 720896, 536870912, 0, 720899, 536870912, 0, 720903, 536870912, 0, 720906, 536870912, 0, 720917, 536870912, 0, 720921, 536870912, 0, 720925, 536870912, 0, 720929, 536870912, 0, 720936, 536870912, 0, 786432, 536870912, 0, 786435, 536870912, 0, 786439, 536870912, 0, 786442, 536870912, 0, 786443, 536870912, 0, 786444, 536870912, 0, 786445, 536870912, 0, 786446, 536870912, 0, 786449, 536870912, 0, 786450, 536870912, 0, 786451, 536870912, 0, 786452, 536870912, 0, 786453, 536870912, 0, 786454, 536870912, 0, 786455, 536870912, 0, 786456, 536870912, 0, 786457, 536870912, 0, 786458, 536870912, 0, 786459, 536870912, 0, 786460, 536870912, 0, 786461, 536870912, 0, 786462, 536870912, 0, 786463, 536870912, 0, 786464, 536870912, 0, 786465, 536870912, 0, 786468, 536870912, 0, 786469, 536870912, 0, 786470, 536870912, 0, 786471, 536870912, 0, 786472, 536870912, 0, 851968, 536870912, 0, 851971, 536870912, 0, 851972, 536870912, 0, 851973, 536870912, 0, 851974, 536870912, 0, 851975, 536870912, 0, 851978, 536870912, 0, 851982, 536870912, 0, 851985, 536870912, 0, 851989, 536870912, 0, 851993, 536870912, 0, 851997, 536870912, 0, 852001, 536870912, 0, 852004, 536870912, 0, 852008, 536870912, 0, 917504, 536870912, 0, 917507, 536870912, 0, 917511, 536870912, 0, 917514, 536870912, 0, 917518, 536870912, 0, 917521, 536870912, 0, 917525, 536870912, 0, 917529, 536870912, 0, 917533, 536870912, 0, 917537, 536870912, 0, 917540, 536870912, 0, 917544, 536870912, 0, 983040, 536870912, 0, 983043, 536870912, 0, 983047, 536870912, 0, 983050, 536870912, 0, 983054, 536870912, 0, 983057, 536870912, 0, 983061, 536870912, 0, 983065, 536870912, 0, 983069, 536870912, 0, 983073, 536870912, 0, 983076, 536870912, 0, 983080, 536870912, 0, 1048576, 536870912, 0, 1048579, 536870912, 0, 1048583, 536870912, 0, 1048586, 536870912, 0, 1048587, 536870912, 0, 1048588, 536870912, 0, 1048589, 536870912, 0, 1048590, 536870912, 0, 1048593, 536870912, 0, 1048594, 536870912, 0, 1048596, 536870912, 0, 1048597, 536870912, 0, 1048598, 536870912, 0, 1048599, 536870912, 0, 1048600, 536870912, 0, 1048601, 536870912, 0, 1048602, 536870912, 0, 1048603, 536870912, 0, 1048604, 536870912, 0, 1048605, 536870912, 0, 1048606, 536870912, 0, 1048607, 0, 0, 1048608, 536870912, 0, 1048609, 536870912, 0, 1048612, 536870912, 0, 1048613, 536870912, 0, 1048614, 536870912, 0, 1048615, 536870912, 0, 1048616, 536870912, 0, 1114112, 536870912, 0, 1114115, 536870912, 0, 1114116, 536870912, 0, 1114117, 536870912, 0, 1114118, 536870912, 0, 1114119, 536870912, 0, 1114122, 536870912, 0, 1114126, 536870912, 0, 1114148, 536870912, 0, 1114152, 536870912, 0, 1179648, 536870912, 0, 1179651, 536870912, 0, 1179655, 536870912, 0, 1179658, 536870912, 0, 1179662, 536870912, 0, 1179684, 536870912, 0, 1179688, 536870912, 0, 1245184, 536870912, 0, 1245187, 536870912, 0, 1245191, 536870912, 0, 1245194, 536870912, 0, 1245198, 536870912, 0, 1245220, 536870912, 0, 1245224, 536870912, 0, 1310720, 536870912, 0, 1310723, 536870912, 0, 1310727, 536870912, 0, 1310730, 536870912, 0, 1310731, 536870912, 0, 1310732, 536870912, 0, 1310733, 536870912, 0, 1310734, 536870912, 0, 1310756, 536870912, 0, 1310760, 536870912, 0, 1376256, 536870912, 0, 1376259, 536870912, 0, 1376260, 536870912, 0, 1376261, 536870912, 0, 1376262, 536870912, 0, 1376263, 536870912, 0, 1376266, 536870912, 0, 1376270, 536870912, 0, 1376273, 536870912, 0, 1376274, 536870912, 0, 1376275, 536870912, 0, 1376276, 536870912, 0, 1376277, 536870912, 0, 1376278, 536870912, 0, 1376279, 536870912, 0, 1376280, 536870912, 0, 1376281, 536870912, 0, 1376282, 536870912, 0, 1376283, 536870912, 0, 1376284, 536870912, 0, 1376285, 536870912, 0, 1376286, 536870912, 0, 1376287, 536870912, 0, 1376288, 536870912, 0, 1376289, 536870912, 0, 1376292, 536870912, 0, 1376296, 536870912, 0, 1441792, 536870912, 0, 1441795, 536870912, 0, 1441799, 536870912, 0, 1441802, 536870912, 0, 1441806, 536870912, 0, 1441809, 536870912, 0, 1441813, 536870912, 0, 1441817, 536870912, 0, 1441821, 536870912, 0, 1441825, 536870912, 0, 1441828, 536870912, 0, 1441832, 536870912, 0, 1507328, 536870912, 0, 1507331, 536870912, 0, 1507335, 536870912, 0, 1507338, 536870912, 0, 1507342, 536870912, 0, 1507345, 536870912, 0, 1507349, 536870912, 0, 1507353, 536870912, 0, 1507357, 536870912, 0, 1507361, 536870912, 0, 1507364, 536870912, 0, 1507368, 536870912, 0, 1572864, 536870912, 0, 1572867, 536870912, 0, 1572871, 536870912, 0, 1572874, 536870912, 0, 1572875, 536870912, 0, 1572876, 536870912, 0, 1572877, 536870912, 0, 1572878, 536870912, 0, 1572881, 536870912, 0, 1572885, 536870912, 0, 1572889, 536870912, 0, 1572893, 536870912, 0, 1572897, 536870912, 0, 1572900, 536870912, 0, 1572904, 536870912, 0, 1638400, 536870912, 0, 1638403, 536870912, 0, 1638404, 536870912, 0, 1638405, 536870912, 0, 1638406, 536870912, 0, 1638407, 536870912, 0, 1638410, 536870912, 0, 1638414, 536870912, 0, 1638417, 536870912, 0, 1638418, 536870912, 0, 1638419, 536870912, 0, 1638420, 536870912, 0, 1638421, 536870912, 0, 1638422, 536870912, 0, 1638423, 536870912, 0, 1638424, 536870912, 0, 1638425, 536870912, 0, 1638426, 536870912, 0, 1638427, 536870912, 0, 1638428, 536870912, 0, 1638429, 536870912, 0, 1638430, 536870912, 0, 1638431, 536870912, 0, 1638432, 536870912, 0, 1638433, 536870912, 0, 1638436, 536870912, 0, 1638437, 536870912, 0, 1638438, 536870912, 0, 1638439, 536870912, 0, 1638440, 536870912, 0, 1703936, 536870912, 0, 1703946, 536870912, 0, 1703953, 536870912, 0, 1703957, 536870912, 0, 1703961, 536870912, 0, 1703965, 536870912, 0, 1703969, 536870912, 0, 1703976, 536870912, 0, 1769472, 536870912, 0, 1769482, 536870912, 0, 1769486, 536870912, 0, 1769489, 536870912, 0, 1769493, 536870912, 0, 1769497, 536870912, 0, 1769501, 536870912, 0, 1769505, 536870912, 0, 1769512, 536870912, 0, 1835008, 536870912, 0, 1835009, 536870912, 0, 1835010, 536870912, 0, 1835013, 536870912, 0, 1835014, 536870912, 0, 1835015, 536870912, 0, 1835016, 536870912, 0, 1835017, 536870912, 0, 1835018, 536870912, 0, 1835019, 536870912, 0, 1835020, 536870912, 0, 1835021, 536870912, 0, 1835022, 536870912, 0, 1835025, 536870912, 0, 1835029, 536870912, 0, 1835033, 536870912, 0, 1835037, 536870912, 0, 1835041, 536870912, 0, 1835048, 536870912, 0, 1900544, 536870912, 0, 1900551, 536870912, 0, 1900558, 536870912, 0, 1900561, 536870912, 0, 1900562, 536870912, 0, 1900563, 536870912, 0, 1900564, 536870912, 0, 1900565, 536870912, 0, 1900566, 536870912, 0, 1900567, 536870912, 0, 1900568, 536870912, 0, 1900569, 536870912, 0, 1900570, 536870912, 0, 1900572, 536870912, 0, 1900573, 536870912, 0, 1900574, 536870912, 0, 1900575, 536870912, 0, 1900576, 536870912, 0, 1900577, 536870912, 0, 1900584, 536870912, 0, 1966080, 536870912, 0, 1966087, 536870912, 0, 1966094, 536870912, 0, 1966120, 536870912, 0, 2031616, 536870912, 0, 2031617, 0, 0, 2031618, 0, 0, 2031621, 0, 0, 2031622, 0, 0, 2031623, 536870912, 0, 2031630, 536870912, 0, 2031656, 536870912, 0, 2097152, 0, 0, 2097153, 0, 0, 2097158, 0, 0, 2097159, 536870912, 0, 2097166, 536870912, 0, 2097169, 536870912, 0, 2097170, 536870912, 0, 2097172, 536870912, 0, 2097173, 536870912, 0, 2097174, 536870912, 0, 2097175, 536870912, 0, 2097176, 536870912, 0, 2097177, 536870912, 0, 2097178, 536870912, 0, 2097179, 536870912, 0, 2097180, 536870912, 0, 2097181, 536870912, 0, 2097182, 536870912, 0, 2097183, 536870912, 0, 2097184, 536870912, 0, 2097185, 536870912, 0, 2097186, 536870912, 0, 2097187, 536870912, 0, 2097188, 536870912, 0, 2097189, 536870912, 0, 2097192, 536870912, 0, 2162688, 536870912, 0, 2162689, 0, 0, 2162694, 0, 0, 2162695, 536870912, 0, 2162702, 536870912, 0, 2162705, 536870912, 0, 2162725, 536870912, 0, 2162728, 536870912, 0, 2228224, 536870912, 0, 2228230, 0, 0, 2228231, 536870912, 0, 2228238, 536870912, 0, 2228241, 536870912, 0, 2228242, 536870912, 0, 2228243, 536870912, 0, 2228244, 536870912, 0, 2228245, 536870912, 0, 2228246, 536870912, 0, 2228247, 536870912, 0, 2228248, 536870912, 0, 2228249, 536870912, 0, 2228250, 536870912, 0, 2228251, 536870912, 0, 2228252, 536870912, 0, 2228253, 536870912, 0, 2228254, 536870912, 0, 2228256, 536870912, 0, 2228257, 536870912, 0, 2228258, 536870912, 0, 2228259, 536870912, 0, 2228260, 536870912, 0, 2228261, 536870912, 0, 2228264, 536870912, 0, 2293760, 536870912, 0, 2293761, 536870912, 0, 2293762, 536870912, 0, 2293765, 536870912, 0, 2293766, 536870912, 0, 2293767, 536870912, 0, 2293768, 536870912, 0, 2293769, 536870912, 0, 2293770, 536870912, 0, 2293771, 536870912, 0, 2293772, 536870912, 0, 2293773, 536870912, 0, 2293774, 536870912, 0, 2293777, 536870912, 0, 2293797, 536870912, 0, 2293800, 536870912, 0, 2359296, 536870912, 0, 2359313, 536870912, 0, 2359314, 536870912, 0, 2359316, 536870912, 0, 2359317, 536870912, 0, 2359318, 536870912, 0, 2359319, 536870912, 0, 2359320, 536870912, 0, 2359321, 536870912, 0, 2359322, 536870912, 0, 2359323, 536870912, 0, 2359324, 536870912, 0, 2359325, 536870912, 0, 2359326, 536870912, 0, 2359327, 536870912, 0, 2359328, 536870912, 0, 2359329, 536870912, 0, 2359330, 536870912, 0, 2359331, 536870912, 0, 2359332, 536870912, 0, 2359333, 536870912, 0, 2359336, 536870912, 0, 2424832, 536870912, 0, 2424872, 536870912, 0, 2490368, 536870912, 0, 2490375, 536870912, 0, 2490376, 536870912, 0, 2490377, 536870912, 0, 2490378, 536870912, 0, 2490379, 536870912, 0, 2490380, 536870912, 0, 2490381, 536870912, 0, 2490382, 536870912, 0, 2490408, 536870912, 0, 2555904, 536870912, 0, 2555911, 536870912, 0, 2555918, 536870912, 0, 2555944, 536870912, 0, 2621440, 536870912, 0, 2621441, 536870912, 0, 2621442, 536870912, 0, 2621443, 536870912, 0, 2621444, 536870912, 0, 2621445, 536870912, 0, 2621446, 536870912, 0, 2621447, 536870912, 0, 2621454, 536870912, 0, 2621455, 536870912, 0, 2621456, 536870912, 0, 2621457, 536870912, 0, 2621458, 536870912, 0, 2621459, 536870912, 0, 2621460, 536870912, 0, 2621461, 536870912, 0, 2621462, 536870912, 0, 2621463, 536870912, 0, 2621464, 536870912, 0, 2621465, 536870912, 0, 2621466, 536870912, 0, 2621467, 536870912, 0, 2621468, 536870912, 0, 2621469, 536870912, 0, 2621470, 536870912, 0, 2621471, 536870912, 0, 2621472, 536870912, 0, 2621473, 536870912, 0, 2621474, 536870912, 0, 2621475, 536870912, 0, 2621476, 536870912, 0, 2621477, 536870912, 0, 2621478, 536870912, 0, 2621479, 536870912, 0, 2621480, 536870912, 0 )

[node name="paths" type="Node2D" parent="."]

[node name="Path2D" type="Path2D" parent="paths"]
curve = SubResource( 3 )
script = ExtResource( 10 )
autostart = true

[node name="PathFollow2D" type="PathFollow2D" parent="paths/Path2D"]
position = Vector2( 1024, 2464 )
rotate = false

[node name="RemoteTransform2D" type="RemoteTransform2D" parent="paths/Path2D/PathFollow2D"]
remote_path = NodePath("../../../../Nodes/npc3")

[node name="Path2D2" type="Path2D" parent="paths"]
position = Vector2( 32, -1280 )
curve = SubResource( 3 )
script = ExtResource( 10 )
autostart = true

[node name="PathFollow2D" type="PathFollow2D" parent="paths/Path2D2"]
position = Vector2( 1024, 2464 )
rotate = false

[node name="RemoteTransform2D" type="RemoteTransform2D" parent="paths/Path2D2/PathFollow2D"]
remote_path = NodePath("../../../../Nodes/npc4")
[connection signal="body_entered" from="Nodes/npc/Area2D" to="Nodes/npc" method="_on_Area2D_body_entered"]
[connection signal="body_exited" from="Nodes/npc/Area2D" to="Nodes/npc" method="_on_Area2D_body_exited"]
[connection signal="body_entered" from="Nodes/npc2/Area2D" to="Nodes/npc2" method="_on_Area2D_body_entered"]
[connection signal="body_exited" from="Nodes/npc2/Area2D" to="Nodes/npc2" method="_on_Area2D_body_exited"]
[connection signal="body_entered" from="Nodes/npc3/Area2D" to="Nodes/npc3" method="_on_Area2D_body_entered"]
[connection signal="body_exited" from="Nodes/npc3/Area2D" to="Nodes/npc3" method="_on_Area2D_body_exited"]
[connection signal="body_entered" from="Nodes/npc4/Area2D" to="Nodes/npc4" method="_on_Area2D_body_entered"]
[connection signal="body_exited" from="Nodes/npc4/Area2D" to="Nodes/npc4" method="_on_Area2D_body_exited"]
