[gd_scene load_steps=5 format=2]

[ext_resource path="res://res/objects/nothing.png" type="Texture" id=1]
[ext_resource path="res://Sprite.gd" type="Script" id=2]
[ext_resource path="res://fnt/Marker Felt.ttf" type="DynamicFontData" id=3]

[sub_resource type="DynamicFont" id=1]
size = 40
outline_color = Color( 0.054902, 1, 0, 1 )
font_data = ExtResource( 3 )

[node name="Sprite" type="Node2D"]
script = ExtResource( 2 )

[node name="Object" type="TextureButton" parent="."]
margin_right = 64.0
margin_bottom = 64.0
texture_normal = ExtResource( 1 )
expand = true
__meta__ = {
"_edit_use_anchors_": false
}

[node name="Label" type="Label" parent="."]
margin_right = 64.0
margin_bottom = 64.0
custom_fonts/font = SubResource( 1 )
custom_colors/font_color = Color( 1, 1, 1, 1 )
align = 1
valign = 1
__meta__ = {
"_edit_use_anchors_": false
}
[connection signal="pressed" from="Object" to="." method="_on_Object_pressed"]
