{"frames":[
{"filename":"e (409)","frame":{"x":535,"y":1368,"w":118,"h":94},"rotated":false,"trimmed":false,"spriteSourceSize":{"x":0,"y":0,"w":118,"h":94},"sourceSize":{"w":118,"h":94}},
{"filename":"e (410)","frame":{"x":238,"y":1265,"w":118,"h":101},"rotated":false,"trimmed":false,"spriteSourceSize":{"x":0,"y":0,"w":118,"h":101},"sourceSize":{"w":118,"h":101}},
{"filename":"e (411)","frame":{"x":1730,"y":1333,"w":58,"h":30},"rotated":false,"trimmed":false,"spriteSourceSize":{"x":0,"y":0,"w":58,"h":30},"sourceSize":{"w":58,"h":30}},
{"filename":"e (412)","frame":{"x":1730,"y":1302,"w":58,"h":30},"rotated":false,"trimmed":false,"spriteSourceSize":{"x":0,"y":0,"w":58,"h":30},"sourceSize":{"w":58,"h":30}},
{"filename":"e (413)","frame":{"x":472,"y":1758,"w":58,"h":30},"rotated":false,"trimmed":false,"spriteSourceSize":{"x":0,"y":0,"w":58,"h":30},"sourceSize":{"w":58,"h":30}},
{"filename":"e (414)","frame":{"x":119,"y":1636,"w":118,"h":60},"rotated":false,"trimmed":false,"spriteSourceSize":{"x":0,"y":0,"w":118,"h":60},"sourceSize":{"w":118,"h":60}},
{"filename":"e (415)","frame":{"x":1552,"y":1346,"w":118,"h":61},"rotated":false,"trimmed":false,"spriteSourceSize":{"x":0,"y":0,"w":118,"h":61},"sourceSize":{"w":118,"h":61}},
{"filename":"e (416)","frame":{"x":1428,"y":1636,"w":118,"h":60},"rotated":false,"trimmed":false,"spriteSourceSize":{"x":0,"y":0,"w":118,"h":60},"sourceSize":{"w":118,"h":60}},
{"filename":"e (417)","frame":{"x":1432,"y":1556,"w":118,"h":69},"rotated":false,"trimmed":false,"spriteSourceSize":{"x":0,"y":0,"w":118,"h":69},"sourceSize":{"w":118,"h":69}},
{"filename":"e (418)","frame":{"x":0,"y":1556,"w":118,"h":79},"rotated":false,"trimmed":false,"spriteSourceSize":{"x":0,"y":0,"w":118,"h":79},"sourceSize":{"w":118,"h":79}},
{"filename":"e (419)","frame":{"x":1013,"y":1464,"w":118,"h":88},"rotated":false,"trimmed":false,"spriteSourceSize":{"x":0,"y":0,"w":118,"h":88},"sourceSize":{"w":118,"h":88}},
{"filename":"e (420)","frame":{"x":599,"y":1556,"w":118,"h":74},"rotated":false,"trimmed":false,"spriteSourceSize":{"x":0,"y":0,"w":118,"h":74},"sourceSize":{"w":118,"h":74}},
{"filename":"e (421)","frame":{"x":302,"y":1556,"w":58,"h":76},"rotated":false,"trimmed":false,"spriteSourceSize":{"x":0,"y":0,"w":58,"h":76},"sourceSize":{"w":58,"h":76}},
{"filename":"e (422)","frame":{"x":1370,"y":1464,"w":58,"h":64},"rotated":false,"trimmed":false,"spriteSourceSize":{"x":0,"y":0,"w":58,"h":64},"sourceSize":{"w":58,"h":64}},
{"filename":"e (423)","frame":{"x":716,"y":1464,"w":58,"h":89},"rotated":false,"trimmed":false,"spriteSourceSize":{"x":0,"y":0,"w":58,"h":89},"sourceSize":{"w":58,"h":89}},
{"filename":"e (424)","frame":{"x":478,"y":0,"w":238,"h":180},"rotated":false,"trimmed":false,"spriteSourceSize":{"x":0,"y":0,"w":238,"h":180},"sourceSize":{"w":238,"h":180}},
{"filename":"e (425)","frame":{"x":1270,"y":1341,"w":24,"h":15},"rotated":false,"trimmed":false,"spriteSourceSize":{"x":0,"y":0,"w":24,"h":15},"sourceSize":{"w":24,"h":15}},
{"filename":"e (426)","frame":{"x":1268,"y":1323,"w":24,"h":15},"rotated":false,"trimmed":false,"spriteSourceSize":{"x":0,"y":0,"w":24,"h":15},"sourceSize":{"w":24,"h":15}},
{"filename":"e (427)","frame":{"x":1030,"y":1169,"w":20,"h":13},"rotated":false,"trimmed":false,"spriteSourceSize":{"x":0,"y":0,"w":20,"h":13},"sourceSize":{"w":20,"h":13}},
{"filename":"e (428)","frame":{"x":1268,"y":1285,"w":19,"h":15},"rotated":false,"trimmed":false,"spriteSourceSize":{"x":0,"y":0,"w":19,"h":15},"sourceSize":{"w":19,"h":15}},
{"filename":"e (429)","frame":{"x":1030,"y":1155,"w":27,"h":13},"rotated":false,"trimmed":false,"spriteSourceSize":{"x":0,"y":0,"w":27,"h":13},"sourceSize":{"w":27,"h":13}},
{"filename":"e (430)","frame":{"x":1293,"y":1265,"w":19,"h":12},"rotated":false,"trimmed":false,"spriteSourceSize":{"x":0,"y":0,"w":19,"h":12},"sourceSize":{"w":19,"h":12}},
{"filename":"e (431)","frame":{"x":1268,"y":1265,"w":24,"h":14},"rotated":false,"trimmed":false,"spriteSourceSize":{"x":0,"y":0,"w":24,"h":14},"sourceSize":{"w":24,"h":14}},
{"filename":"e (1)","frame":{"x":1671,"y":712,"w":58,"h":30},"rotated":false,"trimmed":false,"spriteSourceSize":{"x":0,"y":0,"w":58,"h":30},"sourceSize":{"w":58,"h":30}},
{"filename":"e (2)","frame":{"x":1671,"y":619,"w":58,"h":30},"rotated":false,"trimmed":false,"spriteSourceSize":{"x":0,"y":0,"w":58,"h":30},"sourceSize":{"w":58,"h":30}},
{"filename":"e (3)","frame":{"x":1671,"y":588,"w":58,"h":30},"rotated":false,"trimmed":false,"spriteSourceSize":{"x":0,"y":0,"w":58,"h":30},"sourceSize":{"w":58,"h":30}},
{"filename":"e (4)","frame":{"x":1730,"y":186,"w":58,"h":30},"rotated":false,"trimmed":false,"spriteSourceSize":{"x":0,"y":0,"w":58,"h":30},"sourceSize":{"w":58,"h":30}},
{"filename":"e (5)","frame":{"x":1730,"y":93,"w":58,"h":30},"rotated":false,"trimmed":false,"spriteSourceSize":{"x":0,"y":0,"w":58,"h":30},"sourceSize":{"w":58,"h":30}},
{"filename":"e (6)","frame":{"x":944,"y":1758,"w":58,"h":30},"rotated":false,"trimmed":false,"spriteSourceSize":{"x":0,"y":0,"w":58,"h":30},"sourceSize":{"w":58,"h":30}},
{"filename":"e (7)","frame":{"x":1121,"y":1758,"w":58,"h":30},"rotated":false,"trimmed":false,"spriteSourceSize":{"x":0,"y":0,"w":58,"h":30},"sourceSize":{"w":58,"h":30}},
{"filename":"e (8)","frame":{"x":118,"y":1758,"w":58,"h":30},"rotated":false,"trimmed":false,"spriteSourceSize":{"x":0,"y":0,"w":58,"h":30},"sourceSize":{"w":58,"h":30}},
{"filename":"e (9)","frame":{"x":1671,"y":1301,"w":58,"h":30},"rotated":false,"trimmed":false,"spriteSourceSize":{"x":0,"y":0,"w":58,"h":30},"sourceSize":{"w":58,"h":30}},
{"filename":"e (10)","frame":{"x":1671,"y":1611,"w":58,"h":30},"rotated":false,"trimmed":false,"spriteSourceSize":{"x":0,"y":0,"w":58,"h":30},"sourceSize":{"w":58,"h":30}},
{"filename":"e (11)","frame":{"x":59,"y":1758,"w":58,"h":30},"rotated":false,"trimmed":false,"spriteSourceSize":{"x":0,"y":0,"w":58,"h":30},"sourceSize":{"w":58,"h":30}},
{"filename":"e (12)","frame":{"x":177,"y":1758,"w":58,"h":30},"rotated":false,"trimmed":false,"spriteSourceSize":{"x":0,"y":0,"w":58,"h":30},"sourceSize":{"w":58,"h":30}},
{"filename":"e (13)","frame":{"x":236,"y":1758,"w":58,"h":30},"rotated":false,"trimmed":false,"spriteSourceSize":{"x":0,"y":0,"w":58,"h":30},"sourceSize":{"w":58,"h":30}},
{"filename":"e (14)","frame":{"x":708,"y":1758,"w":58,"h":30},"rotated":false,"trimmed":false,"spriteSourceSize":{"x":0,"y":0,"w":58,"h":30},"sourceSize":{"w":58,"h":30}},
{"filename":"e (15)","frame":{"x":1671,"y":836,"w":58,"h":30},"rotated":false,"trimmed":false,"spriteSourceSize":{"x":0,"y":0,"w":58,"h":30},"sourceSize":{"w":58,"h":30}},
{"filename":"e (16)","frame":{"x":1433,"y":859,"w":118,"h":83},"rotated":false,"trimmed":false,"spriteSourceSize":{"x":0,"y":0,"w":118,"h":83},"sourceSize":{"w":118,"h":83}},
{"filename":"e (17)","frame":{"x":1552,"y":273,"w":118,"h":64},"rotated":false,"trimmed":false,"spriteSourceSize":{"x":0,"y":0,"w":118,"h":64},"sourceSize":{"w":118,"h":64}},
{"filename":"e (18)","frame":{"x":1433,"y":88,"w":118,"h":87},"rotated":false,"trimmed":false,"spriteSourceSize":{"x":0,"y":0,"w":118,"h":87},"sourceSize":{"w":118,"h":87}},
{"filename":"e (19)","frame":{"x":537,"y":1464,"w":178,"h":90},"rotated":false,"trimmed":false,"spriteSourceSize":{"x":0,"y":0,"w":178,"h":90},"sourceSize":{"w":178,"h":90}},
{"filename":"e (20)","frame":{"x":1671,"y":898,"w":58,"h":30},"rotated":false,"trimmed":false,"spriteSourceSize":{"x":0,"y":0,"w":58,"h":30},"sourceSize":{"w":58,"h":30}},
{"filename":"e (21)","frame":{"x":238,"y":1636,"w":118,"h":60},"rotated":false,"trimmed":false,"spriteSourceSize":{"x":0,"y":0,"w":118,"h":60},"sourceSize":{"w":118,"h":60}},
{"filename":"e (22)","frame":{"x":1433,"y":606,"w":118,"h":84},"rotated":false,"trimmed":false,"spriteSourceSize":{"x":0,"y":0,"w":118,"h":84},"sourceSize":{"w":118,"h":84}},
{"filename":"e (23)","frame":{"x":179,"y":1464,"w":178,"h":90},"rotated":false,"trimmed":false,"spriteSourceSize":{"x":0,"y":0,"w":178,"h":90},"sourceSize":{"w":178,"h":90}},
{"filename":"e (24)","frame":{"x":0,"y":1140,"w":238,"h":124},"rotated":false,"trimmed":false,"spriteSourceSize":{"x":0,"y":0,"w":238,"h":124},"sourceSize":{"w":238,"h":124}},
{"filename":"e (25)","frame":{"x":717,"y":745,"w":178,"h":148},"rotated":false,"trimmed":false,"spriteSourceSize":{"x":0,"y":0,"w":178,"h":148},"sourceSize":{"w":178,"h":148}},
{"filename":"e (26)","frame":{"x":717,"y":0,"w":178,"h":148},"rotated":false,"trimmed":false,"spriteSourceSize":{"x":0,"y":0,"w":178,"h":148},"sourceSize":{"w":178,"h":148}},
{"filename":"e (27)","frame":{"x":478,"y":498,"w":178,"h":148},"rotated":false,"trimmed":false,"spriteSourceSize":{"x":0,"y":0,"w":178,"h":148},"sourceSize":{"w":178,"h":148}},
{"filename":"e (28)","frame":{"x":717,"y":149,"w":178,"h":148},"rotated":false,"trimmed":false,"spriteSourceSize":{"x":0,"y":0,"w":178,"h":148},"sourceSize":{"w":178,"h":148}},
{"filename":"e (29)","frame":{"x":717,"y":596,"w":178,"h":148},"rotated":false,"trimmed":false,"spriteSourceSize":{"x":0,"y":0,"w":178,"h":148},"sourceSize":{"w":178,"h":148}},
{"filename":"e (30)","frame":{"x":896,"y":0,"w":178,"h":148},"rotated":false,"trimmed":false,"spriteSourceSize":{"x":0,"y":0,"w":178,"h":148},"sourceSize":{"w":178,"h":148}},
{"filename":"e (31)","frame":{"x":717,"y":447,"w":178,"h":148},"rotated":false,"trimmed":false,"spriteSourceSize":{"x":0,"y":0,"w":178,"h":148},"sourceSize":{"w":178,"h":148}},
{"filename":"e (32)","frame":{"x":478,"y":342,"w":178,"h":155},"rotated":false,"trimmed":false,"spriteSourceSize":{"x":0,"y":0,"w":178,"h":155},"sourceSize":{"w":178,"h":155}},
{"filename":"e (33)","frame":{"x":717,"y":298,"w":178,"h":148},"rotated":false,"trimmed":false,"spriteSourceSize":{"x":0,"y":0,"w":178,"h":148},"sourceSize":{"w":178,"h":148}},
{"filename":"e (34)","frame":{"x":1372,"y":703,"w":58,"h":62},"rotated":false,"trimmed":false,"spriteSourceSize":{"x":0,"y":0,"w":58,"h":62},"sourceSize":{"w":58,"h":62}},
{"filename":"e (35)","frame":{"x":1552,"y":780,"w":58,"h":62},"rotated":false,"trimmed":false,"spriteSourceSize":{"x":0,"y":0,"w":58,"h":62},"sourceSize":{"w":58,"h":62}},
{"filename":"e (36)","frame":{"x":1552,"y":969,"w":58,"h":62},"rotated":false,"trimmed":false,"spriteSourceSize":{"x":0,"y":0,"w":58,"h":62},"sourceSize":{"w":58,"h":62}},
{"filename":"e (37)","frame":{"x":1401,"y":1529,"w":31,"h":19},"rotated":false,"trimmed":false,"spriteSourceSize":{"x":0,"y":0,"w":31,"h":19},"sourceSize":{"w":31,"h":19}},
{"filename":"e (38)","frame":{"x":1370,"y":1529,"w":30,"h":22},"rotated":false,"trimmed":false,"spriteSourceSize":{"x":0,"y":0,"w":30,"h":22},"sourceSize":{"w":30,"h":22}},
{"filename":"e (39)","frame":{"x":1671,"y":991,"w":58,"h":30},"rotated":false,"trimmed":false,"spriteSourceSize":{"x":0,"y":0,"w":58,"h":30},"sourceSize":{"w":58,"h":30}},
{"filename":"e (40)","frame":{"x":1671,"y":1022,"w":58,"h":30},"rotated":false,"trimmed":false,"spriteSourceSize":{"x":0,"y":0,"w":58,"h":30},"sourceSize":{"w":58,"h":30}},
{"filename":"e (41)","frame":{"x":1671,"y":1053,"w":58,"h":30},"rotated":false,"trimmed":false,"spriteSourceSize":{"x":0,"y":0,"w":58,"h":30},"sourceSize":{"w":58,"h":30}},
{"filename":"e (42)","frame":{"x":1671,"y":1084,"w":58,"h":30},"rotated":false,"trimmed":false,"spriteSourceSize":{"x":0,"y":0,"w":58,"h":30},"sourceSize":{"w":58,"h":30}},
{"filename":"e (43)","frame":{"x":1671,"y":1115,"w":58,"h":30},"rotated":false,"trimmed":false,"spriteSourceSize":{"x":0,"y":0,"w":58,"h":30},"sourceSize":{"w":58,"h":30}},
{"filename":"e (44)","frame":{"x":1671,"y":1146,"w":58,"h":30},"rotated":false,"trimmed":false,"spriteSourceSize":{"x":0,"y":0,"w":58,"h":30},"sourceSize":{"w":58,"h":30}},
{"filename":"e (45)","frame":{"x":1671,"y":1177,"w":58,"h":30},"rotated":false,"trimmed":false,"spriteSourceSize":{"x":0,"y":0,"w":58,"h":30},"sourceSize":{"w":58,"h":30}},
{"filename":"e (46)","frame":{"x":1671,"y":1208,"w":58,"h":30},"rotated":false,"trimmed":false,"spriteSourceSize":{"x":0,"y":0,"w":58,"h":30},"sourceSize":{"w":58,"h":30}},
{"filename":"e (47)","frame":{"x":1671,"y":1239,"w":58,"h":30},"rotated":false,"trimmed":false,"spriteSourceSize":{"x":0,"y":0,"w":58,"h":30},"sourceSize":{"w":58,"h":30}},
{"filename":"e (48)","frame":{"x":1671,"y":1270,"w":58,"h":30},"rotated":false,"trimmed":false,"spriteSourceSize":{"x":0,"y":0,"w":58,"h":30},"sourceSize":{"w":58,"h":30}},
{"filename":"e (49)","frame":{"x":1671,"y":1332,"w":58,"h":30},"rotated":false,"trimmed":false,"spriteSourceSize":{"x":0,"y":0,"w":58,"h":30},"sourceSize":{"w":58,"h":30}},
{"filename":"e (50)","frame":{"x":1671,"y":1363,"w":58,"h":30},"rotated":false,"trimmed":false,"spriteSourceSize":{"x":0,"y":0,"w":58,"h":30},"sourceSize":{"w":58,"h":30}},
{"filename":"e (51)","frame":{"x":1671,"y":1425,"w":58,"h":30},"rotated":false,"trimmed":false,"spriteSourceSize":{"x":0,"y":0,"w":58,"h":30},"sourceSize":{"w":58,"h":30}},
{"filename":"e (52)","frame":{"x":1671,"y":1549,"w":58,"h":30},"rotated":false,"trimmed":false,"spriteSourceSize":{"x":0,"y":0,"w":58,"h":30},"sourceSize":{"w":58,"h":30}},
{"filename":"e (53)","frame":{"x":1671,"y":1580,"w":58,"h":30},"rotated":false,"trimmed":false,"spriteSourceSize":{"x":0,"y":0,"w":58,"h":30},"sourceSize":{"w":58,"h":30}},
{"filename":"e (54)","frame":{"x":1730,"y":1395,"w":58,"h":30},"rotated":false,"trimmed":false,"spriteSourceSize":{"x":0,"y":0,"w":58,"h":30},"sourceSize":{"w":58,"h":30}},
{"filename":"e (55)","frame":{"x":1671,"y":1704,"w":58,"h":30},"rotated":false,"trimmed":false,"spriteSourceSize":{"x":0,"y":0,"w":58,"h":30},"sourceSize":{"w":58,"h":30}},
{"filename":"e (56)","frame":{"x":1671,"y":743,"w":58,"h":30},"rotated":false,"trimmed":false,"spriteSourceSize":{"x":0,"y":0,"w":58,"h":30},"sourceSize":{"w":58,"h":30}},
{"filename":"e (57)","frame":{"x":1671,"y":774,"w":58,"h":30},"rotated":false,"trimmed":false,"spriteSourceSize":{"x":0,"y":0,"w":58,"h":30},"sourceSize":{"w":58,"h":30}},
{"filename":"e (58)","frame":{"x":1671,"y":867,"w":58,"h":30},"rotated":false,"trimmed":false,"spriteSourceSize":{"x":0,"y":0,"w":58,"h":30},"sourceSize":{"w":58,"h":30}},
{"filename":"e (59)","frame":{"x":1671,"y":929,"w":58,"h":30},"rotated":false,"trimmed":false,"spriteSourceSize":{"x":0,"y":0,"w":58,"h":30},"sourceSize":{"w":58,"h":30}},
{"filename":"e (60)","frame":{"x":1671,"y":960,"w":58,"h":30},"rotated":false,"trimmed":false,"spriteSourceSize":{"x":0,"y":0,"w":58,"h":30},"sourceSize":{"w":58,"h":30}},
{"filename":"e (61)","frame":{"x":1671,"y":1394,"w":58,"h":30},"rotated":false,"trimmed":false,"spriteSourceSize":{"x":0,"y":0,"w":58,"h":30},"sourceSize":{"w":58,"h":30}},
{"filename":"e (62)","frame":{"x":1671,"y":1456,"w":58,"h":30},"rotated":false,"trimmed":false,"spriteSourceSize":{"x":0,"y":0,"w":58,"h":30},"sourceSize":{"w":58,"h":30}},
{"filename":"e (63)","frame":{"x":1671,"y":1518,"w":58,"h":30},"rotated":false,"trimmed":false,"spriteSourceSize":{"x":0,"y":0,"w":58,"h":30},"sourceSize":{"w":58,"h":30}},
{"filename":"e (64)","frame":{"x":1730,"y":1364,"w":58,"h":30},"rotated":false,"trimmed":false,"spriteSourceSize":{"x":0,"y":0,"w":58,"h":30},"sourceSize":{"w":58,"h":30}},
{"filename":"e (65)","frame":{"x":1730,"y":899,"w":58,"h":30},"rotated":false,"trimmed":false,"spriteSourceSize":{"x":0,"y":0,"w":58,"h":30},"sourceSize":{"w":58,"h":30}},
{"filename":"e (66)","frame":{"x":1730,"y":868,"w":58,"h":30},"rotated":false,"trimmed":false,"spriteSourceSize":{"x":0,"y":0,"w":58,"h":30},"sourceSize":{"w":58,"h":30}},
{"filename":"e (67)","frame":{"x":1730,"y":837,"w":58,"h":30},"rotated":false,"trimmed":false,"spriteSourceSize":{"x":0,"y":0,"w":58,"h":30},"sourceSize":{"w":58,"h":30}},
{"filename":"e (68)","frame":{"x":1730,"y":806,"w":58,"h":30},"rotated":false,"trimmed":false,"spriteSourceSize":{"x":0,"y":0,"w":58,"h":30},"sourceSize":{"w":58,"h":30}},
{"filename":"e (69)","frame":{"x":1730,"y":775,"w":58,"h":30},"rotated":false,"trimmed":false,"spriteSourceSize":{"x":0,"y":0,"w":58,"h":30},"sourceSize":{"w":58,"h":30}},
{"filename":"e (70)","frame":{"x":1730,"y":744,"w":58,"h":30},"rotated":false,"trimmed":false,"spriteSourceSize":{"x":0,"y":0,"w":58,"h":30},"sourceSize":{"w":58,"h":30}},
{"filename":"e (71)","frame":{"x":1730,"y":713,"w":58,"h":30},"rotated":false,"trimmed":false,"spriteSourceSize":{"x":0,"y":0,"w":58,"h":30},"sourceSize":{"w":58,"h":30}},
{"filename":"e (72)","frame":{"x":1730,"y":682,"w":58,"h":30},"rotated":false,"trimmed":false,"spriteSourceSize":{"x":0,"y":0,"w":58,"h":30},"sourceSize":{"w":58,"h":30}},
{"filename":"e (73)","frame":{"x":1730,"y":651,"w":58,"h":30},"rotated":false,"trimmed":false,"spriteSourceSize":{"x":0,"y":0,"w":58,"h":30},"sourceSize":{"w":58,"h":30}},
{"filename":"e (74)","frame":{"x":1730,"y":620,"w":58,"h":30},"rotated":false,"trimmed":false,"spriteSourceSize":{"x":0,"y":0,"w":58,"h":30},"sourceSize":{"w":58,"h":30}},
{"filename":"e (75)","frame":{"x":1730,"y":589,"w":58,"h":30},"rotated":false,"trimmed":false,"spriteSourceSize":{"x":0,"y":0,"w":58,"h":30},"sourceSize":{"w":58,"h":30}},
{"filename":"e (76)","frame":{"x":1730,"y":558,"w":58,"h":30},"rotated":false,"trimmed":false,"spriteSourceSize":{"x":0,"y":0,"w":58,"h":30},"sourceSize":{"w":58,"h":30}},
{"filename":"e (77)","frame":{"x":1730,"y":527,"w":58,"h":30},"rotated":false,"trimmed":false,"spriteSourceSize":{"x":0,"y":0,"w":58,"h":30},"sourceSize":{"w":58,"h":30}},
{"filename":"e (78)","frame":{"x":1730,"y":496,"w":58,"h":30},"rotated":false,"trimmed":false,"spriteSourceSize":{"x":0,"y":0,"w":58,"h":30},"sourceSize":{"w":58,"h":30}},
{"filename":"e (79)","frame":{"x":1730,"y":465,"w":58,"h":30},"rotated":false,"trimmed":false,"spriteSourceSize":{"x":0,"y":0,"w":58,"h":30},"sourceSize":{"w":58,"h":30}},
{"filename":"e (80)","frame":{"x":1730,"y":434,"w":58,"h":30},"rotated":false,"trimmed":false,"spriteSourceSize":{"x":0,"y":0,"w":58,"h":30},"sourceSize":{"w":58,"h":30}},
{"filename":"e (81)","frame":{"x":1730,"y":403,"w":58,"h":30},"rotated":false,"trimmed":false,"spriteSourceSize":{"x":0,"y":0,"w":58,"h":30},"sourceSize":{"w":58,"h":30}},
{"filename":"e (82)","frame":{"x":1730,"y":372,"w":58,"h":30},"rotated":false,"trimmed":false,"spriteSourceSize":{"x":0,"y":0,"w":58,"h":30},"sourceSize":{"w":58,"h":30}},
{"filename":"e (83)","frame":{"x":1730,"y":341,"w":58,"h":30},"rotated":false,"trimmed":false,"spriteSourceSize":{"x":0,"y":0,"w":58,"h":30},"sourceSize":{"w":58,"h":30}},
{"filename":"e (84)","frame":{"x":1730,"y":310,"w":58,"h":30},"rotated":false,"trimmed":false,"spriteSourceSize":{"x":0,"y":0,"w":58,"h":30},"sourceSize":{"w":58,"h":30}},
{"filename":"e (85)","frame":{"x":1730,"y":279,"w":58,"h":30},"rotated":false,"trimmed":false,"spriteSourceSize":{"x":0,"y":0,"w":58,"h":30},"sourceSize":{"w":58,"h":30}},
{"filename":"e (86)","frame":{"x":1730,"y":248,"w":58,"h":30},"rotated":false,"trimmed":false,"spriteSourceSize":{"x":0,"y":0,"w":58,"h":30},"sourceSize":{"w":58,"h":30}},
{"filename":"e (87)","frame":{"x":1730,"y":217,"w":58,"h":30},"rotated":false,"trimmed":false,"spriteSourceSize":{"x":0,"y":0,"w":58,"h":30},"sourceSize":{"w":58,"h":30}},
{"filename":"e (88)","frame":{"x":1671,"y":46,"w":58,"h":44},"rotated":false,"trimmed":false,"spriteSourceSize":{"x":0,"y":0,"w":58,"h":44},"sourceSize":{"w":58,"h":44}},
{"filename":"e (89)","frame":{"x":1730,"y":155,"w":58,"h":30},"rotated":false,"trimmed":false,"spriteSourceSize":{"x":0,"y":0,"w":58,"h":30},"sourceSize":{"w":58,"h":30}},
{"filename":"e (90)","frame":{"x":1730,"y":124,"w":58,"h":30},"rotated":false,"trimmed":false,"spriteSourceSize":{"x":0,"y":0,"w":58,"h":30},"sourceSize":{"w":58,"h":30}},
{"filename":"e (91)","frame":{"x":1372,"y":964,"w":58,"h":32},"rotated":false,"trimmed":false,"spriteSourceSize":{"x":0,"y":0,"w":58,"h":32},"sourceSize":{"w":58,"h":32}},
{"filename":"e (92)","frame":{"x":1730,"y":62,"w":58,"h":30},"rotated":false,"trimmed":false,"spriteSourceSize":{"x":0,"y":0,"w":58,"h":30},"sourceSize":{"w":58,"h":30}},
{"filename":"e (93)","frame":{"x":1730,"y":31,"w":58,"h":30},"rotated":false,"trimmed":false,"spriteSourceSize":{"x":0,"y":0,"w":58,"h":30},"sourceSize":{"w":58,"h":30}},
{"filename":"e (94)","frame":{"x":1671,"y":267,"w":58,"h":43},"rotated":false,"trimmed":false,"spriteSourceSize":{"x":0,"y":0,"w":58,"h":43},"sourceSize":{"w":58,"h":43}},
{"filename":"e (95)","frame":{"x":1611,"y":1032,"w":58,"h":49},"rotated":false,"trimmed":false,"spriteSourceSize":{"x":0,"y":0,"w":58,"h":49},"sourceSize":{"w":58,"h":49}},
{"filename":"e (96)","frame":{"x":1652,"y":1758,"w":58,"h":30},"rotated":false,"trimmed":false,"spriteSourceSize":{"x":0,"y":0,"w":58,"h":30},"sourceSize":{"w":58,"h":30}},
{"filename":"e (97)","frame":{"x":1671,"y":311,"w":58,"h":42},"rotated":false,"trimmed":false,"spriteSourceSize":{"x":0,"y":0,"w":58,"h":42},"sourceSize":{"w":58,"h":42}},
{"filename":"e (98)","frame":{"x":1534,"y":1758,"w":58,"h":30},"rotated":false,"trimmed":false,"spriteSourceSize":{"x":0,"y":0,"w":58,"h":30},"sourceSize":{"w":58,"h":30}},
{"filename":"e (99)","frame":{"x":1475,"y":1758,"w":58,"h":30},"rotated":false,"trimmed":false,"spriteSourceSize":{"x":0,"y":0,"w":58,"h":30},"sourceSize":{"w":58,"h":30}},
{"filename":"e (100)","frame":{"x":1671,"y":525,"w":58,"h":31},"rotated":false,"trimmed":false,"spriteSourceSize":{"x":0,"y":0,"w":58,"h":31},"sourceSize":{"w":58,"h":31}},
{"filename":"e (101)","frame":{"x":1357,"y":1758,"w":58,"h":30},"rotated":false,"trimmed":false,"spriteSourceSize":{"x":0,"y":0,"w":58,"h":30},"sourceSize":{"w":58,"h":30}},
{"filename":"e (102)","frame":{"x":1298,"y":1758,"w":58,"h":30},"rotated":false,"trimmed":false,"spriteSourceSize":{"x":0,"y":0,"w":58,"h":30},"sourceSize":{"w":58,"h":30}},
{"filename":"e (103)","frame":{"x":1611,"y":1095,"w":58,"h":50},"rotated":false,"trimmed":false,"spriteSourceSize":{"x":0,"y":0,"w":58,"h":50},"sourceSize":{"w":58,"h":50}},
{"filename":"e (104)","frame":{"x":239,"y":428,"w":58,"h":33},"rotated":false,"trimmed":false,"spriteSourceSize":{"x":0,"y":0,"w":58,"h":33},"sourceSize":{"w":58,"h":33}},
{"filename":"e (105)","frame":{"x":1180,"y":1758,"w":58,"h":30},"rotated":false,"trimmed":false,"spriteSourceSize":{"x":0,"y":0,"w":58,"h":30},"sourceSize":{"w":58,"h":30}},
{"filename":"e (106)","frame":{"x":1671,"y":557,"w":58,"h":30},"rotated":false,"trimmed":false,"spriteSourceSize":{"x":0,"y":0,"w":58,"h":30},"sourceSize":{"w":58,"h":30}},
{"filename":"e (107)","frame":{"x":1062,"y":1758,"w":58,"h":30},"rotated":false,"trimmed":false,"spriteSourceSize":{"x":0,"y":0,"w":58,"h":30},"sourceSize":{"w":58,"h":30}},
{"filename":"e (108)","frame":{"x":1671,"y":223,"w":58,"h":43},"rotated":false,"trimmed":false,"spriteSourceSize":{"x":0,"y":0,"w":58,"h":43},"sourceSize":{"w":58,"h":43}},
{"filename":"e (109)","frame":{"x":1372,"y":866,"w":58,"h":32},"rotated":false,"trimmed":false,"spriteSourceSize":{"x":0,"y":0,"w":58,"h":32},"sourceSize":{"w":58,"h":32}},
{"filename":"e (110)","frame":{"x":885,"y":1758,"w":58,"h":30},"rotated":false,"trimmed":false,"spriteSourceSize":{"x":0,"y":0,"w":58,"h":30},"sourceSize":{"w":58,"h":30}},
{"filename":"e (111)","frame":{"x":826,"y":1758,"w":58,"h":30},"rotated":false,"trimmed":false,"spriteSourceSize":{"x":0,"y":0,"w":58,"h":30},"sourceSize":{"w":58,"h":30}},
{"filename":"e (112)","frame":{"x":767,"y":1758,"w":58,"h":30},"rotated":false,"trimmed":false,"spriteSourceSize":{"x":0,"y":0,"w":58,"h":30},"sourceSize":{"w":58,"h":30}},
{"filename":"e (113)","frame":{"x":945,"y":1697,"w":58,"h":56},"rotated":false,"trimmed":false,"spriteSourceSize":{"x":0,"y":0,"w":58,"h":56},"sourceSize":{"w":58,"h":56}},
{"filename":"e (114)","frame":{"x":1015,"y":262,"w":58,"h":32},"rotated":false,"trimmed":false,"spriteSourceSize":{"x":0,"y":0,"w":58,"h":32},"sourceSize":{"w":58,"h":32}},
{"filename":"e (115)","frame":{"x":649,"y":1758,"w":58,"h":30},"rotated":false,"trimmed":false,"spriteSourceSize":{"x":0,"y":0,"w":58,"h":30},"sourceSize":{"w":58,"h":30}},
{"filename":"e (116)","frame":{"x":413,"y":1758,"w":58,"h":30},"rotated":false,"trimmed":false,"spriteSourceSize":{"x":0,"y":0,"w":58,"h":30},"sourceSize":{"w":58,"h":30}},
{"filename":"e (117)","frame":{"x":1671,"y":0,"w":58,"h":45},"rotated":false,"trimmed":false,"spriteSourceSize":{"x":0,"y":0,"w":58,"h":45},"sourceSize":{"w":58,"h":45}},
{"filename":"e (118)","frame":{"x":1671,"y":493,"w":58,"h":31},"rotated":false,"trimmed":false,"spriteSourceSize":{"x":0,"y":0,"w":58,"h":31},"sourceSize":{"w":58,"h":31}},
{"filename":"e (119)","frame":{"x":295,"y":1758,"w":58,"h":30},"rotated":false,"trimmed":false,"spriteSourceSize":{"x":0,"y":0,"w":58,"h":30},"sourceSize":{"w":58,"h":30}},
{"filename":"e (120)","frame":{"x":0,"y":1758,"w":58,"h":30},"rotated":false,"trimmed":false,"spriteSourceSize":{"x":0,"y":0,"w":58,"h":30},"sourceSize":{"w":58,"h":30}},
{"filename":"e (121)","frame":{"x":1671,"y":426,"w":58,"h":34},"rotated":false,"trimmed":false,"spriteSourceSize":{"x":0,"y":0,"w":58,"h":34},"sourceSize":{"w":58,"h":34}},
{"filename":"e (122)","frame":{"x":1299,"y":1697,"w":58,"h":54},"rotated":false,"trimmed":false,"spriteSourceSize":{"x":0,"y":0,"w":58,"h":54},"sourceSize":{"w":58,"h":54}},
{"filename":"e (123)","frame":{"x":1671,"y":1673,"w":58,"h":30},"rotated":false,"trimmed":false,"spriteSourceSize":{"x":0,"y":0,"w":58,"h":30},"sourceSize":{"w":58,"h":30}},
{"filename":"e (124)","frame":{"x":827,"y":1697,"w":58,"h":57},"rotated":false,"trimmed":false,"spriteSourceSize":{"x":0,"y":0,"w":58,"h":57},"sourceSize":{"w":58,"h":57}},
{"filename":"e (125)","frame":{"x":1358,"y":1697,"w":58,"h":52},"rotated":false,"trimmed":false,"spriteSourceSize":{"x":0,"y":0,"w":58,"h":52},"sourceSize":{"w":58,"h":52}},
{"filename":"e (126)","frame":{"x":1611,"y":1532,"w":58,"h":61},"rotated":false,"trimmed":false,"spriteSourceSize":{"x":0,"y":0,"w":58,"h":61},"sourceSize":{"w":58,"h":61}},
{"filename":"e (127)","frame":{"x":1611,"y":1221,"w":58,"h":61},"rotated":false,"trimmed":false,"spriteSourceSize":{"x":0,"y":0,"w":58,"h":61},"sourceSize":{"w":58,"h":61}},
{"filename":"e (128)","frame":{"x":1671,"y":1642,"w":58,"h":30},"rotated":false,"trimmed":false,"spriteSourceSize":{"x":0,"y":0,"w":58,"h":30},"sourceSize":{"w":58,"h":30}},
{"filename":"e (129)","frame":{"x":1611,"y":780,"w":58,"h":47},"rotated":false,"trimmed":false,"spriteSourceSize":{"x":0,"y":0,"w":58,"h":47},"sourceSize":{"w":58,"h":47}},
{"filename":"e (130)","frame":{"x":1240,"y":1697,"w":58,"h":55},"rotated":false,"trimmed":false,"spriteSourceSize":{"x":0,"y":0,"w":58,"h":55},"sourceSize":{"w":58,"h":55}},
{"filename":"e (131)","frame":{"x":1671,"y":135,"w":58,"h":43},"rotated":false,"trimmed":false,"spriteSourceSize":{"x":0,"y":0,"w":58,"h":43},"sourceSize":{"w":58,"h":43}},
{"filename":"e (132)","frame":{"x":896,"y":586,"w":178,"h":144},"rotated":false,"trimmed":false,"spriteSourceSize":{"x":0,"y":0,"w":178,"h":144},"sourceSize":{"w":178,"h":144}},
{"filename":"e (133)","frame":{"x":896,"y":871,"w":178,"h":117},"rotated":false,"trimmed":false,"spriteSourceSize":{"x":0,"y":0,"w":178,"h":117},"sourceSize":{"w":178,"h":117}},
{"filename":"e (134)","frame":{"x":299,"y":462,"w":178,"h":180},"rotated":false,"trimmed":false,"spriteSourceSize":{"x":0,"y":0,"w":178,"h":180},"sourceSize":{"w":178,"h":180}},
{"filename":"e (135)","frame":{"x":478,"y":1002,"w":118,"h":130},"rotated":false,"trimmed":false,"spriteSourceSize":{"x":0,"y":0,"w":118,"h":130},"sourceSize":{"w":118,"h":130}},
{"filename":"e (136)","frame":{"x":0,"y":462,"w":298,"h":205},"rotated":false,"trimmed":false,"spriteSourceSize":{"x":0,"y":0,"w":298,"h":205},"sourceSize":{"w":298,"h":205}},
{"filename":"e (137)","frame":{"x":299,"y":844,"w":298,"h":157},"rotated":false,"trimmed":false,"spriteSourceSize":{"x":0,"y":0,"w":298,"h":157},"sourceSize":{"w":298,"h":157}},
{"filename":"e (138)","frame":{"x":299,"y":668,"w":298,"h":175},"rotated":false,"trimmed":false,"spriteSourceSize":{"x":0,"y":0,"w":298,"h":175},"sourceSize":{"w":298,"h":175}},
{"filename":"e (139)","frame":{"x":0,"y":668,"w":298,"h":175},"rotated":false,"trimmed":false,"spriteSourceSize":{"x":0,"y":0,"w":298,"h":175},"sourceSize":{"w":298,"h":175}},
{"filename":"e (140)","frame":{"x":0,"y":844,"w":298,"h":157},"rotated":false,"trimmed":false,"spriteSourceSize":{"x":0,"y":0,"w":298,"h":157},"sourceSize":{"w":298,"h":157}},
{"filename":"e (141)","frame":{"x":416,"y":1368,"w":118,"h":94},"rotated":false,"trimmed":false,"spriteSourceSize":{"x":0,"y":0,"w":118,"h":94},"sourceSize":{"w":118,"h":94}},
{"filename":"e (142)","frame":{"x":0,"y":1002,"w":238,"h":137},"rotated":false,"trimmed":false,"spriteSourceSize":{"x":0,"y":0,"w":238,"h":137},"sourceSize":{"w":238,"h":137}},
{"filename":"e (143)","frame":{"x":0,"y":1636,"w":118,"h":60},"rotated":false,"trimmed":false,"spriteSourceSize":{"x":0,"y":0,"w":118,"h":60},"sourceSize":{"w":118,"h":60}},
{"filename":"e (144)","frame":{"x":595,"y":1636,"w":118,"h":60},"rotated":false,"trimmed":false,"spriteSourceSize":{"x":0,"y":0,"w":118,"h":60},"sourceSize":{"w":118,"h":60}},
{"filename":"e (145)","frame":{"x":476,"y":1636,"w":118,"h":60},"rotated":false,"trimmed":false,"spriteSourceSize":{"x":0,"y":0,"w":118,"h":60},"sourceSize":{"w":118,"h":60}},
{"filename":"e (146)","frame":{"x":1547,"y":1636,"w":118,"h":60},"rotated":false,"trimmed":false,"spriteSourceSize":{"x":0,"y":0,"w":118,"h":60},"sourceSize":{"w":118,"h":60}},
{"filename":"e (147)","frame":{"x":1552,"y":717,"w":118,"h":62},"rotated":false,"trimmed":false,"spriteSourceSize":{"x":0,"y":0,"w":118,"h":62},"sourceSize":{"w":118,"h":62}},
{"filename":"e (148)","frame":{"x":1552,"y":338,"w":118,"h":63},"rotated":false,"trimmed":false,"spriteSourceSize":{"x":0,"y":0,"w":118,"h":63},"sourceSize":{"w":118,"h":63}},
{"filename":"e (149)","frame":{"x":1552,"y":70,"w":118,"h":68},"rotated":false,"trimmed":false,"spriteSourceSize":{"x":0,"y":0,"w":118,"h":68},"sourceSize":{"w":118,"h":68}},
{"filename":"e (150)","frame":{"x":1552,"y":207,"w":118,"h":65},"rotated":false,"trimmed":false,"spriteSourceSize":{"x":0,"y":0,"w":118,"h":65},"sourceSize":{"w":118,"h":65}},
{"filename":"e (151)","frame":{"x":361,"y":1556,"w":118,"h":76},"rotated":false,"trimmed":false,"spriteSourceSize":{"x":0,"y":0,"w":118,"h":76},"sourceSize":{"w":118,"h":76}},
{"filename":"e (152)","frame":{"x":1075,"y":1556,"w":118,"h":72},"rotated":false,"trimmed":false,"spriteSourceSize":{"x":0,"y":0,"w":118,"h":72},"sourceSize":{"w":118,"h":72}},
{"filename":"e (153)","frame":{"x":951,"y":1368,"w":118,"h":91},"rotated":false,"trimmed":false,"spriteSourceSize":{"x":0,"y":0,"w":118,"h":91},"sourceSize":{"w":118,"h":91}},
{"filename":"e (154)","frame":{"x":1313,"y":1094,"w":118,"h":96},"rotated":false,"trimmed":false,"spriteSourceSize":{"x":0,"y":0,"w":118,"h":96},"sourceSize":{"w":118,"h":96}},
{"filename":"e (155)","frame":{"x":597,"y":1002,"w":118,"h":128},"rotated":false,"trimmed":false,"spriteSourceSize":{"x":0,"y":0,"w":118,"h":128},"sourceSize":{"w":118,"h":128}},
{"filename":"e (156)","frame":{"x":775,"y":1002,"w":118,"h":125},"rotated":false,"trimmed":false,"spriteSourceSize":{"x":0,"y":0,"w":118,"h":125},"sourceSize":{"w":118,"h":125}},
{"filename":"e (157)","frame":{"x":357,"y":1636,"w":118,"h":60},"rotated":false,"trimmed":false,"spriteSourceSize":{"x":0,"y":0,"w":118,"h":60},"sourceSize":{"w":118,"h":60}},
{"filename":"e (158)","frame":{"x":1552,"y":0,"w":118,"h":69},"rotated":false,"trimmed":false,"spriteSourceSize":{"x":0,"y":0,"w":118,"h":69},"sourceSize":{"w":118,"h":69}},
{"filename":"e (159)","frame":{"x":1552,"y":1408,"w":118,"h":61},"rotated":false,"trimmed":false,"spriteSourceSize":{"x":0,"y":0,"w":118,"h":61},"sourceSize":{"w":118,"h":61}},
{"filename":"e (160)","frame":{"x":1071,"y":1636,"w":118,"h":60},"rotated":false,"trimmed":false,"spriteSourceSize":{"x":0,"y":0,"w":118,"h":60},"sourceSize":{"w":118,"h":60}},
{"filename":"e (161)","frame":{"x":714,"y":1636,"w":118,"h":60},"rotated":false,"trimmed":false,"spriteSourceSize":{"x":0,"y":0,"w":118,"h":60},"sourceSize":{"w":118,"h":60}},
{"filename":"e (162)","frame":{"x":0,"y":1697,"w":118,"h":60},"rotated":false,"trimmed":false,"spriteSourceSize":{"x":0,"y":0,"w":118,"h":60},"sourceSize":{"w":118,"h":60}},
{"filename":"e (163)","frame":{"x":1433,"y":1107,"w":118,"h":80},"rotated":false,"trimmed":false,"spriteSourceSize":{"x":0,"y":0,"w":118,"h":80},"sourceSize":{"w":118,"h":80}},
{"filename":"e (164)","frame":{"x":1308,"y":1368,"w":118,"h":91},"rotated":false,"trimmed":false,"spriteSourceSize":{"x":0,"y":0,"w":118,"h":91},"sourceSize":{"w":118,"h":91}},
{"filename":"e (165)","frame":{"x":833,"y":1636,"w":118,"h":60},"rotated":false,"trimmed":false,"spriteSourceSize":{"x":0,"y":0,"w":118,"h":60},"sourceSize":{"w":118,"h":60}},
{"filename":"e (166)","frame":{"x":952,"y":1636,"w":118,"h":60},"rotated":false,"trimmed":false,"spriteSourceSize":{"x":0,"y":0,"w":118,"h":60},"sourceSize":{"w":118,"h":60}},
{"filename":"e (167)","frame":{"x":1552,"y":1470,"w":118,"h":61},"rotated":false,"trimmed":false,"spriteSourceSize":{"x":0,"y":0,"w":118,"h":61},"sourceSize":{"w":118,"h":61}},
{"filename":"e (168)","frame":{"x":1313,"y":1287,"w":118,"h":80},"rotated":false,"trimmed":false,"spriteSourceSize":{"x":0,"y":0,"w":118,"h":80},"sourceSize":{"w":118,"h":80}},
{"filename":"e (169)","frame":{"x":1189,"y":1368,"w":118,"h":91},"rotated":false,"trimmed":false,"spriteSourceSize":{"x":0,"y":0,"w":118,"h":91},"sourceSize":{"w":118,"h":91}},
{"filename":"e (170)","frame":{"x":1190,"y":1636,"w":118,"h":60},"rotated":false,"trimmed":false,"spriteSourceSize":{"x":0,"y":0,"w":118,"h":60},"sourceSize":{"w":118,"h":60}},
{"filename":"e (171)","frame":{"x":1309,"y":1636,"w":118,"h":60},"rotated":false,"trimmed":false,"spriteSourceSize":{"x":0,"y":0,"w":118,"h":60},"sourceSize":{"w":118,"h":60}},
{"filename":"e (172)","frame":{"x":1552,"y":1284,"w":118,"h":61},"rotated":false,"trimmed":false,"spriteSourceSize":{"x":0,"y":0,"w":118,"h":61},"sourceSize":{"w":118,"h":61}},
{"filename":"e (173)","frame":{"x":1075,"y":1140,"w":118,"h":110},"rotated":false,"trimmed":false,"spriteSourceSize":{"x":0,"y":0,"w":118,"h":110},"sourceSize":{"w":118,"h":110}},
{"filename":"e (174)","frame":{"x":894,"y":1464,"w":118,"h":88},"rotated":false,"trimmed":false,"spriteSourceSize":{"x":0,"y":0,"w":118,"h":88},"sourceSize":{"w":118,"h":88}},
{"filename":"e (175)","frame":{"x":1313,"y":1556,"w":118,"h":69},"rotated":false,"trimmed":false,"spriteSourceSize":{"x":0,"y":0,"w":118,"h":69},"sourceSize":{"w":118,"h":69}},
{"filename":"e (176)","frame":{"x":1433,"y":1188,"w":118,"h":80},"rotated":false,"trimmed":false,"spriteSourceSize":{"x":0,"y":0,"w":118,"h":80},"sourceSize":{"w":118,"h":80}},
{"filename":"e (177)","frame":{"x":1132,"y":1464,"w":118,"h":88},"rotated":false,"trimmed":false,"spriteSourceSize":{"x":0,"y":0,"w":118,"h":88},"sourceSize":{"w":118,"h":88}},
{"filename":"e (178)","frame":{"x":597,"y":1265,"w":118,"h":100},"rotated":false,"trimmed":false,"spriteSourceSize":{"x":0,"y":0,"w":118,"h":100},"sourceSize":{"w":118,"h":100}},
{"filename":"e (179)","frame":{"x":1134,"y":1028,"w":118,"h":110},"rotated":false,"trimmed":false,"spriteSourceSize":{"x":0,"y":0,"w":118,"h":110},"sourceSize":{"w":118,"h":110}},
{"filename":"e (180)","frame":{"x":1194,"y":1556,"w":118,"h":71},"rotated":false,"trimmed":false,"spriteSourceSize":{"x":0,"y":0,"w":118,"h":71},"sourceSize":{"w":118,"h":71}},
{"filename":"e (181)","frame":{"x":1313,"y":303,"w":118,"h":100},"rotated":false,"trimmed":false,"spriteSourceSize":{"x":0,"y":0,"w":118,"h":100},"sourceSize":{"w":118,"h":100}},
{"filename":"e (182)","frame":{"x":1433,"y":176,"w":118,"h":86},"rotated":false,"trimmed":false,"spriteSourceSize":{"x":0,"y":0,"w":118,"h":86},"sourceSize":{"w":118,"h":86}},
{"filename":"e (183)","frame":{"x":598,"y":844,"w":118,"h":149},"rotated":false,"trimmed":false,"spriteSourceSize":{"x":0,"y":0,"w":118,"h":149},"sourceSize":{"w":118,"h":149}},
{"filename":"e (184)","frame":{"x":896,"y":441,"w":118,"h":144},"rotated":false,"trimmed":false,"spriteSourceSize":{"x":0,"y":0,"w":118,"h":144},"sourceSize":{"w":118,"h":144}},
{"filename":"e (185)","frame":{"x":297,"y":1368,"w":118,"h":94},"rotated":false,"trimmed":false,"spriteSourceSize":{"x":0,"y":0,"w":118,"h":94},"sourceSize":{"w":118,"h":94}},
{"filename":"e (186)","frame":{"x":1313,"y":101,"w":118,"h":100},"rotated":false,"trimmed":false,"spriteSourceSize":{"x":0,"y":0,"w":118,"h":100},"sourceSize":{"w":118,"h":100}},
{"filename":"e (187)","frame":{"x":1251,"y":1464,"w":118,"h":88},"rotated":false,"trimmed":false,"spriteSourceSize":{"x":0,"y":0,"w":118,"h":88},"sourceSize":{"w":118,"h":88}},
{"filename":"e (188)","frame":{"x":1433,"y":1429,"w":63,"h":79},"rotated":false,"trimmed":false,"spriteSourceSize":{"x":0,"y":0,"w":63,"h":79},"sourceSize":{"w":63,"h":79}},
{"filename":"e (189)","frame":{"x":1433,"y":1269,"w":63,"h":79},"rotated":false,"trimmed":false,"spriteSourceSize":{"x":0,"y":0,"w":63,"h":79},"sourceSize":{"w":63,"h":79}},
{"filename":"e (190)","frame":{"x":1433,"y":1349,"w":63,"h":79},"rotated":false,"trimmed":false,"spriteSourceSize":{"x":0,"y":0,"w":63,"h":79},"sourceSize":{"w":63,"h":79}},
{"filename":"e (191)","frame":{"x":119,"y":1556,"w":63,"h":79},"rotated":false,"trimmed":false,"spriteSourceSize":{"x":0,"y":0,"w":63,"h":79},"sourceSize":{"w":63,"h":79}},
{"filename":"e (192)","frame":{"x":1611,"y":1594,"w":58,"h":36},"rotated":false,"trimmed":false,"spriteSourceSize":{"x":0,"y":0,"w":58,"h":36},"sourceSize":{"w":58,"h":36}},
{"filename":"e (193)","frame":{"x":1492,"y":1509,"w":58,"h":45},"rotated":false,"trimmed":false,"spriteSourceSize":{"x":0,"y":0,"w":58,"h":45},"sourceSize":{"w":58,"h":45}},
{"filename":"e (194)","frame":{"x":1417,"y":1697,"w":58,"h":52},"rotated":false,"trimmed":false,"spriteSourceSize":{"x":0,"y":0,"w":58,"h":52},"sourceSize":{"w":58,"h":52}},
{"filename":"e (195)","frame":{"x":1611,"y":1158,"w":58,"h":61},"rotated":false,"trimmed":false,"spriteSourceSize":{"x":0,"y":0,"w":58,"h":61},"sourceSize":{"w":58,"h":61}},
{"filename":"e (196)","frame":{"x":1552,"y":591,"w":58,"h":62},"rotated":false,"trimmed":false,"spriteSourceSize":{"x":0,"y":0,"w":58,"h":62},"sourceSize":{"w":58,"h":62}},
{"filename":"e (197)","frame":{"x":1552,"y":528,"w":58,"h":62},"rotated":false,"trimmed":false,"spriteSourceSize":{"x":0,"y":0,"w":58,"h":62},"sourceSize":{"w":58,"h":62}},
{"filename":"e (198)","frame":{"x":1611,"y":654,"w":58,"h":47},"rotated":false,"trimmed":false,"spriteSourceSize":{"x":0,"y":0,"w":58,"h":47},"sourceSize":{"w":58,"h":47}},
{"filename":"e (199)","frame":{"x":1611,"y":465,"w":58,"h":47},"rotated":false,"trimmed":false,"spriteSourceSize":{"x":0,"y":0,"w":58,"h":47},"sourceSize":{"w":58,"h":47}},
{"filename":"e (200)","frame":{"x":1611,"y":402,"w":58,"h":47},"rotated":false,"trimmed":false,"spriteSourceSize":{"x":0,"y":0,"w":58,"h":47},"sourceSize":{"w":58,"h":47}},
{"filename":"e (201)","frame":{"x":1611,"y":528,"w":58,"h":47},"rotated":false,"trimmed":false,"spriteSourceSize":{"x":0,"y":0,"w":58,"h":47},"sourceSize":{"w":58,"h":47}},
{"filename":"e (202)","frame":{"x":1611,"y":591,"w":58,"h":47},"rotated":false,"trimmed":false,"spriteSourceSize":{"x":0,"y":0,"w":58,"h":47},"sourceSize":{"w":58,"h":47}},
{"filename":"e (203)","frame":{"x":1611,"y":843,"w":58,"h":48},"rotated":false,"trimmed":false,"spriteSourceSize":{"x":0,"y":0,"w":58,"h":48},"sourceSize":{"w":58,"h":48}},
{"filename":"e (204)","frame":{"x":1075,"y":348,"w":178,"h":114},"rotated":false,"trimmed":false,"spriteSourceSize":{"x":0,"y":0,"w":178,"h":114},"sourceSize":{"w":178,"h":114}},
{"filename":"e (205)","frame":{"x":1671,"y":805,"w":58,"h":30},"rotated":false,"trimmed":false,"spriteSourceSize":{"x":0,"y":0,"w":58,"h":30},"sourceSize":{"w":58,"h":30}},
{"filename":"e (206)","frame":{"x":357,"y":428,"w":58,"h":32},"rotated":false,"trimmed":false,"spriteSourceSize":{"x":0,"y":0,"w":58,"h":32},"sourceSize":{"w":58,"h":32}},
{"filename":"e (207)","frame":{"x":1254,"y":1229,"w":58,"h":35},"rotated":false,"trimmed":false,"spriteSourceSize":{"x":0,"y":0,"w":58,"h":35},"sourceSize":{"w":58,"h":35}},
{"filename":"e (208)","frame":{"x":1671,"y":91,"w":58,"h":43},"rotated":false,"trimmed":false,"spriteSourceSize":{"x":0,"y":0,"w":58,"h":43},"sourceSize":{"w":58,"h":43}},
{"filename":"e (209)","frame":{"x":1433,"y":1509,"w":58,"h":45},"rotated":false,"trimmed":false,"spriteSourceSize":{"x":0,"y":0,"w":58,"h":45},"sourceSize":{"w":58,"h":45}},
{"filename":"e (210)","frame":{"x":1594,"y":1697,"w":58,"h":50},"rotated":false,"trimmed":false,"spriteSourceSize":{"x":0,"y":0,"w":58,"h":50},"sourceSize":{"w":58,"h":50}},
{"filename":"e (211)","frame":{"x":1671,"y":681,"w":58,"h":30},"rotated":false,"trimmed":false,"spriteSourceSize":{"x":0,"y":0,"w":58,"h":30},"sourceSize":{"w":58,"h":30}},
{"filename":"e (212)","frame":{"x":1671,"y":650,"w":58,"h":30},"rotated":false,"trimmed":false,"spriteSourceSize":{"x":0,"y":0,"w":58,"h":30},"sourceSize":{"w":58,"h":30}},
{"filename":"e (213)","frame":{"x":1015,"y":408,"w":58,"h":32},"rotated":false,"trimmed":false,"spriteSourceSize":{"x":0,"y":0,"w":58,"h":32},"sourceSize":{"w":58,"h":32}},
{"filename":"e (214)","frame":{"x":1372,"y":766,"w":58,"h":35},"rotated":false,"trimmed":false,"spriteSourceSize":{"x":0,"y":0,"w":58,"h":35},"sourceSize":{"w":58,"h":35}},
{"filename":"e (215)","frame":{"x":657,"y":458,"w":58,"h":38},"rotated":false,"trimmed":false,"spriteSourceSize":{"x":0,"y":0,"w":58,"h":38},"sourceSize":{"w":58,"h":38}},
{"filename":"e (216)","frame":{"x":1552,"y":1594,"w":58,"h":41},"rotated":false,"trimmed":false,"spriteSourceSize":{"x":0,"y":0,"w":58,"h":41},"sourceSize":{"w":58,"h":41}},
{"filename":"e (217)","frame":{"x":1730,"y":0,"w":58,"h":30},"rotated":false,"trimmed":false,"spriteSourceSize":{"x":0,"y":0,"w":58,"h":30},"sourceSize":{"w":58,"h":30}},
{"filename":"e (218)","frame":{"x":1593,"y":1758,"w":58,"h":30},"rotated":false,"trimmed":false,"spriteSourceSize":{"x":0,"y":0,"w":58,"h":30},"sourceSize":{"w":58,"h":30}},
{"filename":"e (219)","frame":{"x":1416,"y":1758,"w":58,"h":30},"rotated":false,"trimmed":false,"spriteSourceSize":{"x":0,"y":0,"w":58,"h":30},"sourceSize":{"w":58,"h":30}},
{"filename":"e (220)","frame":{"x":1239,"y":1758,"w":58,"h":30},"rotated":false,"trimmed":false,"spriteSourceSize":{"x":0,"y":0,"w":58,"h":30},"sourceSize":{"w":58,"h":30}},
{"filename":"e (221)","frame":{"x":1003,"y":1758,"w":58,"h":30},"rotated":false,"trimmed":false,"spriteSourceSize":{"x":0,"y":0,"w":58,"h":30},"sourceSize":{"w":58,"h":30}},
{"filename":"e (222)","frame":{"x":298,"y":428,"w":58,"h":32},"rotated":false,"trimmed":false,"spriteSourceSize":{"x":0,"y":0,"w":58,"h":32},"sourceSize":{"w":58,"h":32}},
{"filename":"e (223)","frame":{"x":0,"y":1368,"w":118,"h":95},"rotated":false,"trimmed":false,"spriteSourceSize":{"x":0,"y":0,"w":118,"h":95},"sourceSize":{"w":118,"h":95}},
{"filename":"e (224)","frame":{"x":1313,"y":404,"w":118,"h":99},"rotated":false,"trimmed":false,"spriteSourceSize":{"x":0,"y":0,"w":118,"h":99},"sourceSize":{"w":118,"h":99}},
{"filename":"e (225)","frame":{"x":1433,"y":943,"w":118,"h":82},"rotated":false,"trimmed":false,"spriteSourceSize":{"x":0,"y":0,"w":118,"h":82},"sourceSize":{"w":118,"h":82}},
{"filename":"e (226)","frame":{"x":1552,"y":139,"w":118,"h":67},"rotated":false,"trimmed":false,"spriteSourceSize":{"x":0,"y":0,"w":118,"h":67},"sourceSize":{"w":118,"h":67}},
{"filename":"e (227)","frame":{"x":480,"y":1556,"w":118,"h":75},"rotated":false,"trimmed":false,"spriteSourceSize":{"x":0,"y":0,"w":118,"h":75},"sourceSize":{"w":118,"h":75}},
{"filename":"e (228)","frame":{"x":713,"y":1368,"w":118,"h":93},"rotated":false,"trimmed":false,"spriteSourceSize":{"x":0,"y":0,"w":118,"h":93},"sourceSize":{"w":118,"h":93}},
{"filename":"e (229)","frame":{"x":1313,"y":504,"w":118,"h":99},"rotated":false,"trimmed":false,"spriteSourceSize":{"x":0,"y":0,"w":118,"h":99},"sourceSize":{"w":118,"h":99}},
{"filename":"e (230)","frame":{"x":837,"y":1556,"w":118,"h":73},"rotated":false,"trimmed":false,"spriteSourceSize":{"x":0,"y":0,"w":118,"h":73},"sourceSize":{"w":118,"h":73}},
{"filename":"e (231)","frame":{"x":183,"y":1556,"w":118,"h":78},"rotated":false,"trimmed":false,"spriteSourceSize":{"x":0,"y":0,"w":118,"h":78},"sourceSize":{"w":118,"h":78}},
{"filename":"e (232)","frame":{"x":1433,"y":1026,"w":118,"h":80},"rotated":false,"trimmed":false,"spriteSourceSize":{"x":0,"y":0,"w":118,"h":80},"sourceSize":{"w":118,"h":80}},
{"filename":"e (233)","frame":{"x":1433,"y":435,"w":118,"h":85},"rotated":false,"trimmed":false,"spriteSourceSize":{"x":0,"y":0,"w":118,"h":85},"sourceSize":{"w":118,"h":85}},
{"filename":"e (234)","frame":{"x":1433,"y":0,"w":118,"h":87},"rotated":false,"trimmed":false,"spriteSourceSize":{"x":0,"y":0,"w":118,"h":87},"sourceSize":{"w":118,"h":87}},
{"filename":"e (235)","frame":{"x":119,"y":1265,"w":118,"h":102},"rotated":false,"trimmed":false,"spriteSourceSize":{"x":0,"y":0,"w":118,"h":102},"sourceSize":{"w":118,"h":102}},
{"filename":"e (236)","frame":{"x":1433,"y":349,"w":118,"h":85},"rotated":false,"trimmed":false,"spriteSourceSize":{"x":0,"y":0,"w":118,"h":85},"sourceSize":{"w":118,"h":85}},
{"filename":"e (237)","frame":{"x":718,"y":1556,"w":118,"h":73},"rotated":false,"trimmed":false,"spriteSourceSize":{"x":0,"y":0,"w":118,"h":73},"sourceSize":{"w":118,"h":73}},
{"filename":"e (238)","frame":{"x":1433,"y":263,"w":118,"h":85},"rotated":false,"trimmed":false,"spriteSourceSize":{"x":0,"y":0,"w":118,"h":85},"sourceSize":{"w":118,"h":85}},
{"filename":"e (239)","frame":{"x":1433,"y":691,"w":118,"h":83},"rotated":false,"trimmed":false,"spriteSourceSize":{"x":0,"y":0,"w":118,"h":83},"sourceSize":{"w":118,"h":83}},
{"filename":"e (240)","frame":{"x":0,"y":1265,"w":118,"h":102},"rotated":false,"trimmed":false,"spriteSourceSize":{"x":0,"y":0,"w":118,"h":102},"sourceSize":{"w":118,"h":102}},
{"filename":"e (241)","frame":{"x":178,"y":1368,"w":118,"h":94},"rotated":false,"trimmed":false,"spriteSourceSize":{"x":0,"y":0,"w":118,"h":94},"sourceSize":{"w":118,"h":94}},
{"filename":"e (242)","frame":{"x":896,"y":731,"w":118,"h":139},"rotated":false,"trimmed":false,"spriteSourceSize":{"x":0,"y":0,"w":118,"h":139},"sourceSize":{"w":118,"h":139}},
{"filename":"e (243)","frame":{"x":1075,"y":233,"w":178,"h":114},"rotated":false,"trimmed":false,"spriteSourceSize":{"x":0,"y":0,"w":178,"h":114},"sourceSize":{"w":178,"h":114}},
{"filename":"e (244)","frame":{"x":1075,"y":117,"w":178,"h":115},"rotated":false,"trimmed":false,"spriteSourceSize":{"x":0,"y":0,"w":178,"h":115},"sourceSize":{"w":178,"h":115}},
{"filename":"e (245)","frame":{"x":358,"y":1464,"w":178,"h":90},"rotated":false,"trimmed":false,"spriteSourceSize":{"x":0,"y":0,"w":178,"h":90},"sourceSize":{"w":178,"h":90}},
{"filename":"e (246)","frame":{"x":0,"y":1464,"w":178,"h":91},"rotated":false,"trimmed":false,"spriteSourceSize":{"x":0,"y":0,"w":178,"h":91},"sourceSize":{"w":178,"h":91}},
{"filename":"e (247)","frame":{"x":1075,"y":0,"w":178,"h":116},"rotated":false,"trimmed":false,"spriteSourceSize":{"x":0,"y":0,"w":178,"h":116},"sourceSize":{"w":178,"h":116}},
{"filename":"e (248)","frame":{"x":953,"y":1002,"w":118,"h":124},"rotated":false,"trimmed":false,"spriteSourceSize":{"x":0,"y":0,"w":118,"h":124},"sourceSize":{"w":118,"h":124}},
{"filename":"e (249)","frame":{"x":239,"y":1002,"w":238,"h":136},"rotated":false,"trimmed":false,"spriteSourceSize":{"x":0,"y":0,"w":238,"h":136},"sourceSize":{"w":238,"h":136}},
{"filename":"e (250)","frame":{"x":896,"y":149,"w":118,"h":145},"rotated":false,"trimmed":false,"spriteSourceSize":{"x":0,"y":0,"w":118,"h":145},"sourceSize":{"w":118,"h":145}},
{"filename":"e (251)","frame":{"x":896,"y":295,"w":118,"h":145},"rotated":false,"trimmed":false,"spriteSourceSize":{"x":0,"y":0,"w":118,"h":145},"sourceSize":{"w":118,"h":145}},
{"filename":"e (252)","frame":{"x":1075,"y":802,"w":58,"h":112},"rotated":false,"trimmed":false,"spriteSourceSize":{"x":0,"y":0,"w":58,"h":112},"sourceSize":{"w":58,"h":112}},
{"filename":"e (253)","frame":{"x":1254,"y":621,"w":58,"h":102},"rotated":false,"trimmed":false,"spriteSourceSize":{"x":0,"y":0,"w":58,"h":102},"sourceSize":{"w":58,"h":102}},
{"filename":"e (254)","frame":{"x":1313,"y":802,"w":58,"h":97},"rotated":false,"trimmed":false,"spriteSourceSize":{"x":0,"y":0,"w":58,"h":97},"sourceSize":{"w":58,"h":97}},
{"filename":"e (255)","frame":{"x":1313,"y":703,"w":58,"h":98},"rotated":false,"trimmed":false,"spriteSourceSize":{"x":0,"y":0,"w":58,"h":98},"sourceSize":{"w":58,"h":98}},
{"filename":"e (256)","frame":{"x":598,"y":668,"w":118,"h":174},"rotated":false,"trimmed":false,"spriteSourceSize":{"x":0,"y":0,"w":118,"h":174},"sourceSize":{"w":118,"h":174}},
{"filename":"e (257)","frame":{"x":1015,"y":149,"w":51,"h":112},"rotated":false,"trimmed":false,"spriteSourceSize":{"x":0,"y":0,"w":51,"h":112},"sourceSize":{"w":51,"h":112}},
{"filename":"e (258)","frame":{"x":1254,"y":518,"w":48,"h":102},"rotated":false,"trimmed":false,"spriteSourceSize":{"x":0,"y":0,"w":48,"h":102},"sourceSize":{"w":48,"h":102}},
{"filename":"e (259)","frame":{"x":354,"y":1758,"w":58,"h":30},"rotated":false,"trimmed":false,"spriteSourceSize":{"x":0,"y":0,"w":58,"h":30},"sourceSize":{"w":58,"h":30}},
{"filename":"e (260)","frame":{"x":650,"y":1697,"w":58,"h":57},"rotated":false,"trimmed":false,"spriteSourceSize":{"x":0,"y":0,"w":58,"h":57},"sourceSize":{"w":58,"h":57}},
{"filename":"e (261)","frame":{"x":591,"y":1697,"w":58,"h":57},"rotated":false,"trimmed":false,"spriteSourceSize":{"x":0,"y":0,"w":58,"h":57},"sourceSize":{"w":58,"h":57}},
{"filename":"e (262)","frame":{"x":532,"y":1697,"w":58,"h":57},"rotated":false,"trimmed":false,"spriteSourceSize":{"x":0,"y":0,"w":58,"h":57},"sourceSize":{"w":58,"h":57}},
{"filename":"e (263)","frame":{"x":355,"y":1697,"w":58,"h":57},"rotated":false,"trimmed":false,"spriteSourceSize":{"x":0,"y":0,"w":58,"h":57},"sourceSize":{"w":58,"h":57}},
{"filename":"e (264)","frame":{"x":473,"y":1697,"w":58,"h":57},"rotated":false,"trimmed":false,"spriteSourceSize":{"x":0,"y":0,"w":58,"h":57},"sourceSize":{"w":58,"h":57}},
{"filename":"e (265)","frame":{"x":1611,"y":969,"w":58,"h":48},"rotated":false,"trimmed":false,"spriteSourceSize":{"x":0,"y":0,"w":58,"h":48},"sourceSize":{"w":58,"h":48}},
{"filename":"e (266)","frame":{"x":1004,"y":1697,"w":58,"h":56},"rotated":false,"trimmed":false,"spriteSourceSize":{"x":0,"y":0,"w":58,"h":56},"sourceSize":{"w":58,"h":56}},
{"filename":"e (267)","frame":{"x":1476,"y":1697,"w":58,"h":51},"rotated":false,"trimmed":false,"spriteSourceSize":{"x":0,"y":0,"w":58,"h":51},"sourceSize":{"w":58,"h":51}},
{"filename":"e (268)","frame":{"x":1535,"y":1697,"w":58,"h":51},"rotated":false,"trimmed":false,"spriteSourceSize":{"x":0,"y":0,"w":58,"h":51},"sourceSize":{"w":58,"h":51}},
{"filename":"e (269)","frame":{"x":296,"y":1697,"w":58,"h":57},"rotated":false,"trimmed":false,"spriteSourceSize":{"x":0,"y":0,"w":58,"h":57},"sourceSize":{"w":58,"h":57}},
{"filename":"e (270)","frame":{"x":1611,"y":906,"w":58,"h":48},"rotated":false,"trimmed":false,"spriteSourceSize":{"x":0,"y":0,"w":58,"h":48},"sourceSize":{"w":58,"h":48}},
{"filename":"e (271)","frame":{"x":1552,"y":843,"w":58,"h":62},"rotated":false,"trimmed":false,"spriteSourceSize":{"x":0,"y":0,"w":58,"h":62},"sourceSize":{"w":58,"h":62}},
{"filename":"e (272)","frame":{"x":178,"y":1697,"w":58,"h":57},"rotated":false,"trimmed":false,"spriteSourceSize":{"x":0,"y":0,"w":58,"h":57},"sourceSize":{"w":58,"h":57}},
{"filename":"e (273)","frame":{"x":119,"y":1697,"w":58,"h":57},"rotated":false,"trimmed":false,"spriteSourceSize":{"x":0,"y":0,"w":58,"h":57},"sourceSize":{"w":58,"h":57}},
{"filename":"e (274)","frame":{"x":1552,"y":654,"w":58,"h":62},"rotated":false,"trimmed":false,"spriteSourceSize":{"x":0,"y":0,"w":58,"h":62},"sourceSize":{"w":58,"h":62}},
{"filename":"e (275)","frame":{"x":1552,"y":465,"w":58,"h":62},"rotated":false,"trimmed":false,"spriteSourceSize":{"x":0,"y":0,"w":58,"h":62},"sourceSize":{"w":58,"h":62}},
{"filename":"e (276)","frame":{"x":1552,"y":1532,"w":58,"h":61},"rotated":false,"trimmed":false,"spriteSourceSize":{"x":0,"y":0,"w":58,"h":61},"sourceSize":{"w":58,"h":61}},
{"filename":"e (277)","frame":{"x":414,"y":1697,"w":58,"h":57},"rotated":false,"trimmed":false,"spriteSourceSize":{"x":0,"y":0,"w":58,"h":57},"sourceSize":{"w":58,"h":57}},
{"filename":"e (278)","frame":{"x":709,"y":1697,"w":58,"h":57},"rotated":false,"trimmed":false,"spriteSourceSize":{"x":0,"y":0,"w":58,"h":57},"sourceSize":{"w":58,"h":57}},
{"filename":"e (279)","frame":{"x":237,"y":1697,"w":58,"h":57},"rotated":false,"trimmed":false,"spriteSourceSize":{"x":0,"y":0,"w":58,"h":57},"sourceSize":{"w":58,"h":57}},
{"filename":"e (280)","frame":{"x":768,"y":1697,"w":58,"h":57},"rotated":false,"trimmed":false,"spriteSourceSize":{"x":0,"y":0,"w":58,"h":57},"sourceSize":{"w":58,"h":57}},
{"filename":"e (281)","frame":{"x":1122,"y":1697,"w":58,"h":56},"rotated":false,"trimmed":false,"spriteSourceSize":{"x":0,"y":0,"w":58,"h":56},"sourceSize":{"w":58,"h":56}},
{"filename":"e (282)","frame":{"x":1063,"y":1697,"w":58,"h":56},"rotated":false,"trimmed":false,"spriteSourceSize":{"x":0,"y":0,"w":58,"h":56},"sourceSize":{"w":58,"h":56}},
{"filename":"e (283)","frame":{"x":1181,"y":1697,"w":58,"h":56},"rotated":false,"trimmed":false,"spriteSourceSize":{"x":0,"y":0,"w":58,"h":56},"sourceSize":{"w":58,"h":56}},
{"filename":"e (284)","frame":{"x":886,"y":1697,"w":58,"h":56},"rotated":false,"trimmed":false,"spriteSourceSize":{"x":0,"y":0,"w":58,"h":56},"sourceSize":{"w":58,"h":56}},
{"filename":"e (285)","frame":{"x":1552,"y":1158,"w":58,"h":62},"rotated":false,"trimmed":false,"spriteSourceSize":{"x":0,"y":0,"w":58,"h":62},"sourceSize":{"w":58,"h":62}},
{"filename":"e (286)","frame":{"x":1552,"y":1095,"w":58,"h":62},"rotated":false,"trimmed":false,"spriteSourceSize":{"x":0,"y":0,"w":58,"h":62},"sourceSize":{"w":58,"h":62}},
{"filename":"e (287)","frame":{"x":1552,"y":1032,"w":58,"h":62},"rotated":false,"trimmed":false,"spriteSourceSize":{"x":0,"y":0,"w":58,"h":62},"sourceSize":{"w":58,"h":62}},
{"filename":"e (288)","frame":{"x":1372,"y":802,"w":58,"h":63},"rotated":false,"trimmed":false,"spriteSourceSize":{"x":0,"y":0,"w":58,"h":63},"sourceSize":{"w":58,"h":63}},
{"filename":"e (289)","frame":{"x":1552,"y":906,"w":58,"h":62},"rotated":false,"trimmed":false,"spriteSourceSize":{"x":0,"y":0,"w":58,"h":62},"sourceSize":{"w":58,"h":62}},
{"filename":"e (290)","frame":{"x":1552,"y":402,"w":58,"h":62},"rotated":false,"trimmed":false,"spriteSourceSize":{"x":0,"y":0,"w":58,"h":62},"sourceSize":{"w":58,"h":62}},
{"filename":"e (291)","frame":{"x":1372,"y":604,"w":58,"h":62},"rotated":false,"trimmed":false,"spriteSourceSize":{"x":0,"y":0,"w":58,"h":62},"sourceSize":{"w":58,"h":62}},
{"filename":"e (292)","frame":{"x":1671,"y":179,"w":58,"h":43},"rotated":false,"trimmed":false,"spriteSourceSize":{"x":0,"y":0,"w":58,"h":43},"sourceSize":{"w":58,"h":43}},
{"filename":"e (293)","frame":{"x":1372,"y":900,"w":58,"h":63},"rotated":false,"trimmed":false,"spriteSourceSize":{"x":0,"y":0,"w":58,"h":63},"sourceSize":{"w":58,"h":63}},
{"filename":"e (294)","frame":{"x":1552,"y":1221,"w":58,"h":62},"rotated":false,"trimmed":false,"spriteSourceSize":{"x":0,"y":0,"w":58,"h":62},"sourceSize":{"w":58,"h":62}},
{"filename":"e (295)","frame":{"x":832,"y":1368,"w":118,"h":93},"rotated":false,"trimmed":false,"spriteSourceSize":{"x":0,"y":0,"w":118,"h":93},"sourceSize":{"w":118,"h":93}},
{"filename":"e (296)","frame":{"x":775,"y":1464,"w":118,"h":88},"rotated":false,"trimmed":false,"spriteSourceSize":{"x":0,"y":0,"w":118,"h":88},"sourceSize":{"w":118,"h":88}},
{"filename":"e (297)","frame":{"x":1134,"y":802,"w":118,"h":108},"rotated":false,"trimmed":false,"spriteSourceSize":{"x":0,"y":0,"w":118,"h":108},"sourceSize":{"w":118,"h":108}},
{"filename":"e (298)","frame":{"x":1671,"y":1487,"w":58,"h":30},"rotated":false,"trimmed":false,"spriteSourceSize":{"x":0,"y":0,"w":58,"h":30},"sourceSize":{"w":58,"h":30}},
{"filename":"e (299)","frame":{"x":836,"y":1265,"w":119,"h":100},"rotated":false,"trimmed":false,"spriteSourceSize":{"x":0,"y":0,"w":119,"h":100},"sourceSize":{"w":119,"h":100}},
{"filename":"e (300)","frame":{"x":1076,"y":1265,"w":119,"h":100},"rotated":false,"trimmed":false,"spriteSourceSize":{"x":0,"y":0,"w":119,"h":100},"sourceSize":{"w":119,"h":100}},
{"filename":"e (301)","frame":{"x":357,"y":1265,"w":119,"h":100},"rotated":false,"trimmed":false,"spriteSourceSize":{"x":0,"y":0,"w":119,"h":100},"sourceSize":{"w":119,"h":100}},
{"filename":"e (302)","frame":{"x":716,"y":1265,"w":119,"h":100},"rotated":false,"trimmed":false,"spriteSourceSize":{"x":0,"y":0,"w":119,"h":100},"sourceSize":{"w":119,"h":100}},
{"filename":"e (303)","frame":{"x":1313,"y":202,"w":119,"h":100},"rotated":false,"trimmed":false,"spriteSourceSize":{"x":0,"y":0,"w":119,"h":100},"sourceSize":{"w":119,"h":100}},
{"filename":"e (304)","frame":{"x":1313,"y":0,"w":119,"h":100},"rotated":false,"trimmed":false,"spriteSourceSize":{"x":0,"y":0,"w":119,"h":100},"sourceSize":{"w":119,"h":100}},
{"filename":"e (305)","frame":{"x":956,"y":1265,"w":119,"h":100},"rotated":false,"trimmed":false,"spriteSourceSize":{"x":0,"y":0,"w":119,"h":100},"sourceSize":{"w":119,"h":100}},
{"filename":"e (306)","frame":{"x":477,"y":1265,"w":119,"h":100},"rotated":false,"trimmed":false,"spriteSourceSize":{"x":0,"y":0,"w":119,"h":100},"sourceSize":{"w":119,"h":100}},
{"filename":"e (307)","frame":{"x":1372,"y":667,"w":58,"h":34},"rotated":false,"trimmed":false,"spriteSourceSize":{"x":0,"y":0,"w":58,"h":34},"sourceSize":{"w":58,"h":34}},
{"filename":"e (308)","frame":{"x":1671,"y":391,"w":58,"h":34},"rotated":false,"trimmed":false,"spriteSourceSize":{"x":0,"y":0,"w":58,"h":34},"sourceSize":{"w":58,"h":34}},
{"filename":"e (309)","frame":{"x":1671,"y":461,"w":58,"h":31},"rotated":false,"trimmed":false,"spriteSourceSize":{"x":0,"y":0,"w":58,"h":31},"sourceSize":{"w":58,"h":31}},
{"filename":"e (310)","frame":{"x":416,"y":428,"w":58,"h":32},"rotated":false,"trimmed":false,"spriteSourceSize":{"x":0,"y":0,"w":58,"h":32},"sourceSize":{"w":58,"h":32}},
{"filename":"e (311)","frame":{"x":239,"y":214,"w":238,"h":213},"rotated":false,"trimmed":false,"spriteSourceSize":{"x":0,"y":0,"w":238,"h":213},"sourceSize":{"w":238,"h":213}},
{"filename":"e (312)","frame":{"x":0,"y":231,"w":238,"h":230},"rotated":false,"trimmed":false,"spriteSourceSize":{"x":0,"y":0,"w":238,"h":230},"sourceSize":{"w":238,"h":230}},
{"filename":"e (313)","frame":{"x":0,"y":0,"w":238,"h":230},"rotated":false,"trimmed":false,"spriteSourceSize":{"x":0,"y":0,"w":238,"h":230},"sourceSize":{"w":238,"h":230}},
{"filename":"e (314)","frame":{"x":239,"y":0,"w":238,"h":213},"rotated":false,"trimmed":false,"spriteSourceSize":{"x":0,"y":0,"w":238,"h":213},"sourceSize":{"w":238,"h":213}},
{"filename":"e (315)","frame":{"x":531,"y":1758,"w":58,"h":30},"rotated":false,"trimmed":false,"spriteSourceSize":{"x":0,"y":0,"w":58,"h":30},"sourceSize":{"w":58,"h":30}},
{"filename":"e (316)","frame":{"x":590,"y":1758,"w":58,"h":30},"rotated":false,"trimmed":false,"spriteSourceSize":{"x":0,"y":0,"w":58,"h":30},"sourceSize":{"w":58,"h":30}},
{"filename":"e (317)","frame":{"x":735,"y":1140,"w":58,"h":120},"rotated":false,"trimmed":false,"spriteSourceSize":{"x":0,"y":0,"w":58,"h":120},"sourceSize":{"w":58,"h":120}},
{"filename":"e (318)","frame":{"x":971,"y":1140,"w":58,"h":115},"rotated":false,"trimmed":false,"spriteSourceSize":{"x":0,"y":0,"w":58,"h":115},"sourceSize":{"w":58,"h":115}},
{"filename":"e (319)","frame":{"x":894,"y":1002,"w":58,"h":124},"rotated":false,"trimmed":false,"spriteSourceSize":{"x":0,"y":0,"w":58,"h":124},"sourceSize":{"w":58,"h":124}},
{"filename":"e (320)","frame":{"x":657,"y":498,"w":58,"h":142},"rotated":false,"trimmed":false,"spriteSourceSize":{"x":0,"y":0,"w":58,"h":142},"sourceSize":{"w":58,"h":142}},
{"filename":"e (321)","frame":{"x":1193,"y":915,"w":58,"h":108},"rotated":false,"trimmed":false,"spriteSourceSize":{"x":0,"y":0,"w":58,"h":108},"sourceSize":{"w":58,"h":108}},
{"filename":"e (322)","frame":{"x":1254,"y":827,"w":58,"h":100},"rotated":false,"trimmed":false,"spriteSourceSize":{"x":0,"y":0,"w":58,"h":100},"sourceSize":{"w":58,"h":100}},
{"filename":"e (323)","frame":{"x":1134,"y":915,"w":58,"h":108},"rotated":false,"trimmed":false,"spriteSourceSize":{"x":0,"y":0,"w":58,"h":108},"sourceSize":{"w":58,"h":108}},
{"filename":"e (324)","frame":{"x":676,"y":1140,"w":58,"h":120},"rotated":false,"trimmed":false,"spriteSourceSize":{"x":0,"y":0,"w":58,"h":120},"sourceSize":{"w":58,"h":120}},
{"filename":"e (325)","frame":{"x":654,"y":1368,"w":58,"h":94},"rotated":false,"trimmed":false,"spriteSourceSize":{"x":0,"y":0,"w":58,"h":94},"sourceSize":{"w":58,"h":94}},
{"filename":"e (326)","frame":{"x":1372,"y":997,"w":58,"h":95},"rotated":false,"trimmed":false,"spriteSourceSize":{"x":0,"y":0,"w":58,"h":95},"sourceSize":{"w":58,"h":95}},
{"filename":"e (327)","frame":{"x":657,"y":342,"w":58,"h":115},"rotated":false,"trimmed":false,"spriteSourceSize":{"x":0,"y":0,"w":58,"h":115},"sourceSize":{"w":58,"h":115}},
{"filename":"e (328)","frame":{"x":1075,"y":463,"w":58,"h":112},"rotated":false,"trimmed":false,"spriteSourceSize":{"x":0,"y":0,"w":58,"h":112},"sourceSize":{"w":58,"h":112}},
{"filename":"e (329)","frame":{"x":1254,"y":928,"w":58,"h":100},"rotated":false,"trimmed":false,"spriteSourceSize":{"x":0,"y":0,"w":58,"h":100},"sourceSize":{"w":58,"h":100}},
{"filename":"e (330)","frame":{"x":1254,"y":724,"w":58,"h":102},"rotated":false,"trimmed":false,"spriteSourceSize":{"x":0,"y":0,"w":58,"h":102},"sourceSize":{"w":58,"h":102}},
{"filename":"e (331)","frame":{"x":1193,"y":463,"w":58,"h":103},"rotated":false,"trimmed":false,"spriteSourceSize":{"x":0,"y":0,"w":58,"h":103},"sourceSize":{"w":58,"h":103}},
{"filename":"e (332)","frame":{"x":1313,"y":604,"w":58,"h":98},"rotated":false,"trimmed":false,"spriteSourceSize":{"x":0,"y":0,"w":58,"h":98},"sourceSize":{"w":58,"h":98}},
{"filename":"e (333)","frame":{"x":776,"y":894,"w":58,"h":107},"rotated":false,"trimmed":false,"spriteSourceSize":{"x":0,"y":0,"w":58,"h":107},"sourceSize":{"w":58,"h":107}},
{"filename":"e (334)","frame":{"x":853,"y":1140,"w":58,"h":117},"rotated":false,"trimmed":false,"spriteSourceSize":{"x":0,"y":0,"w":58,"h":117},"sourceSize":{"w":58,"h":117}},
{"filename":"e (335)","frame":{"x":716,"y":1002,"w":58,"h":127},"rotated":false,"trimmed":false,"spriteSourceSize":{"x":0,"y":0,"w":58,"h":127},"sourceSize":{"w":58,"h":127}},
{"filename":"e (336)","frame":{"x":491,"y":1140,"w":58,"h":122},"rotated":false,"trimmed":false,"spriteSourceSize":{"x":0,"y":0,"w":58,"h":122},"sourceSize":{"w":58,"h":122}},
{"filename":"e (337)","frame":{"x":1134,"y":463,"w":58,"h":104},"rotated":false,"trimmed":false,"spriteSourceSize":{"x":0,"y":0,"w":58,"h":104},"sourceSize":{"w":58,"h":104}},
{"filename":"e (338)","frame":{"x":1193,"y":689,"w":58,"h":105},"rotated":false,"trimmed":false,"spriteSourceSize":{"x":0,"y":0,"w":58,"h":105},"sourceSize":{"w":58,"h":105}},
{"filename":"e (339)","frame":{"x":1134,"y":576,"w":58,"h":105},"rotated":false,"trimmed":false,"spriteSourceSize":{"x":0,"y":0,"w":58,"h":105},"sourceSize":{"w":58,"h":105}},
{"filename":"e (340)","frame":{"x":1254,"y":0,"w":58,"h":103},"rotated":false,"trimmed":false,"spriteSourceSize":{"x":0,"y":0,"w":58,"h":103},"sourceSize":{"w":58,"h":103}},
{"filename":"e (341)","frame":{"x":1075,"y":576,"w":58,"h":112},"rotated":false,"trimmed":false,"spriteSourceSize":{"x":0,"y":0,"w":58,"h":112},"sourceSize":{"w":58,"h":112}},
{"filename":"e (342)","frame":{"x":1254,"y":104,"w":58,"h":103},"rotated":false,"trimmed":false,"spriteSourceSize":{"x":0,"y":0,"w":58,"h":103},"sourceSize":{"w":58,"h":103}},
{"filename":"e (343)","frame":{"x":1254,"y":312,"w":58,"h":102},"rotated":false,"trimmed":false,"spriteSourceSize":{"x":0,"y":0,"w":58,"h":102},"sourceSize":{"w":58,"h":102}},
{"filename":"e (344)","frame":{"x":1015,"y":731,"w":58,"h":115},"rotated":false,"trimmed":false,"spriteSourceSize":{"x":0,"y":0,"w":58,"h":115},"sourceSize":{"w":58,"h":115}},
{"filename":"e (345)","frame":{"x":1015,"y":295,"w":58,"h":112},"rotated":false,"trimmed":false,"spriteSourceSize":{"x":0,"y":0,"w":58,"h":112},"sourceSize":{"w":58,"h":112}},
{"filename":"e (346)","frame":{"x":1075,"y":1028,"w":58,"h":111},"rotated":false,"trimmed":false,"spriteSourceSize":{"x":0,"y":0,"w":58,"h":111},"sourceSize":{"w":58,"h":111}},
{"filename":"e (347)","frame":{"x":1015,"y":441,"w":58,"h":114},"rotated":false,"trimmed":false,"spriteSourceSize":{"x":0,"y":0,"w":58,"h":114},"sourceSize":{"w":58,"h":114}},
{"filename":"e (348)","frame":{"x":912,"y":1140,"w":58,"h":116},"rotated":false,"trimmed":false,"spriteSourceSize":{"x":0,"y":0,"w":58,"h":116},"sourceSize":{"w":58,"h":116}},
{"filename":"e (349)","frame":{"x":1254,"y":1029,"w":58,"h":99},"rotated":false,"trimmed":false,"spriteSourceSize":{"x":0,"y":0,"w":58,"h":99},"sourceSize":{"w":58,"h":99}},
{"filename":"e (350)","frame":{"x":1254,"y":1129,"w":58,"h":99},"rotated":false,"trimmed":false,"spriteSourceSize":{"x":0,"y":0,"w":58,"h":99},"sourceSize":{"w":58,"h":99}},
{"filename":"e (351)","frame":{"x":835,"y":894,"w":58,"h":106},"rotated":false,"trimmed":false,"spriteSourceSize":{"x":0,"y":0,"w":58,"h":106},"sourceSize":{"w":58,"h":106}},
{"filename":"e (352)","frame":{"x":1194,"y":1140,"w":58,"h":110},"rotated":false,"trimmed":false,"spriteSourceSize":{"x":0,"y":0,"w":58,"h":110},"sourceSize":{"w":58,"h":110}},
{"filename":"e (353)","frame":{"x":1254,"y":415,"w":58,"h":102},"rotated":false,"trimmed":false,"spriteSourceSize":{"x":0,"y":0,"w":58,"h":102},"sourceSize":{"w":58,"h":102}},
{"filename":"e (354)","frame":{"x":1075,"y":689,"w":58,"h":112},"rotated":false,"trimmed":false,"spriteSourceSize":{"x":0,"y":0,"w":58,"h":112},"sourceSize":{"w":58,"h":112}},
{"filename":"e (355)","frame":{"x":1075,"y":915,"w":58,"h":112},"rotated":false,"trimmed":false,"spriteSourceSize":{"x":0,"y":0,"w":58,"h":112},"sourceSize":{"w":58,"h":112}},
{"filename":"e (356)","frame":{"x":1134,"y":689,"w":58,"h":106},"rotated":false,"trimmed":false,"spriteSourceSize":{"x":0,"y":0,"w":58,"h":106},"sourceSize":{"w":58,"h":106}},
{"filename":"e (357)","frame":{"x":119,"y":1368,"w":58,"h":95},"rotated":false,"trimmed":false,"spriteSourceSize":{"x":0,"y":0,"w":58,"h":95},"sourceSize":{"w":58,"h":95}},
{"filename":"e (358)","frame":{"x":1313,"y":900,"w":58,"h":96},"rotated":false,"trimmed":false,"spriteSourceSize":{"x":0,"y":0,"w":58,"h":96},"sourceSize":{"w":58,"h":96}},
{"filename":"e (359)","frame":{"x":1196,"y":1265,"w":58,"h":100},"rotated":false,"trimmed":false,"spriteSourceSize":{"x":0,"y":0,"w":58,"h":100},"sourceSize":{"w":58,"h":100}},
{"filename":"e (360)","frame":{"x":1313,"y":997,"w":58,"h":96},"rotated":false,"trimmed":false,"spriteSourceSize":{"x":0,"y":0,"w":58,"h":96},"sourceSize":{"w":58,"h":96}},
{"filename":"e (361)","frame":{"x":794,"y":1140,"w":58,"h":118},"rotated":false,"trimmed":false,"spriteSourceSize":{"x":0,"y":0,"w":58,"h":118},"sourceSize":{"w":58,"h":118}},
{"filename":"e (362)","frame":{"x":1193,"y":576,"w":58,"h":105},"rotated":false,"trimmed":false,"spriteSourceSize":{"x":0,"y":0,"w":58,"h":105},"sourceSize":{"w":58,"h":105}},
{"filename":"e (363)","frame":{"x":1254,"y":208,"w":58,"h":103},"rotated":false,"trimmed":false,"spriteSourceSize":{"x":0,"y":0,"w":58,"h":103},"sourceSize":{"w":58,"h":103}},
{"filename":"e (364)","frame":{"x":717,"y":894,"w":58,"h":107},"rotated":false,"trimmed":false,"spriteSourceSize":{"x":0,"y":0,"w":58,"h":107},"sourceSize":{"w":58,"h":107}},
{"filename":"e (365)","frame":{"x":1730,"y":930,"w":58,"h":30},"rotated":false,"trimmed":false,"spriteSourceSize":{"x":0,"y":0,"w":58,"h":30},"sourceSize":{"w":58,"h":30}},
{"filename":"e (366)","frame":{"x":1730,"y":961,"w":58,"h":30},"rotated":false,"trimmed":false,"spriteSourceSize":{"x":0,"y":0,"w":58,"h":30},"sourceSize":{"w":58,"h":30}},
{"filename":"e (367)","frame":{"x":1730,"y":992,"w":58,"h":30},"rotated":false,"trimmed":false,"spriteSourceSize":{"x":0,"y":0,"w":58,"h":30},"sourceSize":{"w":58,"h":30}},
{"filename":"e (368)","frame":{"x":1730,"y":1023,"w":58,"h":30},"rotated":false,"trimmed":false,"spriteSourceSize":{"x":0,"y":0,"w":58,"h":30},"sourceSize":{"w":58,"h":30}},
{"filename":"e (369)","frame":{"x":1730,"y":1054,"w":58,"h":30},"rotated":false,"trimmed":false,"spriteSourceSize":{"x":0,"y":0,"w":58,"h":30},"sourceSize":{"w":58,"h":30}},
{"filename":"e (370)","frame":{"x":1730,"y":1085,"w":58,"h":30},"rotated":false,"trimmed":false,"spriteSourceSize":{"x":0,"y":0,"w":58,"h":30},"sourceSize":{"w":58,"h":30}},
{"filename":"e (371)","frame":{"x":1730,"y":1116,"w":58,"h":30},"rotated":false,"trimmed":false,"spriteSourceSize":{"x":0,"y":0,"w":58,"h":30},"sourceSize":{"w":58,"h":30}},
{"filename":"e (372)","frame":{"x":1730,"y":1147,"w":58,"h":30},"rotated":false,"trimmed":false,"spriteSourceSize":{"x":0,"y":0,"w":58,"h":30},"sourceSize":{"w":58,"h":30}},
{"filename":"e (373)","frame":{"x":1730,"y":1178,"w":58,"h":30},"rotated":false,"trimmed":false,"spriteSourceSize":{"x":0,"y":0,"w":58,"h":30},"sourceSize":{"w":58,"h":30}},
{"filename":"e (374)","frame":{"x":1730,"y":1209,"w":58,"h":30},"rotated":false,"trimmed":false,"spriteSourceSize":{"x":0,"y":0,"w":58,"h":30},"sourceSize":{"w":58,"h":30}},
{"filename":"e (375)","frame":{"x":1730,"y":1240,"w":58,"h":30},"rotated":false,"trimmed":false,"spriteSourceSize":{"x":0,"y":0,"w":58,"h":30},"sourceSize":{"w":58,"h":30}},
{"filename":"e (376)","frame":{"x":1730,"y":1271,"w":58,"h":30},"rotated":false,"trimmed":false,"spriteSourceSize":{"x":0,"y":0,"w":58,"h":30},"sourceSize":{"w":58,"h":30}},
{"filename":"e (377)","frame":{"x":1313,"y":1191,"w":118,"h":95},"rotated":false,"trimmed":false,"spriteSourceSize":{"x":0,"y":0,"w":118,"h":95},"sourceSize":{"w":118,"h":95}},
{"filename":"e (378)","frame":{"x":478,"y":181,"w":238,"h":160},"rotated":false,"trimmed":false,"spriteSourceSize":{"x":0,"y":0,"w":238,"h":160},"sourceSize":{"w":238,"h":160}},
{"filename":"e (379)","frame":{"x":428,"y":1140,"w":62,"h":122},"rotated":false,"trimmed":false,"spriteSourceSize":{"x":0,"y":0,"w":62,"h":122},"sourceSize":{"w":62,"h":122}},
{"filename":"e (380)","frame":{"x":550,"y":1140,"w":62,"h":122},"rotated":false,"trimmed":false,"spriteSourceSize":{"x":0,"y":0,"w":62,"h":122},"sourceSize":{"w":62,"h":122}},
{"filename":"e (381)","frame":{"x":302,"y":1140,"w":62,"h":122},"rotated":false,"trimmed":false,"spriteSourceSize":{"x":0,"y":0,"w":62,"h":122},"sourceSize":{"w":62,"h":122}},
{"filename":"e (382)","frame":{"x":613,"y":1140,"w":62,"h":122},"rotated":false,"trimmed":false,"spriteSourceSize":{"x":0,"y":0,"w":62,"h":122},"sourceSize":{"w":62,"h":122}},
{"filename":"e (383)","frame":{"x":365,"y":1140,"w":62,"h":122},"rotated":false,"trimmed":false,"spriteSourceSize":{"x":0,"y":0,"w":62,"h":122},"sourceSize":{"w":62,"h":122}},
{"filename":"e (384)","frame":{"x":239,"y":1140,"w":62,"h":122},"rotated":false,"trimmed":false,"spriteSourceSize":{"x":0,"y":0,"w":62,"h":122},"sourceSize":{"w":62,"h":122}},
{"filename":"e (385)","frame":{"x":1671,"y":354,"w":58,"h":36},"rotated":false,"trimmed":false,"spriteSourceSize":{"x":0,"y":0,"w":58,"h":36},"sourceSize":{"w":58,"h":36}},
{"filename":"e (386)","frame":{"x":1030,"y":1197,"w":23,"h":12},"rotated":false,"trimmed":false,"spriteSourceSize":{"x":0,"y":0,"w":23,"h":12},"sourceSize":{"w":23,"h":12}},
{"filename":"e (387)","frame":{"x":1030,"y":1183,"w":20,"h":13},"rotated":false,"trimmed":false,"spriteSourceSize":{"x":0,"y":0,"w":20,"h":13},"sourceSize":{"w":20,"h":13}},
{"filename":"e (388)","frame":{"x":1047,"y":1236,"w":20,"h":11},"rotated":false,"trimmed":false,"spriteSourceSize":{"x":0,"y":0,"w":20,"h":11},"sourceSize":{"w":20,"h":11}},
{"filename":"e (389)","frame":{"x":1030,"y":1236,"w":16,"h":12},"rotated":false,"trimmed":false,"spriteSourceSize":{"x":0,"y":0,"w":16,"h":12},"sourceSize":{"w":16,"h":12}},
{"filename":"e (390)","frame":{"x":1030,"y":1210,"w":27,"h":12},"rotated":false,"trimmed":false,"spriteSourceSize":{"x":0,"y":0,"w":27,"h":12},"sourceSize":{"w":27,"h":12}},
{"filename":"e (391)","frame":{"x":1030,"y":1140,"w":25,"h":14},"rotated":false,"trimmed":false,"spriteSourceSize":{"x":0,"y":0,"w":25,"h":14},"sourceSize":{"w":25,"h":14}},
{"filename":"e (392)","frame":{"x":1255,"y":1285,"w":12,"h":18},"rotated":false,"trimmed":false,"spriteSourceSize":{"x":0,"y":0,"w":12,"h":18},"sourceSize":{"w":12,"h":18}},
{"filename":"e (393)","frame":{"x":1279,"y":1304,"w":23,"h":15},"rotated":false,"trimmed":false,"spriteSourceSize":{"x":0,"y":0,"w":23,"h":15},"sourceSize":{"w":23,"h":15}},
{"filename":"e (394)","frame":{"x":1295,"y":1341,"w":17,"h":15},"rotated":false,"trimmed":false,"spriteSourceSize":{"x":0,"y":0,"w":17,"h":15},"sourceSize":{"w":17,"h":15}},
{"filename":"e (395)","frame":{"x":1293,"y":1323,"w":18,"h":15},"rotated":false,"trimmed":false,"spriteSourceSize":{"x":0,"y":0,"w":18,"h":15},"sourceSize":{"w":18,"h":15}},
{"filename":"e (396)","frame":{"x":1030,"y":1223,"w":16,"h":12},"rotated":false,"trimmed":false,"spriteSourceSize":{"x":0,"y":0,"w":16,"h":12},"sourceSize":{"w":16,"h":12}},
{"filename":"e (397)","frame":{"x":1255,"y":1323,"w":12,"h":17},"rotated":false,"trimmed":false,"spriteSourceSize":{"x":0,"y":0,"w":12,"h":17},"sourceSize":{"w":12,"h":17}},
{"filename":"e (398)","frame":{"x":1288,"y":1285,"w":22,"h":15},"rotated":false,"trimmed":false,"spriteSourceSize":{"x":0,"y":0,"w":22,"h":15},"sourceSize":{"w":22,"h":15}},
{"filename":"e (399)","frame":{"x":1255,"y":1304,"w":23,"h":18},"rotated":false,"trimmed":false,"spriteSourceSize":{"x":0,"y":0,"w":23,"h":18},"sourceSize":{"w":23,"h":18}},
{"filename":"e (400)","frame":{"x":1711,"y":1758,"w":18,"h":21},"rotated":false,"trimmed":false,"spriteSourceSize":{"x":0,"y":0,"w":18,"h":21},"sourceSize":{"w":18,"h":21}},
{"filename":"e (401)","frame":{"x":1653,"y":1719,"w":10,"h":20},"rotated":false,"trimmed":false,"spriteSourceSize":{"x":0,"y":0,"w":10,"h":20},"sourceSize":{"w":10,"h":20}},
{"filename":"e (402)","frame":{"x":1255,"y":1265,"w":12,"h":19},"rotated":false,"trimmed":false,"spriteSourceSize":{"x":0,"y":0,"w":12,"h":19},"sourceSize":{"w":12,"h":19}},
{"filename":"e (403)","frame":{"x":1653,"y":1697,"w":11,"h":21},"rotated":false,"trimmed":false,"spriteSourceSize":{"x":0,"y":0,"w":11,"h":21},"sourceSize":{"w":11,"h":21}},
{"filename":"e (404)","frame":{"x":1255,"y":1341,"w":14,"h":17},"rotated":false,"trimmed":false,"spriteSourceSize":{"x":0,"y":0,"w":14,"h":17},"sourceSize":{"w":14,"h":17}},
{"filename":"e (405)","frame":{"x":1433,"y":521,"w":118,"h":84},"rotated":false,"trimmed":false,"spriteSourceSize":{"x":0,"y":0,"w":118,"h":84},"sourceSize":{"w":118,"h":84}},
{"filename":"e (406)","frame":{"x":1433,"y":775,"w":118,"h":83},"rotated":false,"trimmed":false,"spriteSourceSize":{"x":0,"y":0,"w":118,"h":83},"sourceSize":{"w":118,"h":83}},
{"filename":"e (407)","frame":{"x":956,"y":1556,"w":118,"h":73},"rotated":false,"trimmed":false,"spriteSourceSize":{"x":0,"y":0,"w":118,"h":73},"sourceSize":{"w":118,"h":73}},
{"filename":"e (408)","frame":{"x":1070,"y":1368,"w":118,"h":91},"rotated":false,"trimmed":false,"spriteSourceSize":{"x":0,"y":0,"w":118,"h":91},"sourceSize":{"w":118,"h":91}}
],"meta":{"app":"https://www.leshylabs.com/apps/sstool/","version":"Leshy SpriteSheet Tool v0.8.4","image":"spritesheet.png","size":{"w":1788,"h":1788},"scale":1}}