[gd_scene load_steps=8 format=2]

[ext_resource path="res://object/player.tscn" type="PackedScene" id=3]
[ext_resource path="res://scenarios/scenario.gd" type="Script" id=4]
[ext_resource path="res://object/npc.tscn" type="PackedScene" id=5]
[ext_resource path="res://tilesets/items.tres" type="TileSet" id=6]
[ext_resource path="res://object/door.tscn" type="PackedScene" id=7]
[ext_resource path="res://minigames/character_creation.tscn" type="PackedScene" id=8]
[ext_resource path="res://tilesets/mask.tres" type="TileSet" id=9]

[node name="overworld" type="Node2D"]
script = ExtResource( 4 )

[node name="FloorItems" type="TileMap" parent="."]
tile_set = ExtResource( 6 )
format = 1
tile_data = PoolIntArray( 1, 1073741844, 0, 2, 1073741844, 0, 3, 1073741844, 0, 4, 1073741844, 0, 5, 1073741844, 0, 6, 1073741844, 0, 7, 1073741844, 0, 8, 1073741844, 0, 9, 1073741844, 0, 10, 13, 0, 12, 14, 0, 14, 14, 0, 65537, 1073741844, 0, 65538, 1073741844, 0, 65539, 1073741844, 0, 65540, 1073741844, 0, 65541, 1073741844, 0, 65542, 1073741844, 0, 65543, 1073741844, 0, 65544, 1073741844, 0, 65545, 1073741844, 0, 65546, 13, 0, 65547, 14, 0, 65548, 14, 0, 65549, 14, 0, 65550, 14, 0, 131073, 7, 0, 131074, 7, 0, 131075, 7, 0, 131076, 7, 0, 131077, 35, 0, 131078, 14, 0, 131079, 14, 0, 131080, 14, 0, 131081, 14, 0, 131082, 13, 0, 131083, 13, 0, 131084, 13, 0, 131085, 13, 0, 131086, 13, 0, 196609, 7, 0, 196610, 7, 0, 196611, 7, 0, 196612, 7, 0, 196613, 35, 0, 196614, 14, 0, 196615, 14, 0, 196616, 14, 0, 196617, 14, 0, 196618, 13, 0, 196619, 13, 0, 196620, 13, 0, 196621, 13, 0, 196622, 13, 0, 262145, 7, 0, 262146, 7, 0, 262147, 7, 0, 262148, 7, 0, 262149, 35, 0, 262150, 14, 0, 262151, 14, 0, 262152, 14, 0, 262153, 14, 0, 262154, 13, 0, 262155, 13, 0, 262156, 13, 0, 262157, 13, 0, 262158, 13, 0, 327681, 1073741860, 0, 327682, 1073741860, 0, 327683, 1073741860, 0, 327684, 1073741860, 0, 327685, 1073741860, 0, 327686, 14, 0, 327687, 14, 0, 327688, 14, 0, 327689, 14, 0, 327690, 13, 0, 327691, 13, 0, 327692, 13, 0, 327693, 13, 0, 327694, 13, 0, 393217, 14, 0, 393218, 14, 0, 393219, 14, 0, 393220, 14, 0, 393221, 14, 0, 393222, 14, 0, 393223, 14, 0, 393224, 14, 0, 393225, 14, 0, 393226, 13, 0, 393227, 13, 0, 393228, 13, 0, 393229, 13, 0, 393230, 13, 0, 458753, 14, 0, 458754, 14, 0, 458755, 14, 0, 458756, 14, 0, 458757, 14, 0, 458758, 14, 0, 458759, 14, 0, 458760, 14, 0, 458761, 14, 0, 458762, 13, 0, 458763, 13, 0, 458764, 13, 0, 458765, 13, 0, 458766, 13, 0, 524291, 14, 0, 524292, 14, 0, 524299, 22, 0 )

[node name="BaseItems" type="TileMap" parent="."]
tile_set = ExtResource( 6 )
format = 1
tile_data = PoolIntArray( 7, -1610612705, 0, 8, -1610612705, 0, 9, -1610612705, 0, 11, 14, 0, 12, 14, 0, 13, 14, 0, 14, 14, 0, 65543, 4, 0, 65544, 4, 0, 65545, 4, 0, 65546, 14, 0, 65547, 36, 0, 65548, 36, 0, 65549, 36, 0, 65550, 36, 0, 131073, 42, 0, 131079, 4, 0, 131080, 4, 0, 131081, 4, 0, 131082, 14, 0, 196611, 41, 0, 196615, 0, 0, 262145, 41, 0, 262148, 42, 0, 327685, 1073741858, 0, 393224, 45, 0 )

[node name="BaseItems3" type="TileMap" parent="."]
tile_set = ExtResource( 6 )
format = 1
tile_data = PoolIntArray( 11, 36, 0, 12, 36, 0, 13, 36, 0, 14, 36, 0, 65547, 36, 0, 65548, 36, 0, 65549, 36, 0, 65550, 36, 0, 131083, 36, 0, 131084, 36, 0, 131085, 36, 0, 131086, 36, 0, 327691, 36, 0, 327692, 36, 0, 327693, 36, 0, 327694, 36, 0, 393227, 36, 0, 393228, 36, 0, 393229, 36, 0, 393230, 36, 0, 458763, 36, 0, 458764, 36, 0, 458765, 36, 0, 458766, 36, 0 )

[node name="Nodes" type="YSort" parent="."]
z_as_relative = false

[node name="player" parent="Nodes" instance=ExtResource( 3 )]
position = Vector2( 256, 512 )
cameraLimit = Vector2( 1000, 1000 )

[node name="door" parent="Nodes" instance=ExtResource( 7 )]
position = Vector2( 192, 512 )
scale = Vector2( 2, 1 )
door = "kronstad/kronstad"

[node name="man" parent="Nodes" instance=ExtResource( 5 )]
position = Vector2( 128, 128 )
type = "feudal_man"
dialog = "feudal_man_house"

[node name="BaseItems2" type="TileMap" parent="."]
tile_set = ExtResource( 6 )
format = 1

[node name="TopItems" type="TileMap" parent="."]
tile_set = ExtResource( 6 )
format = 1
tile_data = PoolIntArray( 10, 22, 0, 65546, 24, 0, 131082, 24, 0, 196618, 24, 0, 262144, 22, 0, 262154, 24, 0, 327680, 22, 0, 327690, 22, 0, 393216, 22, 0, 393226, 22, 0, 393231, 22, 0, 458752, 22, 0, 458762, 22, 0, 458767, 22, 0, 524288, 22, 0, 524289, 22, 0, 524290, 22, 0, 524291, 24, 0, 524292, 24, 0, 524293, 22, 0, 524294, 22, 0, 524295, 22, 0, 524296, 22, 0, 524297, 22, 0, 524298, 22, 0, 524303, 22, 0, 589824, 22, 0, 589825, 22, 0, 589826, 22, 0, 589827, 22, 0, 589828, 22, 0, 589829, 22, 0, 589830, 22, 0, 589831, 536870934, 0, 589832, 22, 0, 589833, 22, 0, 589834, 22, 0, 589837, 22, 0, 589838, 22, 0, 589839, 22, 0 )

[node name="empty" type="TileMap" parent="."]
tile_set = ExtResource( 6 )
format = 1

[node name="collision" type="TileMap" parent="."]
visible = false
tile_set = ExtResource( 9 )
format = 1
tile_data = PoolIntArray( -65526, 0, 0, -65525, 0, 0, -65524, 0, 0, -65523, 0, 0, -65522, 0, 0, -65521, 0, 0, 10, 0, 0, 15, 0, 0, 65536, 0, 0, 65537, 0, 0, 65538, 0, 0, 65539, 0, 0, 65540, 0, 0, 65541, 0, 0, 65542, 0, 0, 65543, 0, 0, 65546, 0, 0, 65551, 0, 0, 131072, 0, 0, 131073, 0, 0, 131079, 0, 0, 131080, 0, 0, 131081, 0, 0, 131082, 0, 0, 131087, 0, 0, 196608, 0, 0, 196611, 0, 0, 196615, 0, 0, 196623, 0, 0, 262144, 0, 0, 262145, 0, 0, 262148, 0, 0, 262159, 0, 0, 327680, 0, 0, 327690, 0, 0, 327695, 0, 0, 393216, 0, 0, 393224, 0, 0, 393226, 0, 0, 393231, 0, 0, 458752, 0, 0, 458762, 0, 0, 458767, 0, 0, 524288, 0, 0, 524289, 0, 0, 524290, 0, 0, 524293, 0, 0, 524294, 0, 0, 524295, 0, 0, 524296, 0, 0, 524297, 0, 0, 524298, 0, 0, 524299, 0, 0, 524300, 0, 0, 524301, 0, 0, 524302, 0, 0, 524303, 0, 0, 589826, 0, 0, 589827, 0, 0, 589828, 0, 0, 589829, 0, 0 )

[node name="creator" parent="." instance=ExtResource( 8 )]
visible = false
anchor_left = 1.0
anchor_top = 1.0
anchor_right = 1.0
anchor_bottom = 1.0
margin_left = 512.0
margin_top = 320.0
margin_right = 512.0
margin_bottom = 320.0

[node name="Camera2D" type="Camera2D" parent="."]
anchor_mode = 0
current = true
