[gd_scene load_steps=7 format=2]

[ext_resource path="res://object/player.tscn" type="PackedScene" id=3]
[ext_resource path="res://scenarios/scenario.gd" type="Script" id=4]
[ext_resource path="res://object/npc.tscn" type="PackedScene" id=5]
[ext_resource path="res://tilesets/items.tres" type="TileSet" id=6]
[ext_resource path="res://object/door.tscn" type="PackedScene" id=7]
[ext_resource path="res://tilesets/mask.tres" type="TileSet" id=9]

[node name="overworld" type="Node2D"]
script = ExtResource( 4 )

[node name="FloorItems" type="TileMap" parent="."]
tile_set = ExtResource( 6 )
format = 1
tile_data = PoolIntArray( 1, 14, 0, 2, 14, 0, 3, 14, 0, 4, 14, 0, 5, 21, 0, 6, 14, 0, 7, 14, 0, 8, 14, 0, 9, 14, 0, 10, 21, 0, 11, 14, 0, 12, 14, 0, 13, 14, 0, 14, 14, 0, 65537, 13, 0, 65538, 13, 0, 65539, 13, 0, 65540, 13, 0, 65541, 21, 0, 65542, 13, 0, 65543, 13, 0, 65544, 13, 0, 65545, 13, 0, 65546, 21, 0, 65547, 13, 0, 65548, 13, 0, 65549, 13, 0, 65550, 13, 0, 131073, 13, 0, 131074, 13, 0, 131075, 13, 0, 131076, 13, 0, 131077, 21, 0, 131078, 13, 0, 131079, 13, 0, 131080, 13, 0, 131081, 13, 0, 131082, 21, 0, 131083, 13, 0, 131084, 13, 0, 131085, 13, 0, 131086, 13, 0, 196609, 13, 0, 196610, 13, 0, 196611, 13, 0, 196612, 13, 0, 196613, 21, 0, 196614, 21, 0, 196615, 21, 0, 196616, 21, 0, 196617, 21, 0, 196618, 21, 0, 196619, 13, 0, 196620, 13, 0, 196621, 13, 0, 196622, 13, 0, 262145, 13, 0, 262146, 13, 0, 262147, 13, 0, 262148, 13, 0, 262149, 20, 0, 262150, 20, 0, 262151, 20, 0, 262152, 20, 0, 262153, 20, 0, 262154, 20, 0, 262155, 13, 0, 262156, 13, 0, 262157, 13, 0, 262158, 13, 0, 327681, 13, 0, 327682, 13, 0, 327683, 13, 0, 327684, 13, 0, 327685, 13, 0, 327686, 13, 0, 327687, 13, 0, 327688, 13, 0, 327689, 13, 0, 327690, 13, 0, 327691, 13, 0, 327692, 13, 0, 327693, 13, 0, 327694, 13, 0, 393217, 13, 0, 393218, 13, 0, 393219, 13, 0, 393220, 13, 0, 393221, 13, 0, 393222, 13, 0, 393223, 13, 0, 393224, 13, 0, 393225, 13, 0, 393226, 13, 0, 393227, 13, 0, 393228, 13, 0, 393229, 13, 0, 393230, 13, 0, 458753, 13, 0, 458754, 13, 0, 458755, 13, 0, 458756, 13, 0, 458757, 13, 0, 458758, 13, 0, 458759, 13, 0, 458760, 13, 0, 458761, 13, 0, 458762, 13, 0, 458763, 13, 0, 458764, 13, 0, 458765, 13, 0, 458766, 13, 0, 524295, 19, 0, 524296, 19, 0 )

[node name="BaseItems" type="TileMap" parent="."]
tile_set = ExtResource( 6 )
format = 1
tile_data = PoolIntArray( 1, 36, 0, 2, 36, 0, 3, 36, 0, 11, 3, 0, 14, 536870915, 0, 65537, 36, 0, 65538, 36, 0, 65539, 36, 0, 65542, 29, 0, 65545, 29, 0, 65547, 3, 0, 65548, 536870919, 0, 65549, 536870919, 0, 65550, 536870915, 0, 131073, 36, 0, 131074, 36, 0, 131075, 36, 0, 131076, 536870941, 0, 131083, 3, 0, 131084, 536870919, 0, 131085, 536870919, 0, 131086, 536870915, 0, 196609, 36, 0, 196610, 36, 0, 196611, 36, 0, 196620, 16, 0, 196621, 536870928, 0, 262149, 17, 0, 262150, 536870929, 0, 262151, 17, 0, 262152, 536870929, 0, 262153, 17, 0, 262154, 536870929, 0, 458754, 1073741849, 0, 458755, 1610612761, 0, 458761, 1610612761, 0, 458766, 1073741849, 0 )

[node name="BaseItems2" type="TileMap" parent="."]
tile_set = ExtResource( 6 )
cell_size = Vector2( 32, 32 )
format = 1
tile_data = PoolIntArray( 65548, 29, 0, 65554, 29, 0, 65560, 536870919, 0, 65561, 536870919, 0, 65562, 536870919, 0, 131092, 536870954, 0, 131097, 536870957, 0, 196616, 536870941, 0, 196625, 29, 0, 196634, 536870953, 0, 262168, 536870954, 0, 393226, 536870954, 0, 393236, 536870953, 0, 393240, 536870940, 0, 393242, 536870940, 0, 589843, 7, 0, 589844, 7, 0, 589845, 7, 0, 589846, 7, 0, 589847, 7, 0, 589848, 7, 0, 589849, 7, 0, 589850, 7, 0, 589851, 7, 0, 655362, 3, 0, 655387, 7, 0, 720900, 7, 0, 720902, 7, 0, 720915, 7, 0, 720917, 7, 0, 720918, 7, 0, 720919, 7, 0, 720920, 7, 0, 720921, 7, 0, 720922, 7, 0, 720923, 7, 0, 851972, 28, 0, 851974, 28, 0, 851987, 28, 0, 851988, 28, 0, 851989, 28, 0, 851990, 28, 0, 851991, 28, 0, 851992, 28, 0, 851993, 28, 0, 851994, 28, 0, 851995, 28, 0 )

[node name="Nodes" type="YSort" parent="."]
z_as_relative = false

[node name="player" parent="Nodes" instance=ExtResource( 3 )]
position = Vector2( 448, 448 )
cameraLimit = Vector2( 1000, 1000 )

[node name="barman" parent="Nodes" instance=ExtResource( 5 )]
position = Vector2( 448, 192 )
type = "feudal_worker"
dialog = "inn"

[node name="CollisionShape2D" parent="Nodes/barman/Area2D" index="0"]
position = Vector2( 0, 96 )

[node name="door_out" parent="Nodes" instance=ExtResource( 7 )]
position = Vector2( 448, 512 )
scale = Vector2( 2, 1 )
door = "kronstad/kronstad"

[node name="door_up" parent="Nodes" instance=ExtResource( 7 )]
position = Vector2( 64, -64 )
scale = Vector2( 3, 1 )
door = "inn_room"

[node name="BaseItems3" type="TileMap" parent="."]
tile_set = ExtResource( 6 )
cell_size = Vector2( 32, 32 )
format = 1
tile_data = PoolIntArray( 720900, 536870919, 0, 720902, 536870919, 0 )

[node name="TopItems" type="TileMap" parent="."]
tile_set = ExtResource( 6 )
format = 1
tile_data = PoolIntArray( -65535, 46, 0, -65534, 46, 0, -65533, 46, 0, 0, 22, 0, 1, 23, 0, 2, 23, 0, 3, 23, 0, 15, 22, 0, 65536, 22, 0, 65551, 22, 0, 131072, 22, 0, 131087, 22, 0, 196608, 22, 0, 196614, 21, 0, 196615, 21, 0, 196623, 22, 0, 262144, 22, 0, 262159, 22, 0, 327680, 22, 0, 327690, 536870953, 0, 327693, 536870954, 0, 327695, 22, 0, 393216, 22, 0, 393226, 2, 0, 393227, 2, 0, 393228, 2, 0, 393229, 2, 0, 393231, 22, 0, 458752, 22, 0, 458767, 22, 0, 524288, 22, 0, 524289, 22, 0, 524290, 22, 0, 524291, 22, 0, 524292, 22, 0, 524293, 22, 0, 524294, 22, 0, 524295, 23, 0, 524296, 23, 0, 524298, 22, 0, 524299, 22, 0, 524300, 22, 0, 524301, 22, 0, 524302, 22, 0, 524303, 22, 0, 589824, 22, 0, 589825, 22, 0, 589826, 22, 0, 589827, 22, 0, 589828, 22, 0, 589829, 22, 0, 589830, 22, 0, 589831, 22, 0, 589832, 22, 0, 589833, 22, 0, 589834, 22, 0, 589835, 22, 0, 589836, 22, 0, 589837, 22, 0, 589838, 22, 0, 589839, 22, 0 )

[node name="empty" type="TileMap" parent="."]
tile_set = ExtResource( 6 )
format = 1

[node name="collision" type="TileMap" parent="."]
visible = false
tile_set = ExtResource( 9 )
format = 1
tile_data = PoolIntArray( -65536, 0, 0, -65535, 0, 0, -65534, 0, 0, -65533, 0, 0, -65532, 0, 0, 0, 0, 0, 4, 0, 0, 5, 0, 0, 65536, 0, 0, 65540, 536870912, 0, 65541, 0, 0, 131072, 0, 0, 131076, 536870912, 0, 131077, 0, 0, 196608, 0, 0, 196613, 0, 0, 262144, 0, 0, 262149, 0, 0, 262150, 0, 0, 262151, 0, 0, 262152, 0, 0, 262153, 536870912, 0, 327680, 0, 0, 327681, 536870912, 0, 327689, 536870912, 0, 393216, 0, 0, 393217, 536870912, 0, 393218, 536870912, 0, 393219, 536870912, 0, 393225, 536870912, 0, 458752, 0, 0, 458755, 536870912, 0, 458761, 536870912, 0, 524288, 0, 0, 524289, 0, 0, 524290, 0, 0, 524292, 0, 0, 524293, 0, 0, 524294, 0, 0, 524297, 0, 0, 589830, 536870912, 0, 589831, 536870912, 0, 589832, 536870912, 0, 589833, 536870912, 0 )

[node name="extracol" type="TileMap" parent="."]
visible = false
tile_set = ExtResource( 6 )
format = 1

[node name="Camera2D" type="Camera2D" parent="."]
anchor_mode = 0
current = true

[editable path="Nodes/barman"]
