[gd_scene load_steps=4 format=2]

[ext_resource path="res://Intro.gd" type="Script" id=1]
[ext_resource path="res://Font.tres" type="DynamicFont" id=2]

[sub_resource type="Theme" id=1]
default_font = ExtResource( 2 )

[node name="Intro" type="Node2D"]
script = ExtResource( 1 )

[node name="Panel" type="Panel" parent="."]
margin_right = 1280.0
margin_bottom = 736.0
__meta__ = {
"_edit_use_anchors_": false
}

[node name="Seed" type="SpinBox" parent="Panel"]
margin_left = 288.0
margin_top = 64.0
margin_right = 992.0
margin_bottom = 185.0
theme = SubResource( 1 )
max_value = 10000.0
value = 42.0
align = 1
__meta__ = {
"_edit_use_anchors_": false
}

[node name="Button" type="Button" parent="Panel"]
margin_left = 480.0
margin_top = 224.0
margin_right = 768.0
margin_bottom = 341.0
custom_fonts/font = ExtResource( 2 )
text = "Start"

[connection signal="pressed" from="Panel/Button" to="." method="_on_Button_pressed"]
