{

"GENERICS":"",

"cat": [
	{
		"name": "cat",
		"text": "Meow",
	},
],
"finbar":[
	{
		"id": "questions",
		"name": "me",
		"choices": [
			{
				"text": "I want to give you something",
				"next": "give"
			},	
			{
				"text": "I have some advice for you",
				"next": "skills"
			},	
			{
				"text": "I have some questions about you.",
				"next": "talk"
			},
			{
				"text": "That's it, let's go.",
				"next": "close",
				"close":true
			},			
		]
	},
	{
		"id": "give",
		"name": "me",
		"choices": [
			{
				"text": "Take this weapon",
				"event": "give_weapon_finbar",
				"next": "questions"
			},	
			{
				"text": "Take this armor",
				"event": "give_armor_finbar",
				"next": "questions"
			},	
			{
				"text": "Take this accessory.",
				"event": "give_accessory_finbar",
				"next": "questions"
			},
			{
				"text": "Forget it.",
				"next": "questions"
			},
		]
	},
	{
		"id": "skills",
		"name": "me",
		"choices": [
			{
				"text": "You should train your strength",
				"event": "train_strength_finbar"
			},	
			{
				"text": "You should train your stamina",
				"event": "train_health_finbar"
			},	
			{
				"text": "You should train your precision",
				"event": "train_precision_finbar"
			},	
			{
				"text": "You should try to learn new skills",
				"event": "train_skill_finbar"
			}
		]
	},
	{
		"name": "finbar",
		"text": "Sure, I can do that.",
		"next": "questions"
	},
	{
		"id": "talk",
		"name": "me",
		"choices": [
			{
				"text": "Tell me about you",
				"next": "talk_you"
			},	
			{
				"text": "Tell me about Chaislean",
				"next": "talk_place"
			},	
			{
				"text": "What is your objective?",
				"next": "talk_objective"
			},	
			{
				"text": "What are your skills?",
				"next": "talk_skills"
			}
		]
	},
	{
		"id": "talk_you",
		"name": "finbar",
		"text": "I'm Finbar, scout for /*Chaislean*/. Got stuck in /*Tornstad*/ while trying to get to the empire.",
		"next": "questions"
	},
	{
		"id": "talk_place",
		"name": "finbar",
		"text": "/*Chaislean*/ is the greatest place in the world. The rest of these people are enjoying peace and doing nothing, while we are holding the lines against the /*Kariai*/.",
		"next": "questions"
	},
	{
		"id": "talk_objective",
		"name": "finbar",
		"text": "I need to get back to /*Chaislean*/. The only way is through the caves, we need to get to the port of /*Chladach*/.",
		"next": "questions"
	},
	{
		"id": "talk_skills",
		"name": "finbar",
		"text": "I'm good with a spear. In my learning as a scout I trained stamina and strength. And, well... Well forget it, that's all.",
		"next": "questions"
	},
	{
		"id": "close",
		"close":true
	},
],
"chara":[
	{
		"id": "questions",
		"name": "me",
		"choices": [
			{
				"text": "I want to give you something",
				"next": "give"
			},	
			{
				"text": "I have some advice for you",
				"next": "skills"
			},	
			{
				"text": "I have some questions about you.",
				"next": "talk"
			},
			{
				"text": "That's it, let's go.",
				"close":true
			},			
		]
	},
	{
		"id": "give",
		"name": "me",
		"choices": [
			{
				"text": "Take this armor",
				"event": "give_armor_finbar",
				"close":true
			},	
			{
				"text": "Take this accessory.",
				"event": "give_accessory_finbar",
				"close":true
			},
			{
				"text": "Here, this will help.",
				"event": "give_heal_finbar",
				"close":true
			},
		]
	},
	{
		"id": "skills",
		"name": "me",
		"choices": [
			{
				"text": "Improve your throwing skill",
				"event": "train_weapon_finbar",
				"close":true
			},	
			{
				"text": "Improve your spirit skills",
				"event": "train_crystal_finbar",
				"close":true
			},	
			{
				"text": "Train your soul power",
				"event": "train_health_finbar",
				"close":true
			},	
			{
				"text": "Train your speed",
				"event": "train_attack_finbar",
				"close":true
			}
		]
	},
	{
		"id": "talk",
		"name": "me",
		"choices": [
			{
				"text": "Tell me about you",
				"next": "talk_you"
			},	
			{
				"text": "Tell me about Drosia",
				"next": "talk_place"
			},	
			{
				"text": "What is your objective?",
				"next": "talk_objective"
			},	
			{
				"text": "What are your skills?",
				"next": "talk_skills"
			}
		]
	},
	{
		"id": "talk_you",
		"name": "chara",
		"text": "Chara, League of Algol.",
		"next": "questions"
	},
	{
		"id": "talk_place",
		"name": "chara",
		"text": "/*Drosia*/? It's alright, I guess. Most people want to leave it for the big city, /*Pankosmia*/.",
		"next": "questions"
	},
	{
		"id": "talk_objective",
		"name": "chara",
		"text": "My orders are to stay with you.",
		"next": "questions"
	},
	{
		"id": "talk_skills",
		"name": "chara",
		"text": "I can throw any projectile weapon. I can also use some spirit powers, but I'm not that good with it.",
		"next": "questions"
	},
],
"egil":[
	{
		"id": "questions",
		"name": "me",
		"choices": [
			{
				"text": "I want to give you something",
				"next": "give"
			},	
			{
				"text": "I have some advice for you",
				"next": "skills"
			},	
			{
				"text": "I have some questions about you.",
				"next": "talk"
			},
			{
				"text": "That's it, let's go.",
				"close":true
			},			
		]
	},
	{
		"id": "give",
		"name": "me",
		"choices": [
			{
				"text": "Take this weapon",
				"event": "give_weapon_finbar",
				"close":true
			},	
			{
				"text": "Take this armor",
				"event": "give_armor_finbar",
				"close":true
			},	
			{
				"text": "Take this accessory.",
				"event": "give_accessory_finbar",
				"close":true
			},
			{
				"text": "Here, this will help.",
				"event": "give_heal_finbar",
				"close":true
			},
		]
	},
	{
		"id": "skills",
		"name": "me",
		"choices": [
			{
				"text": "Train more with your spear",
				"event": "train_weapon_finbar",
				"close":true
			},	
			{
				"text": "Learn the ways of the crystal",
				"event": "train_crystal_finbar",
				"close":true
			},	
			{
				"text": "You should improve your stamina",
				"event": "train_health_finbar",
				"close":true
			},	
			{
				"text": "You should improve your strength",
				"event": "train_attack_finbar",
				"close":true
			}
		]
	},
	{
		"id": "talk",
		"name": "me",
		"choices": [
			{
				"text": "Tell me about you",
				"next": "talk_you"
			},	
			{
				"text": "Tell me about Chaislean",
				"next": "talk_place"
			},	
			{
				"text": "What is your objective?",
				"next": "talk_objective"
			},	
			{
				"text": "What are your skills?",
				"next": "talk_skills"
			}
		]
	},
	{
		"id": "talk_you",
		"name": "finbar",
		"text": "My name is Egil, son of Herman. I'm the king of /*Kronstad*/. Please don't worry about formalities.",
		"next": "questions"
	},
	{
		"id": "talk_place",
		"name": "finbar",
		"text": "My ancestors lived and died for /*Kronstad*/. I have a sacred duty to my nation and my people. I assure you, my kingdom will rise from the ashes and shine again.",
		"next": "questions"
	},
	{
		"id": "talk_objective",
		"name": "finbar",
		"text": "Kronstad is a friend of the League of Algol. My family is in debt to them, so I want to help you. Besides that, my objective is to bring glory back to my kingdom.",
		"next": "questions"
	},
	{
		"id": "talk_skills",
		"name": "finbar",
		"text": "I wield the sword of my forefathers, and a good shield by my side. Due to my bloodline, I can also make use of the flame powers.",
		"next": "questions"
	},
],
"vita":[
	{
		"id": "questions",
		"name": "me",
		"choices": [
			{
				"text": "I want to give you something",
				"next": "give"
			},	
			{
				"text": "I have some advice for you",
				"next": "skills"
			},	
			{
				"text": "I have some questions about you.",
				"next": "talk"
			},
			{
				"text": "That's it, let's go.",
				"close":true
			},			
		]
	},
	{
		"id": "give",
		"name": "me",
		"choices": [
			{
				"text": "Take this weapon",
				"event": "give_weapon_finbar",
				"close":true
			},	
			{
				"text": "Take this armor",
				"event": "give_armor_finbar",
				"close":true
			},	
			{
				"text": "Take this accessory.",
				"event": "give_accessory_finbar",
				"close":true
			},
			{
				"text": "Here, this will help.",
				"event": "give_heal_finbar",
				"close":true
			},
		]
	},
	{
		"id": "skills",
		"name": "me",
		"choices": [
			{
				"text": "Train more with your spear",
				"event": "train_weapon_finbar",
				"close":true
			},	
			{
				"text": "Learn the ways of the crystal",
				"event": "train_crystal_finbar",
				"close":true
			},	
			{
				"text": "You should improve your stamina",
				"event": "train_health_finbar",
				"close":true
			},	
			{
				"text": "You should improve your strength",
				"event": "train_attack_finbar",
				"close":true
			}
		]
	},
	{
		"id": "talk",
		"name": "me",
		"choices": [
			{
				"text": "Tell me about you",
				"next": "talk_you"
			},	
			{
				"text": "Tell me about Chaislean",
				"next": "talk_place"
			},	
			{
				"text": "What is your objective?",
				"next": "talk_objective"
			},	
			{
				"text": "What are your skills?",
				"next": "talk_skills"
			}
		]
	},
	{
		"id": "talk_you",
		"name": "finbar",
		"text": "Oh, me? Nobody that special really. Vita, a young amatininkas girl from the League of Algol.",
		"next": "questions"
	},
	{
		"id": "talk_place",
		"name": "finbar",
		"text": "/*Namas*/ is just a small town by the shore. It's so boring. There is no diversity, everyone looks and does the same. I wish I could move to /*Miestas*/, some day.",
		"next": "questions"
	},
	{
		"id": "talk_objective",
		"name": "finbar",
		"text": "Same as yours! Let's find out what is going on.",
		"next": "questions"
	},
	{
		"id": "talk_skills",
		"name": "finbar",
		"text": "I'm a good shot. You know, we amatininkas cannot use magic. I can also punch hard when I'm out of ammo.",
		"next": "questions"
	},
],
"ainhoa":[
	{
		"id": "questions",
		"name": "me",
		"choices": [
			{
				"text": "I want to give you something",
				"next": "give"
			},	
			{
				"text": "I have some advice for you",
				"next": "skills"
			},	
			{
				"text": "I have some questions about you.",
				"next": "talk"
			},
			{
				"text": "That's it, let's go.",
				"close":true
			},			
		]
	},
	{
		"id": "give",
		"name": "me",
		"choices": [
			{
				"text": "Take this weapon",
				"event": "give_weapon_finbar",
				"close":true
			},	
			{
				"text": "Take this armor",
				"event": "give_armor_finbar",
				"close":true
			},	
			{
				"text": "Take this accessory.",
				"event": "give_accessory_finbar",
				"close":true
			},
			{
				"text": "Here, this will help.",
				"event": "give_heal_finbar",
				"close":true
			},
		]
	},
	{
		"id": "skills",
		"name": "me",
		"choices": [
			{
				"text": "Train more with your spear",
				"event": "train_weapon_finbar",
				"close":true
			},	
			{
				"text": "Learn the ways of the crystal",
				"event": "train_crystal_finbar",
				"close":true
			},	
			{
				"text": "You should improve your stamina",
				"event": "train_health_finbar",
				"close":true
			},	
			{
				"text": "You should improve your strength",
				"event": "train_attack_finbar",
				"close":true
			}
		]
	},
	{
		"id": "talk",
		"name": "me",
		"choices": [
			{
				"text": "Tell me about you",
				"next": "talk_you"
			},	
			{
				"text": "Tell me about Chaislean",
				"next": "talk_place"
			},	
			{
				"text": "What is your objective?",
				"next": "talk_objective"
			},	
			{
				"text": "What are your skills?",
				"next": "talk_skills"
			}
		]
	},
	{
		"id": "talk_you",
		"name": "finbar",
		"text": "Ainhoa, youngest and most powerful warlock in all of /*Zerua*/. Or so they say. Personally, I'd rather be a merchant, or a traveler like you.",
		"next": "questions"
	},
	{
		"id": "talk_place",
		"name": "finbar",
		"text": "/*Zerua*/ is .",
		"next": "questions"
	},
	{
		"id": "talk_objective",
		"name": "finbar",
		"text": "I need to get back to /*Chaislean*/. The only way is through the caves, we need to get to the port of /*Chladach*/.",
		"next": "questions"
	},
	{
		"id": "talk_skills",
		"name": "finbar",
		"text": "I'm good with a spear. In my learning as a scout I trained stamina and strength. And, well... No, that's it.",
		"next": "questions"
	},
],
"tiarnan":[
	{
		"id": "questions",
		"name": "me",
		"choices": [
			{
				"text": "I want to give you something",
				"next": "give"
			},	
			{
				"text": "I have some advice for you",
				"next": "skills"
			},	
			{
				"text": "I have some questions about you.",
				"next": "talk"
			},
			{
				"text": "That's it, let's go.",
				"close":true
			},			
		]
	},
	{
		"id": "give",
		"name": "me",
		"choices": [
			{
				"text": "Take this weapon",
				"event": "give_weapon_finbar",
				"close":true
			},	
			{
				"text": "Take this armor",
				"event": "give_armor_finbar",
				"close":true
			},	
			{
				"text": "Take this accessory.",
				"event": "give_accessory_finbar",
				"close":true
			},
			{
				"text": "Here, this will help.",
				"event": "give_heal_finbar",
				"close":true
			},
		]
	},
	{
		"id": "skills",
		"name": "me",
		"choices": [
			{
				"text": "Train more with your spear",
				"event": "train_weapon_finbar",
				"close":true
			},	
			{
				"text": "Learn the ways of the crystal",
				"event": "train_crystal_finbar",
				"close":true
			},	
			{
				"text": "You should improve your stamina",
				"event": "train_health_finbar",
				"close":true
			},	
			{
				"text": "You should improve your strength",
				"event": "train_attack_finbar",
				"close":true
			}
		]
	},
	{
		"id": "talk",
		"name": "me",
		"choices": [
			{
				"text": "Tell me about you",
				"next": "talk_you"
			},	
			{
				"text": "Tell me about Chaislean",
				"next": "talk_place"
			},	
			{
				"text": "What is your objective?",
				"next": "talk_objective"
			},	
			{
				"text": "What are your skills?",
				"next": "talk_skills"
			}
		]
	},
	{
		"id": "talk_you",
		"name": "finbar",
		"text": "I'm Finbar, scout for /*Chaislean*/. Got stuck in /*Tornstad*/ while trying to get to the empire.",
		"next": "questions"
	},
	{
		"id": "talk_place",
		"name": "finbar",
		"text": "/*Chaislean*/ is the greatest place in the world. The rest of these people are enjoying peace and doing nothing, while we are holding the lines against the /*Kariai*/.",
		"next": "questions"
	},
	{
		"id": "talk_objective",
		"name": "finbar",
		"text": "I need to get back to /*Chaislean*/. The only way is through the caves, we need to get to the port of /*Chladach*/.",
		"next": "questions"
	},
	{
		"id": "talk_skills",
		"name": "finbar",
		"text": "I'm good with a spear. In my learning as a scout I trained stamina and strength. And, well... No, that's it.",
		"next": "questions"
	},
],

"syntrivani_weapons_shop":[
	{
		"close":true,
		"event": "shop#syntrivani_weapons"
	},
],
"syntrivani_inn_shop":[
	{
		"name": "free_man",
		"text": "Welcome to the inn."
	},
	{
		"name": "me",
		"choices": [
			{
				"text": "I'd like a room please [10 gold]",
				"next": "room"
			},	
			{
				"text": "I'd like to eat here please [5 gold]",
				"next":"eat"
			},
			{
				"text": "Do you sell any food?",
				"next":"sell"
			},
			{
				"text": "Nothing, thank you.",
				"next":"nothing"
			},
		]
	},
	{
		"id": "room",
		"name": "free_man",
		"text": "First room upstairs.",
		"close":true
	},
	{
		"id": "eat",
		"name": "free_man",
		"text": "Here you go sir, a full meal.",
		"close":true
	},
	{
		"id": "sell",
		"name": "free_man",
		"text": "Sure, take a look.",
		"close":true,
		"event": "shop#syntrivani_inn"
	},
	{
		"id": "nothing",
		"close":true
	},
],
"syntrivani_blacksmith_shop":[
	{
		"name": "free_man",
		"text": "Welcome. Need some repairs?"
	},
],
"tornstad_weapons_shop":[
	{
		"close":true,
		"event": "shop#syntrivani_inn"
	},
],
"drosia_inn_shop":[
	{
		"name": "free_man",
		"text": "Welcome to the inn."
	},
	{
		"name": "me",
		"choices": [
			{
				"text": "I'd like a room please [10 gold]",
				"next": "room"
			},	
			{
				"text": "I'd like to eat here please [5 gold]",
				"next":"eat"
			},
			{
				"text": "Do you sell any food?",
				"next":"sell"
			},
			{
				"text": "Nothing, thank you.",
				"next":"nothing"
			},
		]
	},
	{
		"id": "room",
		"name": "free_man",
		"text": "First room upstairs.",
		"close":true
	},
	{
		"id": "eat",
		"name": "free_man",
		"text": "Here you go sir, a full meal.",
		"close":true
	},
	{
		"id": "sell",
		"name": "free_man",
		"text": "Sure, take a look.",
		"close":true,
		"event": "shop#drosia_inn"
	},
	{
		"id": "nothing",
		"close":true
	},
],

"SIGNS":"",
"sign_hogt": [
	{
		"name": "sign",
		"text": "Right -> To /*Hogt*/. \nLeft -> I..e. ca.. \n\n/*StAy aWAy FrOm uS*/",
	},
],

"TUTORIAL":"",

"start_mirror": [
	{
		"event": "launch_character_creation",
		"close":true
	},
],
"start_widow": [
	{
		"name": "widow",
		"text": "I see you've finally woken up. How are you feeling?"
	},
	{
		"id": "questions",
		"name": "me",
		"choices": [
			{
				"text": "Where am I? Who are you?",
				"next": "where"
			},	
			{
				"text": "What happened to me?",
				"next": "what"
			},	
			{
				"text": "My memory is all fog, I can't remember anything.",
				"next": "memory"
			},
			{
				"text": "I'm feeling a bit better now.",
				"next": "follow"
			},
		]
	},
	{
		"id": "where",
		"name": "widow",
		"text": "They call me the widow. This is my little house in the /*Tornstad valley*/.",
		"next": "questions"
	},
	{
		"id": "what",
		"name": "widow",
		"text": "I found you in a little clair in the forest where I was hunting, you were beaten up badly.",
		"next": "questions"
	},
	{
		"id": "memory",
		"name": "widow",
		"text": "That sounds... strange. Perhaps a consequence of your injuries. Search your mind, is there anything at all you can remember?"
	},
	{
		"name": "me",
		"text": "Nothing at all. I don't know how I got here or why."
	},
	{
		"name": "widow",
		"text": "Hmm...",
		"next": "questions"
	},
	{
		"id": "follow",
		"name": "widow",
		"text": "Here, take this /*club*/ and /*gambeson*/. The valley is full of bandits, so you are going to need them. Do you know need help to use them?",
		"event": "widow_gift"
	},
	{
		"name": "me",
		"choices": [
			{
				"text": "Yes",
				"next": "tutorial"
			},	
			{
				"text": "No [Skip tutorial]",
				"next":"skip"
			}
		]
	},
	{
		"id": "skip",
		"name": "widow",
		"text": "Good, that is a relief. I suggest you get to the city of /*Tornstad*/. Perhaps somebody there can help you.",
		"close":true
	},
	{
		"id": "tutorial",
		"name": "widow",
		"text": "Not a problem. The first thing is to equip the items I've given you. Click on the menu to your left, and open /*Inventory*/. Once there, select the items and click on /*equip*/. When you are done, follow me."
	},
	{
		"event": "start_tutorial",
		"close":true
	},
],
"tutorial_1": [
	{
		"condition": "tutorial_items_equiped",
		"name": "widow",
		"text": "I will teach you how to fight. Don’t worry, it’s not a real fight. But try to /*hit*/ me with the /*club*/!",
		"next": "fight"
	},
	{
		"name": "widow",
		"text": "Before we start, you need to equip the items I gave you. Click on the menu to your left, and open /*Inventory*/. Once there, select the items and click on /*equip*/.",
		"close":true
	},
	{
		"id":"fight",
		"event": "tutorial_fight"
	},
],
"tutorial_2": [
	{
		"name": "widow",
		"text": "Good, that's enough. If you keep only attacking you will be defeated easily. When you see an enemy not attacking on their turn, they will probably strike harder on next move."
	},
	{
		"name": "widow",
		"text": "In that case, you can reduce the damage you get using /*block*/ before the enemy strikes. Let's give it a try."
	}
],
"tutorial_3": [
	{
		"name": "widow",
		"text": "Good job. You must have noticed your little victory earned you some /*XP points*/. You know, there is more to fighting than just hitting with a stick. You can use these points to learn new abilities and techniques to fight. Open the /*Tree*/ in the main menu."
	},
	{
		"name": "widow",
		"text": "I think that should be enough. I suggest you get to the city of /*Tornstad*/. Perhaps somebody there can help you."
	}
],
"tutorial_4": [
  {
	 "name": "widow",
	 "text": "Not bad. Some enemies will strike you with powerful attacks. You can reduce the damage they cause or even block them completely, using the *block* command. Now let’s see if you can beat me!"
  }
],
"tutorial_5": [
],
"tutorial_6": [
  {
	 "name": "widow",
	 "text": "This is the *XP tree*. Whenever you beat enemies, you will get more *XP points* to use here. Right now you only know the *Weapons* branch of the tree, but there is a total of six branches you can discover by reading books and visiting temples."
  }
],


"TORNSTAD":"",

"inn":[
	{
		"name": "feudal_worker",
		"forcename":"Gudmund",
		"text": "Welcome. What do you need?"
	},
	{
		"name": "me",
		"choices": [
			{
				"text": "I'd like a room please [10 gold]",
				"next": "room"
			},	
			{
				"text": "I'd like to eat here please [5 gold]",
				"next":"eat"
			},
			{
				"text": "Do you sell any food?",
				"next":"sell"
			},
			{
				"text": "Nothing, thank you.",
				"next":"nothing"
			},
		]
	},
	{
		"id": "room",
		"name": "feudal_worker",
		"forcename":"Gudmund",
		"text": "First room upstairs.",
		"close":true
	},
	{
		"id": "eat",
		"name": "feudal_worker",
		"forcename":"Gudmund",
		"text": "Here you go sir, a full meal.",
		"close":true
	},
	{
		"id": "sell",
		"name": "feudal_worker",
		"forcename":"Gudmund",
		"text": "Sure, take a look.",
		"close":true,
		"event": "shop#tornstad_inn"
	},
	{
		"id": "nothing",
		"close":true
	},
],
"city_ward_c": [
	{
		"condition": "not#hasitem#tornstad C pass",
		"name": "tornstad_ward",
		"text": "Halt, stranger! You need a /*tornstad C pass*/ or higher to get through here.",
		"close":true
	},
	{
		"condition": "hasitem#tornstad C pass",
		"name": "tornstad_ward",
		"event": "tornstad_ward_c",
		"close":true
	},
],
"city_ward_b": [
	{
		"name": "tornstad_ward",
		"text": "Halt, citizen! You need a /*tornstad B pass*/ or higher to get through here."
	}
],
"city_ward_a": [
	{
		"name": "tornstad_ward",
		"text": "Excuse me, sir. You need a /*tornstad A pass*/ or higher to get through here."
	}
],
"feudal_man": [
	{
		"name": "feudal_man",
		"text": "Another foreigner? Well if you bring in some gold, welcome be you. Anything you need to know about the place?"
	},	
	{
		"name": "me",
		"id": "questions",
		"choices": [
			{
				"text": "Why are the fields abandoned?",
				"next": "fields"
			},	
			{
				"text": "Why are most shops closed?",
				"next":"shops"
			},
			{
				"text": "Where did all these bandits come from?",
				"next":"bandits"
			},
			{
				"text": "Nothing, thank you.",
				"next":"nothing"
			},
		]
	},
	{
		"id": "fields",
		"name": "feudal_man",
		"text": "Why do you think? Didn't you run into any bandits coming here? All of us farmers had to abandon our lands and take refuge here.",
		"next": "questions"
	},
	{
		"id": "shops",
		"name": "feudal_man",
		"text": "The rich people locked themselves in the inner city, with a bunch of wards. Except for /*Gudmund*/ the boxer, he still runs the /*inn*/.",
		"next": "questions"
	},
	{
		"id": "bandits",
		"name": "feudal_man",
		"text": "From the caves, to the east. Probably from /*Kronstad*/, but who knows for sure?",
		"next": "questions"
	},
	{
		"id": "nothing",
		"close":true
	},
],
"feudal_beggar": [
	{
		"name": "feudal_worker",
		"forcename":"Beggar",
		"text": "Sir, some thugs took all I had. Would you spare some bread with a poor farmer?"
	},	
	{
		"name": "me",
		"id": "questions",
		"choices": [
			{
				"text": "Can't help you now.",
				"next": "canthelp"
			},	
			{
				"text": "Sure, here you go.",
				"condition": "hasitem#bread",
				"next":"helps"
			}
		]
	},
	{
		"id": "helps",
		"name": "feudal_worker",
		"forcename":"Beggar",
		"text": "Gods bless you! Be careful if you run into three guys around the inn. They are probably piss drunk by now, I saw them steal a whole barrel of wine from Gudmund.",
		"event": "beggar_given_bread"
	},
	{
		"id": "canthelp",
		"close":true
	},
],
"feudal_man_house": [
	{
		"name": "feudal_man",
		"text": "Hello traveler. You must be tough if you traversed the valley. Could you do me a favour? My father didn't want to leave our /*farm house*/, to the /*north east*/ of the valley. Could you go check on him?"
	}	
],
"tavern_tornstad": [
	{
		"name": "feudal_youth",
		"text": "You take away those words now, foreigner!"
	},
	{
		"name": "finbar",
		"text": "Bring it on, hayhead. I can take all three of you Tornstad peasants. I'll show you how we do things in /*Chaislean*/."
	},
	{
		"name": "me",
		"choices": [
			{
				"text": "Need a hand?",
				"next": "barman"
			},
			{
				"text": "What's going on here?",
				"next": "skip"
			},
			{
				"text": "I'll be back in a minute.",
				"next": "later"
			},
		]
	},
	{
		"id":"skip",
		"name": "feudal_youth",
		"text": "Get out of here if you know what's good for you."
	},
	{
		"id":"barman",
		"name": "feudal_worker",
		"text": "No weapons in here, gentlemen. If you got a business that needs solving, step outside."
	},
	{
		"name": "me",
		"choices": [
			{
				"text": "Let's settle this outside.",
				"next": "outside"
			},
			{
				"text": "We don't need any weapons to beat these loosers.",
				"next": "fists"
			},
			{
				"condition": "variable#beggar_given_bread",
				"text": "Can you still fight after drinking all that stolen wine?",
				"next": "no_fight"
			},
			{
				"text": "I'll be back in a minute.",
				"next": "later"
			},
		]
	},
	{
		"id":"fists",
		"name": "finbar",
		"text": "Just try not to get in my way, stranger."
	},	
	{
		"event": "finbar_fists",
		"close":true
	},
	{
		"id":"outside",
		"name": "finbar",
		"text": "I'll show you how we fight in my country, foreigner."
	},	
	{
		"event": "finbar_outside",
		"close":true
	},
	{
		"id":"no_fight",		
		"event": "finbar_nofight",
		"name": "feudal_youth",
		"text": "What? I don't know what you are talking about! Let's get out of here guys, this is not worth our time!"
	},	
	{
		"id": "later",
		"close":true
	},
],
"finbar_intro": [
	{
		"name": "finbar",
		"text": "Thanks stranger. You look different than the rest of these peasants. You are not from here either, right?"
	},
	{
		"name": "me",
		"choices": [
			{
				"text": "What happened here?"
			}
		]
	},
	{
		"name": "finbar",
		"text": "Sorry you had to see that. I just hate these Tornstad cowards. Their valley is full of bandits and they are hiding like rats near the tower city, instead of fighting them. Don't you agree?"
	},
	{
		"name": "me",
		"choices": [
			{
				"text": "Yes, they are cowards."
			},
			{
				"text": "No. It's too dangerous out there."
			},
			{
				"text": "I'm not sure about that."
			},
		]
	},
	{
		"name": "finbar",
		"text": "I'm not here for pleasure, you see? I need to get back to /*Chaislean*/, but I cannot cross the caves alone. You look out of place here as well, why don't you come with me?"
	},
	{
		"name": "me",
		"choices": [
			{
				"text": "Sure, why not."
			},
			{
				"text": "No. I travel alone.",
				"next": "later"
			},
		]
	},
	{
		"name": "finbar",
		"event": "finbar_joins",
		"close":true,
		"text": "Great! Let's get moving. I suggest we buy some supplies from the barman, it's gonna be a long journey. When we are ready, let's go to the /*Cave of the two valleys*/, to the southwest."
	},
	{
		"id": "later",
		"close":true
	},
],
"bandit_boss":[
	{
		"event": "bandit_boss"
	},
],


"SYNTRIVANI - ZERUA":"",
"syntrivani_book_wanted":[
	{
		"name": "free_man",
		"text": "I am a studious of the /*crystal*/ books. If you happen to come across the /*Crystal heart book*/, would you mind bringing it to me?"
	},
],
"enter_syntrivani": [
	{
		"name": "free_man",
		"text": "What brings you to /*Syntrivani*/, traveler? There is not much we can offer you here."
	},	
	{
		"name": "me",
		"id": "questions",
		"choices": [
			{
				"text": "Why is the city full of ruins?",
				"next": "ruins"
			},	
			{
				"text": "Why don't you rebuild the city?",
				"next":"rebuild"
			},
			{
				"text": "Which way to Chladach?",
				"next":"chladach"
			},
			{
				"text": "Nothing, thank you.",
				"next":"nothing"
			},
		]
	},
	{
		"id": "ruins",
		"name": "free_man",
		"text": "This used to be a great imperial city, full of people and machines. Our people were great engineers and inventors. But the /*War of El Nath*/ struck hard, fifty years ago.",
	},	
	{
		"name": "me",
		"choices": [
			{
				"text": "Tell me about the War of El Nath",
				"next": "war"
			},
			{
				"text": "Let's talk about something else.",
				"next":"questions"
			},
		]
	},
	{
		"id": "war",
		"name": "free_man",
		"text": "The war? It was a bloodbath over here. The empire was long gone and nobody helped us when the /*Kariai*/ struck the city.",
	},
	{
		"name": "me",
		"choices": [
			{
				"text": "Kariai?",
				"next": "kariai"
			},
			{
				"text": "Let's talk about something else.",
				"next":"questions"
			},
		]
	},
	{
		"id": "kariai",
		"name": "free_man",
		"text": "What? You don't know about the Kariai? Good for you... Look, the kariai... They are monsters, creatures of the darkness. They first appeared north of /*Chaislean*/, next thing we know they had taken most of the former empire. But once their ruler fell, they got disorganized and started losing land.",
	},
	{
		"name": "me",
		"choices": [
			{
				"text": "What happened to their ruler?",
				"next": "ruler"
			},
			{
				"text": "Let's talk about something else.",
				"next":"questions"
			},
		]
	},
	{
		"id": "ruler",
		"name": "free_man",
		"text": "Nobody knows. Some say it was the army of the /*Amatininkas*/ that killed him. Others talk about a coup inside /*Vilkas*/, the Kariai city. But I don't think any of these are possible... No... Whoever killed /*El Nath*/, was stronger than what any of us can really imagine.",
		"next": "questions"
	},	
	{
		"id": "rebuild",
		"name": "free_man",
		"text": "Why bother? Most people wants to leave for /*Pankosmia*/. There is nothing left here. Just a few old people left, too stubborn to leave.",		
		"next": "questions"
	},	
	{
		"id": "chladach",
		"name": "free_man",
		"text": "Leave the city and go straight west. But, careful, do not even think about going to the east or south."
	},	
	{
		"name": "me",
		"choices": [
			{
				"text": "Why shouldn't I go east or south?",
				"next": "plain"
			},
			{
				"text": "Thanks for your advice.",
				"next":"nothing"
			},
		]
	},
	{
		"id": "plain",
		"name": "free_man",
		"text": "The /*Final Plain*/. Beasts of war brought by the Kariai turned wild on that plain. Nobody in their right mind would dare to get there.",		
		"next": "questions"
	},	
	{
		"id": "nothing",
		"close":true
	},
],
"chladach_arima": [
	{
		"name": "berria_ward",
		"text": "Halt! By order of the /*arima*/ council of /*Hiri Berria*/, you are under arrest."
	},
	{	
		"condition": "hascompanion#finbar",
		"name": "finbar",
		"text": "I'm not going to leave you, ME. But we cannot fight these guys, they are too much for us. I suggest we go along."
	},
	{
		"name": "me",
		"choices": [
			{
				"text": "Let's fight them.",
				"next": "fight"
			},	
			{
				"condition": "hascompanion#finbar",
				"text": "Please go back home, Finbar. They want me.",
				"next": "surrender"
			},	
			{
				"text": "I surrender, for now.",
				"next": "surrender"
			},	
		]
	},
	{
		"id":"fight",
		"name": "berria_ward",
		"text": "Bad idea.",
		"event": "fight_arima",
		"close": true
	},
	{
		"id":"surrender",
		"name": "berria_ward",
		"text": "You will be taken to into custody, as for now you may remain silent. Follow us into the boat."
	},
	{
		"event": "taken_by_arima"
	}
],
"arima_arrest_zerua": [
  {
	 "name": "berria_ward",
	 "arima": 1,
	 "text": "He is to come to *Hiri Berria* with us. Let us trough, guard."
  },
  {
	 "name": "zerua_ward",
	 "arima": 1,
	 "text": "You cannot take him without a trial! *Zerua* does not allow for improper arrests within its territorial waters."
  },
  {
	 "name": "me",
	 "text": "What’s going on, Finbar?"
  },
  {
	 "name": "finbar",
	 "text": "These arima soldiers are not from /*Hiri Berria*/, they are from /*Zerua*/. The arima have their own language... It seems there is some kind of discussion going on here."
  },
  {
	 "name": "berria_ward",
	 "arima": 1,
	 "text": "Let us through, guard, or you shall regret this."
  },
  {
	 "name": "ainhoa",
	 "arima": 1,
	 "text": "He will stay with us, soldier"
  },
  {
	 "name": "berria_ward",
	 "text": "..."
  },
  {
	 "name": "finbar",
	 "text": "She casted a mind breaking spell on him! She's an arima warlock!"
  },
  {
	 "name": "zerua_ward",
	 "text": "You come with me now. /*Ainhoa*/ shall speak to you later."
  },
	{
		"event": "to_zerua_boat"
	}
],
"zerua_intro_escape": [
	{
		"name": "chara",
		"text": "Listen to me, but do not move. My name is Chara. I am on your side, I'm gonna try to get you out of here, but I need you to do exactly as I say. We have to get moving fast, but do not get any close to a guard. "
	},
	{
		"name": "chara",
		"text": "If this invisibility amulet that I have works properly, it means the wards will not be able to see us unless we get /*1 meter*/ from them. Understood? If they catch us, we can use this /*2 smoke bombs*/ that I have, so we have only two chances. Let's get going!"
	}
],
"prison_ward":[
	{
		"event": "prison_ward"
	},
],
"zerua_final_escape": [
  {
	 "name": "chara",
	 "text": "And... We are out! A bit of fresh air for a change."
  },
  {
	 "name": "me",
	 "text": "Thank you. Why did you help me?"
  },
  {
	 "name": "chara",
	 "text": "Straight to the point, aren't you? Well, it's easier this way, I guess. I am working for an organization called the /*League of Algol*/. We have bases all over the world, but our cell operates from the /*library*/ of /*Drosia*/. If you come with me, there is a cave to the north that will lead us out of /*Zerua*/ and straight towards the city of /*Drosia*/."
  },
  {
		"name": "me",
		"choices": [
			{
				"text": "And what if I don't?"
			},	
			{
				"text": "Sure, let's get going.",
				"next": "go"
			},	
		]
  },
	{
		"name": "chara",
		"text": "Well you can always stay here and make friends with the arimak. I'm sure they will be very kind to an escaped prisoner."
	},	
	{
		"id":"go",
		"close":true
	},
],


"TORNSTAD NORTH AND INNER":"",

"tornstad_treasure":[
	{
		"name": "feudal_worker",
		"text": "I've been waiting for a delivery from /*Chaislean*/ through /*Kant*/ for a while now. Perhaps the town is in trouble?"
	},
],
"tornstad_boxing":[
	{
		"name": "feudal_worker",
		"text": "I've been waiting for a delivery from /*Chaislean*/ through /*Kant*/ for a while now. Perhaps the town is in trouble?"
	},
],
"hogt_delivery":[
	{
		"name": "feudal_worker",
		"text": "I've been waiting for a delivery from /*Chaislean*/ through /*Kant*/ for a while now. Perhaps the town is in trouble?"
	},
	{
		"condition": "hasitem#collar",
		"name": "feudal_worker",
		"text": "Oh, that is it! Thanks for bringing me the /*Collars*/.",
	},
],
"kant_delivery":[
	{
		"name": "feudal_worker",
		"text": "I need to get these /*Collars*/ to /*Hogt*/ to complete my delivery. But the damn wards won't let me leave the city. Would you give me a hand and bring them there? You will need space for 20 items in your inventory.",
		
	
	}
],
"sjo_hunting":[
	{
		"name": "feudal_hunter",
		"text": "Welcome to the hunters' lodge of Sjo. Our main target is the /*Kariai birds*/ that live in the marshes to the north of the town. If you manage to hunt 5 of them, bring me back their eyes."
	},
],
"sjo_race":[
	{
		"name": "feudal_worker",
		"text": ""
	},
],


"DROSIA - KRONSTAD - CALAFORT":"",

"enter_drosia": [
  {
	 "name": "chara",
	 "text": "This is the Free City of /*Drosia*/. You have already been to /*Syntrivani*/, so the place will look familiar to you. Let's get to the /*City hall*/, northwest of the city."
  }
],
"drosia_casual": [
	{
		"name": "free_man",
		"text": "New to /*Drosia*/, travelers? Are you with the League of Algol?"
	},	
	{
		"name": "me",
		"id": "questions",
		"choices": [
			{
				"text": "Why are the fields abandoned?",
				"next": "fields"
			},	
			{
				"text": "Why are most shops closed?",
				"next":"shops"
			},
			{
				"text": "Where did all these bandits come from?",
				"next":"bandits"
			},
			{
				"text": "Nothing, thank you.",
				"next":"nothing"
			},
		]
	},
	{
		"id": "fields",
		"name": "feudal_man",
		"text": "Why do you think? Didn't you run into any bandits coming here? All of us farmers had to abandon our lands and take refuge here.",
		"next": "questions"
	},
	{
		"id": "shops",
		"name": "feudal_man",
		"text": "The rich people locked themselves in the inner city, with a bunch of wards. Except for /*Gudmund*/ the boxer, he still runs the /*inn*/.",
		"next": "questions"
	},
	{
		"id": "bandits",
		"name": "feudal_man",
		"text": "From the caves, to the east. Probably from /*Kronstad*/, but who knows for sure?",
		"next": "questions"
	},
	{
		"id": "nothing",
		"close":true
	},
],
"theodoros": [
  {
	 "name": "chara",
	 "text": "Hello, Theodoros. We are back in one piece."
  },
  {
	 "name": "theodoros",
	 "text": "Ah, Chara, it's good to see you back. And you... You are ME. We have been very lucky to get you out of the hands of the arimak in /*Zerua*/. Would they have taken you to /*Hiri Berria*/, it wouldn't have been that easy."
  },
  {
	 "name": "me",
	 "text": "Who are you?"
  },
  {
	 "name": "theodoros",
	 "text": "I am Theodoros, leader of the /*League of Algol*/ cell, here in /*Drosia*/."
  },
  {
	 "name": "me",
	 "text": "Why did you rescue me?"
  },
  {
	 "name": "theodoros",
	 "text": "Because we are on your side, ME. We know you were sent by one of our cells to deliver a message… A very important message to the imperial capital of /*Cathair*/. But we ignore the contents of it. It appears somebody casted a powerful spell on you, blocking all your memories."
  },
  {
	 "name": "chara",
	 "text": "Why would they do such a thing? They could have just killed HIM."
  },
  {
	 "name": "theodoros",
	 "text": "They could indeed. But they went through the trouble of using arcane magic to erase HIS memory… Yet keep HIM alive. I do not know why."
  },
  {
	 "name": "me",
	 "text": "You say I was a member of the League of Algol?"
  },
  {
	 "name": "theodoros",
	 "text": "We do not know that. You see, due to the nature of our task, all our cells are independent from each other. But we know that you were helping us… And help is what we need right now."
  },
  {
	 "name": "theodoros",
	 "text": "But first, I would like to offer something to you, so that you know you can trust us. This is a /*Level C pass*/ of Tornstad, gives you right to a house in the inner city and access to several caves of the valley. I will also ask Chara to accompany you on your journey, for you need our help. Even if she is a bit reluctant about it..."
  },
  {
	 "name": "chara",
	 "text": "You know I work alone, Theodoros."
  },
  {
	 "name": "theodoros",
	 "text": "I know, Chara. But this is more important than both you and me. We need your help, ME. Take the pass, and think about it. If you choose to help us, come back and talk to me.",
	 "event": "theodoros_pass"
  }
],
"theodoros_back": [
  {
	 "name": "theodoros",
	 "text": "Yes?"
  },
  {
	"name": "me",
	"id": "questions",
	"choices": [
		{
			"text": "What is the League of Algol?",
			"next": "league"
		},	
		{
			"text": "Why fight the kariai if the war has ended?",
			"next":"fighting"
		},
		{
			"text": "I am willing to help you now. What is my mission?",
			"next":"next"
		},
		{
			"text": "I'll come back later",
			"next":"nothing"
		},
	]
},
  {
	 "name": "theodoros",
	 "text": "As I said, we are a secret society, with cells all over the world. Our objective is to fight the infiltration of the /*kariai*/ into our civilization.",
	 "id": "league",
  },
  {
	 "name": "theodoros",
	 "text": "You see... The /*War of El Nath*/ ended fifty years ago. The kariai were expelled from almost all the lands they captured, and now we have peace. That is what they say: the peaceful kariai have changed their ways. They know nothing but peace now... Fools!",
	 "next": "questions"
  },
  {
	 "name": "theodoros",
	 "text": "The kariai are still kariai. It is in their nature to destroy us. Last time they almost succeeded... But now they know they cannot beat us in a fair fight. So they infiltrate our cities and nations, trying to cause conflicts between us, to strike when we are at our weakest.",
	 "id": "fighting"
  },
 {
	"name": "me",
	"id": "questions2",
	"choices": [
		{
			"text": "What are exactly the kariai?",
			"next": "kariai"
		},	
		{
			"text": "What types of kariai are there?",
			"next":"types"
		},
		{
			"text": "Let's change the subject",
			"next":"questions"
		}
	]
},
  {
	 "name": "theodoros",
	 "text": "Nobody knows for sure what they are or where they come from. They appeared fifty years ago, and took the whole world by surprise, launching a massive offensive everywhere.",
	 "id": "kariai",
	 "next":"questions2"
  },
  {
	 "name": "theodoros",
	 "text": "There are three types of kariai. The warrior, the worker and the leader.",
	 	 "id": "types"
  },
  {
	 "name": "theodoros",
	 "text": "/*Warriors*/ look almost like humans, but their whole body is dark like the night sky. Their strength and power is like that of a hundred men, but there are very few of them left.",
  },
  {
	 "name": "theodoros",
	 "text": "/*Workers*/ are way more numerous... but also weaker. They cannot survive in the light of day, so they strike in the night."
  },
  {
	 "name": "theodoros",
	 "text": "In order to thrive, the kariai consume each other, forming every time a more powerful individual. If they fail, more workers are spawned from the blob, but if they succeed, they create a /*leader*/. I have never seen a leader, but they are said to have the strength of a hundred warriors.",
	 "next":"questions2"
  },
  {
	 "name": "theodoros",
	 "text": "I knew we could count on you, ME. Chara, if you will.",
	  "id": "next"
  },
  {
	 "name": "chara",
	 "text": "Alright. What do we know till now, ME? You had to deliver a message to /*Cathair*/. We don’t know where you came from or what the message is.",
	 "num": "4"
  },
  {
	 "name": "chara",
	 "text": "But we know you have to get to Cathair, the imperial capital. So the best we can do now is go there and contact their cell of the League, and have them warned. Listen close, because this is our plan.",
  },
  {
	 "name": "chara",
	 "text": "We must go to ask king /*Egil*/ of /*Kronstad*/ for a permit to get through the forest, to the imperial port of /*Calafort*/. From there, we can get to the capital. Any questions? No? Then let’s get going!",
	 "close":true
  },
  {
	 "name": "me",
	 "text": "Nothing for now.",
	 "id": "nothing"
  }
],
"kronstad_ward_block": [
	{
		"name": "kronstad_ward",
		"text": "Halt! To pass through the border, you must pay the tariff of /*1000 gold*/."
	},
	{
		"name": "chara",
		"text": "That is a bit expensive don't you think?"
	},
	{
		"name": "kronstad_ward",
		"text": "Silence! Pay or get away from here."
	},
	{
		"name": "me",
		"choices": [
			{
				"condition": "hasgold#1000",
				"text": "Here you go [1000 gold]",
				"next": "pay"
			},	
			{
				"text": "I'll come back later",
				"next":"leave"
			},
		]
	},
	{
		"id":"pay",
		"name": "kronstad_ward",
		"text": "You may pass now."
	},
	{
		"id":"pay",
		"name": "kronstad_officer",
		"text": "What was that, ward? You took from them how much?"
	},
	{
		"name": "chara",
		"text": "1000, he took!"
	},
	{
		"name": "kronstad_officer",
		"text": "What! Stealing again from the merchants! Off to jail with you! Sorry, travelers. The toll is only /*100 gold*/. Here, have your /*900 back*/. Welcome to /*Kronstad*/.",
		"close":true,
		"event": "kronstad_pay"
	},
	{
		"id": "leave",
		"close":true
	},
],
"svea": [
	{
		"name": "kronstad_officer",
		"text": "What do you seek in the royal palace of Kronstad, strangers?."
	},
	{
		"name": "svea",
		"text": "Wait, ward, I know this woman. You are Chara of Syntrivani, right?"
	},
	{
		"name": "chara",
		"text": "Yes, your magesty. We seek an audience with the king, for we need to get through the forest with urgency."
	},
	{
		"name": "svea",
		"text": "My husband is not here, dear. He left two days ago. I fear for his life... But I cannot leave the palace at this moment."
	},
	{
		"name": "chara",
		"text": "We will go get him, your magesty."
	},
	{
		"name": "svea",
		"text": "I’m afraid I must impose one condition, lady Chara. I can trust you, but I do not know your companions. I fear for my husband’s life, but I also need to protect my kingdom. One of you shall remain here as proof of your good will."
	},
	{
		"name": "me",
		"choices": [
			{
				"text": "Chara will remain"
			},	
			{
				"condition": "hascompanion#finbar",
				"text": "Finbar will remain"
			},
		]
	},
	{
		"name": "svea",
		"text": "Alright then, you have my trust and I hope to have yours. Please go find my husband the king, in the /*city suburbs*/, near the wall at the /*south east*/."
	}
],
"egil_bandits": [
	{
		"name": "bandit",
		"text": "This time we got you! You cannot defeat all of us!"
	},
	{
		"name": "egil",
		"text": "If it is so, then I shall die fighting, like my father before me!"
	},
	{
		"name": "bandit",
		"text": "Today, we kill a king, guys!"
	},
	{
		"condition": "hascompanion#finbar",
		"name": "finbar",
		"text": "Your majesty! We will fight by your side!"
	},
	{
		"condition": "hascompanion#chara",
		"name": "chara",
		"text": "Playing with your life again, king Egil? This time you got into some trouble. Let me give you a hand."
	},
	{
		"close": "true",
		"event": "egil_bandits_fight"
	},
],
"pirate_boss":[
	{
		"event": "pirate_boss"
	},
],
"pirates_calafort": [
	{
		"name": "pirate_boss",
		"text": "You, stop now. You come with us, or we kill hostage."
	},
	{
		"name": "theodoros",
		"text": "Sorry ME. They got us."
	},
	{
		"condition":"not#hascompanion#finbar",
		"name": "finbar",
		"text": "My apologies for being a burden. I was captured."
	},
	{
		"condition":"not#hascompanion#chara",
		"name": "chara",
		"text": "Sorry friend. We are gonna have to go along with them."
	},
	{
		"condition":"not#hascompanion#egil",
		"name": "egil",
		"text": "You have no idea the mess you got yourselves into, sea rats."
	},
	{
		"name": "me",
		"choices": [
			{
				"text": "Alright, we surrender."
			}
		]
	},
	{
		"event": "taken_by_pirates"
	}
],
"pirate_base": [
	{
		"name": "pirate",
		"text": "The League of Algol! They bursted into the base!"
	},
],
"vita": [
	{
	
		"event": "join_vita",
		"name": "vita",
		"text": "Good job getting out of there! I'm /*Vita*/, from the League of Algol, /*amatininkas*/ division. We are here to help you. Our boat is waiting at the southern shore of the island. Need a gun?"
	},
	{
		"name": "me",
		"choices": [
			{	
				"next":"gun",
				"text": "Sure, thanks."
			},
			{
				"next":"skip",
				"text": "I'm doing fine."
			},
		]
	},
	{
		"id":"gun",
		"name": "vita",
		"text": "Here you go. Treat her well. Remember, you have 3 shots before you have to reload. Let's get moving.",
	},
	{
		"event": "give_gun",
		"close":true
	},
	{
		"id":"skip",
		"name": "vita",
		"text": "Roger that, you can keep using your medieval stuff. Let's go!"
	},
],

}