{

"PARTY":"",

"me":{
	"weapon":["club","rusty"],
	"armor":[],
	"hea":40,	"atk":10,	"spi":10,	"sou":4,	"prc":10,	"spd":1, 	"lvl":0,
	"moves":["menu","block","back"],
	"gun_parts":{},
	"shield":[]
},
"finbar":{
	"weapon":["spear","rusty"],
	"armor":[],
	"hea":60,	"atk":10,	"spi":3,	"sou":2,	"prc":10,	"spd":1, 	"lvl":0,
	"moves":["menu","melee","weapon","block","punch","back"]	
},
"chara":{
	"weapon":[],
	"armor":[],
	"hea":40,	"atk":10,	"spi":1,	"sou":1,	"prc":10,	"spd":1, 	"lvl":0,
	"moves":["menu","weapon","throw","back"]	
},
"egil":{
	"weapon":["sword","bronze"],
	"armor":[],
	"hea":80,	"atk":10,	"spi":10,	"sou":4,	"prc":10,	"spd":1, 	"lvl":0,
	"moves":["menu","weapon","block","flame","wave","back"]	
},
"vita":{
	"weapon":["gun","carbonite"],
	"armor":[],
	"hea":60,	"atk":8,	"spi":12,	"sou":12,	"prc":10,	"spd":1, 	"lvl":0,
	"moves":["menu","melee","punch","weapon","shot","back"]
},


"BOSSES 1":"",

"widow":{
	"weapon":["club","rusty"],	
	"armor":[],
	"hea":40,	"atk":1,	"spi":1,	"sou":1,	"prc":10,	"spd":1,
	"xp":5,
	"gold":5,
	"ai":{
		"moves_random":[
			"hit"
		],
		"target":"random",			
		"events":[
			{
				"type":"hp_lower_than", 
				"amt":996, 
				"story":"battle_tutorial_hit", 
				"ai":"ai2",
				"atk":3
			},
			{
				"type":"player_hp_lower_than", 
				"next_move":"medikit",
				"amt":4
			},
		]
	},
	"ai2":{
		"moves_combination":[
			"wait",
			"hit"
		],
		"counter":0,
		"target":"random",			
		"events":[
			{
				"type":"player_hp_lower_than", 
				"next_move":"medikit",
				"amt":4
			},
		]
	}
},
"tornstad_thug_melee":{
	"npc":"feudal_youth",
	"weapon":[],	
	"hea":20,	"atk":10,	"spi":0,	"sou":1,	"prc":10,	"spd":1,
	"armor":[],
	"ai":{
		"moves_random":[
			"punch"
		],
		"target":"random"
	},
	"xp":0,		"gold":0
},
"tornstad_thug_knife":{
	"npc":"feudal_youth",
	"weapon":["dagger","rusty"],	
	"hea":20,	"atk":10,	"spi":0,	"sou":1,	"prc":10,	"spd":1,
	"armor":[],
	"ai":{
		"moves_random":[
			"stab"
		],
		"target":"random"
	},
	"xp":0,		"gold":0
},
"cave_bandit_boss":{
	"npc":"bandit_boss",
	"weapon":["sable","rusty"],
	"armor":[],
	"hea":100,	"atk":15,	"spi":0,	"sou":1,	"prc":10,	"spd":1,
	"ai":{
		"moves_combination":[
			"wait",
			"cut"
		],
		"counter":0,
		"target":"random",			
		"events":[
			{
				"type":"player_hp_lower_than", 
				"next_move":"medikit",
				"amt":4
			},
		]
	},
	"xp":5,		"gold":5,
},
"pirate_boss":{
	"npc":"pirate_boss",
	"weapon":["gun","rusty"],
	"armor":["stab"],
	"hea":150,	"atk":7,	"spi":15,	"sou":0,	"prc":10,	"spd":1,
	"ai":{
		"moves_random":[
			"shoot",
			"bomb",
			"knife"
		],
		"target":"random"
	},
	"xp":16,		"gold":20,
},

"GENERICS 1":"",

"valley_bandit":{
	"npc":"bandit",
	"weapon":["club","rusty"], 
	"armor":[],
	"hea":15,	"atk":4,	"spi":0,	"sou":0,	"prc":10,	"spd":1,
	"ai":{
		"moves_random":[
			"hit"
		],
		"target":"random"
	},
	"xp":1, 	"gold":1
},
"cave_bandit":{
	"npc":"cave_bandit",
	"weapon":["dagger","rusty"],
	"armor":[],
	"hea":20,	"atk":6,	"spi":0,	"sou":1,	"prc":10,	"spd":1,
	"ai":{
		"moves_random":[
			"stab"
		],
		"target":"random"
	},
	"xp":1,		"gold":2
},
"bandit_thrower":{
	"npc":"bandit",
	"weapon":[],
	"armor":[],
	"hea":10,	"atk":5,	"spi":0,	"sou":1,	"prc":10,	"spd":1,
	"ai":{
		"moves_random":[
			"bullet"
		],
		"target":"random"
	},
	"xp":2,		"gold":2
},	
"bandit_ambusher":{
	"npc":"bandit",
	"weapon":["dagger","bronze"],
	"armor":["hit"],
	"hea":30,	"atk":10,	"spi":0,	"sou":1,	"prc":10,	"spd":1,
	"ai":{
		"moves_random":[
			"javelin",				
			"stab"
		],
		"target":"random"
	},
	"xp":5,		"gold":5,
},	
"renegade":{
	"npc":"renegade",
	"weapon":["spear","bronze"],
	"armor":["stab","cut"],
	"hea":60,	"atk":10,	"spi":0,	"sou":1,	"prc":10,	"spd":1,
	"ai":{
		"moves_random":[
			"stab",
			"block"
		],
		"target":"random"
	},
	"xp":6,		"gold":7,
},
"ninja":{
	"npc":"ninja",
	"weapon":["staff","carbonite"],
	"armor":[],
	"hea":100,	"atk":2,	"spi":0,	"sou":1,	"prc":10,	"spd":1,
	"ai":{
		"moves_random":[
			"shuriken",
			"hit"
		],
		"target":"random"
	},
	"xp":10,	"gold":5,
},
"monk":{
	"npc":"monk",
	"weapon":[],
	"armor":[],
	"hea":100,	"atk":10,	"spi":10,	"sou":20,	"prc":10,	"spd":1,
	"ai":{
		"moves_random":[
			"punch",
			"ball",
			"ball",
			"spear"
		],
		"target":"random"
	},
	"xp":10,	"gold":20,
},
"pirate":{
	"npc":"pirate",
	"weapon":["sable","bronze"],
	"armor":["stab"],
	"hea":15,	"atk":7,	"spi":15,	"sou":0,	"prc":10,	"spd":1,
	"ai":{
		"moves_random":[
			"cut",
			"knife"
		],
		"target":"random"
	},
	"xp":12,		"gold":12
},
"pirate_sniper":{
	"npc":"pirate",
	"weapon":["gun","rusty"],
	"armor":["stab"],
	"hea":15,	"atk":7,	"spi":15,	"sou":0,	"prc":10,	"spd":1,
	"ai":{
		"moves_random":[
			"shoot",
			"wait"
		],
		"target":"random"
	},
	"xp":12,		"gold":14
},
"pirate_bomber":{
	"npc":"pirate_bomber",
	"weapon":[],
	"armor":["stab"],
	"hea":5,	"atk":1,	"spi":15,	"sou":0,	"prc":10,	"spd":1,
	"ai":{
		"moves_random":[		
			"wait",
			"bomb"
		],
		"target":"random"
	},
	"xp":5,		"gold":5
},
"bird":{
	"name":"bird",
	"weapon":["none","rusty"],
	"armor":[],
	"custom":"bird",
	"hea":500,		"atk":20,	"spi":1000,		"sou":1,	"prc":10,	"spd":1,
	"ai":{
		"moves_random":[
			"hit"
		],
		"target":"random"
	},
	"xp":10,		"gold":5
},
"zerua_ward":{
	"weapon":["naginata","iron"],
	"armor":[],
	"hea":1000,	"atk":30,	"spi":10,	"sou":10,	"prc":10,	"spd":1,
	"ai":{
		"moves_combination":[
			"coat",
			"cut",
			"cut",
			"cut"
		],
		"counter":0,
		"target":"random"
	},
	"xp":100,	"gold":200
},
"berria_ward":{
	"weapon":["naginata","iron"],
	"armor":[],
	"hea":1000,	"atk":25,	"spi":30,	"sou":10,	"prc":10,	"spd":1,
	"ai":{
		"moves_random":[
			"cut",
			"ball"
		],
		"counter":0,
		"target":"random"
	},
	"xp":100,	"gold":200
},
	


"FINAL AREAS":"",

"tricephalos":{
	"name":"tricephalos",
	"weapon":["none","rusty"],
	"armor":[],
	"custom":"tricephalos",
	"hea":1000,		"atk":300,	"spi":1,	"sou":1,	"prc":10,	"spd":1,
	"ai":{
		"moves_random":[
			"punch","hit"
		],
		"target":"random"
	},
	"xp":100,
	"gold":200,
	"loots":[]
},	
"masked":{
	"name":"masked",
	"weapon":["none","rusty"],
	"armor":[],
	"custom":"masked",
	"hea":5000,		"atk":600,	"spi":1000,		"sou":1,	"prc":10,	"spd":1,
	"ai":{
		"moves_random":[
			"punch","hit","wave"
		],
		"target":"random"
	},
	"xp":100,
	"gold":200,
	"loots":[]
},

}