[gd_scene load_steps=6 format=2]

[ext_resource path="res://tilesets/main.tres" type="TileSet" id=1]
[ext_resource path="res://tilesets/floor.tres" type="TileSet" id=2]
[ext_resource path="res://object/player.tscn" type="PackedScene" id=3]
[ext_resource path="res://scenarios/scenario.gd" type="Script" id=4]
[ext_resource path="res://tilesets/mask.tres" type="TileSet" id=9]

[node name="overworld" type="Node2D"]
script = ExtResource( 4 )

[node name="Floor" type="TileMap" parent="."]
tile_set = ExtResource( 2 )
format = 1
tile_data = PoolIntArray( 0, 0, 0, 1, 0, 0, 2, 0, 0, 3, 0, 0, 4, 0, 0, 5, 0, 0, 6, 0, 0, 7, 0, 0, 8, 0, 0, 9, 0, 0, 10, 0, 0, 11, 0, 0, 12, 0, 0, 13, 0, 0, 14, 0, 0, 15, 0, 0, 16, 0, 0, 17, 0, 0, 18, 0, 0, 19, 0, 0, 20, 0, 0, 21, 0, 0, 22, 0, 0, 23, 0, 0, 24, 0, 0, 25, 0, 0, 26, 0, 0, 27, 0, 0, 28, 0, 0, 29, 0, 0, 30, 0, 0, 31, 0, 0, 32, 0, 0, 33, 0, 0, 34, 0, 0, 35, 0, 0, 36, 0, 0, 37, 0, 0, 38, 0, 0, 39, 0, 0, 40, 0, 0, 41, 0, 0, 42, 0, 0, 43, 0, 0, 44, 0, 0, 45, 0, 0, 46, 0, 0, 47, 0, 0, 48, 0, 0, 49, 0, 0, 50, 0, 0, 51, 0, 0, 52, 0, 0, 53, 0, 0, 54, 0, 0, 55, 0, 0, 56, 0, 0, 57, 0, 0, 58, 0, 0, 59, 0, 0, 60, 0, 0, 61, 0, 0, 62, 0, 0, 63, 0, 0, 64, 0, 0, 65536, 0, 0, 65537, 0, 0, 65538, 0, 0, 65539, 0, 0, 65540, 0, 0, 65541, 0, 0, 65542, 0, 0, 65543, 0, 0, 65544, 0, 0, 65545, 0, 0, 65546, 0, 0, 65547, 0, 0, 65548, 0, 0, 65549, 0, 0, 65550, 0, 0, 65551, 0, 0, 65552, 0, 0, 65553, 0, 0, 65554, 0, 0, 65555, 0, 0, 65556, 0, 0, 65557, 0, 0, 65558, 0, 0, 65559, 0, 0, 65560, 0, 0, 65561, 0, 0, 65562, 0, 0, 65563, 0, 0, 65564, 0, 0, 65565, 0, 0, 65566, 0, 0, 65567, 0, 0, 65568, 0, 0, 65569, 0, 0, 65570, 0, 0, 65571, 0, 0, 65572, 0, 0, 65573, 0, 0, 65574, 0, 0, 65575, 0, 0, 65576, 0, 0, 65577, 0, 0, 65578, 0, 0, 65579, 0, 0, 65580, 0, 0, 65581, 0, 0, 65582, 0, 0, 65583, 0, 0, 65584, 0, 0, 65585, 0, 0, 65586, 0, 0, 65587, 0, 0, 65588, 0, 0, 65589, 0, 0, 65590, 0, 0, 65591, 0, 0, 65592, 0, 0, 65593, 0, 0, 65594, 0, 0, 65595, 0, 0, 65596, 0, 0, 65597, 0, 0, 65598, 0, 0, 65599, 0, 0, 65600, 0, 0, 131072, 0, 0, 131073, 0, 0, 131074, 0, 0, 131075, 0, 0, 131076, 0, 0, 131077, 0, 0, 131078, 0, 0, 131079, 0, 0, 131080, 0, 0, 131081, 0, 0, 131082, 0, 0, 131083, 0, 0, 131084, 0, 0, 131085, 0, 0, 131086, 0, 0, 131087, 0, 0, 131088, 0, 0, 131089, 0, 0, 131090, 0, 0, 131091, 0, 0, 131092, 0, 0, 131093, 0, 0, 131094, 0, 0, 131095, 0, 0, 131096, 0, 0, 131097, 0, 0, 131098, 0, 0, 131099, 0, 0, 131100, 0, 0, 131101, 0, 0, 131102, 0, 0, 131103, 0, 0, 131104, 0, 0, 131105, 0, 0, 131106, 0, 0, 131107, 0, 0, 131108, 0, 0, 131109, 0, 0, 131110, 0, 0, 131111, 0, 0, 131112, 0, 0, 131113, 0, 0, 131114, 0, 0, 131115, 0, 0, 131116, 0, 0, 131117, 0, 0, 131118, 0, 0, 131119, 0, 0, 131120, 0, 0, 131121, 0, 0, 131122, 0, 0, 131123, 0, 0, 131124, 0, 0, 131125, 0, 0, 131126, 0, 0, 131127, 0, 0, 131128, 0, 0, 131129, 0, 0, 131130, 0, 0, 131131, 0, 0, 131132, 0, 0, 131133, 0, 0, 131134, 0, 0, 131135, 0, 0, 131136, 0, 0, 196608, 0, 0, 196609, 0, 0, 196610, 0, 0, 196611, 0, 0, 196612, 0, 0, 196613, 0, 0, 196614, 0, 0, 196615, 0, 0, 196616, 0, 0, 196617, 0, 0, 196618, 0, 0, 196619, 0, 0, 196620, 0, 0, 196621, 0, 0, 196622, 0, 0, 196623, 0, 0, 196624, 0, 0, 196625, 0, 0, 196626, 0, 0, 196627, 0, 0, 196628, 0, 0, 196629, 0, 0, 196630, 0, 0, 196631, 0, 0, 196632, 0, 0, 196633, 0, 0, 196634, 0, 0, 196635, 0, 0, 196636, 0, 0, 196637, 0, 0, 196638, 0, 0, 196639, 0, 0, 196640, 0, 0, 196641, 0, 0, 196642, 0, 0, 196643, 0, 0, 196644, 0, 0, 196645, 0, 0, 196646, 0, 0, 196647, 0, 0, 196648, 0, 0, 196649, 0, 0, 196650, 0, 0, 196651, 0, 0, 196652, 0, 0, 196653, 0, 0, 196654, 0, 0, 196655, 0, 0, 196656, 0, 0, 196657, 0, 0, 196658, 0, 0, 196659, 0, 0, 196660, 0, 0, 196661, 0, 0, 196662, 0, 0, 196663, 0, 0, 196664, 0, 0, 196665, 0, 0, 196666, 0, 0, 196667, 0, 0, 196668, 0, 0, 196669, 0, 0, 196670, 0, 0, 196671, 0, 0, 196672, 0, 0, 262144, 0, 0, 262145, 0, 0, 262146, 0, 0, 262147, 0, 0, 262148, 0, 0, 262149, 0, 0, 262150, 0, 0, 262151, 0, 0, 262152, 0, 0, 262153, 0, 0, 262154, 0, 0, 262155, 0, 0, 262156, 0, 0, 262157, 0, 0, 262158, 0, 0, 262159, 0, 0, 262160, 0, 0, 262161, 0, 0, 262162, 0, 0, 262163, 0, 0, 262164, 0, 0, 262165, 0, 0, 262166, 0, 0, 262167, 0, 0, 262168, 0, 0, 262169, 0, 0, 262170, 0, 0, 262171, 0, 0, 262172, 0, 0, 262173, 0, 0, 262174, 0, 0, 262175, 0, 0, 262176, 0, 0, 262177, 0, 0, 262178, 0, 0, 262179, 0, 0, 262180, 0, 0, 262181, 0, 0, 262182, 0, 0, 262183, 0, 0, 262184, 0, 0, 262185, 0, 0, 262186, 0, 0, 262187, 0, 0, 262188, 0, 0, 262189, 0, 0, 262190, 0, 0, 262191, 0, 0, 262192, 0, 0, 262193, 0, 0, 262194, 0, 0, 262195, 0, 0, 262196, 0, 0, 262197, 0, 0, 262198, 0, 0, 262199, 0, 0, 262200, 0, 0, 262201, 0, 0, 262202, 0, 0, 262203, 0, 0, 262204, 0, 0, 262205, 0, 0, 262206, 0, 0, 262207, 0, 0, 262208, 0, 0, 327680, 0, 0, 327681, 0, 0, 327682, 0, 0, 327683, 0, 0, 327684, 0, 0, 327685, 0, 0, 327686, 0, 0, 327687, 0, 0, 327688, 0, 0, 327689, 0, 0, 327690, 0, 0, 327691, 0, 0, 327692, 0, 0, 327693, 0, 0, 327694, 0, 0, 327695, 0, 0, 327696, 0, 0, 327697, 0, 0, 327698, 0, 0, 327699, 0, 0, 327700, 0, 0, 327701, 0, 0, 327702, 0, 0, 327703, 0, 0, 327704, 0, 0, 327705, 0, 0, 327706, 0, 0, 327707, 0, 0, 327708, 0, 0, 327709, 0, 0, 327710, 0, 0, 327711, 0, 0, 327712, 0, 0, 327713, 0, 0, 327714, 0, 0, 327715, 0, 0, 327716, 0, 0, 327717, 0, 0, 327718, 0, 0, 327719, 0, 0, 327720, 0, 0, 327721, 0, 0, 327722, 0, 0, 327723, 0, 0, 327724, 0, 0, 327725, 0, 0, 327726, 0, 0, 327727, 0, 0, 327728, 0, 0, 327729, 0, 0, 327730, 0, 0, 327731, 0, 0, 327732, 0, 0, 327733, 0, 0, 327734, 0, 0, 327735, 0, 0, 327736, 0, 0, 327737, 0, 0, 327738, 0, 0, 327739, 0, 0, 327740, 0, 0, 327741, 0, 0, 327742, 0, 0, 327743, 0, 0, 327744, 0, 0, 393216, 0, 0, 393217, 0, 0, 393218, 0, 0, 393219, 0, 0, 393220, 0, 0, 393221, 0, 0, 393222, 0, 0, 393223, 0, 0, 393224, 0, 0, 393225, 0, 0, 393226, 0, 0, 393227, 0, 0, 393228, 0, 0, 393229, 0, 0, 393230, 0, 0, 393231, 0, 0, 393232, 0, 0, 393233, 0, 0, 393234, 0, 0, 393235, 0, 0, 393236, 0, 0, 393237, 0, 0, 393238, 0, 0, 393239, 0, 0, 393240, 0, 0, 393241, 0, 0, 393242, 0, 0, 393243, 0, 0, 393244, 0, 0, 393245, 0, 0, 393246, 0, 0, 393247, 0, 0, 393248, 0, 0, 393249, 0, 0, 393250, 0, 0, 393251, 0, 0, 393252, 0, 0, 393253, 0, 0, 393254, 0, 0, 393255, 0, 0, 393256, 0, 0, 393257, 0, 0, 393258, 0, 0, 393259, 0, 0, 393260, 0, 0, 393261, 0, 0, 393262, 0, 0, 393263, 0, 0, 393264, 0, 0, 393265, 0, 0, 393266, 0, 0, 393267, 0, 0, 393268, 0, 0, 393269, 0, 0, 393270, 0, 0, 393271, 0, 0, 393272, 0, 0, 393273, 0, 0, 393274, 0, 0, 393275, 0, 0, 393276, 0, 0, 393277, 0, 0, 393278, 0, 0, 393279, 0, 0, 393280, 0, 0, 458752, 0, 0, 458753, 0, 0, 458754, 0, 0, 458755, 0, 0, 458756, 0, 0, 458757, 0, 0, 458758, 0, 0, 458759, 0, 0, 458760, 0, 0, 458761, 0, 0, 458762, 0, 0, 458763, 0, 0, 458764, 0, 0, 458765, 0, 0, 458766, 0, 0, 458767, 0, 0, 458768, 0, 0, 458769, 0, 0, 458770, 0, 0, 458771, 0, 0, 458772, 0, 0, 458773, 0, 0, 458774, 0, 0, 458775, 0, 0, 458776, 0, 0, 458777, 0, 0, 458778, 0, 0, 458779, 0, 0, 458780, 0, 0, 458781, 0, 0, 458782, 0, 0, 458783, 0, 0, 458784, 0, 0, 458785, 0, 0, 458786, 0, 0, 458787, 0, 0, 458788, 0, 0, 458789, 0, 0, 458790, 0, 0, 458791, 0, 0, 458792, 0, 0, 458793, 0, 0, 458794, 0, 0, 458795, 0, 0, 458796, 0, 0, 458797, 0, 0, 458798, 0, 0, 458799, 0, 0, 458800, 0, 0, 458801, 0, 0, 458802, 0, 0, 458803, 0, 0, 458804, 0, 0, 458805, 0, 0, 458806, 0, 0, 458807, 0, 0, 458808, 0, 0, 458809, 0, 0, 458810, 0, 0, 458811, 0, 0, 458812, 0, 0, 458813, 0, 0, 458814, 0, 0, 458815, 0, 0, 458816, 0, 0, 524288, 0, 0, 524289, 0, 0, 524290, 0, 0, 524291, 0, 0, 524292, 0, 0, 524293, 0, 0, 524294, 0, 0, 524295, 0, 0, 524296, 0, 0, 524297, 0, 0, 524298, 0, 0, 524299, 0, 0, 524300, 0, 0, 524301, 0, 0, 524302, 0, 0, 524303, 0, 0, 524304, 0, 0, 524305, 0, 0, 524306, 0, 0, 524307, 0, 0, 524308, 0, 0, 524309, 0, 0, 524310, 0, 0, 524311, 0, 0, 524312, 0, 0, 524313, 0, 0, 524314, 0, 0, 524315, 0, 0, 524316, 0, 0, 524317, 0, 0, 524318, 0, 0, 524319, 0, 0, 524320, 0, 0, 524321, 0, 0, 524322, 0, 0, 524323, 0, 0, 524324, 0, 0, 524325, 0, 0, 524326, 0, 0, 524327, 0, 0, 524328, 0, 0, 524329, 0, 0, 524330, 0, 0, 524331, 0, 0, 524332, 0, 0, 524333, 0, 0, 524334, 0, 0, 524335, 0, 0, 524336, 0, 0, 524337, 0, 0, 524338, 0, 0, 524339, 0, 0, 524340, 0, 0, 524341, 0, 0, 524342, 0, 0, 524343, 0, 0, 524344, 0, 0, 524345, 0, 0, 524346, 0, 0, 524347, 0, 0, 524348, 0, 0, 524349, 0, 0, 524350, 0, 0, 524351, 0, 0, 524352, 0, 0, 589824, 0, 0, 589825, 0, 0, 589826, 0, 0, 589827, 0, 0, 589828, 0, 0, 589829, 0, 0, 589830, 0, 0, 589831, 0, 0, 589832, 0, 0, 589833, 0, 0, 589834, 0, 0, 589835, 0, 0, 589836, 0, 0, 589837, 0, 0, 589838, 0, 0, 589839, 0, 0, 589840, 0, 0, 589841, 0, 0, 589842, 0, 0, 589843, 0, 0, 589844, 0, 0, 589845, 0, 0, 589846, 0, 0, 589847, 0, 0, 589848, 0, 0, 589849, 0, 0, 589850, 0, 0, 589851, 0, 0, 589852, 0, 0, 589853, 0, 0, 589854, 0, 0, 589855, 0, 0, 589856, 0, 0, 589857, 0, 0, 589858, 0, 0, 589859, 0, 0, 589860, 0, 0, 589861, 0, 0, 589862, 0, 0, 589863, 0, 0, 589864, 0, 0, 589865, 0, 0, 589866, 0, 0, 589867, 0, 0, 589868, 0, 0, 589869, 0, 0, 589870, 0, 0, 589871, 0, 0, 589872, 0, 0, 589873, 0, 0, 589874, 0, 0, 589875, 0, 0, 589876, 0, 0, 589877, 0, 0, 589878, 0, 0, 589879, 0, 0, 589880, 0, 0, 589881, 0, 0, 589882, 0, 0, 589883, 0, 0, 589884, 0, 0, 589885, 0, 0, 589886, 0, 0, 589887, 0, 0, 589888, 0, 0, 655360, 0, 0, 655361, 0, 0, 655362, 0, 0, 655363, 0, 0, 655364, 0, 0, 655365, 0, 0, 655366, 0, 0, 655367, 0, 0, 655368, 0, 0, 655369, 0, 0, 655370, 0, 0, 655371, 0, 0, 655372, 0, 0, 655373, 0, 0, 655374, 0, 0, 655375, 0, 0, 655376, 0, 0, 655377, 0, 0, 655378, 0, 0, 655379, 0, 0, 655380, 0, 0, 655381, 0, 0, 655382, 0, 0, 655383, 0, 0, 655384, 0, 0, 655385, 0, 0, 655386, 0, 0, 655387, 0, 0, 655388, 0, 0, 655389, 0, 0, 655390, 0, 0, 655391, 0, 0, 655392, 0, 0, 655393, 0, 0, 655394, 0, 0, 655395, 0, 0, 655396, 0, 0, 655397, 0, 0, 655398, 0, 0, 655399, 0, 0, 655400, 0, 0, 655401, 0, 0, 655402, 0, 0, 655403, 0, 0, 655404, 0, 0, 655405, 0, 0, 655406, 0, 0, 655407, 0, 0, 655408, 0, 0, 655409, 0, 0, 655410, 0, 0, 655411, 0, 0, 655412, 0, 0, 655413, 0, 0, 655414, 0, 0, 655415, 0, 0, 655416, 0, 0, 655417, 0, 0, 655418, 0, 0, 655419, 0, 0, 655420, 0, 0, 655421, 0, 0, 655422, 0, 0, 655423, 0, 0, 655424, 0, 0, 720896, 0, 0, 720897, 0, 0, 720898, 0, 0, 720899, 0, 0, 720900, 0, 0, 720901, 0, 0, 720902, 0, 0, 720903, 0, 0, 720904, 0, 0, 720905, 0, 0, 720906, 0, 0, 720907, 0, 0, 720908, 0, 0, 720909, 0, 0, 720910, 0, 0, 720911, 0, 0, 720912, 0, 0, 720913, 0, 0, 720914, 0, 0, 720915, 0, 0, 720916, 0, 0, 720917, 0, 0, 720918, 0, 0, 720919, 0, 0, 720920, 0, 0, 720921, 0, 0, 720922, 0, 0, 720923, 0, 0, 720924, 0, 0, 720925, 0, 0, 720926, 0, 0, 720927, 0, 0, 720928, 0, 0, 720929, 0, 0, 720930, 0, 0, 720931, 0, 0, 720932, 0, 0, 720933, 0, 0, 720934, 0, 0, 720935, 0, 0, 720936, 0, 0, 720937, 0, 0, 720938, 0, 0, 720939, 0, 0, 720940, 0, 0, 720941, 0, 0, 720942, 0, 0, 720943, 0, 0, 720944, 0, 0, 720945, 0, 0, 720946, 0, 0, 720947, 0, 0, 720948, 0, 0, 720949, 0, 0, 720950, 0, 0, 720951, 0, 0, 720952, 0, 0, 720953, 0, 0, 720954, 0, 0, 720955, 0, 0, 720956, 0, 0, 720957, 0, 0, 720958, 0, 0, 720959, 0, 0, 720960, 0, 0, 786432, 0, 0, 786433, 0, 0, 786434, 0, 0, 786435, 0, 0, 786436, 0, 0, 786437, 0, 0, 786438, 0, 0, 786439, 0, 0, 786440, 0, 0, 786441, 0, 0, 786442, 0, 0, 786443, 0, 0, 786444, 0, 0, 786445, 0, 0, 786446, 0, 0, 786447, 0, 0, 786448, 0, 0, 786449, 0, 0, 786450, 0, 0, 786451, 0, 0, 786452, 0, 0, 786453, 0, 0, 786454, 0, 0, 786455, 0, 0, 786456, 0, 0, 786457, 0, 0, 786458, 0, 0, 786459, 0, 0, 786460, 0, 0, 786461, 0, 0, 786462, 0, 0, 786463, 0, 0, 786464, 0, 0, 786465, 0, 0, 786466, 0, 0, 786467, 0, 0, 786468, 0, 0, 786469, 0, 0, 786470, 0, 0, 786471, 0, 0, 786472, 0, 0, 786473, 0, 0, 786474, 0, 0, 786475, 0, 0, 786476, 0, 0, 786477, 0, 0, 786478, 0, 0, 786479, 0, 0, 786480, 0, 0, 786481, 0, 0, 786482, 0, 0, 786483, 0, 0, 786484, 0, 0, 786485, 0, 0, 786486, 0, 0, 786487, 0, 0, 786488, 0, 0, 786489, 0, 0, 786490, 0, 0, 786491, 0, 0, 786492, 0, 0, 786493, 0, 0, 786494, 0, 0, 786495, 0, 0, 786496, 0, 0, 851968, 0, 0, 851969, 0, 0, 851970, 0, 0, 851971, 0, 0, 851972, 0, 0, 851973, 0, 0, 851974, 0, 0, 851975, 0, 0, 851976, 0, 0, 851977, 0, 0, 851978, 0, 0, 851979, 0, 0, 851980, 0, 0, 851981, 0, 0, 851982, 0, 0, 851983, 0, 0, 851984, 0, 0, 851985, 0, 0, 851986, 0, 0, 851987, 0, 0, 851988, 0, 0, 851989, 0, 0, 851990, 0, 0, 851991, 0, 0, 851992, 0, 0, 851993, 0, 0, 851994, 0, 0, 851995, 0, 0, 851996, 0, 0, 851997, 0, 0, 851998, 0, 0, 851999, 0, 0, 852000, 0, 0, 852001, 0, 0, 852002, 0, 0, 852003, 0, 0, 852004, 0, 0, 852005, 0, 0, 852006, 0, 0, 852007, 0, 0, 852008, 0, 0, 852009, 0, 0, 852010, 0, 0, 852011, 0, 0, 852012, 0, 0, 852013, 0, 0, 852014, 0, 0, 852015, 0, 0, 852016, 0, 0, 852017, 0, 0, 852018, 0, 0, 852019, 0, 0, 852020, 0, 0, 852021, 0, 0, 852022, 0, 0, 852023, 0, 0, 852024, 0, 0, 852025, 0, 0, 852026, 0, 0, 852027, 0, 0, 852028, 0, 0, 852029, 0, 0, 852030, 0, 0, 852031, 0, 0, 852032, 0, 0, 917504, 0, 0, 917505, 0, 0, 917506, 0, 0, 917507, 0, 0, 917508, 0, 0, 917509, 0, 0, 917510, 0, 0, 917511, 0, 0, 917512, 0, 0, 917513, 0, 0, 917514, 0, 0, 917515, 0, 0, 917516, 0, 0, 917517, 0, 0, 917518, 0, 0, 917519, 0, 0, 917520, 0, 0, 917521, 0, 0, 917522, 0, 0, 917523, 0, 0, 917524, 0, 0, 917525, 0, 0, 917526, 0, 0, 917527, 0, 0, 917528, 0, 0, 917529, 0, 0, 917530, 0, 0, 917531, 0, 0, 917532, 0, 0, 917533, 0, 0, 917534, 0, 0, 917535, 0, 0, 917536, 0, 0, 917537, 0, 0, 917538, 0, 0, 917539, 0, 0, 917540, 0, 0, 917541, 0, 0, 917542, 0, 0, 917543, 0, 0, 917544, 0, 0, 917545, 0, 0, 917546, 0, 0, 917547, 0, 0, 917548, 0, 0, 917549, 0, 0, 917550, 0, 0, 917551, 0, 0, 917552, 0, 0, 917553, 0, 0, 917554, 0, 0, 917555, 0, 0, 917556, 0, 0, 917557, 0, 0, 917558, 0, 0, 917559, 0, 0, 917560, 0, 0, 917561, 0, 0, 917562, 0, 0, 917563, 0, 0, 917564, 0, 0, 917565, 0, 0, 917566, 0, 0, 917567, 0, 0, 917568, 0, 0, 983040, 0, 0, 983041, 0, 0, 983042, 0, 0, 983043, 0, 0, 983044, 0, 0, 983045, 0, 0, 983046, 0, 0, 983047, 0, 0, 983048, 0, 0, 983049, 0, 0, 983050, 0, 0, 983051, 0, 0, 983052, 0, 0, 983053, 0, 0, 983054, 0, 0, 983055, 0, 0, 983056, 0, 0, 983057, 0, 0, 983058, 0, 0, 983059, 0, 0, 983060, 0, 0, 983061, 0, 0, 983062, 0, 0, 983063, 0, 0, 983064, 0, 0, 983065, 0, 0, 983066, 0, 0, 983067, 0, 0, 983068, 0, 0, 983069, 0, 0, 983070, 0, 0, 983071, 0, 0, 983072, 0, 0, 983073, 0, 0, 983074, 0, 0, 983075, 0, 0, 983076, 0, 0, 983077, 0, 0, 983078, 0, 0, 983079, 0, 0, 983080, 0, 0, 983081, 0, 0, 983082, 0, 0, 983083, 0, 0, 983084, 0, 0, 983085, 0, 0, 983086, 0, 0, 983087, 0, 0, 983088, 0, 0, 983089, 0, 0, 983090, 0, 0, 983091, 0, 0, 983092, 0, 0, 983093, 0, 0, 983094, 0, 0, 983095, 0, 0, 983096, 0, 0, 983097, 0, 0, 983098, 0, 0, 983099, 0, 0, 983100, 0, 0, 983101, 0, 0, 983102, 0, 0, 983103, 0, 0, 983104, 0, 0, 1048576, 0, 0, 1048577, 0, 0, 1048578, 0, 0, 1048579, 0, 0, 1048580, 0, 0, 1048581, 0, 0, 1048582, 0, 0, 1048583, 0, 0, 1048584, 0, 0, 1048585, 0, 0, 1048586, 0, 0, 1048587, 0, 0, 1048588, 0, 0, 1048589, 0, 0, 1048590, 0, 0, 1048591, 0, 0, 1048592, 0, 0, 1048593, 0, 0, 1048594, 0, 0, 1048595, 0, 0, 1048596, 0, 0, 1048597, 0, 0, 1048598, 0, 0, 1048599, 0, 0, 1048600, 0, 0, 1048601, 0, 0, 1048602, 0, 0, 1048603, 0, 0, 1048604, 0, 0, 1048605, 0, 0, 1048606, 0, 0, 1048607, 0, 0, 1048608, 0, 0, 1048609, 0, 0, 1048610, 0, 0, 1048611, 0, 0, 1048612, 0, 0, 1048613, 0, 0, 1048614, 0, 0, 1048615, 0, 0, 1048616, 0, 0, 1048617, 0, 0, 1048618, 0, 0, 1048619, 0, 0, 1048620, 0, 0, 1048621, 0, 0, 1048622, 0, 0, 1048623, 0, 0, 1048624, 0, 0, 1048625, 0, 0, 1048626, 0, 0, 1048627, 0, 0, 1048628, 0, 0, 1048629, 0, 0, 1048630, 0, 0, 1048631, 0, 0, 1048632, 0, 0, 1048633, 0, 0, 1048634, 0, 0, 1048635, 0, 0, 1048636, 0, 0, 1048637, 0, 0, 1048638, 0, 0, 1048639, 0, 0, 1048640, 0, 0, 1114112, 0, 0, 1114113, 0, 0, 1114114, 0, 0, 1114115, 0, 0, 1114116, 0, 0, 1114117, 0, 0, 1114118, 0, 0, 1114119, 0, 0, 1114120, 0, 0, 1114121, 0, 0, 1114122, 0, 0, 1114123, 0, 0, 1114124, 0, 0, 1114125, 0, 0, 1114126, 0, 0, 1114127, 0, 0, 1114128, 0, 0, 1114129, 0, 0, 1114130, 0, 0, 1114131, 0, 0, 1114132, 0, 0, 1114133, 0, 0, 1114134, 0, 0, 1114135, 0, 0, 1114136, 0, 0, 1114137, 0, 0, 1114138, 0, 0, 1114139, 0, 0, 1114140, 0, 0, 1114141, 0, 0, 1114142, 0, 0, 1114143, 0, 0, 1114144, 0, 0, 1114145, 0, 0, 1114146, 0, 0, 1114147, 0, 0, 1114148, 0, 0, 1114149, 0, 0, 1114150, 0, 0, 1114151, 0, 0, 1114152, 0, 0, 1114153, 0, 0, 1114154, 0, 0, 1114155, 0, 0, 1114156, 0, 0, 1114157, 0, 0, 1114158, 0, 0, 1114159, 0, 0, 1114160, 0, 0, 1114161, 0, 0, 1114162, 0, 0, 1114163, 0, 0, 1114164, 0, 0, 1114165, 0, 0, 1114166, 0, 0, 1114167, 0, 0, 1114168, 0, 0, 1114169, 0, 0, 1114170, 0, 0, 1114171, 0, 0, 1114172, 0, 0, 1114173, 0, 0, 1114174, 0, 0, 1114175, 0, 0, 1114176, 0, 0, 1179648, 0, 0, 1179649, 0, 0, 1179650, 0, 0, 1179651, 0, 0, 1179652, 0, 0, 1179653, 0, 0, 1179654, 0, 0, 1179655, 0, 0, 1179656, 0, 0, 1179657, 0, 0, 1179658, 0, 0, 1179659, 0, 0, 1179660, 0, 0, 1179661, 0, 0, 1179662, 0, 0, 1179663, 0, 0, 1179664, 0, 0, 1179665, 0, 0, 1179666, 0, 0, 1179667, 0, 0, 1179668, 0, 0, 1179669, 0, 0, 1179670, 0, 0, 1179671, 0, 0, 1179672, 0, 0, 1179673, 0, 0, 1179674, 0, 0, 1179675, 0, 0, 1179676, 0, 0, 1179677, 0, 0, 1179678, 0, 0, 1179679, 0, 0, 1179680, 0, 0, 1179681, 0, 0, 1179682, 0, 0, 1179683, 0, 0, 1179684, 0, 0, 1179685, 0, 0, 1179686, 0, 0, 1179687, 0, 0, 1179688, 0, 0, 1179689, 0, 0, 1179690, 0, 0, 1179691, 0, 0, 1179692, 0, 0, 1179693, 0, 0, 1179694, 0, 0, 1179695, 0, 0, 1179696, 0, 0, 1179697, 0, 0, 1179698, 0, 0, 1179699, 0, 0, 1179700, 0, 0, 1179701, 0, 0, 1179702, 0, 0, 1179703, 0, 0, 1179704, 0, 0, 1179705, 0, 0, 1179706, 0, 0, 1179707, 0, 0, 1179708, 0, 0, 1179709, 0, 0, 1179710, 0, 0, 1179711, 0, 0, 1179712, 0, 0, 1245184, 0, 0, 1245185, 0, 0, 1245186, 0, 0, 1245187, 0, 0, 1245188, 0, 0, 1245189, 0, 0, 1245190, 0, 0, 1245191, 0, 0, 1245192, 0, 0, 1245193, 0, 0, 1245194, 0, 0, 1245195, 0, 0, 1245196, 0, 0, 1245197, 0, 0, 1245198, 0, 0, 1245199, 0, 0, 1245200, 0, 0, 1245201, 0, 0, 1245202, 0, 0, 1245203, 0, 0, 1245204, 0, 0, 1245205, 0, 0, 1245206, 0, 0, 1245207, 0, 0, 1245208, 0, 0, 1245209, 0, 0, 1245210, 0, 0, 1245211, 0, 0, 1245212, 0, 0, 1245213, 0, 0, 1245214, 0, 0, 1245215, 0, 0, 1245216, 0, 0, 1245217, 0, 0, 1245218, 0, 0, 1245219, 0, 0, 1245220, 0, 0, 1245221, 0, 0, 1245222, 0, 0, 1245223, 0, 0, 1245224, 0, 0, 1245225, 0, 0, 1245226, 0, 0, 1245227, 0, 0, 1245228, 0, 0, 1245229, 0, 0, 1245230, 0, 0, 1245231, 0, 0, 1245232, 0, 0, 1245233, 0, 0, 1245234, 0, 0, 1245235, 0, 0, 1245236, 0, 0, 1245237, 0, 0, 1245238, 0, 0, 1245239, 0, 0, 1245240, 0, 0, 1245241, 0, 0, 1245242, 0, 0, 1245243, 0, 0, 1245244, 0, 0, 1245245, 0, 0, 1245246, 0, 0, 1245247, 0, 0, 1245248, 0, 0, 1310720, 0, 0, 1310721, 0, 0, 1310722, 0, 0, 1310723, 0, 0, 1310724, 0, 0, 1310725, 0, 0, 1310726, 0, 0, 1310727, 0, 0, 1310728, 0, 0, 1310729, 0, 0, 1310730, 0, 0, 1310731, 0, 0, 1310732, 0, 0, 1310733, 0, 0, 1310734, 0, 0, 1310735, 0, 0, 1310736, 0, 0, 1310737, 0, 0, 1310738, 0, 0, 1310739, 0, 0, 1310740, 0, 0, 1310741, 0, 0, 1310742, 0, 0, 1310743, 0, 0, 1310744, 0, 0, 1310745, 0, 0, 1310746, 0, 0, 1310747, 0, 0, 1310748, 0, 0, 1310749, 0, 0, 1310750, 0, 0, 1310751, 0, 0, 1310752, 0, 0, 1310753, 0, 0, 1310754, 0, 0, 1310755, 0, 0, 1310756, 0, 0, 1310757, 0, 0, 1310758, 0, 0, 1310759, 0, 0, 1310760, 0, 0, 1310761, 0, 0, 1310762, 0, 0, 1310763, 0, 0, 1310764, 0, 0, 1310765, 0, 0, 1310766, 0, 0, 1310767, 0, 0, 1310768, 0, 0, 1310769, 0, 0, 1310770, 0, 0, 1310771, 0, 0, 1310772, 0, 0, 1310773, 0, 0, 1310774, 0, 0, 1310775, 0, 0, 1310776, 0, 0, 1310777, 0, 0, 1310778, 0, 0, 1310779, 0, 0, 1310780, 0, 0, 1310781, 0, 0, 1310782, 0, 0, 1310783, 0, 0, 1310784, 0, 0, 1376256, 0, 0, 1376257, 0, 0, 1376258, 0, 0, 1376259, 0, 0, 1376260, 0, 0, 1376261, 0, 0, 1376262, 0, 0, 1376263, 0, 0, 1376264, 0, 0, 1376265, 0, 0, 1376266, 0, 0, 1376267, 0, 0, 1376268, 0, 0, 1376269, 0, 0, 1376270, 0, 0, 1376271, 0, 0, 1376272, 0, 0, 1376273, 0, 0, 1376274, 0, 0, 1376275, 0, 0, 1376276, 0, 0, 1376277, 0, 0, 1376278, 0, 0, 1376279, 0, 0, 1376280, 0, 0, 1376281, 0, 0, 1376282, 0, 0, 1376283, 0, 0, 1376284, 0, 0, 1376285, 0, 0, 1376286, 0, 0, 1376287, 0, 0, 1376288, 0, 0, 1376289, 0, 0, 1376290, 0, 0, 1376291, 0, 0, 1376292, 0, 0, 1376293, 0, 0, 1376294, 0, 0, 1376295, 0, 0, 1376296, 0, 0, 1376297, 0, 0, 1376298, 0, 0, 1376299, 0, 0, 1376300, 0, 0, 1376301, 0, 0, 1376302, 0, 0, 1376303, 0, 0, 1376304, 0, 0, 1376305, 0, 0, 1376306, 0, 0, 1376307, 0, 0, 1376308, 0, 0, 1376309, 0, 0, 1376310, 0, 0, 1376311, 0, 0, 1376312, 0, 0, 1376313, 0, 0, 1376314, 0, 0, 1376315, 0, 0, 1376316, 0, 0, 1376317, 0, 0, 1376318, 0, 0, 1376319, 0, 0, 1376320, 0, 0, 1441792, 0, 0, 1441793, 0, 0, 1441794, 0, 0, 1441795, 0, 0, 1441796, 0, 0, 1441797, 0, 0, 1441798, 0, 0, 1441799, 0, 0, 1441800, 0, 0, 1441801, 0, 0, 1441802, 0, 0, 1441803, 0, 0, 1441804, 0, 0, 1441805, 0, 0, 1441806, 0, 0, 1441807, 0, 0, 1441808, 0, 0, 1441809, 0, 0, 1441810, 0, 0, 1441811, 0, 0, 1441812, 0, 0, 1441813, 0, 0, 1441814, 0, 0, 1441815, 0, 0, 1441816, 0, 0, 1441817, 0, 0, 1441818, 0, 0, 1441819, 0, 0, 1441820, 0, 0, 1441821, 0, 0, 1441822, 0, 0, 1441823, 0, 0, 1441824, 0, 0, 1441825, 0, 0, 1441826, 0, 0, 1441827, 0, 0, 1441828, 0, 0, 1441829, 0, 0, 1441830, 0, 0, 1441831, 0, 0, 1441832, 0, 0, 1441833, 0, 0, 1441834, 0, 0, 1441835, 0, 0, 1441836, 0, 0, 1441837, 0, 0, 1441838, 0, 0, 1441839, 0, 0, 1441840, 0, 0, 1441841, 0, 0, 1441842, 0, 0, 1441843, 0, 0, 1441844, 0, 0, 1441845, 0, 0, 1441846, 0, 0, 1441847, 0, 0, 1441848, 0, 0, 1441849, 0, 0, 1441850, 0, 0, 1441851, 0, 0, 1441852, 0, 0, 1441853, 0, 0, 1441854, 0, 0, 1441855, 0, 0, 1441856, 0, 0, 1507328, 0, 0, 1507329, 0, 0, 1507330, 0, 0, 1507331, 0, 0, 1507332, 0, 0, 1507333, 0, 0, 1507334, 0, 0, 1507335, 0, 0, 1507336, 0, 0, 1507337, 0, 0, 1507338, 0, 0, 1507339, 0, 0, 1507340, 0, 0, 1507341, 0, 0, 1507342, 0, 0, 1507343, 0, 0, 1507344, 0, 0, 1507345, 0, 0, 1507346, 0, 0, 1507347, 0, 0, 1507348, 0, 0, 1507349, 0, 0, 1507350, 0, 0, 1507351, 0, 0, 1507352, 0, 0, 1507353, 0, 0, 1507354, 0, 0, 1507355, 0, 0, 1507356, 0, 0, 1507357, 0, 0, 1507358, 0, 0, 1507359, 0, 0, 1507360, 0, 0, 1507361, 0, 0, 1507362, 0, 0, 1507363, 0, 0, 1507364, 0, 0, 1507365, 0, 0, 1507366, 0, 0, 1507367, 0, 0, 1507368, 0, 0, 1507369, 0, 0, 1507370, 0, 0, 1507371, 0, 0, 1507372, 0, 0, 1507373, 0, 0, 1507374, 0, 0, 1507375, 0, 0, 1507376, 0, 0, 1507377, 0, 0, 1507378, 0, 0, 1507379, 0, 0, 1507380, 0, 0, 1507381, 0, 0, 1507382, 0, 0, 1507383, 0, 0, 1507384, 0, 0, 1507385, 0, 0, 1507386, 0, 0, 1507387, 0, 0, 1507388, 0, 0, 1507389, 0, 0, 1507390, 0, 0, 1507391, 0, 0, 1507392, 0, 0, 1572864, 0, 0, 1572865, 0, 0, 1572866, 0, 0, 1572867, 0, 0, 1572868, 0, 0, 1572869, 0, 0, 1572870, 0, 0, 1572871, 0, 0, 1572872, 0, 0, 1572873, 0, 0, 1572874, 0, 0, 1572875, 0, 0, 1572876, 0, 0, 1572877, 0, 0, 1572878, 0, 0, 1572879, 0, 0, 1572880, 0, 0, 1572881, 0, 0, 1572882, 0, 0, 1572883, 0, 0, 1572884, 0, 0, 1572885, 0, 0, 1572886, 0, 0, 1572887, 0, 0, 1572888, 0, 0, 1572889, 0, 0, 1572890, 0, 0, 1572891, 0, 0, 1572892, 0, 0, 1572893, 0, 0, 1572894, 0, 0, 1572895, 0, 0, 1572896, 0, 0, 1572897, 0, 0, 1572898, 0, 0, 1572899, 0, 0, 1572900, 0, 0, 1572901, 0, 0, 1572902, 0, 0, 1572903, 0, 0, 1572904, 0, 0, 1572905, 0, 0, 1572906, 0, 0, 1572907, 0, 0, 1572908, 0, 0, 1572909, 0, 0, 1572910, 0, 0, 1572911, 0, 0, 1572912, 0, 0, 1572913, 0, 0, 1572914, 0, 0, 1572915, 0, 0, 1572916, 0, 0, 1572917, 0, 0, 1572918, 0, 0, 1572919, 0, 0, 1572920, 0, 0, 1572921, 0, 0, 1572922, 0, 0, 1572923, 0, 0, 1572924, 0, 0, 1572925, 0, 0, 1572926, 0, 0, 1572927, 0, 0, 1572928, 0, 0, 1638400, 0, 0, 1638401, 0, 0, 1638402, 0, 0, 1638403, 0, 0, 1638404, 0, 0, 1638405, 0, 0, 1638406, 0, 0, 1638407, 0, 0, 1638408, 0, 0, 1638409, 0, 0, 1638410, 0, 0, 1638411, 0, 0, 1638412, 0, 0, 1638413, 0, 0, 1638414, 0, 0, 1638415, 0, 0, 1638416, 0, 0, 1638417, 0, 0, 1638418, 0, 0, 1638419, 0, 0, 1638420, 0, 0, 1638421, 0, 0, 1638422, 0, 0, 1638423, 0, 0, 1638424, 0, 0, 1638425, 0, 0, 1638426, 0, 0, 1638427, 0, 0, 1638428, 0, 0, 1638429, 0, 0, 1638430, 0, 0, 1638431, 0, 0, 1638432, 0, 0, 1638433, 0, 0, 1638434, 0, 0, 1638435, 0, 0, 1638436, 0, 0, 1638437, 0, 0, 1638438, 0, 0, 1638439, 0, 0, 1638440, 0, 0, 1638441, 0, 0, 1638442, 0, 0, 1638443, 0, 0, 1638444, 0, 0, 1638445, 0, 0, 1638446, 0, 0, 1638447, 0, 0, 1638448, 0, 0, 1638449, 0, 0, 1638450, 0, 0, 1638451, 0, 0, 1638452, 0, 0, 1638453, 0, 0, 1638454, 0, 0, 1638455, 0, 0, 1638456, 0, 0, 1638457, 0, 0, 1638458, 0, 0, 1638459, 0, 0, 1638460, 0, 0, 1638461, 0, 0, 1638462, 0, 0, 1638463, 0, 0, 1638464, 0, 0, 1703936, 0, 0, 1703937, 0, 0, 1703938, 0, 0, 1703939, 0, 0, 1703940, 0, 0, 1703941, 0, 0, 1703942, 0, 0, 1703943, 0, 0, 1703944, 0, 0, 1703945, 0, 0, 1703946, 0, 0, 1703947, 0, 0, 1703948, 0, 0, 1703949, 0, 0, 1703950, 0, 0, 1703951, 0, 0, 1703952, 0, 0, 1703953, 0, 0, 1703954, 0, 0, 1703955, 0, 0, 1703956, 0, 0, 1703957, 0, 0, 1703958, 0, 0, 1703959, 0, 0, 1703960, 0, 0, 1703961, 0, 0, 1703962, 0, 0, 1703963, 0, 0, 1703964, 0, 0, 1703965, 0, 0, 1703966, 0, 0, 1703967, 0, 0, 1703968, 0, 0, 1703969, 0, 0, 1703970, 0, 0, 1703971, 0, 0, 1703972, 0, 0, 1703973, 0, 0, 1703974, 0, 0, 1703975, 0, 0, 1703976, 0, 0, 1703977, 0, 0, 1703978, 0, 0, 1703979, 0, 0, 1703980, 0, 0, 1703981, 0, 0, 1703982, 0, 0, 1703983, 0, 0, 1703984, 0, 0, 1703985, 0, 0, 1703986, 0, 0, 1703987, 0, 0, 1703988, 0, 0, 1703989, 0, 0, 1703990, 0, 0, 1703991, 0, 0, 1703992, 0, 0, 1703993, 0, 0, 1703994, 0, 0, 1703995, 0, 0, 1703996, 0, 0, 1703997, 0, 0, 1703998, 0, 0, 1703999, 0, 0, 1704000, 0, 0, 1769472, 0, 0, 1769473, 0, 0, 1769474, 0, 0, 1769475, 0, 0, 1769476, 0, 0, 1769477, 0, 0, 1769478, 0, 0, 1769479, 0, 0, 1769480, 0, 0, 1769481, 0, 0, 1769482, 0, 0, 1769483, 0, 0, 1769484, 0, 0, 1769485, 0, 0, 1769486, 0, 0, 1769487, 0, 0, 1769488, 0, 0, 1769489, 0, 0, 1769490, 0, 0, 1769491, 0, 0, 1769492, 0, 0, 1769493, 0, 0, 1769494, 0, 0, 1769495, 0, 0, 1769496, 0, 0, 1769497, 0, 0, 1769498, 0, 0, 1769499, 0, 0, 1769500, 0, 0, 1769501, 0, 0, 1769502, 0, 0, 1769503, 0, 0, 1769504, 0, 0, 1769505, 0, 0, 1769506, 0, 0, 1769507, 0, 0, 1769508, 0, 0, 1769509, 0, 0, 1769510, 0, 0, 1769511, 0, 0, 1769512, 0, 0, 1769513, 0, 0, 1769514, 0, 0, 1769515, 0, 0, 1769516, 0, 0, 1769517, 0, 0, 1769518, 0, 0, 1769519, 0, 0, 1769520, 0, 0, 1769521, 0, 0, 1769522, 0, 0, 1769523, 0, 0, 1769524, 0, 0, 1769525, 0, 0, 1769526, 0, 0, 1769527, 0, 0, 1769528, 0, 0, 1769529, 0, 0, 1769530, 0, 0, 1769531, 0, 0, 1769532, 0, 0, 1769533, 0, 0, 1769534, 0, 0, 1769535, 0, 0, 1769536, 0, 0, 1835008, 0, 0, 1835009, 0, 0, 1835010, 0, 0, 1835011, 0, 0, 1835012, 0, 0, 1835013, 0, 0, 1835014, 0, 0, 1835015, 0, 0, 1835016, 0, 0, 1835017, 0, 0, 1835018, 0, 0, 1835019, 0, 0, 1835020, 0, 0, 1835021, 0, 0, 1835022, 0, 0, 1835023, 0, 0, 1835024, 0, 0, 1835025, 0, 0, 1835026, 0, 0, 1835027, 0, 0, 1835028, 0, 0, 1835029, 0, 0, 1835030, 0, 0, 1835031, 0, 0, 1835032, 0, 0, 1835033, 0, 0, 1835034, 0, 0, 1835035, 0, 0, 1835036, 0, 0, 1835037, 0, 0, 1835038, 0, 0, 1835039, 0, 0, 1835040, 0, 0, 1835041, 0, 0, 1835042, 0, 0, 1835043, 0, 0, 1835044, 0, 0, 1835045, 0, 0, 1835046, 0, 0, 1835047, 0, 0, 1835048, 0, 0, 1835049, 0, 0, 1835050, 0, 0, 1835051, 0, 0, 1835052, 0, 0, 1835053, 0, 0, 1835054, 0, 0, 1835055, 0, 0, 1835056, 0, 0, 1835057, 0, 0, 1835058, 0, 0, 1835059, 0, 0, 1835060, 0, 0, 1835061, 0, 0, 1835062, 0, 0, 1835063, 0, 0, 1835064, 0, 0, 1835065, 0, 0, 1835066, 0, 0, 1835067, 0, 0, 1835068, 0, 0, 1835069, 0, 0, 1835070, 0, 0, 1835071, 0, 0, 1835072, 0, 0, 1900544, 0, 0, 1900545, 0, 0, 1900546, 0, 0, 1900547, 0, 0, 1900548, 0, 0, 1900549, 0, 0, 1900550, 0, 0, 1900551, 0, 0, 1900552, 0, 0, 1900553, 0, 0, 1900554, 0, 0, 1900555, 0, 0, 1900556, 0, 0, 1900557, 0, 0, 1900558, 0, 0, 1900559, 0, 0, 1900560, 0, 0, 1900561, 0, 0, 1900562, 0, 0, 1900563, 0, 0, 1900564, 0, 0, 1900565, 0, 0, 1900566, 0, 0, 1900567, 0, 0, 1900568, 0, 0, 1900569, 0, 0, 1900570, 0, 0, 1900571, 0, 0, 1900572, 0, 0, 1900573, 0, 0, 1900574, 0, 0, 1900575, 0, 0, 1900576, 0, 0, 1900577, 0, 0, 1900578, 0, 0, 1900579, 0, 0, 1900580, 0, 0, 1900581, 0, 0, 1900582, 0, 0, 1900583, 0, 0, 1900584, 0, 0, 1900585, 0, 0, 1900586, 0, 0, 1900587, 0, 0, 1900588, 0, 0, 1900589, 0, 0, 1900590, 0, 0, 1900591, 0, 0, 1900592, 0, 0, 1900593, 0, 0, 1900594, 0, 0, 1900595, 0, 0, 1900596, 0, 0, 1900597, 0, 0, 1900598, 0, 0, 1900599, 0, 0, 1900600, 0, 0, 1900601, 0, 0, 1900602, 0, 0, 1900603, 0, 0, 1900604, 0, 0, 1900605, 0, 0, 1900606, 0, 0, 1900607, 0, 0, 1900608, 0, 0, 1966080, 0, 0, 1966081, 0, 0, 1966082, 0, 0, 1966083, 0, 0, 1966084, 0, 0, 1966085, 0, 0, 1966086, 0, 0, 1966087, 0, 0, 1966088, 0, 0, 1966089, 0, 0, 1966090, 0, 0, 1966091, 0, 0, 1966092, 0, 0, 1966093, 0, 0, 1966094, 0, 0, 1966095, 0, 0, 1966096, 0, 0, 1966097, 0, 0, 1966098, 0, 0, 1966099, 0, 0, 1966100, 0, 0, 1966101, 0, 0, 1966102, 0, 0, 1966103, 0, 0, 1966104, 0, 0, 1966105, 0, 0, 1966106, 0, 0, 1966107, 0, 0, 1966108, 0, 0, 1966109, 0, 0, 1966110, 0, 0, 1966111, 0, 0, 1966112, 0, 0, 1966113, 0, 0, 1966114, 0, 0, 1966115, 0, 0, 1966116, 0, 0, 1966117, 0, 0, 1966118, 0, 0, 1966119, 0, 0, 1966120, 0, 0, 1966121, 0, 0, 1966122, 0, 0, 1966123, 0, 0, 1966124, 0, 0, 1966125, 0, 0, 1966126, 0, 0, 1966127, 0, 0, 1966128, 0, 0, 1966129, 0, 0, 1966130, 0, 0, 1966131, 0, 0, 1966132, 0, 0, 1966133, 0, 0, 1966134, 0, 0, 1966135, 0, 0, 1966136, 0, 0, 1966137, 0, 0, 1966138, 0, 0, 1966139, 0, 0, 1966140, 0, 0, 1966141, 0, 0, 1966142, 0, 0, 1966143, 0, 0, 1966144, 0, 0, 2031616, 0, 0, 2031617, 0, 0, 2031618, 0, 0, 2031619, 0, 0, 2031620, 0, 0, 2031621, 0, 0, 2031622, 0, 0, 2031623, 0, 0, 2031624, 0, 0, 2031625, 0, 0, 2031626, 0, 0, 2031627, 0, 0, 2031628, 0, 0, 2031629, 0, 0, 2031630, 0, 0, 2031631, 0, 0, 2031632, 0, 0, 2031633, 0, 0, 2031634, 0, 0, 2031635, 0, 0, 2031636, 0, 0, 2031637, 0, 0, 2031638, 0, 0, 2031639, 0, 0, 2031640, 0, 0, 2031641, 0, 0, 2031642, 0, 0, 2031643, 0, 0, 2031644, 0, 0, 2031645, 0, 0, 2031646, 0, 0, 2031647, 0, 0, 2031648, 0, 0, 2031649, 0, 0, 2031650, 0, 0, 2031651, 0, 0, 2031652, 0, 0, 2031653, 0, 0, 2031654, 0, 0, 2031655, 0, 0, 2031656, 0, 0, 2031657, 0, 0, 2031658, 0, 0, 2031659, 0, 0, 2031660, 0, 0, 2031661, 0, 0, 2031662, 0, 0, 2031663, 0, 0, 2031664, 0, 0, 2031665, 0, 0, 2031666, 0, 0, 2031667, 0, 0, 2031668, 0, 0, 2031669, 0, 0, 2031670, 0, 0, 2031671, 0, 0, 2031672, 0, 0, 2031673, 0, 0, 2031674, 0, 0, 2031675, 0, 0, 2031676, 0, 0, 2031677, 0, 0, 2031678, 0, 0, 2031679, 0, 0, 2031680, 0, 0, 2097152, 0, 0, 2097153, 0, 0, 2097154, 0, 0, 2097155, 0, 0, 2097156, 0, 0, 2097157, 0, 0, 2097158, 0, 0, 2097159, 0, 0, 2097160, 0, 0, 2097161, 0, 0, 2097162, 0, 0, 2097163, 0, 0, 2097164, 0, 0, 2097165, 0, 0, 2097166, 0, 0, 2097167, 0, 0, 2097168, 0, 0, 2097169, 0, 0, 2097170, 0, 0, 2097171, 0, 0, 2097172, 0, 0, 2097173, 0, 0, 2097174, 0, 0, 2097175, 0, 0, 2097176, 0, 0, 2097177, 0, 0, 2097178, 0, 0, 2097179, 0, 0, 2097180, 0, 0, 2097181, 0, 0, 2097182, 0, 0, 2097183, 0, 0, 2097184, 0, 0, 2097185, 0, 0, 2097186, 0, 0, 2097187, 0, 0, 2097188, 0, 0, 2097189, 0, 0, 2097190, 0, 0, 2097191, 0, 0, 2097192, 0, 0, 2097193, 0, 0, 2097194, 0, 0, 2097195, 0, 0, 2097196, 0, 0, 2097197, 0, 0, 2097198, 0, 0, 2097199, 0, 0, 2097200, 0, 0, 2097201, 0, 0, 2097202, 0, 0, 2097203, 0, 0, 2097204, 0, 0, 2097205, 0, 0, 2097206, 0, 0, 2097207, 0, 0, 2097208, 0, 0, 2097209, 0, 0, 2097210, 0, 0, 2097211, 0, 0, 2097212, 0, 0, 2097213, 0, 0, 2097214, 0, 0, 2097215, 0, 0, 2097216, 0, 0 )

[node name="FloorOverlay" type="TileMap" parent="."]
tile_set = ExtResource( 2 )
format = 1
tile_data = PoolIntArray( -65513, 7, 65542, -65512, 7, 262148, -65511, 7, 196612, -65510, 7, 196612, -65509, 7, 196612, -65508, 7, 196612, -65507, 7, 196612, -65506, 7, 196612, -65505, 7, 196612, -65504, 7, 196612, -65503, 7, 8, -65486, 1, 65542, -65485, 1, 1, -65477, 1, 7, -65476, 1, 196612, -65475, 1, 8, 24, 7, 131076, 25, 7, 131078, 26, 7, 131078, 27, 7, 131078, 28, 7, 131078, 29, 7, 131078, 30, 7, 131078, 31, 7, 131078, 32, 7, 131078, 33, 7, 131077, 51, 1, 65536, 52, 1, 2, 53, 1, 262148, 54, 1, 196612, 55, 1, 8, 58, 1, 7, 59, 1, 196609, 60, 1, 131072, 61, 1, 327685, 62, 1, 262148, 63, 1, 262149, 64, 1, 5, 65560, 7, 131076, 65561, 7, 131078, 65562, 7, 131078, 65563, 7, 131078, 65564, 7, 131078, 65565, 7, 131078, 65566, 7, 131078, 65567, 7, 131078, 65568, 7, 131078, 65569, 7, 196608, 65570, 7, 8, 65589, 1, 65543, 65590, 1, 131074, 65591, 1, 65544, 65594, 1, 65543, 65595, 1, 131073, 65596, 1, 131077, 65598, 1, 65543, 65599, 1, 65544, 131096, 7, 131076, 131097, 7, 131078, 131098, 7, 131078, 131099, 7, 131078, 131100, 7, 131078, 131101, 7, 131078, 131102, 7, 131078, 131103, 7, 131078, 131104, 7, 131078, 131105, 7, 131078, 131106, 7, 131077, 131124, 1, 65541, 131126, 1, 65538, 131128, 1, 65541, 131131, 1, 131076, 131132, 1, 131077, 131136, 1, 7, 131137, 1, 8, 196632, 7, 131076, 196633, 7, 131078, 196634, 7, 131078, 196635, 7, 131078, 196636, 7, 131078, 196637, 7, 131078, 196638, 7, 131078, 196639, 7, 131078, 196640, 7, 131078, 196641, 7, 131078, 196642, 7, 131077, 196659, 1, 7, 196660, 1, 131075, 196661, 1, 196612, 196662, 1, 131075, 196663, 1, 262149, 196664, 1, 65537, 196666, 1, 7, 196667, 1, 196609, 196668, 1, 196610, 196669, 1, 2, 196670, 1, 262148, 196671, 1, 262149, 196672, 1, 327684, 196673, 1, 65544, 262168, 7, 65543, 262169, 7, 131073, 262170, 7, 131078, 262171, 7, 131078, 262172, 7, 131078, 262173, 7, 131078, 262174, 7, 131078, 262175, 7, 131078, 262176, 7, 131078, 262177, 7, 131072, 262178, 7, 65544, 262195, 1, 65543, 262196, 1, 196613, 262197, 1, 131073, 262198, 1, 131072, 262199, 1, 65544, 262201, 1, 65542, 262202, 1, 196611, 262203, 1, 131078, 262204, 1, 131077, 262206, 1, 327682, 262207, 1, 65544, 327705, 7, 131076, 327706, 7, 131078, 327707, 7, 131078, 327708, 7, 131078, 327709, 7, 131078, 327710, 7, 131078, 327711, 7, 131078, 327712, 7, 131078, 327713, 7, 131077, 327733, 1, 131076, 327734, 1, 131077, 327736, 1, 196614, 327738, 1, 65543, 327739, 1, 196613, 327740, 1, 327685, 327741, 1, 262148, 327742, 1, 262147, 393241, 7, 65543, 393242, 7, 131073, 393243, 7, 131078, 393244, 7, 131078, 393245, 7, 131078, 393246, 7, 131078, 393247, 7, 131078, 393248, 7, 131078, 393249, 7, 131077, 393269, 1, 65543, 393270, 1, 327681, 393271, 1, 5, 393277, 1, 131076, 393278, 1, 131077, 458778, 7, 131076, 458779, 7, 131078, 458780, 7, 131078, 458781, 7, 131078, 458782, 7, 131078, 458783, 7, 131078, 458784, 7, 131078, 458785, 7, 131077, 458806, 1, 6, 458812, 1, 7, 458813, 1, 327686, 458814, 1, 65544, 458816, 1, 0, 458817, 1, 5, 524314, 7, 131076, 524315, 7, 131078, 524316, 7, 131078, 524317, 7, 131078, 524318, 7, 131078, 524319, 7, 131078, 524320, 7, 131078, 524321, 7, 131077, 524348, 1, 65543, 524349, 1, 65544, 524352, 1, 6, 589850, 7, 131076, 589851, 7, 131078, 589852, 7, 131078, 589853, 7, 131078, 589854, 7, 131078, 589855, 7, 131078, 589856, 7, 131078, 589857, 7, 131077, 655386, 7, 131076, 655387, 7, 131078, 655388, 7, 131078, 655389, 7, 131078, 655390, 7, 131078, 655391, 7, 131078, 655392, 7, 131078, 655393, 7, 131077, 720922, 7, 131076, 720923, 7, 131078, 720924, 7, 131078, 720925, 7, 131078, 720926, 7, 131078, 720927, 7, 131078, 720928, 7, 131078, 720929, 7, 131077, 786458, 7, 131076, 786459, 7, 131078, 786460, 7, 131078, 786461, 7, 131078, 786462, 7, 131078, 786463, 7, 131078, 786464, 7, 131078, 786465, 7, 131077, 851994, 7, 131076, 851995, 7, 131078, 851996, 7, 131078, 851997, 7, 131078, 851998, 7, 131078, 851999, 7, 131078, 852000, 7, 131078, 852001, 7, 131077, 917530, 7, 131076, 917531, 7, 131078, 917532, 7, 131078, 917533, 7, 131078, 917534, 7, 131078, 917535, 7, 131078, 917536, 7, 131078, 917537, 7, 131077, 983066, 7, 131076, 983067, 7, 131078, 983068, 7, 131078, 983069, 7, 131078, 983070, 7, 131078, 983071, 7, 131078, 983072, 7, 131078, 983073, 7, 131077, 1048601, 7, 7, 1048602, 7, 196609, 1048603, 7, 131078, 1048604, 7, 131078, 1048605, 7, 131078, 1048606, 7, 131078, 1048607, 7, 131078, 1048608, 7, 131078, 1048609, 7, 131077, 1114137, 7, 131076, 1114138, 7, 131078, 1114139, 7, 131078, 1114140, 7, 131078, 1114141, 7, 131078, 1114142, 7, 131078, 1114143, 7, 131078, 1114144, 7, 131078, 1114145, 7, 131077, 1179673, 7, 131076, 1179674, 7, 131078, 1179675, 7, 131078, 1179676, 7, 131078, 1179677, 7, 131078, 1179678, 7, 131078, 1179679, 7, 131078, 1179680, 7, 131078, 1179681, 7, 131077, 1245208, 7, 7, 1245209, 7, 196609, 1245210, 7, 131078, 1245211, 7, 131078, 1245212, 7, 131078, 1245213, 7, 131078, 1245214, 7, 131078, 1245215, 7, 131078, 1245216, 7, 131078, 1245217, 7, 131077, 1245220, 1, 196614, 1310743, 7, 7, 1310744, 7, 196609, 1310745, 7, 131078, 1310746, 7, 131078, 1310747, 7, 131078, 1310748, 7, 131078, 1310749, 7, 131078, 1310750, 7, 131078, 1310751, 7, 131078, 1310752, 7, 131072, 1310753, 7, 65544, 1310757, 1, 7, 1310758, 1, 8, 1376279, 7, 131076, 1376280, 7, 131078, 1376281, 7, 131078, 1376282, 7, 131078, 1376283, 7, 131078, 1376284, 7, 131078, 1376285, 7, 131078, 1376286, 7, 131078, 1376287, 7, 131078, 1376288, 7, 131077, 1376292, 1, 7, 1376293, 1, 196609, 1376294, 1, 131077, 1441814, 7, 7, 1441815, 7, 196609, 1441816, 7, 131078, 1441817, 7, 131078, 1441818, 7, 131078, 1441819, 7, 131078, 1441820, 7, 131078, 1441821, 7, 131078, 1441822, 7, 131078, 1441823, 7, 131078, 1441824, 7, 131077, 1441826, 1, 65542, 1441827, 1, 262148, 1441828, 1, 196609, 1441829, 1, 131078, 1441830, 1, 196608, 1441831, 1, 8, 1507349, 7, 7, 1507350, 7, 196609, 1507351, 7, 131078, 1507352, 7, 131078, 1507353, 7, 131078, 1507354, 7, 131078, 1507355, 7, 131078, 1507356, 7, 131078, 1507357, 7, 131078, 1507358, 7, 131078, 1507359, 7, 131078, 1507360, 7, 131077, 1507363, 1, 327682, 1507364, 1, 196613, 1507365, 1, 131073, 1507366, 1, 131078, 1507367, 1, 131077, 1572885, 7, 131076, 1572886, 7, 131078, 1572887, 7, 131078, 1572888, 7, 131078, 1572889, 7, 131078, 1572890, 7, 131078, 1572891, 7, 131078, 1572892, 7, 131078, 1572893, 7, 131078, 1572894, 7, 131078, 1572895, 7, 131078, 1572896, 7, 131077, 1572899, 1, 6, 1572901, 1, 131076, 1572902, 1, 131072, 1572903, 1, 327685, 1572904, 1, 3, 1572905, 1, 5, 1638421, 7, 131076, 1638422, 7, 131078, 1638423, 7, 131078, 1638424, 7, 131078, 1638425, 7, 131078, 1638426, 7, 131078, 1638427, 7, 131078, 1638428, 7, 131078, 1638429, 7, 131078, 1638430, 7, 131078, 1638431, 7, 131078, 1638432, 7, 196608, 1638433, 7, 8, 1638436, 1, 65542, 1638437, 1, 327680, 1638438, 1, 65544, 1638440, 1, 65538, 1638442, 1, 65542, 1638443, 1, 5, 1703957, 7, 131076, 1703958, 7, 131078, 1703959, 7, 131078, 1703960, 7, 131078, 1703961, 7, 131078, 1703962, 7, 131078, 1703963, 7, 131078, 1703964, 7, 131078, 1703965, 7, 131078, 1703966, 7, 131078, 1703967, 7, 131078, 1703968, 7, 131078, 1703969, 7, 131077, 1703973, 1, 6, 1703975, 1, 7, 1703976, 1, 262145, 1703977, 1, 5, 1703994, 1, 7, 1703995, 1, 8, 1769493, 7, 131076, 1769494, 7, 131078, 1769495, 7, 131078, 1769496, 7, 131078, 1769497, 7, 131078, 1769498, 7, 131078, 1769499, 7, 131078, 1769500, 7, 131078, 1769501, 7, 131078, 1769502, 7, 131078, 1769503, 7, 131078, 1769504, 7, 131078, 1769505, 7, 196608, 1769506, 7, 8, 1769511, 1, 131076, 1769512, 1, 131077, 1769530, 1, 65543, 1769531, 1, 327681, 1769532, 1, 5, 1835029, 7, 131076, 1835030, 7, 131078, 1835031, 7, 131078, 1835032, 7, 131078, 1835033, 7, 131078, 1835034, 7, 131078, 1835035, 7, 131078, 1835036, 7, 131078, 1835037, 7, 131078, 1835038, 7, 131078, 1835039, 7, 131078, 1835040, 7, 131078, 1835041, 7, 131078, 1835042, 7, 131077, 1835046, 1, 65542, 1835047, 1, 327680, 1835048, 1, 65544, 1835065, 1, 196614, 1835067, 1, 6, 1900564, 7, 7, 1900565, 7, 196609, 1900566, 7, 131078, 1900567, 7, 131078, 1900568, 7, 131078, 1900569, 7, 131078, 1900570, 7, 131078, 1900571, 7, 131078, 1900572, 7, 131078, 1900573, 7, 131078, 1900574, 7, 131078, 1900575, 7, 131078, 1900576, 7, 131078, 1900577, 7, 131078, 1900578, 7, 196608, 1900579, 7, 8, 1900583, 1, 6, 1900593, 1, 7, 1900594, 1, 8, 1966099, 7, 7, 1966100, 7, 196609, 1966101, 7, 131078, 1966102, 7, 131078, 1966103, 7, 131078, 1966104, 7, 131078, 1966105, 7, 131078, 1966106, 7, 131078, 1966107, 7, 131078, 1966108, 7, 131078, 1966109, 7, 131078, 1966110, 7, 131078, 1966111, 7, 131078, 1966112, 7, 131078, 1966113, 7, 131078, 1966114, 7, 131078, 1966115, 7, 131077, 1966123, 1, 196614, 1966126, 1, 7, 1966127, 1, 196612, 1966128, 1, 262149, 1966129, 1, 327684, 1966130, 1, 327683, 2031635, 7, 131076, 2031636, 7, 131078, 2031637, 7, 131078, 2031638, 7, 131078, 2031639, 7, 131078, 2031640, 7, 131078, 2031641, 7, 131078, 2031642, 7, 131078, 2031643, 7, 131078, 2031644, 7, 131078, 2031645, 7, 131078, 2031646, 7, 131078, 2031647, 7, 131078, 2031648, 7, 131078, 2031649, 7, 131078, 2031650, 7, 131078, 2031651, 7, 131077, 2031661, 1, 65542, 2031662, 1, 327684, 2031663, 1, 196613, 2031664, 1, 65544, 2031666, 1, 6, 2097168, 7, 7, 2097169, 7, 196612, 2097170, 7, 196612, 2097171, 7, 196609, 2097172, 7, 131078, 2097173, 7, 131078, 2097174, 7, 131078, 2097175, 7, 131078, 2097176, 7, 131078, 2097177, 7, 131078, 2097178, 7, 131078, 2097179, 7, 131078, 2097180, 7, 131078, 2097181, 7, 131078, 2097182, 7, 131078, 2097183, 7, 131078, 2097184, 7, 131078, 2097185, 7, 131078, 2097186, 7, 131078, 2097187, 7, 131077, 2097201, 1, 196614, 2162703, 7, 65542, 2162704, 7, 327684, 2162705, 7, 196613, 2162706, 7, 196613, 2162707, 7, 196613, 2162708, 7, 196613, 2162709, 7, 196613, 2162710, 7, 196613, 2162711, 7, 196613, 2162712, 7, 196613, 2162713, 7, 196613, 2162714, 7, 196613, 2162715, 7, 196613, 2162716, 7, 196613, 2162717, 7, 196613, 2162718, 7, 196613, 2162719, 7, 196613, 2162720, 7, 196613, 2162721, 7, 196613, 2162722, 7, 196613, 2162723, 7, 65544 )

[node name="FloorOverlay2" type="TileMap" parent="."]
tile_set = ExtResource( 2 )
format = 1
tile_data = PoolIntArray( -65486, 1, 65542, -65485, 1, 1, -65477, 1, 7, -65476, 1, 196612, -65475, 1, 8, 51, 1, 65536, 52, 1, 2, 53, 1, 262148, 54, 1, 196612, 55, 1, 8, 58, 1, 7, 59, 1, 196609, 60, 1, 131072, 61, 1, 327685, 62, 1, 262148, 63, 1, 262149, 64, 1, 5, 65545, 536870916, 0, 65546, 536870916, 0, 65585, 536870916, 0, 65589, 1, 65543, 65590, 1, 131074, 65591, 1, 65544, 65594, 1, 65543, 65595, 1, 131073, 65596, 1, 131077, 65598, 1, 65543, 65599, 1, 65544, 131081, 536870916, 0, 131082, 536870916, 0, 131083, 536870916, 0, 131121, 536870916, 0, 131122, 536870916, 0, 131124, 1, 65541, 131126, 1, 65538, 131128, 1, 65541, 131131, 1, 131076, 131132, 1, 131077, 131136, 1, 7, 131137, 1, 8, 196617, 536870916, 0, 196618, 536870916, 0, 196619, 536870916, 0, 196626, 536870916, 0, 196656, 536870916, 0, 196657, 536870916, 0, 196658, 536870916, 0, 196659, 1, 7, 196660, 1, 131075, 196661, 1, 196612, 196662, 1, 131075, 196663, 1, 262149, 196664, 1, 65537, 196666, 1, 7, 196667, 1, 196609, 196668, 1, 196610, 196669, 1, 2, 196670, 1, 262148, 196671, 1, 262149, 196672, 1, 327684, 196673, 1, 65544, 262147, 536870916, 0, 262148, 536870916, 0, 262154, 536870916, 0, 262155, 536870916, 0, 262161, 536870916, 0, 262162, 536870916, 0, 262182, 536870916, 0, 262190, 536870916, 0, 262191, 536870916, 0, 262192, 536870916, 0, 262193, 536870916, 0, 262195, 1, 65543, 262196, 1, 196613, 262197, 1, 131073, 262198, 1, 131072, 262199, 1, 65544, 262201, 1, 65542, 262202, 1, 196611, 262203, 1, 131078, 262204, 1, 131077, 262206, 1, 327682, 262207, 1, 65544, 327684, 536870916, 0, 327685, 536870916, 0, 327690, 536870916, 0, 327691, 536870916, 0, 327692, 536870916, 0, 327693, 536870916, 0, 327694, 536870916, 0, 327696, 536870916, 0, 327697, 536870916, 0, 327702, 536870916, 0, 327703, 536870916, 0, 327704, 536870916, 0, 327716, 536870916, 0, 327717, 536870916, 0, 327718, 536870916, 0, 327719, 536870916, 0, 327724, 536870916, 0, 327725, 536870916, 0, 327726, 536870916, 0, 327728, 536870916, 0, 327733, 1, 131076, 327734, 1, 131077, 327736, 1, 196614, 327738, 1, 65543, 327739, 1, 196613, 327740, 1, 327685, 327741, 1, 262148, 327742, 1, 262147, 393220, 536870916, 0, 393221, 536870916, 0, 393222, 536870916, 0, 393225, 536870916, 0, 393226, 536870916, 0, 393227, 536870916, 0, 393228, 536870916, 0, 393229, 536870916, 0, 393230, 536870916, 0, 393231, 536870916, 0, 393232, 536870916, 0, 393238, 536870916, 0, 393239, 536870916, 0, 393240, 536870916, 0, 393255, 536870916, 0, 393256, 536870916, 0, 393257, 536870916, 0, 393258, 536870916, 0, 393259, 536870916, 0, 393260, 536870916, 0, 393261, 536870916, 0, 393262, 536870916, 0, 393269, 1, 65543, 393270, 1, 327681, 393271, 1, 5, 393277, 1, 131076, 393278, 1, 131077, 458757, 536870916, 0, 458758, 536870916, 0, 458759, 536870916, 0, 458760, 536870916, 0, 458761, 536870916, 0, 458762, 536870916, 0, 458763, 536870916, 0, 458764, 536870916, 0, 458765, 536870916, 0, 458766, 536870916, 0, 458767, 536870916, 0, 458768, 536870916, 0, 458773, 536870916, 0, 458774, 536870916, 0, 458775, 536870916, 0, 458776, 536870916, 0, 458777, 536870916, 0, 458793, 536870916, 0, 458794, 536870916, 0, 458795, 536870916, 0, 458796, 536870916, 0, 458797, 536870916, 0, 458798, 536870916, 0, 458806, 1, 6, 458812, 1, 7, 458813, 1, 327686, 458814, 1, 65544, 458816, 1, 0, 458817, 1, 5, 524294, 536870916, 0, 524295, 536870916, 0, 524296, 536870916, 0, 524297, 536870916, 0, 524298, 536870917, 0, 524299, 536870917, 0, 524300, 536870917, 0, 524301, 536870917, 0, 524302, 536870917, 0, 524303, 536870916, 0, 524304, 536870916, 0, 524305, 536870916, 0, 524306, 536870916, 0, 524307, 536870916, 0, 524308, 536870916, 0, 524309, 536870916, 0, 524310, 536870916, 0, 524311, 536870916, 0, 524312, 536870916, 0, 524313, 536870916, 0, 524314, 536870916, 0, 524315, 536870916, 0, 524316, 536870916, 0, 524317, 536870916, 0, 524318, 536870916, 0, 524319, 536870916, 0, 524320, 536870916, 0, 524321, 536870916, 0, 524322, 536870916, 0, 524323, 536870916, 0, 524324, 536870916, 0, 524325, 536870916, 0, 524326, 536870916, 0, 524327, 536870916, 0, 524328, 536870916, 0, 524329, 536870916, 0, 524330, 536870916, 0, 524331, 536870916, 0, 524332, 536870916, 0, 524342, 536870916, 0, 524343, 536870916, 0, 524348, 1, 65543, 524349, 1, 65544, 524352, 1, 6, 589830, 536870916, 0, 589831, 536870916, 0, 589832, 536870916, 0, 589833, 536870916, 0, 589834, 536870917, 0, 589835, 1, 7, 589836, 1, 196612, 589837, 1, 8, 589838, 536870917, 0, 589839, 536870916, 0, 589840, 536870916, 0, 589841, 536870916, 0, 589842, 536870916, 0, 589843, 536870916, 0, 589844, 536870916, 0, 589845, 536870916, 0, 589846, 536870916, 0, 589847, 536870916, 0, 589848, 536870916, 0, 589849, 536870916, 0, 589850, 536870916, 0, 589851, 536870916, 0, 589852, 536870916, 0, 589853, 536870916, 0, 589854, 536870916, 0, 589855, 536870916, 0, 589856, 536870916, 0, 589857, 536870916, 0, 589858, 536870916, 0, 589859, 536870916, 0, 589861, 536870916, 0, 589862, 536870916, 0, 589863, 536870916, 0, 589864, 536870916, 0, 589865, 536870916, 0, 589866, 536870916, 0, 589867, 536870916, 0, 589878, 536870916, 0, 589879, 536870916, 0, 589880, 536870916, 0, 655366, 536870916, 0, 655367, 536870916, 0, 655368, 536870916, 0, 655369, 536870916, 0, 655370, 536870917, 0, 655371, 1, 131076, 655372, 1, 131078, 655373, 1, 131077, 655374, 536870917, 0, 655375, 536870916, 0, 655376, 536870916, 0, 655377, 536870916, 0, 655378, 536870916, 0, 655379, 536870916, 0, 655380, 536870916, 0, 655382, 536870916, 0, 655383, 536870916, 0, 655384, 536870916, 0, 655385, 536870916, 0, 655386, 536870916, 0, 655387, 536870916, 0, 655388, 536870916, 0, 655389, 536870916, 0, 655390, 536870916, 0, 655391, 536870916, 0, 655392, 536870916, 0, 655393, 536870916, 0, 655394, 536870916, 0, 655395, 536870916, 0, 655396, 536870916, 0, 655397, 536870916, 0, 655398, 536870916, 0, 655399, 536870916, 0, 655400, 536870916, 0, 655401, 536870916, 0, 655402, 536870916, 0, 655403, 536870916, 0, 655415, 536870916, 0, 655416, 536870916, 0, 655417, 536870916, 0, 720902, 536870916, 0, 720903, 536870916, 0, 720904, 536870916, 0, 720905, 536870916, 0, 720906, 536870917, 0, 720907, 1, 65543, 720908, 1, 196613, 720909, 1, 65544, 720910, 536870917, 0, 720911, 536870916, 0, 720912, 536870916, 0, 720913, 536870916, 0, 720914, 536870916, 0, 720919, 536870916, 0, 720920, 536870916, 0, 720921, 536870916, 0, 720922, 536870917, 0, 720923, 536870917, 0, 720924, 536870917, 0, 720925, 536870917, 0, 720926, 536870917, 0, 720927, 536870917, 0, 720928, 536870917, 0, 720929, 536870917, 0, 720936, 536870916, 0, 720937, 536870916, 0, 720938, 536870916, 0, 720939, 536870916, 0, 720940, 536870916, 0, 720950, 536870916, 0, 720951, 536870916, 0, 720952, 536870916, 0, 786432, 536870916, 0, 786433, 536870916, 0, 786436, 536870916, 0, 786437, 536870916, 0, 786438, 536870916, 0, 786439, 536870916, 0, 786440, 536870916, 0, 786441, 536870916, 0, 786442, 536870917, 0, 786443, 536870917, 0, 786444, 536870917, 0, 786445, 536870917, 0, 786446, 536870917, 0, 786447, 536870916, 0, 786448, 536870916, 0, 786449, 536870916, 0, 786455, 536870916, 0, 786456, 536870916, 0, 786457, 536870916, 0, 786472, 536870916, 0, 786473, 536870916, 0, 786474, 536870916, 0, 786475, 536870916, 0, 786476, 536870916, 0, 786477, 536870916, 0, 786478, 536870916, 0, 786479, 536870916, 0, 786482, 536870916, 0, 786483, 536870916, 0, 786484, 536870916, 0, 786485, 536870916, 0, 786486, 536870916, 0, 786487, 536870916, 0, 851968, 536870916, 0, 851969, 536870916, 0, 851970, 536870916, 0, 851971, 536870916, 0, 851972, 536870916, 0, 851973, 536870916, 0, 851974, 536870916, 0, 851976, 536870916, 0, 851977, 536870916, 0, 851978, 536870916, 0, 851979, 536870916, 0, 851980, 536870916, 0, 851981, 536870916, 0, 851982, 536870916, 0, 851983, 536870916, 0, 851984, 536870916, 0, 851985, 536870916, 0, 851992, 536870916, 0, 851993, 536870916, 0, 852007, 536870916, 0, 852008, 536870916, 0, 852009, 536870916, 0, 852010, 536870916, 0, 852011, 536870916, 0, 852012, 536870916, 0, 852013, 536870916, 0, 852014, 536870916, 0, 852015, 536870916, 0, 852016, 536870916, 0, 852017, 536870916, 0, 852018, 536870916, 0, 852019, 536870916, 0, 852020, 536870916, 0, 852021, 536870916, 0, 852022, 536870916, 0, 917505, 536870916, 0, 917506, 536870916, 0, 917507, 536870916, 0, 917508, 536870916, 0, 917509, 536870916, 0, 917513, 536870916, 0, 917514, 536870916, 0, 917515, 536870916, 0, 917516, 536870916, 0, 917517, 536870916, 0, 917518, 536870916, 0, 917529, 536870916, 0, 917542, 536870916, 0, 917543, 536870916, 0, 917546, 536870916, 0, 917547, 536870916, 0, 917548, 536870916, 0, 917549, 536870916, 0, 917550, 536870916, 0, 917551, 536870916, 0, 917552, 536870916, 0, 917553, 536870916, 0, 917554, 536870916, 0, 917555, 536870916, 0, 917556, 536870916, 0, 917557, 536870916, 0, 917558, 536870916, 0, 917559, 536870916, 0, 917560, 536870916, 0, 917561, 536870916, 0, 917565, 536870916, 0, 917566, 536870916, 0, 917567, 536870916, 0, 917568, 536870916, 0, 983049, 536870916, 0, 983050, 536870916, 0, 983051, 536870916, 0, 983052, 536870916, 0, 983053, 536870916, 0, 983084, 536870916, 0, 983085, 536870916, 0, 983086, 536870916, 0, 983087, 536870916, 0, 983088, 536870916, 0, 983089, 536870916, 0, 983090, 536870916, 0, 983093, 536870916, 0, 983094, 536870916, 0, 983095, 536870916, 0, 983096, 536870916, 0, 983097, 536870916, 0, 983098, 536870916, 0, 983099, 536870916, 0, 983100, 536870916, 0, 983101, 536870916, 0, 983102, 536870916, 0, 983103, 536870916, 0, 983104, 536870916, 0, 1048587, 536870916, 0, 1048588, 536870916, 0, 1048589, 536870916, 0, 1048620, 536870916, 0, 1048621, 536870916, 0, 1048622, 536870916, 0, 1048623, 536870916, 0, 1048624, 536870916, 0, 1048625, 536870916, 0, 1048629, 536870916, 0, 1048630, 536870916, 0, 1048631, 536870916, 0, 1048634, 536870916, 0, 1048635, 536870916, 0, 1048636, 536870916, 0, 1048637, 536870916, 0, 1048638, 536870916, 0, 1048639, 536870916, 0, 1048640, 536870916, 0, 1114124, 536870916, 0, 1114125, 536870916, 0, 1114155, 536870916, 0, 1114156, 536870916, 0, 1114157, 536870916, 0, 1114158, 536870916, 0, 1114160, 536870916, 0, 1114161, 536870916, 0, 1114162, 536870916, 0, 1114163, 536870916, 0, 1114164, 536870916, 0, 1114165, 536870916, 0, 1114166, 536870916, 0, 1114167, 536870916, 0, 1114171, 536870916, 0, 1179661, 536870916, 0, 1179662, 536870916, 0, 1179691, 536870916, 0, 1179692, 536870916, 0, 1179700, 536870916, 0, 1179702, 536870916, 0, 1179703, 536870916, 0, 1179707, 536870916, 0, 1245197, 536870916, 0, 1245198, 536870916, 0, 1245220, 1, 196614, 1245226, 536870916, 0, 1245227, 536870916, 0, 1245236, 536870916, 0, 1245237, 536870916, 0, 1245238, 536870916, 0, 1245239, 536870916, 0, 1245242, 536870916, 0, 1245243, 536870916, 0, 1310733, 536870916, 0, 1310734, 536870916, 0, 1310735, 536870916, 0, 1310757, 1, 7, 1310758, 1, 8, 1310773, 536870916, 0, 1310774, 536870916, 0, 1310775, 536870916, 0, 1310776, 536870916, 0, 1310777, 536870916, 0, 1310778, 536870916, 0, 1310779, 536870916, 0, 1376269, 536870916, 0, 1376270, 536870916, 0, 1376271, 536870916, 0, 1376292, 1, 7, 1376293, 1, 196609, 1376294, 1, 131077, 1376309, 536870916, 0, 1376312, 536870916, 0, 1376313, 536870916, 0, 1376314, 536870916, 0, 1376315, 536870916, 0, 1376316, 536870916, 0, 1441805, 536870916, 0, 1441806, 536870916, 0, 1441807, 536870916, 0, 1441808, 536870916, 0, 1441809, 536870916, 0, 1441810, 536870916, 0, 1441811, 536870916, 0, 1441826, 1, 65542, 1441827, 1, 262148, 1441828, 1, 196609, 1441829, 1, 131078, 1441830, 1, 196608, 1441831, 1, 8, 1441844, 536870916, 0, 1441845, 536870916, 0, 1441850, 536870916, 0, 1441851, 536870916, 0, 1441852, 536870916, 0, 1441853, 536870916, 0, 1507340, 536870916, 0, 1507341, 536870916, 0, 1507346, 536870916, 0, 1507347, 536870916, 0, 1507363, 1, 327682, 1507364, 1, 196613, 1507365, 1, 131073, 1507366, 1, 131078, 1507367, 1, 131077, 1507379, 536870916, 0, 1507380, 536870916, 0, 1507381, 536870916, 0, 1507386, 536870916, 0, 1507387, 536870916, 0, 1507388, 536870916, 0, 1507389, 536870916, 0, 1572875, 536870916, 0, 1572876, 536870916, 0, 1572877, 536870916, 0, 1572899, 1, 6, 1572901, 1, 131076, 1572902, 1, 131072, 1572903, 1, 327685, 1572904, 1, 3, 1572905, 1, 5, 1572914, 536870916, 0, 1572915, 536870916, 0, 1572916, 536870916, 0, 1638410, 536870916, 0, 1638411, 536870916, 0, 1638412, 536870916, 0, 1638436, 1, 65542, 1638437, 1, 327680, 1638438, 1, 65544, 1638440, 1, 65538, 1638442, 1, 65542, 1638443, 1, 5, 1703940, 536870916, 0, 1703941, 536870916, 0, 1703945, 536870916, 0, 1703946, 536870916, 0, 1703973, 1, 6, 1703975, 1, 7, 1703976, 1, 262145, 1703977, 1, 5, 1703994, 1, 7, 1703995, 1, 8, 1769476, 536870916, 0, 1769477, 536870916, 0, 1769478, 536870916, 0, 1769479, 536870916, 0, 1769480, 536870916, 0, 1769481, 536870916, 0, 1769482, 536870916, 0, 1769511, 1, 131076, 1769512, 1, 131077, 1769530, 1, 65543, 1769531, 1, 327681, 1769532, 1, 5, 1835014, 536870916, 0, 1835015, 536870916, 0, 1835016, 536870916, 0, 1835017, 536870916, 0, 1835046, 1, 65542, 1835047, 1, 327680, 1835048, 1, 65544, 1835065, 1, 196614, 1835067, 1, 6, 1900583, 1, 6, 1900593, 1, 7, 1900594, 1, 8, 1966123, 1, 196614, 1966126, 1, 7, 1966127, 1, 196612, 1966128, 1, 262149, 1966129, 1, 327684, 1966130, 1, 327683, 2031661, 1, 65542, 2031662, 1, 327684, 2031663, 1, 196613, 2031664, 1, 65544, 2031666, 1, 6, 2097201, 1, 196614 )

[node name="MainBelow" type="TileMap" parent="."]
tile_set = ExtResource( 1 )
format = 1
tile_data = PoolIntArray( 8, 28, 0, 9, 28, 0, 10, 28, 0, 11, 28, 0, 45, 536870941, 0, 46, 536870941, 0, 47, 536870941, 0, 48, 536870941, 0, 65581, 536870941, 0, 65582, 536870941, 0, 65583, 536870941, 0, 65584, 536870941, 0, 131113, 536870941, 0, 131114, 536870941, 0, 131115, 536870941, 0, 131116, 536870941, 0, 131117, 536870941, 0, 131118, 536870941, 0, 131119, 536870941, 0, 131120, 536870941, 0, 196609, 28, 0, 196610, 28, 0, 196611, 28, 0, 196612, 28, 0, 196625, 28, 0, 196626, 28, 0, 196627, 28, 0, 196628, 28, 0, 196642, 29, 0, 196643, 29, 0, 196644, 29, 0, 196645, 29, 0, 196649, 536870941, 0, 196650, 536870941, 0, 196651, 536870941, 0, 196652, 536870941, 0, 196653, 536870940, 0, 196654, 536870940, 0, 196655, 536870940, 0, 196656, 536870940, 0, 262178, 29, 0, 262179, 29, 0, 262180, 29, 0, 262181, 29, 0, 262185, 536870941, 0, 262186, 536870941, 0, 262187, 536870941, 0, 262188, 536870941, 0, 327700, 28, 0, 327701, 28, 0, 327702, 28, 0, 327703, 28, 0, 327714, 29, 0, 327715, 29, 0, 327716, 29, 0, 327717, 29, 0, 327721, 536870940, 0, 327722, 536870940, 0, 327723, 536870940, 0, 327724, 536870940, 0, 393250, 29, 0, 393251, 29, 0, 393252, 29, 0, 393253, 29, 0, 458786, 28, 0, 458787, 28, 0, 458788, 28, 0, 458789, 28, 0, 458799, 536870941, 0, 458800, 536870941, 0, 458801, 536870941, 0, 458802, 536870941, 0, 458803, 536870941, 0, 458804, 536870941, 0, 458805, 536870941, 0, 524335, 536870941, 0, 524336, 536870941, 0, 524337, 536870941, 0, 524338, 536870941, 0, 524339, 536870941, 0, 524340, 536870941, 0, 524341, 536870941, 0, 589871, 536870941, 0, 589872, 536870941, 0, 589873, 536870941, 0, 589874, 536870941, 0, 589875, 536870941, 0, 589876, 536870941, 0, 589877, 536870941, 0, 589881, 536870941, 0, 589882, 536870941, 0, 589883, 536870941, 0, 589884, 536870941, 0, 655372, 1073741883, 0, 655394, 29, 0, 655395, 29, 0, 655396, 29, 0, 655397, 29, 0, 655407, 536870940, 0, 655408, 536870940, 0, 655409, 536870940, 0, 655410, 536870940, 0, 655411, 536870940, 0, 655412, 536870940, 0, 655413, 536870940, 0, 655417, 536870941, 0, 655418, 536870941, 0, 655419, 536870941, 0, 655420, 536870941, 0, 720930, 29, 0, 720931, 29, 0, 720932, 29, 0, 720933, 29, 0, 720953, 536870941, 0, 720954, 536870941, 0, 720955, 536870941, 0, 720956, 536870941, 0, 786466, 29, 0, 786467, 29, 0, 786468, 29, 0, 786469, 29, 0, 786489, 536870940, 0, 786490, 536870940, 0, 786491, 536870940, 0, 786492, 536870940, 0, 852002, 29, 0, 852003, 29, 0, 852004, 29, 0, 852005, 29, 0, 917538, 29, 0, 917539, 29, 0, 917540, 29, 0, 917541, 29, 0, 983074, 28, 0, 983075, 28, 0, 983076, 28, 0, 983077, 28, 0, 1048591, 28, 0, 1048592, 28, 0, 1048593, 28, 0, 1048594, 28, 0, 1048595, 28, 0, 1048596, 28, 0, 1114151, 536870941, 0, 1114152, 536870941, 0, 1114153, 536870941, 0, 1114154, 536870941, 0, 1179653, 28, 0, 1179654, 28, 0, 1179655, 28, 0, 1179656, 28, 0, 1179657, 28, 0, 1179658, 28, 0, 1179687, 536870941, 0, 1179688, 536870941, 0, 1179689, 536870941, 0, 1179690, 536870941, 0, 1179696, 536870941, 0, 1179697, 536870941, 0, 1179698, 536870941, 0, 1179699, 536870941, 0, 1245223, 536870941, 0, 1245224, 536870941, 0, 1245225, 536870941, 0, 1245226, 536870941, 0, 1245232, 536870941, 0, 1245233, 536870941, 0, 1245234, 536870941, 0, 1245235, 536870941, 0, 1310759, 536870940, 0, 1310760, 536870940, 0, 1310761, 536870940, 0, 1310762, 536870940, 0, 1310768, 536870941, 0, 1310769, 536870941, 0, 1310770, 536870941, 0, 1310771, 536870941, 0, 1376273, 28, 0, 1376274, 28, 0, 1376275, 28, 0, 1376276, 28, 0, 1376277, 28, 0, 1376304, 536870940, 0, 1376305, 536870940, 0, 1376306, 536870940, 0, 1376307, 536870940, 0, 1441847, 536870941, 0, 1441848, 536870941, 0, 1507371, 536870941, 0, 1507372, 536870941, 0, 1507373, 536870941, 0, 1507374, 536870941, 0, 1507375, 536870941, 0, 1507376, 536870941, 0, 1507377, 536870941, 0, 1507378, 536870941, 0, 1507383, 536870941, 0, 1507384, 536870941, 0, 1507389, 536870941, 0, 1507390, 536870941, 0, 1572907, 536870941, 0, 1572908, 536870941, 0, 1572909, 536870941, 0, 1572910, 536870941, 0, 1572911, 536870941, 0, 1572912, 536870941, 0, 1572913, 536870941, 0, 1572914, 536870941, 0, 1572919, 536870940, 0, 1572920, 536870940, 0, 1572925, 536870941, 0, 1572926, 536870941, 0, 1638443, 536870941, 0, 1638444, 536870941, 0, 1638445, 536870941, 0, 1638446, 536870941, 0, 1638447, 536870941, 0, 1638448, 536870941, 0, 1638449, 536870941, 0, 1638450, 536870941, 0, 1638461, 536870940, 0, 1638462, 536870940, 0, 1703979, 536870940, 0, 1703980, 536870940, 0, 1703981, 536870940, 0, 1703982, 536870940, 0, 1703983, 536870940, 0, 1703984, 536870940, 0, 1703985, 536870940, 0, 1703986, 536870940, 0, 1835008, 28, 0, 1835009, 28, 0, 1835010, 28, 0, 1835011, 28, 0, 1900554, 28, 0, 1900555, 28, 0, 1900556, 28, 0, 1900557, 28, 0 )

[node name="MainBelowOverlay" type="TileMap" parent="."]
tile_set = ExtResource( 1 )
format = 1
tile_data = PoolIntArray( 1, 29, 0, 2, 29, 0, 3, 29, 0, 4, 29, 0, 17, 29, 0, 18, 29, 0, 19, 29, 0, 20, 29, 0, 65537, 29, 0, 65538, 29, 0, 65539, 29, 0, 65540, 29, 0, 65553, 29, 0, 65554, 29, 0, 65555, 29, 0, 65556, 29, 0, 131073, 29, 0, 131074, 536870938, 0, 131075, 536870938, 0, 131076, 29, 0, 131089, 29, 0, 131090, 536870938, 0, 131091, 29, 0, 131092, 29, 0, 131093, 29, 0, 131094, 29, 0, 131095, 29, 0, 196610, 536870938, 0, 196611, 536870938, 0, 196626, 536870938, 0, 196628, 29, 0, 196629, 29, 0, 196630, 29, 0, 196631, 29, 0, 262164, 29, 0, 262165, 29, 0, 262166, 29, 0, 262167, 29, 0, 262187, 536870938, 0, 327723, 536870938, 0, 851973, 29, 0, 851974, 29, 0, 851975, 29, 0, 851976, 29, 0, 851977, 29, 0, 851978, 29, 0, 851983, 29, 0, 851984, 29, 0, 851985, 29, 0, 851986, 29, 0, 851987, 29, 0, 851988, 29, 0, 917509, 29, 0, 917510, 29, 0, 917511, 29, 0, 917512, 29, 0, 917513, 29, 0, 917514, 29, 0, 917519, 29, 0, 917520, 29, 0, 917521, 29, 0, 917522, 29, 0, 917523, 29, 0, 917524, 29, 0, 983045, 29, 0, 983046, 29, 0, 983047, 29, 0, 983048, 29, 0, 983049, 29, 0, 983050, 29, 0, 983055, 29, 0, 983056, 29, 0, 983057, 29, 0, 983058, 29, 0, 983059, 29, 0, 983060, 29, 0, 1048581, 29, 0, 1048582, 29, 0, 1048583, 29, 0, 1048584, 29, 0, 1048585, 29, 0, 1048586, 29, 0, 1114117, 29, 0, 1114118, 29, 0, 1114119, 536870942, 0, 1114120, 536870942, 0, 1114121, 29, 0, 1114122, 29, 0, 1179655, 536870942, 0, 1179656, 536870942, 0, 1179665, 536870912, 0, 1179666, 29, 0, 1179667, 29, 0, 1179668, 29, 0, 1179669, 29, 0, 1245201, 29, 0, 1245202, 29, 0, 1245203, 29, 0, 1245204, 29, 0, 1245205, 29, 0, 1310737, 29, 0, 1310738, 29, 0, 1310739, 536870938, 0, 1310740, 29, 0, 1310741, 29, 0, 1376275, 536870938, 0, 1638400, 29, 0, 1638401, 29, 0, 1638402, 29, 0, 1638403, 29, 0, 1703936, 29, 0, 1703937, 29, 0, 1703938, 29, 0, 1703939, 29, 0, 1703946, 29, 0, 1703947, 29, 0, 1703948, 29, 0, 1703949, 29, 0, 1769472, 29, 0, 1769473, 29, 0, 1769474, 29, 0, 1769475, 29, 0, 1769482, 29, 0, 1769483, 29, 0, 1769484, 29, 0, 1769485, 29, 0, 1835018, 29, 0, 1835019, 29, 0, 1835020, 29, 0, 1835021, 29, 0 )

[node name="MainBelowOverlay2" type="TileMap" parent="."]
tile_set = ExtResource( 1 )
format = 1

[node name="Nodes" type="Node2D" parent="."]

[node name="player" parent="Nodes" instance=ExtResource( 3 )]
position = Vector2( 4096, 960 )
doorOut = "worldmap_full"
cameraLimit = Vector2( 65, 33 )

[node name="Main" type="TileMap" parent="."]
tile_set = ExtResource( 1 )
format = 1
tile_data = PoolIntArray( -65535, 536870912, 0, -65532, 0, 0, -65519, 536870912, 0, -65516, 0, 0, 35, 536870912, 0, 36, 0, 0, 65570, 536870912, 0, 65571, 536870912, 0, 65572, 0, 0, 65573, 0, 0, 131106, 536870912, 0, 131107, 536870912, 0, 131108, 0, 0, 131109, 0, 0, 196642, 536870912, 0, 196645, 0, 0, 458764, 1073741884, 0, 524300, 1073741884, 0, 524323, 536870912, 0, 524324, 0, 0, 589836, 1073741884, 0, 589858, 536870912, 0, 589859, 536870912, 0, 589860, 0, 0, 589861, 0, 0, 655394, 536870912, 0, 655395, 536870912, 0, 655396, 0, 0, 655397, 0, 0, 720901, 536870914, 0, 720903, 536870935, 0, 720904, 536870935, 0, 720905, 2, 0, 720911, 536870912, 0, 720912, 23, 0, 720913, 23, 0, 720914, 23, 0, 720915, 23, 0, 720916, 0, 0, 720930, 536870912, 0, 720933, 0, 0, 786437, 536870914, 0, 786439, 536870935, 0, 786440, 536870935, 0, 786441, 2, 0, 786447, 23, 0, 786448, 23, 0, 786449, 23, 0, 786450, 23, 0, 786451, 23, 0, 786452, 23, 0, 851973, 536870914, 0, 851975, 536870935, 0, 851976, 536870935, 0, 851977, 2, 0, 851983, 536870912, 0, 851984, 23, 0, 851985, 23, 0, 851986, 23, 0, 851987, 23, 0, 851988, 0, 0, 917509, 536870914, 0, 917511, 536870935, 0, 917512, 536870935, 0, 917513, 2, 0, 983047, 536870981, 0, 1048594, 23, 0, 1048595, 23, 0, 1048596, 23, 0, 1114129, 23, 0, 1114130, 23, 0, 1114131, 23, 0, 1114132, 23, 0, 1114133, 23, 0, 1179665, 23, 0, 1179666, 23, 0, 1179667, 23, 0, 1179668, 23, 0, 1179669, 23, 0, 1179703, 536870941, 0, 1179704, 536870941, 0, 1245239, 536870941, 0, 1245240, 536870941, 0, 1245245, 536870941, 0, 1245246, 536870941, 0, 1310775, 536870941, 0, 1310776, 536870941, 0, 1310781, 536870941, 0, 1310782, 536870941, 0, 1376311, 536870941, 0, 1376312, 536870941, 0, 1376317, 536870941, 0, 1376318, 536870941, 0, 1441853, 536870941, 0, 1441854, 536870941, 0, 1572874, 536870912, 0, 1572875, 23, 0, 1572876, 23, 0, 1572877, 0, 0, 1638410, 536870912, 0, 1638411, 23, 0, 1638412, 23, 0, 1638413, 0, 0 )

[node name="MainDetail" type="TileMap" parent="."]
tile_set = ExtResource( 1 )
format = 1
tile_data = PoolIntArray( -65491, 536870914, 0, -65489, 2, 0, 10, 536870938, 0, 20, 536870912, 0, 21, 23, 0, 22, 23, 0, 23, 0, 0, 41, 536870914, 0, 43, 2, 0, 65556, 536870912, 0, 65557, 23, 0, 65558, 23, 0, 65559, 0, 0, 65577, 536870914, 0, 65579, 2, 0, 65582, 536870955, 0, 65583, 536870955, 0, 196619, 72, 7, 196620, 72, 196612, 196621, 72, 8, 196629, 536870955, 0, 196630, 536870955, 0, 262154, 72, 7, 262155, 72, 196609, 262156, 72, 131078, 262157, 72, 131077, 262179, 536870955, 0, 262180, 536870955, 0, 327690, 72, 131076, 327691, 72, 131078, 327692, 72, 131078, 327693, 72, 196608, 327694, 72, 8, 327715, 536870955, 0, 327716, 536870955, 0, 327727, 536870912, 0, 327728, 536870935, 0, 327729, 536870935, 0, 327730, 536870935, 0, 327731, 536870935, 0, 327732, 536870935, 0, 327733, 0, 0, 393226, 72, 65543, 393227, 72, 131073, 393228, 72, 131078, 393229, 72, 131072, 393230, 72, 65544, 393263, 536870912, 0, 393264, 536870935, 0, 393265, 536870935, 0, 393266, 536870935, 0, 393267, 536870935, 0, 393268, 536870935, 0, 393269, 0, 0, 458763, 72, 65543, 458764, 72, 196613, 458765, 72, 65544, 458799, 536870912, 0, 458800, 536870935, 0, 458801, 536870935, 0, 458802, 536870935, 0, 458803, 536870935, 0, 458804, 536870935, 0, 458805, 0, 0, 458809, 536870914, 0, 458811, 2, 0, 524336, 536870955, 0, 524338, 536870955, 0, 524340, 536870955, 0, 524345, 536870914, 0, 524347, 2, 0, 655418, 536870955, 0, 655419, 536870955, 0, 786467, 536870955, 0, 786468, 536870955, 0, 851983, 23, 0, 851988, 23, 0, 852003, 536870955, 0, 852004, 536870955, 0, 917520, 536870955, 0, 917521, 536870955, 0, 917522, 536870955, 0, 917523, 536870955, 0, 983047, 536870994, 0, 983079, 536870914, 0, 983081, 2, 0, 983095, 536870913, 0, 983096, 1, 0, 1048593, 536870912, 0, 1048597, 0, 0, 1048615, 536870914, 0, 1048617, 2, 0, 1048624, 536870914, 0, 1048626, 2, 0, 1048631, 536870913, 0, 1048632, 1, 0, 1048637, 536870913, 0, 1048638, 1, 0, 1114160, 536870914, 0, 1114162, 2, 0, 1114167, 536870913, 0, 1114168, 1, 0, 1114173, 536870913, 0, 1114174, 1, 0, 1179665, 536870912, 0, 1179669, 0, 0, 1179688, 536870955, 0, 1179689, 536870955, 0, 1179709, 536870913, 0, 1179710, 1, 0, 1245233, 536870955, 0, 1245234, 536870955, 0, 1310775, 536870955, 0, 1310776, 536870955, 0, 1376299, 536870912, 0, 1376300, 536870935, 0, 1376301, 536870935, 0, 1376302, 536870935, 0, 1376303, 536870935, 0, 1376304, 536870935, 0, 1376305, 536870935, 0, 1376306, 0, 0, 1376311, 536870955, 0, 1376312, 536870955, 0, 1376317, 536870955, 0, 1376318, 536870955, 0, 1441835, 536870912, 0, 1441836, 536870935, 0, 1441837, 536870935, 0, 1441838, 536870935, 0, 1441839, 536870935, 0, 1441840, 536870935, 0, 1441841, 536870935, 0, 1441842, 0, 0, 1441853, 536870955, 0, 1441854, 536870955, 0, 1507328, 536870912, 0, 1507329, 23, 0, 1507330, 23, 0, 1507331, 0, 0, 1507371, 536870912, 0, 1507372, 536870935, 0, 1507373, 536870935, 0, 1507374, 536870935, 0, 1507375, 536870935, 0, 1507376, 536870935, 0, 1507377, 536870935, 0, 1507378, 0, 0, 1572864, 536870912, 0, 1572865, 23, 0, 1572866, 23, 0, 1572867, 0, 0, 1572908, 536870955, 0, 1572910, 536870955, 0, 1572911, 536870955, 0, 1572913, 536870955, 0, 1703937, 536870955, 0, 1703938, 536870955, 0, 1769483, 536870955, 0, 1769484, 536870955, 0 )

[node name="MainOverlay" type="TileMap" parent="."]
tile_set = ExtResource( 1 )
format = 1

[node name="collision" type="TileMap" parent="."]
visible = false
tile_set = ExtResource( 9 )
format = 1
tile_data = PoolIntArray( -65513, 536870912, 0, -65512, 536870912, 0, -65503, 536870912, 0, 1, 536870912, 0, 2, 536870912, 0, 3, 536870912, 0, 4, 536870912, 0, 8, 536870912, 0, 9, 536870912, 0, 10, 536870912, 0, 11, 536870912, 0, 17, 536870912, 0, 18, 536870912, 0, 19, 536870912, 0, 20, 536870912, 0, 24, 536870912, 0, 33, 536870912, 0, 45, 536870912, 0, 46, 536870912, 0, 47, 536870912, 0, 48, 536870912, 0, 65537, 536870912, 0, 65538, 536870912, 0, 65539, 536870912, 0, 65540, 536870912, 0, 65553, 536870912, 0, 65554, 536870912, 0, 65555, 536870912, 0, 65556, 536870912, 0, 65560, 536870912, 0, 65569, 536870912, 0, 65570, 536870912, 0, 65581, 536870912, 0, 65582, 536870912, 0, 65583, 536870912, 0, 65584, 536870912, 0, 131073, 536870912, 0, 131074, 536870912, 0, 131075, 536870912, 0, 131076, 536870912, 0, 131089, 536870912, 0, 131091, 536870912, 0, 131092, 536870912, 0, 131093, 536870912, 0, 131094, 536870912, 0, 131095, 536870912, 0, 131096, 536870912, 0, 131106, 536870912, 0, 131113, 536870912, 0, 131114, 536870912, 0, 131115, 536870912, 0, 131116, 536870912, 0, 131117, 536870912, 0, 131118, 536870912, 0, 131119, 536870912, 0, 131120, 536870912, 0, 196609, 536870912, 0, 196610, 536870912, 0, 196611, 536870912, 0, 196612, 536870912, 0, 196625, 536870912, 0, 196626, 536870912, 0, 196627, 536870912, 0, 196628, 536870912, 0, 196629, 536870912, 0, 196630, 536870912, 0, 196631, 536870912, 0, 196632, 536870912, 0, 196642, 536870912, 0, 196643, 536870912, 0, 196644, 536870912, 0, 196645, 536870912, 0, 196649, 536870912, 0, 196650, 536870912, 0, 196651, 536870912, 0, 196652, 536870912, 0, 196653, 536870912, 0, 196654, 536870912, 0, 196655, 536870912, 0, 196656, 536870912, 0, 262164, 536870912, 0, 262165, 536870912, 0, 262166, 536870912, 0, 262167, 536870912, 0, 262168, 536870912, 0, 262169, 536870912, 0, 262178, 536870912, 0, 262179, 536870912, 0, 262180, 536870912, 0, 262181, 536870912, 0, 262185, 536870912, 0, 262186, 536870912, 0, 262187, 536870912, 0, 262188, 536870912, 0, 327700, 536870912, 0, 327701, 536870912, 0, 327702, 536870912, 0, 327703, 536870912, 0, 327705, 536870912, 0, 327714, 536870912, 0, 327715, 536870912, 0, 327716, 536870912, 0, 327717, 536870912, 0, 327721, 536870912, 0, 327722, 536870912, 0, 327723, 536870912, 0, 327724, 536870912, 0, 393241, 536870912, 0, 393242, 536870912, 0, 393250, 536870912, 0, 393251, 536870912, 0, 393252, 536870912, 0, 393253, 536870912, 0, 458778, 536870912, 0, 458779, 536870912, 0, 458780, 536870912, 0, 458781, 536870912, 0, 458782, 536870912, 0, 458783, 536870912, 0, 458784, 536870912, 0, 458785, 536870912, 0, 458786, 536870912, 0, 458787, 536870912, 0, 458788, 536870912, 0, 458789, 536870912, 0, 458799, 536870912, 0, 458800, 536870912, 0, 458801, 536870912, 0, 458802, 536870912, 0, 458803, 536870912, 0, 458804, 536870912, 0, 458805, 536870912, 0, 524335, 536870912, 0, 524336, 536870912, 0, 524337, 536870912, 0, 524338, 536870912, 0, 524339, 536870912, 0, 524340, 536870912, 0, 524341, 536870912, 0, 589871, 536870912, 0, 589872, 536870912, 0, 589873, 536870912, 0, 589874, 536870912, 0, 589875, 536870912, 0, 589876, 536870912, 0, 589877, 536870912, 0, 589881, 536870912, 0, 589882, 536870912, 0, 589883, 536870912, 0, 589884, 536870912, 0, 655372, 536870912, 0, 655407, 536870912, 0, 655408, 536870912, 0, 655409, 536870912, 0, 655410, 536870912, 0, 655411, 536870912, 0, 655412, 536870912, 0, 655413, 536870912, 0, 655417, 536870912, 0, 655418, 536870912, 0, 655419, 536870912, 0, 655420, 536870912, 0, 720922, 536870912, 0, 720923, 536870912, 0, 720924, 536870912, 0, 720925, 536870912, 0, 720926, 536870912, 0, 720927, 536870912, 0, 720928, 536870912, 0, 720929, 536870912, 0, 720930, 536870912, 0, 720931, 536870912, 0, 720932, 536870912, 0, 720933, 536870912, 0, 720953, 536870912, 0, 720954, 536870912, 0, 720955, 536870912, 0, 720956, 536870912, 0, 786458, 536870912, 0, 786459, 536870912, 0, 786460, 536870912, 0, 786461, 536870912, 0, 786462, 536870912, 0, 786463, 536870912, 0, 786464, 536870912, 0, 786465, 536870912, 0, 786466, 536870912, 0, 786467, 536870912, 0, 786468, 536870912, 0, 786469, 536870912, 0, 786489, 536870912, 0, 786490, 536870912, 0, 786491, 536870912, 0, 786492, 536870912, 0, 851973, 536870912, 0, 851974, 536870912, 0, 851975, 536870912, 0, 851976, 536870912, 0, 851977, 536870912, 0, 851978, 536870912, 0, 851983, 536870912, 0, 851984, 536870912, 0, 851985, 536870912, 0, 851986, 536870912, 0, 851987, 536870912, 0, 851988, 536870912, 0, 851994, 536870912, 0, 852001, 536870912, 0, 852002, 536870912, 0, 852003, 536870912, 0, 852004, 536870912, 0, 852005, 536870912, 0, 917509, 536870912, 0, 917510, 536870912, 0, 917511, 536870912, 0, 917512, 536870912, 0, 917513, 536870912, 0, 917514, 536870912, 0, 917519, 536870912, 0, 917520, 536870912, 0, 917521, 536870912, 0, 917522, 536870912, 0, 917523, 536870912, 0, 917524, 536870912, 0, 917530, 536870912, 0, 917537, 536870912, 0, 917538, 536870912, 0, 917539, 536870912, 0, 917540, 536870912, 0, 917541, 536870912, 0, 983045, 536870912, 0, 983046, 536870912, 0, 983047, 536870912, 0, 983048, 536870912, 0, 983049, 536870912, 0, 983050, 536870912, 0, 983055, 536870912, 0, 983056, 536870912, 0, 983057, 536870912, 0, 983058, 536870912, 0, 983059, 536870912, 0, 983060, 536870912, 0, 983066, 536870912, 0, 983073, 536870912, 0, 983074, 536870912, 0, 983075, 536870912, 0, 983076, 536870912, 0, 983077, 536870912, 0, 1048581, 536870912, 0, 1048582, 536870912, 0, 1048583, 536870912, 0, 1048584, 536870912, 0, 1048585, 536870912, 0, 1048586, 536870912, 0, 1048591, 536870912, 0, 1048592, 536870912, 0, 1048593, 536870912, 0, 1048594, 536870912, 0, 1048595, 536870912, 0, 1048596, 536870912, 0, 1048601, 536870912, 0, 1048602, 536870912, 0, 1048609, 536870912, 0, 1114117, 536870912, 0, 1114118, 536870912, 0, 1114119, 536870912, 0, 1114120, 536870912, 0, 1114121, 536870912, 0, 1114122, 536870912, 0, 1114137, 536870912, 0, 1114145, 536870912, 0, 1114151, 536870912, 0, 1114152, 536870912, 0, 1114153, 536870912, 0, 1114154, 536870912, 0, 1179653, 536870912, 0, 1179654, 536870912, 0, 1179655, 536870912, 0, 1179656, 536870912, 0, 1179657, 536870912, 0, 1179658, 536870912, 0, 1179665, 536870912, 0, 1179666, 536870912, 0, 1179667, 536870912, 0, 1179668, 536870912, 0, 1179669, 536870912, 0, 1179673, 536870912, 0, 1179681, 536870912, 0, 1179687, 536870912, 0, 1179688, 536870912, 0, 1179689, 536870912, 0, 1179690, 536870912, 0, 1179696, 536870912, 0, 1179697, 536870912, 0, 1179698, 536870912, 0, 1179699, 536870912, 0, 1245201, 536870912, 0, 1245202, 536870912, 0, 1245203, 536870912, 0, 1245204, 536870912, 0, 1245205, 536870912, 0, 1245208, 536870912, 0, 1245209, 536870912, 0, 1245217, 536870912, 0, 1245223, 536870912, 0, 1245224, 536870912, 0, 1245225, 536870912, 0, 1245226, 536870912, 0, 1245232, 536870912, 0, 1245233, 536870912, 0, 1245234, 536870912, 0, 1245235, 536870912, 0, 1310737, 536870912, 0, 1310738, 536870912, 0, 1310739, 536870912, 0, 1310740, 536870912, 0, 1310741, 536870912, 0, 1310743, 536870912, 0, 1310744, 536870912, 0, 1310752, 536870912, 0, 1310753, 536870912, 0, 1310759, 536870912, 0, 1310760, 536870912, 0, 1310761, 536870912, 0, 1310762, 536870912, 0, 1310768, 536870912, 0, 1310769, 536870912, 0, 1310770, 536870912, 0, 1310771, 536870912, 0, 1376273, 536870912, 0, 1376274, 536870912, 0, 1376275, 536870912, 0, 1376276, 536870912, 0, 1376277, 536870912, 0, 1376279, 536870912, 0, 1376280, 536870912, 0, 1376288, 536870912, 0, 1376304, 536870912, 0, 1376305, 536870912, 0, 1376306, 536870912, 0, 1376307, 536870912, 0, 1441814, 536870912, 0, 1441815, 536870912, 0, 1441824, 536870912, 0, 1441847, 536870912, 0, 1441848, 536870912, 0, 1507349, 536870912, 0, 1507350, 536870912, 0, 1507360, 536870912, 0, 1507371, 536870912, 0, 1507372, 536870912, 0, 1507373, 536870912, 0, 1507374, 536870912, 0, 1507375, 536870912, 0, 1507376, 536870912, 0, 1507377, 536870912, 0, 1507378, 536870912, 0, 1507383, 536870912, 0, 1507384, 536870912, 0, 1507389, 536870912, 0, 1507390, 536870912, 0, 1572885, 536870912, 0, 1572886, 536870912, 0, 1572896, 536870912, 0, 1572907, 536870912, 0, 1572908, 536870912, 0, 1572909, 536870912, 0, 1572910, 536870912, 0, 1572911, 536870912, 0, 1572912, 536870912, 0, 1572913, 536870912, 0, 1572914, 536870912, 0, 1572919, 536870912, 0, 1572920, 536870912, 0, 1572925, 536870912, 0, 1572926, 536870912, 0, 1638400, 536870912, 0, 1638401, 536870912, 0, 1638402, 536870912, 0, 1638403, 536870912, 0, 1638421, 536870912, 0, 1638432, 536870912, 0, 1638433, 536870912, 0, 1638443, 536870912, 0, 1638444, 536870912, 0, 1638445, 536870912, 0, 1638446, 536870912, 0, 1638447, 536870912, 0, 1638448, 536870912, 0, 1638449, 536870912, 0, 1638450, 536870912, 0, 1638461, 536870912, 0, 1638462, 536870912, 0, 1703936, 536870912, 0, 1703937, 536870912, 0, 1703938, 536870912, 0, 1703939, 536870912, 0, 1703946, 536870912, 0, 1703947, 536870912, 0, 1703948, 536870912, 0, 1703949, 536870912, 0, 1703957, 536870912, 0, 1703968, 536870912, 0, 1703969, 536870912, 0, 1703979, 536870912, 0, 1703980, 536870912, 0, 1703981, 536870912, 0, 1703982, 536870912, 0, 1703983, 536870912, 0, 1703984, 536870912, 0, 1703985, 536870912, 0, 1703986, 536870912, 0, 1769472, 536870912, 0, 1769473, 536870912, 0, 1769474, 536870912, 0, 1769475, 536870912, 0, 1769482, 536870912, 0, 1769483, 536870912, 0, 1769484, 536870912, 0, 1769485, 536870912, 0, 1769493, 536870912, 0, 1769504, 536870912, 0, 1769505, 536870912, 0, 1769506, 536870912, 0, 1835008, 536870912, 0, 1835009, 536870912, 0, 1835010, 536870912, 0, 1835011, 536870912, 0, 1835018, 536870912, 0, 1835019, 536870912, 0, 1835020, 536870912, 0, 1835021, 536870912, 0, 1835029, 536870912, 0, 1835042, 536870912, 0, 1900554, 536870912, 0, 1900555, 536870912, 0, 1900556, 536870912, 0, 1900557, 536870912, 0, 1900564, 536870912, 0, 1900565, 536870912, 0, 1900578, 536870912, 0, 1900579, 536870912, 0, 1966099, 536870912, 0, 1966100, 536870912, 0, 1966101, 536870912, 0, 1966115, 536870912, 0, 2031635, 536870912, 0, 2031636, 536870912, 0, 2031651, 536870912, 0, 2097168, 536870912, 0, 2097169, 536870912, 0, 2097170, 536870912, 0, 2097171, 536870912, 0, 2097186, 536870912, 0, 2097187, 536870912, 0, 2162703, 536870912, 0, 2162704, 536870912, 0, 2162705, 536870912, 0, 2162723, 536870912, 0 )
