[gd_resource type="Shader" format=2]

[resource]
code = "shader_type spatial;

uniform float v7 = 0.0;
uniform float v9 = 0.0;
uniform float v1 = 0.0;
uniform float v3 = 0.0;
uniform sampler2D dirt;

void vertex(){
	if(VERTEX.x<1.0 && VERTEX.z<1.0){
		VERTEX.y = v7;
	}
	if(VERTEX.x>1.0 && VERTEX.z>1.0){
		VERTEX.y = v3;
	}
	if(VERTEX.x<1.0 && VERTEX.z>1.0){
		VERTEX.y = v1;
	}
	if(VERTEX.x>1.0 && VERTEX.z<1.0){
		VERTEX.y = v9;
	}
}

void fragment(){ 
	vec3 dirttex = texture(dirt, UV).rgb; 
	ALBEDO = dirttex; 
}"
