[gd_scene load_steps=7 format=2]

[ext_resource path="res://battle/effects/resources/crystal.png" type="Texture" id=1]
[ext_resource path="res://effects/movingeffect.gd" type="Script" id=2]





[sub_resource type="CanvasItemMaterial" id=1]
particles_animation = true
particles_anim_h_frames = 1
particles_anim_v_frames = 1
particles_anim_loop = false

[sub_resource type="Curve2D" id=2]
bake_interval = 20.0
_data = {
"points": PoolVector2Array( 0, 0, 0, 0, 3.35461, -2.46033, 0, 0, 0, 0, 1023.34, -2.46033 )
}

[sub_resource type="CanvasItemMaterial" id=3]
particles_animation = true
particles_anim_h_frames = 1
particles_anim_v_frames = 1
particles_anim_loop = false

[sub_resource type="Gradient" id=4]
colors = PoolColorArray( 1, 1, 1, 1, 1, 1, 1, 0 )

[node name="MovingEffect" type="Node2D"]
material = SubResource( 1 )
z_index = 40
script = ExtResource( 2 )
move_speed = 500
color = Color( 0.0392157, 0.227451, 0.972549, 1 )

[node name="Path" type="Path2D" parent="."]
z_index = 40
curve = SubResource( 2 )

[node name="PathFollow2D" type="PathFollow2D" parent="Path"]
position = Vector2( 3.35461, -2.46033 )
rotate = false

[node name="KinematicBody2D" type="KinematicBody2D" parent="Path/PathFollow2D"]

[node name="Generator" type="CPUParticles2D" parent="Path/PathFollow2D/KinematicBody2D"]
material = SubResource( 3 )
position = Vector2( 2.86102e-06, -0.378673 )
amount = 300
lifetime = 3.0
explosiveness = 0.75
randomness = 0.55
local_coords = false
texture = ExtResource( 1 )
emission_shape = 2
emission_rect_extents = Vector2( 120, 350 )
direction = Vector2( 0, 0 )
spread = 0.0
gravity = Vector2( 0, 0 )
damping = 1.0
angle = 315.9
scale_amount = 0.0
scale_amount_random = 1.0
color_ramp = SubResource( 4 )
hue_variation = -0.02
hue_variation_random = 0.19
