[gd_resource type="AnimatedTexture" load_steps=6 format=2]

[ext_resource path="res://art/tileset_23.png" type="Texture" id=1]
[ext_resource path="res://art/tileset_22.png" type="Texture" id=2]
[ext_resource path="res://art/tileset_24.png" type="Texture" id=3]
[ext_resource path="res://art/tileset_21.png" type="Texture" id=4]
[ext_resource path="res://art/tileset_25.png" type="Texture" id=5]

[resource]
flags = 4
frames = 5
frame_0/texture = ExtResource( 4 )
frame_1/texture = ExtResource( 2 )
frame_1/delay_sec = 0.0
frame_2/texture = ExtResource( 1 )
frame_2/delay_sec = 0.0
frame_3/texture = ExtResource( 3 )
frame_3/delay_sec = 0.0
frame_4/texture = ExtResource( 5 )
frame_4/delay_sec = 0.0
