[gd_scene load_steps=3 format=2]

[ext_resource path="res://buildings/Builder.gd" type="Script" id=1]
[ext_resource path="res://art/mask/man.png" type="Texture" id=2]

[node name="Builder" type="Sprite"]
position = Vector2( 192, 128 )
scale = Vector2( 2, 2 )
texture = ExtResource( 2 )
centered = false
script = ExtResource( 1 )
