[gd_scene load_steps=5 format=2]

[ext_resource path="res://art/mask/man.png" type="Texture" id=1]
[ext_resource path="res://art/mask/mask.png" type="Texture" id=2]

[sub_resource type="NavigationPolygon" id=1]
vertices = PoolVector2Array( 32, -32, 32, 32, -32, 32, -32, -32 )
polygons = [ PoolIntArray( 0, 1, 2, 3 ) ]
outlines = [ PoolVector2Array( -32, -32, -32, 32, 32, 32, 32, -32 ) ]

[sub_resource type="RectangleShape2D" id=2]
extents = Vector2( 32, 32 )

[node name="tileset" type="Node"]
__meta__ = {
"__editor_plugin_screen__": "2D"
}

[node name="floor" type="Sprite" parent="."]
position = Vector2( 32, 32 )
texture = ExtResource( 1 )

[node name="NavigationPolygonInstance" type="NavigationPolygonInstance" parent="floor"]
navpoly = SubResource( 1 )

[node name="obstacle" type="Sprite" parent="."]
position = Vector2( 96, 32 )
texture = ExtResource( 2 )

[node name="StaticBody2D" type="StaticBody2D" parent="obstacle"]

[node name="CollisionShape2D" type="CollisionShape2D" parent="obstacle/StaticBody2D"]
shape = SubResource( 2 )
