[gd_scene load_steps=4 format=2]

[ext_resource path="res://object/human.tscn" type="PackedScene" id=1]
[ext_resource path="res://object/player.gd" type="Script" id=2]

[sub_resource type="RectangleShape2D" id=1]
extents = Vector2( 32, 32 )

[node name="player" type="KinematicBody2D"]
script = ExtResource( 2 )

[node name="human" parent="." instance=ExtResource( 1 )]

[node name="Camera2D" type="Camera2D" parent="."]
current = true
drag_margin_h_enabled = true
drag_margin_v_enabled = true

[node name="collision" type="CollisionShape2D" parent="."]
position = Vector2( 32, 36 )
scale = Vector2( 0.5, 0.8 )
shape = SubResource( 1 )

[node name="VisibilityNotifier2D" type="VisibilityNotifier2D" parent="."]
position = Vector2( 32, 32 )
[connection signal="viewport_exited" from="VisibilityNotifier2D" to="." method="_on_VisibilityNotifier2D_viewport_exited"]
