[gd_scene load_steps=4 format=2]

[ext_resource path="res://object/whirlwind.gd" type="Script" id=1]
[ext_resource path="res://art/monsters/whirlwind.png" type="Texture" id=2]

[sub_resource type="RectangleShape2D" id=1]
extents = Vector2( 64, 64 )

[node name="whirlwind" type="Sprite"]
texture = ExtResource( 2 )
centered = false
offset = Vector2( -64, -64 )
script = ExtResource( 1 )

[node name="Area2D" type="Area2D" parent="."]
position = Vector2( 32, 32 )

[node name="CollisionShape2D" type="CollisionShape2D" parent="Area2D"]
position = Vector2( -32, -32 )
shape = SubResource( 1 )
[connection signal="body_entered" from="Area2D" to="." method="_on_Area2D_body_entered"]
[connection signal="body_exited" from="Area2D" to="." method="_on_Area2D_body_exited"]
