[gd_scene load_steps=5 format=2]

[ext_resource path="res://art/items/icons/icons_07.png" type="Texture" id=1]
[ext_resource path="res://battle/Skill.gd" type="Script" id=2]

[sub_resource type="StyleBoxFlat" id=1]
bg_color = Color( 1, 0, 0, 1 )

[sub_resource type="StyleBoxFlat" id=2]
bg_color = Color( 0.207843, 0.207843, 0.207843, 1 )

[node name="h1" type="Button"]
margin_left = 88.0
margin_top = 8.0
margin_right = 136.0
margin_bottom = 56.0
rect_pivot_offset = Vector2( 288, 32 )
disabled = true
icon = ExtResource( 1 )
expand_icon = true
script = ExtResource( 2 )
__meta__ = {
"_edit_use_anchors_": false
}

[node name="progress" type="ProgressBar" parent="."]
visible = false
margin_top = 56.0
margin_right = 48.0
margin_bottom = 72.0
custom_styles/fg = SubResource( 1 )
custom_styles/bg = SubResource( 2 )
__meta__ = {
"_edit_use_anchors_": false
}
