[gd_resource type="TileSet" load_steps=5 format=2]

[ext_resource path="res://art/main.png" type="Texture" id=1]
[ext_resource path="res://art/paths/leaves_light.png" type="Texture" id=2]
[ext_resource path="res://art/paths/leaves_normal.png" type="Texture" id=3]
[ext_resource path="res://art/paths/leaves_dark.png" type="Texture" id=4]

[resource]
0/name = "main.png 0"
0/texture = ExtResource( 1 )
0/tex_offset = Vector2( 0, 0 )
0/modulate = Color( 1, 1, 1, 1 )
0/region = Rect2( 0, 0, 64, 128 )
0/tile_mode = 0
0/occluder_offset = Vector2( 0, 0 )
0/navigation_offset = Vector2( 0, 0 )
0/shape_offset = Vector2( 0, 0 )
0/shape_transform = Transform2D( 1, 0, 0, 1, 0, 0 )
0/shape_one_way = false
0/shape_one_way_margin = 0.0
0/shapes = [  ]
0/z_index = 0
1/name = "main.png 1"
1/texture = ExtResource( 1 )
1/tex_offset = Vector2( 0, 0 )
1/modulate = Color( 1, 1, 1, 1 )
1/region = Rect2( 64, 0, 64, 192 )
1/tile_mode = 0
1/occluder_offset = Vector2( 0, 0 )
1/navigation_offset = Vector2( 0, 0 )
1/shape_offset = Vector2( 0, 0 )
1/shape_transform = Transform2D( 1, 0, 0, 1, 0, 0 )
1/shape_one_way = false
1/shape_one_way_margin = 0.0
1/shapes = [  ]
1/z_index = 0
2/name = "main.png 2"
2/texture = ExtResource( 1 )
2/tex_offset = Vector2( 0, 0 )
2/modulate = Color( 1, 1, 1, 1 )
2/region = Rect2( 128, 0, 128, 128 )
2/tile_mode = 0
2/occluder_offset = Vector2( 0, 0 )
2/navigation_offset = Vector2( 0, 0 )
2/shape_offset = Vector2( 0, 0 )
2/shape_transform = Transform2D( 1, 0, 0, 1, 0, 0 )
2/shape_one_way = false
2/shape_one_way_margin = 0.0
2/shapes = [  ]
2/z_index = 0
3/name = "main.png 3"
3/texture = ExtResource( 1 )
3/tex_offset = Vector2( 0, 0 )
3/modulate = Color( 1, 1, 1, 1 )
3/region = Rect2( 256, 0, 64, 128 )
3/tile_mode = 0
3/occluder_offset = Vector2( 0, 0 )
3/navigation_offset = Vector2( 0, 0 )
3/shape_offset = Vector2( 0, 0 )
3/shape_transform = Transform2D( 1, 0, 0, 1, 0, 0 )
3/shape_one_way = false
3/shape_one_way_margin = 0.0
3/shapes = [  ]
3/z_index = 0
4/name = "main.png 4"
4/texture = ExtResource( 1 )
4/tex_offset = Vector2( 0, 0 )
4/modulate = Color( 1, 1, 1, 1 )
4/region = Rect2( 320, 0, 64, 192 )
4/tile_mode = 0
4/occluder_offset = Vector2( 0, 0 )
4/navigation_offset = Vector2( 0, 0 )
4/shape_offset = Vector2( 0, 0 )
4/shape_transform = Transform2D( 1, 0, 0, 1, 0, 0 )
4/shape_one_way = false
4/shape_one_way_margin = 0.0
4/shapes = [  ]
4/z_index = 0
5/name = "main.png 5"
5/texture = ExtResource( 1 )
5/tex_offset = Vector2( 0, 0 )
5/modulate = Color( 1, 1, 1, 1 )
5/region = Rect2( 384, 0, 128, 128 )
5/tile_mode = 0
5/occluder_offset = Vector2( 0, 0 )
5/navigation_offset = Vector2( 0, 0 )
5/shape_offset = Vector2( 0, 0 )
5/shape_transform = Transform2D( 1, 0, 0, 1, 0, 0 )
5/shape_one_way = false
5/shape_one_way_margin = 0.0
5/shapes = [  ]
5/z_index = 0
6/name = "main.png 6"
6/texture = ExtResource( 1 )
6/tex_offset = Vector2( 0, 0 )
6/modulate = Color( 1, 1, 1, 1 )
6/region = Rect2( 512, 0, 64, 128 )
6/tile_mode = 0
6/occluder_offset = Vector2( 0, 0 )
6/navigation_offset = Vector2( 0, 0 )
6/shape_offset = Vector2( 0, 0 )
6/shape_transform = Transform2D( 1, 0, 0, 1, 0, 0 )
6/shape_one_way = false
6/shape_one_way_margin = 0.0
6/shapes = [  ]
6/z_index = 0
7/name = "main.png 7"
7/texture = ExtResource( 1 )
7/tex_offset = Vector2( 0, 0 )
7/modulate = Color( 1, 1, 1, 1 )
7/region = Rect2( 576, 0, 64, 192 )
7/tile_mode = 0
7/occluder_offset = Vector2( 0, 0 )
7/navigation_offset = Vector2( 0, 0 )
7/shape_offset = Vector2( 0, 0 )
7/shape_transform = Transform2D( 1, 0, 0, 1, 0, 0 )
7/shape_one_way = false
7/shape_one_way_margin = 0.0
7/shapes = [  ]
7/z_index = 0
8/name = "main.png 8"
8/texture = ExtResource( 1 )
8/tex_offset = Vector2( 0, 0 )
8/modulate = Color( 1, 1, 1, 1 )
8/region = Rect2( 640, 0, 128, 128 )
8/tile_mode = 0
8/occluder_offset = Vector2( 0, 0 )
8/navigation_offset = Vector2( 0, 0 )
8/shape_offset = Vector2( 0, 0 )
8/shape_transform = Transform2D( 1, 0, 0, 1, 0, 0 )
8/shape_one_way = false
8/shape_one_way_margin = 0.0
8/shapes = [  ]
8/z_index = 0
9/name = "main.png 9"
9/texture = ExtResource( 1 )
9/tex_offset = Vector2( 0, 0 )
9/modulate = Color( 1, 1, 1, 1 )
9/region = Rect2( 768, 0, 64, 128 )
9/tile_mode = 0
9/occluder_offset = Vector2( 0, 0 )
9/navigation_offset = Vector2( 0, 0 )
9/shape_offset = Vector2( 0, 0 )
9/shape_transform = Transform2D( 1, 0, 0, 1, 0, 0 )
9/shape_one_way = false
9/shape_one_way_margin = 0.0
9/shapes = [  ]
9/z_index = 0
10/name = "main.png 10"
10/texture = ExtResource( 1 )
10/tex_offset = Vector2( 0, 0 )
10/modulate = Color( 1, 1, 1, 1 )
10/region = Rect2( 832, 0, 64, 192 )
10/tile_mode = 0
10/occluder_offset = Vector2( 0, 0 )
10/navigation_offset = Vector2( 0, 0 )
10/shape_offset = Vector2( 0, 0 )
10/shape_transform = Transform2D( 1, 0, 0, 1, 0, 0 )
10/shape_one_way = false
10/shape_one_way_margin = 0.0
10/shapes = [  ]
10/z_index = 0
11/name = "main.png 11"
11/texture = ExtResource( 1 )
11/tex_offset = Vector2( 0, 0 )
11/modulate = Color( 1, 1, 1, 1 )
11/region = Rect2( 896, 0, 128, 128 )
11/tile_mode = 0
11/occluder_offset = Vector2( 0, 0 )
11/navigation_offset = Vector2( 0, 0 )
11/shape_offset = Vector2( 0, 0 )
11/shape_transform = Transform2D( 1, 0, 0, 1, 0, 0 )
11/shape_one_way = false
11/shape_one_way_margin = 0.0
11/shapes = [  ]
11/z_index = 0
12/name = "main.png 12"
12/texture = ExtResource( 1 )
12/tex_offset = Vector2( 0, 0 )
12/modulate = Color( 1, 1, 1, 1 )
12/region = Rect2( 1024, 0, 64, 128 )
12/tile_mode = 0
12/occluder_offset = Vector2( 0, 0 )
12/navigation_offset = Vector2( 0, 0 )
12/shape_offset = Vector2( 0, 0 )
12/shape_transform = Transform2D( 1, 0, 0, 1, 0, 0 )
12/shape_one_way = false
12/shape_one_way_margin = 0.0
12/shapes = [  ]
12/z_index = 0
13/name = "main.png 13"
13/texture = ExtResource( 1 )
13/tex_offset = Vector2( 0, 0 )
13/modulate = Color( 1, 1, 1, 1 )
13/region = Rect2( 1088, 0, 64, 192 )
13/tile_mode = 0
13/occluder_offset = Vector2( 0, 0 )
13/navigation_offset = Vector2( 0, 0 )
13/shape_offset = Vector2( 0, 0 )
13/shape_transform = Transform2D( 1, 0, 0, 1, 0, 0 )
13/shape_one_way = false
13/shape_one_way_margin = 0.0
13/shapes = [  ]
13/z_index = 0
14/name = "main.png 14"
14/texture = ExtResource( 1 )
14/tex_offset = Vector2( 0, 0 )
14/modulate = Color( 1, 1, 1, 1 )
14/region = Rect2( 1152, 0, 128, 128 )
14/tile_mode = 0
14/occluder_offset = Vector2( 0, 0 )
14/navigation_offset = Vector2( 0, 0 )
14/shape_offset = Vector2( 0, 0 )
14/shape_transform = Transform2D( 1, 0, 0, 1, 0, 0 )
14/shape_one_way = false
14/shape_one_way_margin = 0.0
14/shapes = [  ]
14/z_index = 0
15/name = "main.png 15"
15/texture = ExtResource( 1 )
15/tex_offset = Vector2( 0, 0 )
15/modulate = Color( 1, 1, 1, 1 )
15/region = Rect2( 1280, 0, 64, 192 )
15/tile_mode = 0
15/occluder_offset = Vector2( 0, 0 )
15/navigation_offset = Vector2( 0, 0 )
15/shape_offset = Vector2( 0, 0 )
15/shape_transform = Transform2D( 1, 0, 0, 1, 0, 0 )
15/shape_one_way = false
15/shape_one_way_margin = 0.0
15/shapes = [  ]
15/z_index = 0
16/name = "main.png 16"
16/texture = ExtResource( 1 )
16/tex_offset = Vector2( 0, 0 )
16/modulate = Color( 1, 1, 1, 1 )
16/region = Rect2( 1344, 0, 64, 128 )
16/tile_mode = 0
16/occluder_offset = Vector2( 0, 0 )
16/navigation_offset = Vector2( 0, 0 )
16/shape_offset = Vector2( 0, 0 )
16/shape_transform = Transform2D( 1, 0, 0, 1, 0, 0 )
16/shape_one_way = false
16/shape_one_way_margin = 0.0
16/shapes = [  ]
16/z_index = 0
17/name = "main.png 17"
17/texture = ExtResource( 1 )
17/tex_offset = Vector2( 0, 0 )
17/modulate = Color( 1, 1, 1, 1 )
17/region = Rect2( 1408, 0, 128, 128 )
17/tile_mode = 0
17/occluder_offset = Vector2( 0, 0 )
17/navigation_offset = Vector2( 0, 0 )
17/shape_offset = Vector2( 0, 0 )
17/shape_transform = Transform2D( 1, 0, 0, 1, 0, 0 )
17/shape_one_way = false
17/shape_one_way_margin = 0.0
17/shapes = [  ]
17/z_index = 0
18/name = "main.png 18"
18/texture = ExtResource( 1 )
18/tex_offset = Vector2( 0, 0 )
18/modulate = Color( 1, 1, 1, 1 )
18/region = Rect2( 1536, 0, 64, 192 )
18/tile_mode = 0
18/occluder_offset = Vector2( 0, 0 )
18/navigation_offset = Vector2( 0, 0 )
18/shape_offset = Vector2( 0, 0 )
18/shape_transform = Transform2D( 1, 0, 0, 1, 0, 0 )
18/shape_one_way = false
18/shape_one_way_margin = 0.0
18/shapes = [  ]
18/z_index = 0
19/name = "main.png 19"
19/texture = ExtResource( 1 )
19/tex_offset = Vector2( 0, 0 )
19/modulate = Color( 1, 1, 1, 1 )
19/region = Rect2( 1600, 0, 64, 128 )
19/tile_mode = 0
19/occluder_offset = Vector2( 0, 0 )
19/navigation_offset = Vector2( 0, 0 )
19/shape_offset = Vector2( 0, 0 )
19/shape_transform = Transform2D( 1, 0, 0, 1, 0, 0 )
19/shape_one_way = false
19/shape_one_way_margin = 0.0
19/shapes = [  ]
19/z_index = 0
20/name = "main.png 20"
20/texture = ExtResource( 1 )
20/tex_offset = Vector2( 0, 0 )
20/modulate = Color( 1, 1, 1, 1 )
20/region = Rect2( 1664, 0, 128, 128 )
20/tile_mode = 0
20/occluder_offset = Vector2( 0, 0 )
20/navigation_offset = Vector2( 0, 0 )
20/shape_offset = Vector2( 0, 0 )
20/shape_transform = Transform2D( 1, 0, 0, 1, 0, 0 )
20/shape_one_way = false
20/shape_one_way_margin = 0.0
20/shapes = [  ]
20/z_index = 0
21/name = "main.png 21"
21/texture = ExtResource( 1 )
21/tex_offset = Vector2( 0, 0 )
21/modulate = Color( 1, 1, 1, 1 )
21/region = Rect2( 0, 192, 64, 64 )
21/tile_mode = 0
21/occluder_offset = Vector2( 0, 0 )
21/navigation_offset = Vector2( 0, 0 )
21/shape_offset = Vector2( 0, 0 )
21/shape_transform = Transform2D( 1, 0, 0, 1, 0, 0 )
21/shape_one_way = false
21/shape_one_way_margin = 0.0
21/shapes = [  ]
21/z_index = 0
22/name = "main.png 22"
22/texture = ExtResource( 1 )
22/tex_offset = Vector2( 0, 0 )
22/modulate = Color( 1, 1, 1, 1 )
22/region = Rect2( 64, 192, 64, 64 )
22/tile_mode = 0
22/occluder_offset = Vector2( 0, 0 )
22/navigation_offset = Vector2( 0, 0 )
22/shape_offset = Vector2( 0, 0 )
22/shape_transform = Transform2D( 1, 0, 0, 1, 0, 0 )
22/shape_one_way = false
22/shape_one_way_margin = 0.0
22/shapes = [  ]
22/z_index = 0
23/name = "main.png 23"
23/texture = ExtResource( 1 )
23/tex_offset = Vector2( 0, 0 )
23/modulate = Color( 1, 1, 1, 1 )
23/region = Rect2( 128, 192, 64, 64 )
23/tile_mode = 0
23/occluder_offset = Vector2( 0, 0 )
23/navigation_offset = Vector2( 0, 0 )
23/shape_offset = Vector2( 0, 0 )
23/shape_transform = Transform2D( 1, 0, 0, 1, 0, 0 )
23/shape_one_way = false
23/shape_one_way_margin = 0.0
23/shapes = [  ]
23/z_index = 0
24/name = "main.png 24"
24/texture = ExtResource( 1 )
24/tex_offset = Vector2( 0, 0 )
24/modulate = Color( 1, 1, 1, 1 )
24/region = Rect2( 192, 192, 64, 64 )
24/tile_mode = 0
24/occluder_offset = Vector2( 0, 0 )
24/navigation_offset = Vector2( 0, 0 )
24/shape_offset = Vector2( 0, 0 )
24/shape_transform = Transform2D( 1, 0, 0, 1, 0, 0 )
24/shape_one_way = false
24/shape_one_way_margin = 0.0
24/shapes = [  ]
24/z_index = 0
25/name = "main.png 25"
25/texture = ExtResource( 1 )
25/tex_offset = Vector2( 0, 0 )
25/modulate = Color( 1, 1, 1, 1 )
25/region = Rect2( 256, 192, 64, 64 )
25/tile_mode = 0
25/occluder_offset = Vector2( 0, 0 )
25/navigation_offset = Vector2( 0, 0 )
25/shape_offset = Vector2( 0, 0 )
25/shape_transform = Transform2D( 1, 0, 0, 1, 0, 0 )
25/shape_one_way = false
25/shape_one_way_margin = 0.0
25/shapes = [  ]
25/z_index = 0
26/name = "main.png 26"
26/texture = ExtResource( 1 )
26/tex_offset = Vector2( 0, 0 )
26/modulate = Color( 1, 1, 1, 1 )
26/region = Rect2( 320, 192, 64, 64 )
26/tile_mode = 0
26/occluder_offset = Vector2( 0, 0 )
26/navigation_offset = Vector2( 0, 0 )
26/shape_offset = Vector2( 0, 0 )
26/shape_transform = Transform2D( 1, 0, 0, 1, 0, 0 )
26/shape_one_way = false
26/shape_one_way_margin = 0.0
26/shapes = [  ]
26/z_index = 0
27/name = "main.png 27"
27/texture = ExtResource( 1 )
27/tex_offset = Vector2( 0, 0 )
27/modulate = Color( 1, 1, 1, 1 )
27/region = Rect2( 384, 192, 64, 64 )
27/tile_mode = 0
27/occluder_offset = Vector2( 0, 0 )
27/navigation_offset = Vector2( 0, 0 )
27/shape_offset = Vector2( 0, 0 )
27/shape_transform = Transform2D( 1, 0, 0, 1, 0, 0 )
27/shape_one_way = false
27/shape_one_way_margin = 0.0
27/shapes = [  ]
27/z_index = 0
28/name = "main.png 28"
28/texture = ExtResource( 1 )
28/tex_offset = Vector2( 0, 0 )
28/modulate = Color( 1, 1, 1, 1 )
28/region = Rect2( 448, 192, 64, 64 )
28/tile_mode = 0
28/occluder_offset = Vector2( 0, 0 )
28/navigation_offset = Vector2( 0, 0 )
28/shape_offset = Vector2( 0, 0 )
28/shape_transform = Transform2D( 1, 0, 0, 1, 0, 0 )
28/shape_one_way = false
28/shape_one_way_margin = 0.0
28/shapes = [  ]
28/z_index = 0
29/name = "main.png 29"
29/texture = ExtResource( 1 )
29/tex_offset = Vector2( 0, 0 )
29/modulate = Color( 1, 1, 1, 1 )
29/region = Rect2( 512, 192, 64, 64 )
29/tile_mode = 0
29/occluder_offset = Vector2( 0, 0 )
29/navigation_offset = Vector2( 0, 0 )
29/shape_offset = Vector2( 0, 0 )
29/shape_transform = Transform2D( 1, 0, 0, 1, 0, 0 )
29/shape_one_way = false
29/shape_one_way_margin = 0.0
29/shapes = [  ]
29/z_index = 0
30/name = "main.png 30"
30/texture = ExtResource( 1 )
30/tex_offset = Vector2( 0, 0 )
30/modulate = Color( 1, 1, 1, 1 )
30/region = Rect2( 576, 192, 64, 64 )
30/tile_mode = 0
30/occluder_offset = Vector2( 0, 0 )
30/navigation_offset = Vector2( 0, 0 )
30/shape_offset = Vector2( 0, 0 )
30/shape_transform = Transform2D( 1, 0, 0, 1, 0, 0 )
30/shape_one_way = false
30/shape_one_way_margin = 0.0
30/shapes = [  ]
30/z_index = 0
31/name = "main.png 31"
31/texture = ExtResource( 1 )
31/tex_offset = Vector2( 0, 0 )
31/modulate = Color( 1, 1, 1, 1 )
31/region = Rect2( 640, 192, 64, 64 )
31/tile_mode = 0
31/occluder_offset = Vector2( 0, 0 )
31/navigation_offset = Vector2( 0, 0 )
31/shape_offset = Vector2( 0, 0 )
31/shape_transform = Transform2D( 1, 0, 0, 1, 0, 0 )
31/shape_one_way = false
31/shape_one_way_margin = 0.0
31/shapes = [  ]
31/z_index = 0
32/name = "main.png 32"
32/texture = ExtResource( 1 )
32/tex_offset = Vector2( 0, 0 )
32/modulate = Color( 1, 1, 1, 1 )
32/region = Rect2( 704, 192, 64, 64 )
32/tile_mode = 0
32/occluder_offset = Vector2( 0, 0 )
32/navigation_offset = Vector2( 0, 0 )
32/shape_offset = Vector2( 0, 0 )
32/shape_transform = Transform2D( 1, 0, 0, 1, 0, 0 )
32/shape_one_way = false
32/shape_one_way_margin = 0.0
32/shapes = [  ]
32/z_index = 0
33/name = "main.png 33"
33/texture = ExtResource( 1 )
33/tex_offset = Vector2( 0, 0 )
33/modulate = Color( 1, 1, 1, 1 )
33/region = Rect2( 768, 192, 64, 64 )
33/tile_mode = 0
33/occluder_offset = Vector2( 0, 0 )
33/navigation_offset = Vector2( 0, 0 )
33/shape_offset = Vector2( 0, 0 )
33/shape_transform = Transform2D( 1, 0, 0, 1, 0, 0 )
33/shape_one_way = false
33/shape_one_way_margin = 0.0
33/shapes = [  ]
33/z_index = 0
34/name = "main.png 34"
34/texture = ExtResource( 1 )
34/tex_offset = Vector2( 0, 0 )
34/modulate = Color( 1, 1, 1, 1 )
34/region = Rect2( 832, 192, 64, 64 )
34/tile_mode = 0
34/occluder_offset = Vector2( 0, 0 )
34/navigation_offset = Vector2( 0, 0 )
34/shape_offset = Vector2( 0, 0 )
34/shape_transform = Transform2D( 1, 0, 0, 1, 0, 0 )
34/shape_one_way = false
34/shape_one_way_margin = 0.0
34/shapes = [  ]
34/z_index = 0
35/name = "main.png 35"
35/texture = ExtResource( 1 )
35/tex_offset = Vector2( 0, 0 )
35/modulate = Color( 1, 1, 1, 1 )
35/region = Rect2( 896, 192, 64, 64 )
35/tile_mode = 0
35/occluder_offset = Vector2( 0, 0 )
35/navigation_offset = Vector2( 0, 0 )
35/shape_offset = Vector2( 0, 0 )
35/shape_transform = Transform2D( 1, 0, 0, 1, 0, 0 )
35/shape_one_way = false
35/shape_one_way_margin = 0.0
35/shapes = [  ]
35/z_index = 0
36/name = "main.png 36"
36/texture = ExtResource( 1 )
36/tex_offset = Vector2( 0, 0 )
36/modulate = Color( 1, 1, 1, 1 )
36/region = Rect2( 960, 192, 64, 64 )
36/tile_mode = 0
36/occluder_offset = Vector2( 0, 0 )
36/navigation_offset = Vector2( 0, 0 )
36/shape_offset = Vector2( 0, 0 )
36/shape_transform = Transform2D( 1, 0, 0, 1, 0, 0 )
36/shape_one_way = false
36/shape_one_way_margin = 0.0
36/shapes = [  ]
36/z_index = 0
37/name = "main.png 37"
37/texture = ExtResource( 1 )
37/tex_offset = Vector2( 0, 0 )
37/modulate = Color( 1, 1, 1, 1 )
37/region = Rect2( 1024, 192, 64, 64 )
37/tile_mode = 0
37/occluder_offset = Vector2( 0, 0 )
37/navigation_offset = Vector2( 0, 0 )
37/shape_offset = Vector2( 0, 0 )
37/shape_transform = Transform2D( 1, 0, 0, 1, 0, 0 )
37/shape_one_way = false
37/shape_one_way_margin = 0.0
37/shapes = [  ]
37/z_index = 0
38/name = "main.png 38"
38/texture = ExtResource( 1 )
38/tex_offset = Vector2( 0, 0 )
38/modulate = Color( 1, 1, 1, 1 )
38/region = Rect2( 1088, 192, 64, 64 )
38/tile_mode = 0
38/occluder_offset = Vector2( 0, 0 )
38/navigation_offset = Vector2( 0, 0 )
38/shape_offset = Vector2( 0, 0 )
38/shape_transform = Transform2D( 1, 0, 0, 1, 0, 0 )
38/shape_one_way = false
38/shape_one_way_margin = 0.0
38/shapes = [  ]
38/z_index = 0
39/name = "main.png 39"
39/texture = ExtResource( 1 )
39/tex_offset = Vector2( 0, 0 )
39/modulate = Color( 1, 1, 1, 1 )
39/region = Rect2( 1152, 192, 64, 64 )
39/tile_mode = 0
39/occluder_offset = Vector2( 0, 0 )
39/navigation_offset = Vector2( 0, 0 )
39/shape_offset = Vector2( 0, 0 )
39/shape_transform = Transform2D( 1, 0, 0, 1, 0, 0 )
39/shape_one_way = false
39/shape_one_way_margin = 0.0
39/shapes = [  ]
39/z_index = 0
40/name = "main.png 40"
40/texture = ExtResource( 1 )
40/tex_offset = Vector2( 0, 0 )
40/modulate = Color( 1, 1, 1, 1 )
40/region = Rect2( 0, 256, 64, 64 )
40/tile_mode = 0
40/occluder_offset = Vector2( 0, 0 )
40/navigation_offset = Vector2( 0, 0 )
40/shape_offset = Vector2( 0, 0 )
40/shape_transform = Transform2D( 1, 0, 0, 1, 0, 0 )
40/shape_one_way = false
40/shape_one_way_margin = 0.0
40/shapes = [  ]
40/z_index = 0
41/name = "main.png 41"
41/texture = ExtResource( 1 )
41/tex_offset = Vector2( 0, 0 )
41/modulate = Color( 1, 1, 1, 1 )
41/region = Rect2( 64, 256, 64, 64 )
41/tile_mode = 0
41/occluder_offset = Vector2( 0, 0 )
41/navigation_offset = Vector2( 0, 0 )
41/shape_offset = Vector2( 0, 0 )
41/shape_transform = Transform2D( 1, 0, 0, 1, 0, 0 )
41/shape_one_way = false
41/shape_one_way_margin = 0.0
41/shapes = [  ]
41/z_index = 0
42/name = "main.png 42"
42/texture = ExtResource( 1 )
42/tex_offset = Vector2( 0, 0 )
42/modulate = Color( 1, 1, 1, 1 )
42/region = Rect2( 128, 256, 64, 64 )
42/tile_mode = 0
42/occluder_offset = Vector2( 0, 0 )
42/navigation_offset = Vector2( 0, 0 )
42/shape_offset = Vector2( 0, 0 )
42/shape_transform = Transform2D( 1, 0, 0, 1, 0, 0 )
42/shape_one_way = false
42/shape_one_way_margin = 0.0
42/shapes = [  ]
42/z_index = 0
43/name = "main.png 43"
43/texture = ExtResource( 1 )
43/tex_offset = Vector2( 0, 0 )
43/modulate = Color( 1, 1, 1, 1 )
43/region = Rect2( 192, 256, 64, 64 )
43/tile_mode = 0
43/occluder_offset = Vector2( 0, 0 )
43/navigation_offset = Vector2( 0, 0 )
43/shape_offset = Vector2( 0, 0 )
43/shape_transform = Transform2D( 1, 0, 0, 1, 0, 0 )
43/shape_one_way = false
43/shape_one_way_margin = 0.0
43/shapes = [  ]
43/z_index = 0
44/name = "main.png 44"
44/texture = ExtResource( 1 )
44/tex_offset = Vector2( 0, 0 )
44/modulate = Color( 1, 1, 1, 1 )
44/region = Rect2( 256, 256, 128, 64 )
44/tile_mode = 0
44/occluder_offset = Vector2( 0, 0 )
44/navigation_offset = Vector2( 0, 0 )
44/shape_offset = Vector2( 0, 0 )
44/shape_transform = Transform2D( 1, 0, 0, 1, 0, 0 )
44/shape_one_way = false
44/shape_one_way_margin = 0.0
44/shapes = [  ]
44/z_index = 0
45/name = "main.png 45"
45/texture = ExtResource( 1 )
45/tex_offset = Vector2( 0, 0 )
45/modulate = Color( 1, 1, 1, 1 )
45/region = Rect2( 384, 256, 128, 64 )
45/tile_mode = 0
45/occluder_offset = Vector2( 0, 0 )
45/navigation_offset = Vector2( 0, 0 )
45/shape_offset = Vector2( 0, 0 )
45/shape_transform = Transform2D( 1, 0, 0, 1, 0, 0 )
45/shape_one_way = false
45/shape_one_way_margin = 0.0
45/shapes = [  ]
45/z_index = 0
46/name = "main.png 46"
46/texture = ExtResource( 1 )
46/tex_offset = Vector2( 0, 0 )
46/modulate = Color( 1, 1, 1, 1 )
46/region = Rect2( 512, 256, 128, 64 )
46/tile_mode = 0
46/occluder_offset = Vector2( 0, 0 )
46/navigation_offset = Vector2( 0, 0 )
46/shape_offset = Vector2( 0, 0 )
46/shape_transform = Transform2D( 1, 0, 0, 1, 0, 0 )
46/shape_one_way = false
46/shape_one_way_margin = 0.0
46/shapes = [  ]
46/z_index = 0
47/name = "main.png 47"
47/texture = ExtResource( 1 )
47/tex_offset = Vector2( 0, 0 )
47/modulate = Color( 1, 1, 1, 1 )
47/region = Rect2( 640, 256, 128, 64 )
47/tile_mode = 0
47/occluder_offset = Vector2( 0, 0 )
47/navigation_offset = Vector2( 0, 0 )
47/shape_offset = Vector2( 0, 0 )
47/shape_transform = Transform2D( 1, 0, 0, 1, 0, 0 )
47/shape_one_way = false
47/shape_one_way_margin = 0.0
47/shapes = [  ]
47/z_index = 0
48/name = "main.png 48"
48/texture = ExtResource( 1 )
48/tex_offset = Vector2( 0, 0 )
48/modulate = Color( 1, 1, 1, 1 )
48/region = Rect2( 768, 256, 64, 64 )
48/tile_mode = 0
48/occluder_offset = Vector2( 0, 0 )
48/navigation_offset = Vector2( 0, 0 )
48/shape_offset = Vector2( 0, 0 )
48/shape_transform = Transform2D( 1, 0, 0, 1, 0, 0 )
48/shape_one_way = false
48/shape_one_way_margin = 0.0
48/shapes = [  ]
48/z_index = 0
49/name = "main.png 49"
49/texture = ExtResource( 1 )
49/tex_offset = Vector2( 0, 0 )
49/modulate = Color( 1, 1, 1, 1 )
49/region = Rect2( 832, 256, 64, 64 )
49/tile_mode = 0
49/occluder_offset = Vector2( 0, 0 )
49/navigation_offset = Vector2( 0, 0 )
49/shape_offset = Vector2( 0, 0 )
49/shape_transform = Transform2D( 1, 0, 0, 1, 0, 0 )
49/shape_one_way = false
49/shape_one_way_margin = 0.0
49/shapes = [  ]
49/z_index = 0
50/name = "main.png 50"
50/texture = ExtResource( 1 )
50/tex_offset = Vector2( 0, 0 )
50/modulate = Color( 1, 1, 1, 1 )
50/region = Rect2( 896, 256, 64, 64 )
50/tile_mode = 0
50/occluder_offset = Vector2( 0, 0 )
50/navigation_offset = Vector2( 0, 0 )
50/shape_offset = Vector2( 0, 0 )
50/shape_transform = Transform2D( 1, 0, 0, 1, 0, 0 )
50/shape_one_way = false
50/shape_one_way_margin = 0.0
50/shapes = [  ]
50/z_index = 0
51/name = "main.png 51"
51/texture = ExtResource( 1 )
51/tex_offset = Vector2( 0, 0 )
51/modulate = Color( 1, 1, 1, 1 )
51/region = Rect2( 0, 320, 64, 128 )
51/tile_mode = 0
51/occluder_offset = Vector2( 0, 0 )
51/navigation_offset = Vector2( 0, 0 )
51/shape_offset = Vector2( 0, 0 )
51/shape_transform = Transform2D( 1, 0, 0, 1, 0, 0 )
51/shape_one_way = false
51/shape_one_way_margin = 0.0
51/shapes = [  ]
51/z_index = 0
52/name = "main.png 52"
52/texture = ExtResource( 1 )
52/tex_offset = Vector2( 0, 0 )
52/modulate = Color( 1, 1, 1, 1 )
52/region = Rect2( 64, 320, 64, 128 )
52/tile_mode = 0
52/occluder_offset = Vector2( 0, 0 )
52/navigation_offset = Vector2( 0, 0 )
52/shape_offset = Vector2( 0, 0 )
52/shape_transform = Transform2D( 1, 0, 0, 1, 0, 0 )
52/shape_one_way = false
52/shape_one_way_margin = 0.0
52/shapes = [  ]
52/z_index = 0
53/name = "main.png 53"
53/texture = ExtResource( 1 )
53/tex_offset = Vector2( 0, 0 )
53/modulate = Color( 1, 1, 1, 1 )
53/region = Rect2( 128, 320, 64, 128 )
53/tile_mode = 0
53/occluder_offset = Vector2( 0, 0 )
53/navigation_offset = Vector2( 0, 0 )
53/shape_offset = Vector2( 0, 0 )
53/shape_transform = Transform2D( 1, 0, 0, 1, 0, 0 )
53/shape_one_way = false
53/shape_one_way_margin = 0.0
53/shapes = [  ]
53/z_index = 0
54/name = "main.png 54"
54/texture = ExtResource( 1 )
54/tex_offset = Vector2( 0, 0 )
54/modulate = Color( 1, 1, 1, 1 )
54/region = Rect2( 192, 320, 64, 128 )
54/tile_mode = 0
54/occluder_offset = Vector2( 0, 0 )
54/navigation_offset = Vector2( 0, 0 )
54/shape_offset = Vector2( 0, 0 )
54/shape_transform = Transform2D( 1, 0, 0, 1, 0, 0 )
54/shape_one_way = false
54/shape_one_way_margin = 0.0
54/shapes = [  ]
54/z_index = 0
55/name = "main.png 55"
55/texture = ExtResource( 1 )
55/tex_offset = Vector2( 0, 0 )
55/modulate = Color( 1, 1, 1, 1 )
55/region = Rect2( 256, 320, 64, 64 )
55/tile_mode = 0
55/occluder_offset = Vector2( 0, 0 )
55/navigation_offset = Vector2( 0, 0 )
55/shape_offset = Vector2( 0, 0 )
55/shape_transform = Transform2D( 1, 0, 0, 1, 0, 0 )
55/shape_one_way = false
55/shape_one_way_margin = 0.0
55/shapes = [  ]
55/z_index = 0
56/name = "main.png 56"
56/texture = ExtResource( 1 )
56/tex_offset = Vector2( 0, 0 )
56/modulate = Color( 1, 1, 1, 1 )
56/region = Rect2( 256, 384, 64, 64 )
56/tile_mode = 0
56/occluder_offset = Vector2( 0, 0 )
56/navigation_offset = Vector2( 0, 0 )
56/shape_offset = Vector2( 0, 0 )
56/shape_transform = Transform2D( 1, 0, 0, 1, 0, 0 )
56/shape_one_way = false
56/shape_one_way_margin = 0.0
56/shapes = [  ]
56/z_index = 0
57/name = "main.png 57"
57/texture = ExtResource( 1 )
57/tex_offset = Vector2( 0, 0 )
57/modulate = Color( 1, 1, 1, 1 )
57/region = Rect2( 320, 320, 64, 64 )
57/tile_mode = 0
57/occluder_offset = Vector2( 0, 0 )
57/navigation_offset = Vector2( 0, 0 )
57/shape_offset = Vector2( 0, 0 )
57/shape_transform = Transform2D( 1, 0, 0, 1, 0, 0 )
57/shape_one_way = false
57/shape_one_way_margin = 0.0
57/shapes = [  ]
57/z_index = 0
58/name = "main.png 58"
58/texture = ExtResource( 1 )
58/tex_offset = Vector2( 0, 0 )
58/modulate = Color( 1, 1, 1, 1 )
58/region = Rect2( 320, 384, 64, 64 )
58/tile_mode = 0
58/occluder_offset = Vector2( 0, 0 )
58/navigation_offset = Vector2( 0, 0 )
58/shape_offset = Vector2( 0, 0 )
58/shape_transform = Transform2D( 1, 0, 0, 1, 0, 0 )
58/shape_one_way = false
58/shape_one_way_margin = 0.0
58/shapes = [  ]
58/z_index = 0
59/name = "main.png 59"
59/texture = ExtResource( 1 )
59/tex_offset = Vector2( 0, 0 )
59/modulate = Color( 1, 1, 1, 1 )
59/region = Rect2( 384, 320, 64, 64 )
59/tile_mode = 0
59/occluder_offset = Vector2( 0, 0 )
59/navigation_offset = Vector2( 0, 0 )
59/shape_offset = Vector2( 0, 0 )
59/shape_transform = Transform2D( 1, 0, 0, 1, 0, 0 )
59/shape_one_way = false
59/shape_one_way_margin = 0.0
59/shapes = [  ]
59/z_index = 0
60/name = "main.png 60"
60/texture = ExtResource( 1 )
60/tex_offset = Vector2( 0, 0 )
60/modulate = Color( 1, 1, 1, 1 )
60/region = Rect2( 384, 384, 64, 64 )
60/tile_mode = 0
60/occluder_offset = Vector2( 0, 0 )
60/navigation_offset = Vector2( 0, 0 )
60/shape_offset = Vector2( 0, 0 )
60/shape_transform = Transform2D( 1, 0, 0, 1, 0, 0 )
60/shape_one_way = false
60/shape_one_way_margin = 0.0
60/shapes = [  ]
60/z_index = 0
61/name = "main.png 61"
61/texture = ExtResource( 1 )
61/tex_offset = Vector2( 0, 0 )
61/modulate = Color( 1, 1, 1, 1 )
61/region = Rect2( 448, 320, 64, 64 )
61/tile_mode = 0
61/occluder_offset = Vector2( 0, 0 )
61/navigation_offset = Vector2( 0, 0 )
61/shape_offset = Vector2( 0, 0 )
61/shape_transform = Transform2D( 1, 0, 0, 1, 0, 0 )
61/shape_one_way = false
61/shape_one_way_margin = 0.0
61/shapes = [  ]
61/z_index = 0
62/name = "main.png 62"
62/texture = ExtResource( 1 )
62/tex_offset = Vector2( 0, 0 )
62/modulate = Color( 1, 1, 1, 1 )
62/region = Rect2( 448, 384, 64, 64 )
62/tile_mode = 0
62/occluder_offset = Vector2( 0, 0 )
62/navigation_offset = Vector2( 0, 0 )
62/shape_offset = Vector2( 0, 0 )
62/shape_transform = Transform2D( 1, 0, 0, 1, 0, 0 )
62/shape_one_way = false
62/shape_one_way_margin = 0.0
62/shapes = [  ]
62/z_index = 0
63/name = "main.png 63"
63/texture = ExtResource( 1 )
63/tex_offset = Vector2( 0, 0 )
63/modulate = Color( 1, 1, 1, 1 )
63/region = Rect2( 512, 320, 64, 64 )
63/tile_mode = 0
63/occluder_offset = Vector2( 0, 0 )
63/navigation_offset = Vector2( 0, 0 )
63/shape_offset = Vector2( 0, 0 )
63/shape_transform = Transform2D( 1, 0, 0, 1, 0, 0 )
63/shape_one_way = false
63/shape_one_way_margin = 0.0
63/shapes = [  ]
63/z_index = 0
64/name = "main.png 64"
64/texture = ExtResource( 1 )
64/tex_offset = Vector2( 0, 0 )
64/modulate = Color( 1, 1, 1, 1 )
64/region = Rect2( 512, 384, 64, 64 )
64/tile_mode = 0
64/occluder_offset = Vector2( 0, 0 )
64/navigation_offset = Vector2( 0, 0 )
64/shape_offset = Vector2( 0, 0 )
64/shape_transform = Transform2D( 1, 0, 0, 1, 0, 0 )
64/shape_one_way = false
64/shape_one_way_margin = 0.0
64/shapes = [  ]
64/z_index = 0
65/name = "main.png 65"
65/texture = ExtResource( 1 )
65/tex_offset = Vector2( 0, 0 )
65/modulate = Color( 1, 1, 1, 1 )
65/region = Rect2( 576, 320, 64, 64 )
65/tile_mode = 0
65/occluder_offset = Vector2( 0, 0 )
65/navigation_offset = Vector2( 0, 0 )
65/shape_offset = Vector2( 0, 0 )
65/shape_transform = Transform2D( 1, 0, 0, 1, 0, 0 )
65/shape_one_way = false
65/shape_one_way_margin = 0.0
65/shapes = [  ]
65/z_index = 0
66/name = "main.png 66"
66/texture = ExtResource( 1 )
66/tex_offset = Vector2( 0, 0 )
66/modulate = Color( 1, 1, 1, 1 )
66/region = Rect2( 576, 384, 64, 64 )
66/tile_mode = 0
66/occluder_offset = Vector2( 0, 0 )
66/navigation_offset = Vector2( 0, 0 )
66/shape_offset = Vector2( 0, 0 )
66/shape_transform = Transform2D( 1, 0, 0, 1, 0, 0 )
66/shape_one_way = false
66/shape_one_way_margin = 0.0
66/shapes = [  ]
66/z_index = 0
67/name = "main.png 67"
67/texture = ExtResource( 1 )
67/tex_offset = Vector2( 0, 0 )
67/modulate = Color( 1, 1, 1, 1 )
67/region = Rect2( 576, 448, 64, 64 )
67/tile_mode = 0
67/occluder_offset = Vector2( 0, 0 )
67/navigation_offset = Vector2( 0, 0 )
67/shape_offset = Vector2( 0, 0 )
67/shape_transform = Transform2D( 1, 0, 0, 1, 0, 0 )
67/shape_one_way = false
67/shape_one_way_margin = 0.0
67/shapes = [  ]
67/z_index = 0
68/name = "main.png 68"
68/texture = ExtResource( 1 )
68/tex_offset = Vector2( 0, 0 )
68/modulate = Color( 1, 1, 1, 1 )
68/region = Rect2( 640, 320, 64, 64 )
68/tile_mode = 0
68/occluder_offset = Vector2( 0, 0 )
68/navigation_offset = Vector2( 0, 0 )
68/shape_offset = Vector2( 0, 0 )
68/shape_transform = Transform2D( 1, 0, 0, 1, 0, 0 )
68/shape_one_way = false
68/shape_one_way_margin = 0.0
68/shapes = [  ]
68/z_index = 0
69/name = "main.png 69"
69/texture = ExtResource( 1 )
69/tex_offset = Vector2( 0, 0 )
69/modulate = Color( 1, 1, 1, 1 )
69/region = Rect2( 704, 320, 128, 128 )
69/tile_mode = 0
69/occluder_offset = Vector2( 0, 0 )
69/navigation_offset = Vector2( 0, 0 )
69/shape_offset = Vector2( 0, 0 )
69/shape_transform = Transform2D( 1, 0, 0, 1, 0, 0 )
69/shape_one_way = false
69/shape_one_way_margin = 0.0
69/shapes = [  ]
69/z_index = 0
70/name = "leaves_dark.png 70"
70/texture = ExtResource( 4 )
70/tex_offset = Vector2( 0, 0 )
70/modulate = Color( 1, 1, 1, 1 )
70/region = Rect2( 0, 0, 656, 434 )
70/tile_mode = 1
70/autotile/bitmask_mode = 1
70/autotile/bitmask_flags = [ Vector2( 0, 0 ), 176, Vector2( 0, 1 ), 50, Vector2( 0, 2 ), 255, Vector2( 0, 3 ), 507, Vector2( 0, 4 ), 442, Vector2( 0, 5 ), 190, Vector2( 1, 0 ), 152, Vector2( 1, 1 ), 26, Vector2( 1, 2 ), 447, Vector2( 1, 3 ), 510, Vector2( 1, 4 ), 250, Vector2( 1, 5 ), 187, Vector2( 2, 0 ), 56, Vector2( 2, 1 ), 146, Vector2( 2, 2 ), 191, Vector2( 2, 3 ), 251, Vector2( 2, 4 ), 434, Vector2( 2, 5 ), 182, Vector2( 3, 0 ), 184, Vector2( 3, 1 ), 178, Vector2( 3, 2 ), 506, Vector2( 3, 3 ), 446, Vector2( 3, 4 ), 218, Vector2( 3, 5 ), 155, Vector2( 4, 0 ), 58, Vector2( 4, 1 ), 154, Vector2( 4, 2 ), 438, Vector2( 4, 3 ), 504, Vector2( 4, 4 ), 440, Vector2( 4, 5 ), 62, Vector2( 5, 0 ), 24, Vector2( 5, 1 ), 144, Vector2( 5, 2 ), 219, Vector2( 5, 3 ), 63, Vector2( 5, 4 ), 248, Vector2( 5, 5 ), 59, Vector2( 6, 0 ), 18, Vector2( 6, 1 ), 48, Vector2( 6, 2 ), 511, Vector2( 6, 3 ), 16, Vector2( 6, 4 ), 443, Vector2( 6, 5 ), 254, Vector2( 7, 0 ), 432, Vector2( 7, 1 ), 54, Vector2( 7, 2 ), 186, Vector2( 8, 0 ), 216, Vector2( 8, 1 ), 27 ]
70/autotile/icon_coordinate = Vector2( 0, 0 )
70/autotile/tile_size = Vector2( 64, 64 )
70/autotile/spacing = 10
70/autotile/occluder_map = [  ]
70/autotile/navpoly_map = [  ]
70/autotile/priority_map = [  ]
70/autotile/z_index_map = [  ]
70/occluder_offset = Vector2( 0, 0 )
70/navigation_offset = Vector2( 0, 0 )
70/shape_offset = Vector2( 0, 0 )
70/shape_transform = Transform2D( 1, 0, 0, 1, 0, 0 )
70/shape_one_way = false
70/shape_one_way_margin = 0.0
70/shapes = [  ]
70/z_index = 0
71/name = "leaves_light.png 71"
71/texture = ExtResource( 2 )
71/tex_offset = Vector2( 0, 0 )
71/modulate = Color( 1, 1, 1, 1 )
71/region = Rect2( 0, 0, 656, 434 )
71/tile_mode = 1
71/autotile/bitmask_mode = 1
71/autotile/bitmask_flags = [ Vector2( 0, 0 ), 176, Vector2( 0, 1 ), 50, Vector2( 0, 2 ), 255, Vector2( 0, 3 ), 507, Vector2( 0, 4 ), 442, Vector2( 0, 5 ), 190, Vector2( 1, 0 ), 152, Vector2( 1, 1 ), 26, Vector2( 1, 2 ), 447, Vector2( 1, 3 ), 510, Vector2( 1, 4 ), 250, Vector2( 1, 5 ), 187, Vector2( 2, 0 ), 56, Vector2( 2, 1 ), 146, Vector2( 2, 2 ), 191, Vector2( 2, 3 ), 251, Vector2( 2, 4 ), 434, Vector2( 2, 5 ), 182, Vector2( 3, 0 ), 184, Vector2( 3, 1 ), 178, Vector2( 3, 2 ), 506, Vector2( 3, 3 ), 446, Vector2( 3, 4 ), 218, Vector2( 3, 5 ), 155, Vector2( 4, 0 ), 58, Vector2( 4, 1 ), 154, Vector2( 4, 2 ), 438, Vector2( 4, 3 ), 504, Vector2( 4, 4 ), 440, Vector2( 4, 5 ), 62, Vector2( 5, 0 ), 24, Vector2( 5, 1 ), 144, Vector2( 5, 2 ), 219, Vector2( 5, 3 ), 63, Vector2( 5, 4 ), 248, Vector2( 5, 5 ), 59, Vector2( 6, 0 ), 18, Vector2( 6, 1 ), 48, Vector2( 6, 2 ), 511, Vector2( 6, 3 ), 16, Vector2( 6, 4 ), 443, Vector2( 6, 5 ), 254, Vector2( 7, 0 ), 432, Vector2( 7, 1 ), 54, Vector2( 7, 2 ), 186, Vector2( 8, 0 ), 216, Vector2( 8, 1 ), 27 ]
71/autotile/icon_coordinate = Vector2( 0, 0 )
71/autotile/tile_size = Vector2( 64, 64 )
71/autotile/spacing = 10
71/autotile/occluder_map = [  ]
71/autotile/navpoly_map = [  ]
71/autotile/priority_map = [  ]
71/autotile/z_index_map = [  ]
71/occluder_offset = Vector2( 0, 0 )
71/navigation_offset = Vector2( 0, 0 )
71/shape_offset = Vector2( 0, 0 )
71/shape_transform = Transform2D( 1, 0, 0, 1, 0, 0 )
71/shape_one_way = false
71/shape_one_way_margin = 0.0
71/shapes = [  ]
71/z_index = 0
72/name = "leaves_normal.png 72"
72/texture = ExtResource( 3 )
72/tex_offset = Vector2( 0, 0 )
72/modulate = Color( 1, 1, 1, 1 )
72/region = Rect2( 0, 0, 656, 434 )
72/tile_mode = 1
72/autotile/bitmask_mode = 1
72/autotile/bitmask_flags = [ Vector2( 0, 0 ), 176, Vector2( 0, 1 ), 50, Vector2( 0, 2 ), 255, Vector2( 0, 3 ), 507, Vector2( 0, 4 ), 442, Vector2( 0, 5 ), 190, Vector2( 1, 0 ), 152, Vector2( 1, 1 ), 26, Vector2( 1, 2 ), 447, Vector2( 1, 3 ), 510, Vector2( 1, 4 ), 250, Vector2( 1, 5 ), 187, Vector2( 2, 0 ), 56, Vector2( 2, 1 ), 146, Vector2( 2, 2 ), 191, Vector2( 2, 3 ), 251, Vector2( 2, 4 ), 434, Vector2( 2, 5 ), 182, Vector2( 3, 0 ), 184, Vector2( 3, 1 ), 178, Vector2( 3, 2 ), 506, Vector2( 3, 3 ), 446, Vector2( 3, 4 ), 218, Vector2( 3, 5 ), 155, Vector2( 4, 0 ), 58, Vector2( 4, 1 ), 154, Vector2( 4, 2 ), 438, Vector2( 4, 3 ), 504, Vector2( 4, 4 ), 440, Vector2( 4, 5 ), 62, Vector2( 5, 0 ), 24, Vector2( 5, 1 ), 144, Vector2( 5, 2 ), 219, Vector2( 5, 3 ), 63, Vector2( 5, 4 ), 248, Vector2( 5, 5 ), 59, Vector2( 6, 0 ), 18, Vector2( 6, 1 ), 48, Vector2( 6, 2 ), 511, Vector2( 6, 3 ), 16, Vector2( 6, 4 ), 443, Vector2( 6, 5 ), 254, Vector2( 7, 0 ), 432, Vector2( 7, 1 ), 54, Vector2( 7, 2 ), 186, Vector2( 8, 0 ), 216, Vector2( 8, 1 ), 27 ]
72/autotile/icon_coordinate = Vector2( 0, 0 )
72/autotile/tile_size = Vector2( 64, 64 )
72/autotile/spacing = 10
72/autotile/occluder_map = [  ]
72/autotile/navpoly_map = [  ]
72/autotile/priority_map = [  ]
72/autotile/z_index_map = [  ]
72/occluder_offset = Vector2( 0, 0 )
72/navigation_offset = Vector2( 0, 0 )
72/shape_offset = Vector2( 0, 0 )
72/shape_transform = Transform2D( 1, 0, 0, 1, 0, 0 )
72/shape_one_way = false
72/shape_one_way_margin = 0.0
72/shapes = [  ]
72/z_index = 0
73/name = "main.png 73"
73/texture = ExtResource( 1 )
73/tex_offset = Vector2( 0, 0 )
73/modulate = Color( 1, 1, 1, 1 )
73/region = Rect2( 0, 448, 64, 128 )
73/tile_mode = 0
73/occluder_offset = Vector2( 0, 0 )
73/navigation_offset = Vector2( 0, 0 )
73/shape_offset = Vector2( 0, 0 )
73/shape_transform = Transform2D( 1, 0, 0, 1, 0, 0 )
73/shape_one_way = false
73/shape_one_way_margin = 0.0
73/shapes = [  ]
73/z_index = 0
74/name = "main.png 74"
74/texture = ExtResource( 1 )
74/tex_offset = Vector2( 0, 0 )
74/modulate = Color( 1, 1, 1, 1 )
74/region = Rect2( 64, 448, 64, 128 )
74/tile_mode = 0
74/occluder_offset = Vector2( 0, 0 )
74/navigation_offset = Vector2( 0, 0 )
74/shape_offset = Vector2( 0, 0 )
74/shape_transform = Transform2D( 1, 0, 0, 1, 0, 0 )
74/shape_one_way = false
74/shape_one_way_margin = 0.0
74/shapes = [  ]
74/z_index = 0
75/name = "main.png 75"
75/texture = ExtResource( 1 )
75/tex_offset = Vector2( 0, 0 )
75/modulate = Color( 1, 1, 1, 1 )
75/region = Rect2( 128, 448, 64, 64 )
75/tile_mode = 0
75/occluder_offset = Vector2( 0, 0 )
75/navigation_offset = Vector2( 0, 0 )
75/shape_offset = Vector2( 0, 0 )
75/shape_transform = Transform2D( 1, 0, 0, 1, 0, 0 )
75/shape_one_way = false
75/shape_one_way_margin = 0.0
75/shapes = [  ]
75/z_index = 0
76/name = "main.png 76"
76/texture = ExtResource( 1 )
76/tex_offset = Vector2( 0, 0 )
76/modulate = Color( 1, 1, 1, 1 )
76/region = Rect2( 192, 448, 64, 64 )
76/tile_mode = 0
76/occluder_offset = Vector2( 0, 0 )
76/navigation_offset = Vector2( 0, 0 )
76/shape_offset = Vector2( 0, 0 )
76/shape_transform = Transform2D( 1, 0, 0, 1, 0, 0 )
76/shape_one_way = false
76/shape_one_way_margin = 0.0
76/shapes = [  ]
76/z_index = 0
77/name = "main.png 77"
77/texture = ExtResource( 1 )
77/tex_offset = Vector2( 0, 0 )
77/modulate = Color( 1, 1, 1, 1 )
77/region = Rect2( 1216, 192, 64, 64 )
77/tile_mode = 0
77/occluder_offset = Vector2( 0, 0 )
77/navigation_offset = Vector2( 0, 0 )
77/shape_offset = Vector2( 0, 0 )
77/shape_transform = Transform2D( 1, 0, 0, 1, 0, 0 )
77/shape_one_way = false
77/shape_one_way_margin = 0.0
77/shapes = [  ]
77/z_index = 0
78/name = "main.png 78"
78/texture = ExtResource( 1 )
78/tex_offset = Vector2( 0, 0 )
78/modulate = Color( 1, 1, 1, 1 )
78/region = Rect2( 1792, 0, 192, 128 )
78/tile_mode = 0
78/occluder_offset = Vector2( 0, 0 )
78/navigation_offset = Vector2( 0, 0 )
78/shape_offset = Vector2( 0, 0 )
78/shape_transform = Transform2D( 1, 0, 0, 1, 0, 0 )
78/shape_one_way = false
78/shape_one_way_margin = 0.0
78/shapes = [  ]
78/z_index = 0
79/name = "main.png 79"
79/texture = ExtResource( 1 )
79/tex_offset = Vector2( 0, 0 )
79/modulate = Color( 1, 1, 1, 1 )
79/region = Rect2( 1984, 0, 192, 128 )
79/tile_mode = 0
79/occluder_offset = Vector2( 0, 0 )
79/navigation_offset = Vector2( 0, 0 )
79/shape_offset = Vector2( 0, 0 )
79/shape_transform = Transform2D( 1, 0, 0, 1, 0, 0 )
79/shape_one_way = false
79/shape_one_way_margin = 0.0
79/shapes = [  ]
79/z_index = 0
80/name = "main.png 80"
80/texture = ExtResource( 1 )
80/tex_offset = Vector2( 0, 0 )
80/modulate = Color( 1, 1, 1, 1 )
80/region = Rect2( 832, 320, 128, 128 )
80/tile_mode = 0
80/occluder_offset = Vector2( 0, 0 )
80/navigation_offset = Vector2( 0, 0 )
80/shape_offset = Vector2( 0, 0 )
80/shape_transform = Transform2D( 1, 0, 0, 1, 0, 0 )
80/shape_one_way = false
80/shape_one_way_margin = 0.0
80/shapes = [  ]
80/z_index = 0
81/name = "main.png 81"
81/texture = ExtResource( 1 )
81/tex_offset = Vector2( 0, 0 )
81/modulate = Color( 1, 1, 1, 1 )
81/region = Rect2( 960, 320, 128, 128 )
81/tile_mode = 0
81/occluder_offset = Vector2( 0, 0 )
81/navigation_offset = Vector2( 0, 0 )
81/shape_offset = Vector2( 0, 0 )
81/shape_transform = Transform2D( 1, 0, 0, 1, 0, 0 )
81/shape_one_way = false
81/shape_one_way_margin = 0.0
81/shapes = [  ]
81/z_index = 0
82/name = "main.png 82"
82/texture = ExtResource( 1 )
82/tex_offset = Vector2( 0, 0 )
82/modulate = Color( 1, 1, 1, 1 )
82/region = Rect2( 640, 448, 128, 128 )
82/tile_mode = 0
82/occluder_offset = Vector2( 0, 0 )
82/navigation_offset = Vector2( 0, 0 )
82/shape_offset = Vector2( 0, 0 )
82/shape_transform = Transform2D( 1, 0, 0, 1, 0, 0 )
82/shape_one_way = false
82/shape_one_way_margin = 0.0
82/shapes = [  ]
82/z_index = 0
83/name = "main.png 83"
83/texture = ExtResource( 1 )
83/tex_offset = Vector2( 0, 0 )
83/modulate = Color( 1, 1, 1, 1 )
83/region = Rect2( 256, 448, 64, 64 )
83/tile_mode = 0
83/occluder_offset = Vector2( 0, 0 )
83/navigation_offset = Vector2( 0, 0 )
83/shape_offset = Vector2( 0, 0 )
83/shape_transform = Transform2D( 1, 0, 0, 1, 0, 0 )
83/shape_one_way = false
83/shape_one_way_margin = 0.0
83/shapes = [  ]
83/z_index = 0
84/name = "main.png 84"
84/texture = ExtResource( 1 )
84/tex_offset = Vector2( 0, 0 )
84/modulate = Color( 1, 1, 1, 1 )
84/region = Rect2( 768, 448, 128, 128 )
84/tile_mode = 0
84/occluder_offset = Vector2( 0, 0 )
84/navigation_offset = Vector2( 0, 0 )
84/shape_offset = Vector2( 0, 0 )
84/shape_transform = Transform2D( 1, 0, 0, 1, 0, 0 )
84/shape_one_way = false
84/shape_one_way_margin = 0.0
84/shapes = [  ]
84/z_index = 0
85/name = "main.png 85"
85/texture = ExtResource( 1 )
85/tex_offset = Vector2( 0, 0 )
85/modulate = Color( 1, 1, 1, 1 )
85/region = Rect2( 1280, 192, 64, 64 )
85/tile_mode = 0
85/occluder_offset = Vector2( 0, 0 )
85/navigation_offset = Vector2( 0, 0 )
85/shape_offset = Vector2( 0, 0 )
85/shape_transform = Transform2D( 1, 0, 0, 1, 0, 0 )
85/shape_one_way = false
85/shape_one_way_margin = 0.0
85/shapes = [  ]
85/z_index = 0
86/name = "main.png 86"
86/texture = ExtResource( 1 )
86/tex_offset = Vector2( 0, 0 )
86/modulate = Color( 1, 1, 1, 1 )
86/region = Rect2( 896, 448, 128, 128 )
86/tile_mode = 0
86/occluder_offset = Vector2( 0, 0 )
86/navigation_offset = Vector2( 0, 0 )
86/shape_offset = Vector2( 0, 0 )
86/shape_transform = Transform2D( 1, 0, 0, 1, 0, 0 )
86/shape_one_way = false
86/shape_one_way_margin = 0.0
86/shapes = [  ]
86/z_index = 0
87/name = "main.png 87"
87/texture = ExtResource( 1 )
87/tex_offset = Vector2( 0, 0 )
87/modulate = Color( 1, 1, 1, 1 )
87/region = Rect2( 1024, 448, 128, 128 )
87/tile_mode = 0
87/occluder_offset = Vector2( 0, 0 )
87/navigation_offset = Vector2( 0, 0 )
87/shape_offset = Vector2( 0, 0 )
87/shape_transform = Transform2D( 1, 0, 0, 1, 0, 0 )
87/shape_one_way = false
87/shape_one_way_margin = 0.0
87/shapes = [  ]
87/z_index = 0
88/name = "main.png 88"
88/texture = ExtResource( 1 )
88/tex_offset = Vector2( 0, 0 )
88/modulate = Color( 1, 1, 1, 1 )
88/region = Rect2( 448, 448, 128, 128 )
88/tile_mode = 0
88/occluder_offset = Vector2( 0, 0 )
88/navigation_offset = Vector2( 0, 0 )
88/shape_offset = Vector2( 0, 0 )
88/shape_transform = Transform2D( 1, 0, 0, 1, 0, 0 )
88/shape_one_way = false
88/shape_one_way_margin = 0.0
88/shapes = [  ]
88/z_index = 0
89/name = "main.png 89"
89/texture = ExtResource( 1 )
89/tex_offset = Vector2( 0, 0 )
89/modulate = Color( 1, 1, 1, 1 )
89/region = Rect2( 320, 448, 128, 128 )
89/tile_mode = 0
89/occluder_offset = Vector2( 0, 0 )
89/navigation_offset = Vector2( 0, 0 )
89/shape_offset = Vector2( 0, 0 )
89/shape_transform = Transform2D( 1, 0, 0, 1, 0, 0 )
89/shape_one_way = false
89/shape_one_way_margin = 0.0
89/shapes = [  ]
89/z_index = 0
