[gd_resource type="TileSet" load_steps=3 format=2]

[ext_resource path="res://art/worldmap.png" type="Texture" id=1]

[sub_resource type="ConvexPolygonShape2D" id=1]
points = PoolVector2Array( 128, 128, 0, 128, 0, 0, 128, 0 )

[resource]
0/name = "worldmap.png 0"
0/texture = ExtResource( 1 )
0/tex_offset = Vector2( -64, -64 )
0/modulate = Color( 1, 1, 1, 1 )
0/region = Rect2( 0, 0, 256, 256 )
0/tile_mode = 0
0/occluder_offset = Vector2( 0, 0 )
0/navigation_offset = Vector2( 0, 0 )
0/shape_offset = Vector2( 0, 0 )
0/shape_transform = Transform2D( 1, 0, 0, 1, 0, 0 )
0/shape_one_way = false
0/shape_one_way_margin = 0.0
0/shapes = [  ]
0/z_index = 0
1/name = "worldmap.png 1"
1/texture = ExtResource( 1 )
1/tex_offset = Vector2( -64, -64 )
1/modulate = Color( 1, 1, 1, 1 )
1/region = Rect2( 256, 0, 256, 256 )
1/tile_mode = 0
1/occluder_offset = Vector2( 0, 0 )
1/navigation_offset = Vector2( 0, 0 )
1/shape_offset = Vector2( 0, 0 )
1/shape_transform = Transform2D( 1, 0, 0, 1, 0, 0 )
1/shape_one_way = false
1/shape_one_way_margin = 0.0
1/shapes = [  ]
1/z_index = 0
2/name = "worldmap.png 2"
2/texture = ExtResource( 1 )
2/tex_offset = Vector2( -64, -64 )
2/modulate = Color( 1, 1, 1, 1 )
2/region = Rect2( 512, 0, 256, 256 )
2/tile_mode = 0
2/occluder_offset = Vector2( 0, 0 )
2/navigation_offset = Vector2( 0, 0 )
2/shape_offset = Vector2( 0, 0 )
2/shape_transform = Transform2D( 1, 0, 0, 1, 0, 0 )
2/shape_one_way = false
2/shape_one_way_margin = 0.0
2/shapes = [  ]
2/z_index = 0
3/name = "worldmap.png 3"
3/texture = ExtResource( 1 )
3/tex_offset = Vector2( -64, -64 )
3/modulate = Color( 1, 1, 1, 1 )
3/region = Rect2( 0, 256, 256, 256 )
3/tile_mode = 0
3/occluder_offset = Vector2( 0, 0 )
3/navigation_offset = Vector2( 0, 0 )
3/shape_offset = Vector2( 0, 0 )
3/shape_transform = Transform2D( 1, 0, 0, 1, 0, 0 )
3/shape_one_way = false
3/shape_one_way_margin = 0.0
3/shapes = [  ]
3/z_index = 0
4/name = "worldmap.png 4"
4/texture = ExtResource( 1 )
4/tex_offset = Vector2( -64, -64 )
4/modulate = Color( 1, 1, 1, 1 )
4/region = Rect2( 256, 256, 256, 256 )
4/tile_mode = 0
4/occluder_offset = Vector2( 0, 0 )
4/navigation_offset = Vector2( 0, 0 )
4/shape_offset = Vector2( 0, 0 )
4/shape_transform = Transform2D( 1, 0, 0, 1, 0, 0 )
4/shape_one_way = false
4/shape_one_way_margin = 0.0
4/shapes = [  ]
4/z_index = 0
5/name = "worldmap.png 5"
5/texture = ExtResource( 1 )
5/tex_offset = Vector2( -64, -64 )
5/modulate = Color( 1, 1, 1, 1 )
5/region = Rect2( 512, 256, 256, 256 )
5/tile_mode = 0
5/occluder_offset = Vector2( 0, 0 )
5/navigation_offset = Vector2( 0, 0 )
5/shape_offset = Vector2( 0, 0 )
5/shape_transform = Transform2D( 1, 0, 0, 1, 0, 0 )
5/shape = SubResource( 1 )
5/shape_one_way = false
5/shape_one_way_margin = 1.0
5/shapes = [ {
"autotile_coord": Vector2( 0, 0 ),
"one_way": false,
"one_way_margin": 1.0,
"shape": SubResource( 1 ),
"shape_transform": Transform2D( 1, 0, 0, 1, 0, 0 )
} ]
5/z_index = 0
6/name = "worldmap.png 6"
6/texture = ExtResource( 1 )
6/tex_offset = Vector2( -64, -64 )
6/modulate = Color( 1, 1, 1, 1 )
6/region = Rect2( 768, 256, 256, 256 )
6/tile_mode = 0
6/occluder_offset = Vector2( 0, 0 )
6/navigation_offset = Vector2( 0, 0 )
6/shape_offset = Vector2( 0, 0 )
6/shape_transform = Transform2D( 1, 0, 0, 1, 0, 0 )
6/shape_one_way = false
6/shape_one_way_margin = 0.0
6/shapes = [  ]
6/z_index = 0
7/name = "worldmap.png 7"
7/texture = ExtResource( 1 )
7/tex_offset = Vector2( -64, -64 )
7/modulate = Color( 1, 1, 1, 1 )
7/region = Rect2( 768, 0, 256, 256 )
7/tile_mode = 0
7/occluder_offset = Vector2( 0, 0 )
7/navigation_offset = Vector2( 0, 0 )
7/shape_offset = Vector2( 0, 0 )
7/shape_transform = Transform2D( 1, 0, 0, 1, 0, 0 )
7/shape_one_way = false
7/shape_one_way_margin = 0.0
7/shapes = [  ]
7/z_index = 0
8/name = "worldmap.png 8"
8/texture = ExtResource( 1 )
8/tex_offset = Vector2( -64, -64 )
8/modulate = Color( 1, 1, 1, 1 )
8/region = Rect2( 1024, 0, 256, 256 )
8/tile_mode = 0
8/occluder_offset = Vector2( 0, 0 )
8/navigation_offset = Vector2( 0, 0 )
8/shape_offset = Vector2( 0, 0 )
8/shape_transform = Transform2D( 1, 0, 0, 1, 0, 0 )
8/shape_one_way = false
8/shape_one_way_margin = 0.0
8/shapes = [  ]
8/z_index = 0
9/name = "worldmap.png 9"
9/texture = ExtResource( 1 )
9/tex_offset = Vector2( -64, -64 )
9/modulate = Color( 1, 1, 1, 1 )
9/region = Rect2( 1024, 256, 256, 256 )
9/tile_mode = 0
9/occluder_offset = Vector2( 0, 0 )
9/navigation_offset = Vector2( 0, 0 )
9/shape_offset = Vector2( 0, 0 )
9/shape_transform = Transform2D( 1, 0, 0, 1, 0, 0 )
9/shape_one_way = false
9/shape_one_way_margin = 0.0
9/shapes = [  ]
9/z_index = 0
10/name = "worldmap.png 10"
10/texture = ExtResource( 1 )
10/tex_offset = Vector2( -64, -64 )
10/modulate = Color( 1, 1, 1, 1 )
10/region = Rect2( 0, 512, 256, 256 )
10/tile_mode = 0
10/occluder_offset = Vector2( 0, 0 )
10/navigation_offset = Vector2( 0, 0 )
10/shape_offset = Vector2( 0, 0 )
10/shape_transform = Transform2D( 1, 0, 0, 1, 0, 0 )
10/shape_one_way = false
10/shape_one_way_margin = 0.0
10/shapes = [  ]
10/z_index = 0
11/name = "worldmap.png 11"
11/texture = ExtResource( 1 )
11/tex_offset = Vector2( -64, -64 )
11/modulate = Color( 1, 1, 1, 1 )
11/region = Rect2( 256, 512, 256, 256 )
11/tile_mode = 0
11/occluder_offset = Vector2( 0, 0 )
11/navigation_offset = Vector2( 0, 0 )
11/shape_offset = Vector2( 0, 0 )
11/shape_transform = Transform2D( 1, 0, 0, 1, 0, 0 )
11/shape_one_way = false
11/shape_one_way_margin = 0.0
11/shapes = [  ]
11/z_index = 0
12/name = "worldmap.png 12"
12/texture = ExtResource( 1 )
12/tex_offset = Vector2( -64, -64 )
12/modulate = Color( 1, 1, 1, 1 )
12/region = Rect2( 512, 512, 256, 256 )
12/tile_mode = 0
12/occluder_offset = Vector2( 0, 0 )
12/navigation_offset = Vector2( 0, 0 )
12/shape_offset = Vector2( 0, 0 )
12/shape_transform = Transform2D( 1, 0, 0, 1, 0, 0 )
12/shape_one_way = false
12/shape_one_way_margin = 0.0
12/shapes = [  ]
12/z_index = 0
13/name = "worldmap.png 13"
13/texture = ExtResource( 1 )
13/tex_offset = Vector2( -64, -64 )
13/modulate = Color( 1, 1, 1, 1 )
13/region = Rect2( 768, 512, 256, 256 )
13/tile_mode = 0
13/occluder_offset = Vector2( 0, 0 )
13/navigation_offset = Vector2( 0, 0 )
13/shape_offset = Vector2( 0, 0 )
13/shape_transform = Transform2D( 1, 0, 0, 1, 0, 0 )
13/shape_one_way = false
13/shape_one_way_margin = 0.0
13/shapes = [  ]
13/z_index = 0
14/name = "worldmap.png 14"
14/texture = ExtResource( 1 )
14/tex_offset = Vector2( -64, -64 )
14/modulate = Color( 1, 1, 1, 1 )
14/region = Rect2( 1024, 512, 256, 256 )
14/tile_mode = 0
14/occluder_offset = Vector2( 0, 0 )
14/navigation_offset = Vector2( 0, 0 )
14/shape_offset = Vector2( 0, 0 )
14/shape_transform = Transform2D( 1, 0, 0, 1, 0, 0 )
14/shape_one_way = false
14/shape_one_way_margin = 0.0
14/shapes = [  ]
14/z_index = 0
15/name = "worldmap.png 15"
15/texture = ExtResource( 1 )
15/tex_offset = Vector2( -64, -64 )
15/modulate = Color( 1, 1, 1, 1 )
15/region = Rect2( 0, 768, 256, 256 )
15/tile_mode = 0
15/occluder_offset = Vector2( 0, 0 )
15/navigation_offset = Vector2( 0, 0 )
15/shape_offset = Vector2( 0, 0 )
15/shape_transform = Transform2D( 1, 0, 0, 1, 0, 0 )
15/shape_one_way = false
15/shape_one_way_margin = 0.0
15/shapes = [  ]
15/z_index = 0
16/name = "worldmap.png 16"
16/texture = ExtResource( 1 )
16/tex_offset = Vector2( -64, -64 )
16/modulate = Color( 1, 1, 1, 1 )
16/region = Rect2( 256, 768, 256, 256 )
16/tile_mode = 0
16/occluder_offset = Vector2( 0, 0 )
16/navigation_offset = Vector2( 0, 0 )
16/shape_offset = Vector2( 0, 0 )
16/shape_transform = Transform2D( 1, 0, 0, 1, 0, 0 )
16/shape_one_way = false
16/shape_one_way_margin = 0.0
16/shapes = [  ]
16/z_index = 0
17/name = "worldmap.png 17"
17/texture = ExtResource( 1 )
17/tex_offset = Vector2( -64, -64 )
17/modulate = Color( 1, 1, 1, 1 )
17/region = Rect2( 512, 768, 256, 256 )
17/tile_mode = 0
17/occluder_offset = Vector2( 0, 0 )
17/navigation_offset = Vector2( 0, 0 )
17/shape_offset = Vector2( 0, 0 )
17/shape_transform = Transform2D( 1, 0, 0, 1, 0, 0 )
17/shape_one_way = false
17/shape_one_way_margin = 0.0
17/shapes = [  ]
17/z_index = 0
18/name = "worldmap.png 18"
18/texture = ExtResource( 1 )
18/tex_offset = Vector2( -64, -64 )
18/modulate = Color( 1, 1, 1, 1 )
18/region = Rect2( 768, 768, 256, 256 )
18/tile_mode = 0
18/occluder_offset = Vector2( 0, 0 )
18/navigation_offset = Vector2( 0, 0 )
18/shape_offset = Vector2( 0, 0 )
18/shape_transform = Transform2D( 1, 0, 0, 1, 0, 0 )
18/shape_one_way = false
18/shape_one_way_margin = 0.0
18/shapes = [  ]
18/z_index = 0
19/name = "worldmap.png 19"
19/texture = ExtResource( 1 )
19/tex_offset = Vector2( -64, -64 )
19/modulate = Color( 1, 1, 1, 1 )
19/region = Rect2( 1024, 768, 256, 256 )
19/tile_mode = 0
19/occluder_offset = Vector2( 0, 0 )
19/navigation_offset = Vector2( 0, 0 )
19/shape_offset = Vector2( 0, 0 )
19/shape_transform = Transform2D( 1, 0, 0, 1, 0, 0 )
19/shape_one_way = false
19/shape_one_way_margin = 0.0
19/shapes = [  ]
19/z_index = 0
