{
	"multiverse":{
		"n":"multiverse",
		"d":"multiverse",
		"min":9,
		"max":9,
		"i":[
			{"min":1,"max":1,	"n":"universe"},
			{"min":1,"max":1,	"n":"dreamuniverse"},
		],
		"color":"white"
	},
	"dreamworld":{
		"n":"??",
		"d":"??",
		"min":9,
		"max":9,
		"i":[
			{"min":1,"max":1,	"n":"universe"},
			{"min":1,"max":1,	"n":"dreamuniverse"},
		],
		"color":"deepblack"
	},
	
	
	
	
	
	
	
	
	
	
	"galaxygroup":{
		"n":"galaxy group",
		"d":"group of nearby galaxies",
		"min":8,
		"max":8,
		"i":[
			{"min":0,"max":3,	"n":"ellipticgalaxy"},
			{"min":1,"max":5,	"n":"smallgalaxy"},
			{"min":1,"max":2,	"n":"spiralgalaxy"}
		],
		"color":"deepblack"
	},
	"stargroup":{
		"n":"star group",
		"d":"group of nearby stars",
		"min":8,
		"max":8,
		"i":[
			{"min":10,"max":20,	"n":"star"}
		],
		"color":"deepblack"
	},
	"star":{
		"n":"planetary system",
		"d":"planetary system",
		"min":8,
		"max":8,
		"i":[
			{"min":2,"max":5,	"n":"planet"},
			{"min":0,"max":5,	"n":"jovian"},
			{"min":1,"max":2,	"n":"starbig"}
		],
		"color":"deepblack"
	},
	
	
	"bushland":{
		"n":"forest",
		"d":"bushes",
		"min":9,
		"max":9,
		"i":[
			{"min":2,"max":8,	"n":"bush"},
			{"min":2,"max":8,	"n":"grass"},
			{"min":2,"max":8,	"n":"tree"},
			{"min":2,"max":8,	"n":"branches"}
		],
		"build":[
			"hut"
		],
		"color":"forest"
	},
	"parking":{
		"n":"parking lot",
		"d":"street",
		"min":5,
		"max":9,
		"i":[
			{"min":5,"max":8,	"n":"car"},
			{"min":0,"max":1,	"n":"trashcan"},
		],
		"color":"black"
	},
	"terminal":{
		"n":"airport terminal",
		"d":"street",
		"min":5,
		"max":9,
		"i":[
			{"min":2,"max":8,	"n":"seats"}
		],
		"color":"white"
	},
	"park":{
		"n":"park",
		"d":"street",
		"min":7,
		"max":9,
		"i":[],
		"build":[
			"graffiti"
		],
		"color":"forest"
	},
	"block":{
		"n":"neighborhood",
		"d":"street",
		"min":9,
		"max":9,
		"i":[
			{"min":1,"max":3,	"n":"building"},
			{"min":0,"max":2,	"n":"container"},
			{"min":0,"max":1,	"n":"phonebooth"},
			{"min":0,"max":1,	"n":"car"},
		],		
		"build":[
			"graffiti"
		],
		"color":"black"
	},
	"neighborhood":{
		"n":"neighborhood",
		"d":"street",
		"min":9,
		"max":9,
		"i":[
			{"min":1,"max":3,	"n":"house"}
		],		
		"build":[
			"graffiti"
		],
		"color":"black"
	},
	

	"hall":{
		"n":"hall",
		"d":"hall",
		"min":3,
		"max":6,
		"i":[],
		"color":"floor"
	},
	"balcony":{
		"n":"balcony",
		"d":"balcony",
		"min":1,
		"max":3,
		"i":[
			{"min":0,"max":3,	"n":"potplant"},
		],
		"color":"brick"
	},
	"terrasse":{
		"n":"terrasse",
		"d":"terrasse",
		"min":3,
		"max":6,
		"i":[			
			{"min":0,"max":2,	"n":"chair"},
			{"min":0,"max":1,	"n":"desk"},
			{"min":0,"max":4,	"n":"potplant"},
			{"min":0,"max":2,	"n":"bush"}
		],
		"color":"brick"
	},
	"garden":{
		"n":"garden",
		"d":"garden",
		"min":3,
		"max":8,
		"i":[
			{"min":0,"max":3,	"n":"bush"},
			{"min":0,"max":3,	"n":"grass"},
			{"min":1,"max":3,	"n":"tree"},
			{"min":0,"max":8,	"n":"planted"},
			{"min":1,"max":8,	"n":"potplant"},
			{"min":0,"max":2,	"n":"bench"},
		],
		"color":"forest"
	},
	"bedroom_small":{
		"n":"bedroom",
		"d":"bedroom",
		"min":3,
		"max":5,
		"i":[
			{"min":1,"max":1,	"n":"bed_small"},
			{"min":1,"max":2,	"n":"wardrobe_small"},
			{"min":0,"max":2,	"n":"table_small"},
			{"min":0,"max":1,	"n":"table_desk"},
			{"min":0,"max":2,	"n":"chair"},
		],
		"color":"floor"
	},
	"bedroom_large":{
		"n":"bedroom",
		"d":"bedroom",
		"min":5,
		"max":7,
		"i":[
			{"min":1,"max":1,	"n":"bed_large"},
			{"min":0,"max":2,	"n":"wardrobe_small"},
			{"min":0,"max":1,	"n":"wardrobe_big"},
			{"min":0,"max":2,	"n":"table_small"},
			{"min":0,"max":2,	"n":"chair"}
		],
		"color":"floor"
	},
	"bathroom":{
		"n":"bathroom",
		"d":"bathroom",
		"min":3,
		"max":5,
		"i":[
			{"min":1,"max":1,	"n":"sink"},
			{"min":1,"max":1,	"n":"toilet"},
			{"min":0,"max":1,	"n":"bathtub"},
			{"min":0,"max":1,	"n":"shower"},
			{"min":0,"max":1,	"n":"trashcan"},
			{"min":0,"max":1,	"n":"wardrobe_small"},
		],
		"color":"floor"
	},
	"living":{
		"n":"living room",
		"d":"living room",
		"min":6,
		"max":8,
		"i":[
			{"min":1,"max":1,	"n":"table_large"},
			{"min":0,"max":2,	"n":"table_desk"},
			{"min":1,"max":4,	"n":"sofa"},
			{"min":0,"max":2,	"n":"armchair"},
			{"min":1,"max":4,	"n":"bookshelf"}
		],
		"color":"floor"
	},
	"studio":{
		"n":"studio",
		"d":"studio",
		"min":3,
		"max":5,
		"i":[
			{"min":1,"max":2,	"n":"desk"},
			{"min":0,"max":1,	"n":"armchair"},
			{"min":0,"max":1,	"n":"chair"},
			{"min":0,"max":2,	"n":"wardrobe_small"},
			{"min":1,"max":4,	"n":"bookshelf"}
		],
		"color":"floor"
	},
	"garage":{
		"n":"garage",
		"d":"garage",
		"min":6,
		"max":8,
		"i":[
			{"min":0,"max":3,	"n":"wardrobe_small"},
			{"min":0,"max":2,	"n":"wardrobe_big"},
			{"min":0,"max":1,	"n":"trashcan"},
			{"min":1,"max":4,	"n":"workbench"},
			{"min":0,"max":1,	"n":"sink"},
		],
		"color":"floor"
	},
	"kitchen":{
		"n":"kitchen",
		"d":"kitchen",
		"min":4,
		"max":8,
		"i":[
			{"min":0,"max":1,	"n":"table_desk"},
			{"min":0,"max":1,	"n":"sink"},
			{"min":0,"max":1,	"n":"trashcan"},
			{"min":0,"max":2,	"n":"wardrobe_small"},
			{"min":1,"max":1,	"n":"furnace"},
			{"min":1,"max":1,	"n":"fridge"},
			{"min":1,"max":1,	"n":"blender"},
		],
		"color":"floor"
	},
	
	
	"speak":{
		"n":"speak",
		"d":"speak",
		"min":9,
		"max":9,
		"i":[],
		"color":"wood"
	},	
	"battle":{
		"n":"battle",
		"d":"battle",
		"min":4,
		"max":4,
		"i":[],
		"color":"wood"
	},
	"fight":{
		"n":"fight",
		"d":"fight",
		"min":9,
		"max":9,
		"i":[],
		"build":[
			"punch"
		],
		"color":"black"
	},
	"cards":{
		"n":"cards",
		"d":"cards",
		"min":9,
		"max":9,
		"i":[],
		"build":[
			"play",
			"double",
			"retire",
			"abandon"
		],
		"color":"forest"
	},
	"circuit":{
		"n":"circuit",
		"d":"circuit",
		"min":9,
		"max":9,
		"i":[
			{"min":2,"max":4,	"n":"in"},
			{"min":2,"max":4,	"n":"out"}			
		],
		"build":[
			"cable",
			"pliers",
			"on",
			"schema",
			"not",
			"and",
			"or",
			"battery"			
		],
		"color":"black"
	},
}