[gd_scene load_steps=9 format=2]

[ext_resource path="res://tilesets/floor.tres" type="TileSet" id=2]
[ext_resource path="res://object/player.tscn" type="PackedScene" id=3]
[ext_resource path="res://scenarios/scenario.gd" type="Script" id=4]
[ext_resource path="res://object/npc.tscn" type="PackedScene" id=5]
[ext_resource path="res://tilesets/items.tres" type="TileSet" id=6]
[ext_resource path="res://object/door.tscn" type="PackedScene" id=7]
[ext_resource path="res://tilesets/mask.tres" type="TileSet" id=9]
[ext_resource path="res://tilesets/main.tres" type="TileSet" id=10]

[node name="overworld" type="Node2D"]
script = ExtResource( 4 )

[node name="FloorItems" type="TileMap" parent="."]
tile_set = ExtResource( 2 )
format = 1
tile_data = PoolIntArray( 720899, 14, 0, 720900, 14, 0 )

[node name="BaseItems3" type="TileMap" parent="."]
tile_set = ExtResource( 10 )
format = 1
tile_data = PoolIntArray( 196609, 37, 0, 196610, 37, 0, 196611, 37, 0, 262145, 37, 0, 262146, 37, 0, 262147, 37, 0, 262148, 37, 0, 262149, 37, 0, 262150, 37, 0, 262151, 37, 0, 262152, 37, 0, 262153, 37, 0, 262154, 37, 0, 262155, 37, 0, 262156, 37, 0, 262157, 37, 0, 262158, 37, 0, 327681, 37, 0, 327682, 37, 0, 327683, 37, 0, 327684, 37, 0, 327685, 37, 0, 327686, 37, 0, 327687, 37, 0, 327688, 37, 0, 327689, 37, 0, 327690, 37, 0, 327691, 37, 0, 327692, 37, 0, 327693, 37, 0, 327694, 37, 0, 393217, 37, 0, 393218, 37, 0, 393219, 37, 0, 393220, 37, 0, 393221, 37, 0, 393222, 37, 0, 393223, 37, 0, 393224, 37, 0, 393225, 37, 0, 393226, 37, 0, 393227, 37, 0, 393228, 37, 0, 393229, 37, 0, 393230, 37, 0, 458753, 37, 0, 458754, 37, 0, 458755, 37, 0, 458756, 536870949, 0, 458757, 26, 0, 458758, 26, 0, 458759, 26, 0, 458760, 26, 0, 458761, 37, 0, 458762, 37, 0, 458763, 37, 0, 458764, 37, 0, 458765, 37, 0, 458766, 37, 0, 524289, 37, 0, 524290, 37, 0, 524291, 37, 0, 524292, 37, 0, 524293, 37, 0, 524294, 37, 0, 524295, 37, 0, 524296, 37, 0, 524297, 37, 0, 524298, 37, 0, 524299, 37, 0, 524300, 37, 0, 524301, 37, 0, 524302, 37, 0, 589825, 37, 0, 589826, 37, 0, 589827, 37, 0, 589828, 37, 0, 589829, 37, 0, 589830, 37, 0, 589831, 37, 0, 589832, 37, 0, 589833, 37, 0, 589834, 37, 0, 589835, 37, 0, 589836, 37, 0, 589837, 37, 0, 589838, 37, 0, 655361, 37, 0, 655362, 37, 0, 655363, 37, 0, 655364, 37, 0, 655365, 37, 0, 655366, 37, 0, 655367, 37, 0, 655368, 37, 0, 655369, 37, 0, 655370, 37, 0, 655371, 37, 0, 655372, 37, 0, 655373, 37, 0, 655374, 37, 0, 720899, 37, 0, 720900, 37, 0 )

[node name="BaseItems4" type="TileMap" parent="."]
tile_set = ExtResource( 6 )
format = 1
tile_data = PoolIntArray( 196609, 536870948, 0, 196610, 536870948, 0, 196611, 536870948, 0, 262145, 536870948, 0, 262146, 536870948, 0, 262147, 536870948, 0, 262148, 536870941, 0, 262149, 7, 0, 262150, 44, 0, 262152, 7, 0, 262153, 0, 0, 262155, 29, 0, 262157, 29, 0, 262158, 29, 0, 327681, 536870948, 0, 327682, 536870948, 0, 327683, 536870948, 0, 327684, 29, 0, 327685, 7, 0, 327688, 7, 0, 327689, 0, 0, 327691, 536870912, 0, 327692, 536870922, 0, 327693, 536870922, 0, 327694, 536870912, 0, 393217, 536870948, 0, 393218, 536870948, 0, 393219, 536870948, 0, 393220, 536870912, 0, 393221, 7, 0, 393222, 7, 0, 393223, 7, 0, 393224, 7, 0, 393225, 0, 0, 393227, 536870912, 0, 393228, 536870922, 0, 393229, 536870922, 0, 393230, 536870912, 0, 458753, 536870948, 0, 458754, 536870948, 0, 458755, 536870948, 0, 458756, 0, 0, 458761, 0, 0, 458764, 1073741849, 0, 458765, 1610612761, 0, 524293, 0, 0, 524296, 0, 0, 524299, 536870912, 0, 524300, 536870922, 0, 524301, 536870922, 0, 524302, 536870912, 0, 589835, 536870912, 0, 589836, 536870922, 0, 589837, 536870922, 0, 589838, 536870912, 0, 655372, 1073741849, 0, 655373, 1610612761, 0 )

[node name="Nodes" type="YSort" parent="."]
z_as_relative = false

[node name="player" parent="Nodes" instance=ExtResource( 3 )]
position = Vector2( 224, 672 )
cameraLimit = Vector2( 1000, 1000 )

[node name="door" parent="Nodes" instance=ExtResource( 7 )]
position = Vector2( 192, 704 )
scale = Vector2( 2, 1 )
door = "free/drosia"

[node name="door_up" parent="Nodes" instance=ExtResource( 7 )]
position = Vector2( 64, 192 )
scale = Vector2( 3, 1 )
door = "inn_room"

[node name="man" parent="Nodes" instance=ExtResource( 5 )]
position = Vector2( 416, 352 )
type = "free_man"
dialog = "drosia_inn_shop"

[node name="CollisionShape2D" parent="Nodes/man/Area2D" index="0"]
position = Vector2( 0, 128 )

[node name="npc" parent="Nodes/man" instance=ExtResource( 5 )]
position = Vector2( 288, 96 )
type = "free_man"
dialog = "drosia_casual"

[node name="BaseItems2" type="TileMap" parent="."]
tile_set = ExtResource( 6 )
format = 1
tile_data = PoolIntArray( 262149, 10, 0, 262152, 10, 0, 327685, 10, 0, 327688, 10, 0, 393221, 10, 0, 393222, 10, 0, 393223, 10, 0, 393224, 10, 0 )

[node name="TopItems" type="TileMap" parent="."]
tile_set = ExtResource( 6 )
format = 1
tile_data = PoolIntArray( 196609, 536870935, 0, 196610, 536870935, 0, 196611, 536870935, 0, 262152, 42, 0, 327685, 41, 0, 327688, 41, 0, 327692, 41, 0, 393222, 41, 0, 393224, 10, 0, 524301, 41, 0, 524303, 22, 0, 589836, 42, 0, 720899, 536870936, 0, 720900, 536870936, 0 )

[node name="collision" type="TileMap" parent="."]
visible = false
tile_set = ExtResource( 9 )
format = 1
tile_data = PoolIntArray( 131072, 536870912, 0, 131073, 536870912, 0, 131074, 536870912, 0, 131075, 536870912, 0, 131076, 536870912, 0, 196608, 536870912, 0, 196612, 536870912, 0, 196613, 536870912, 0, 262144, 536870912, 0, 262148, 536870912, 0, 262149, 536870912, 0, 327680, 536870912, 0, 327685, 536870912, 0, 327688, 536870912, 0, 327689, 536870912, 0, 327690, 536870912, 0, 393216, 536870912, 0, 393220, 536870912, 0, 393221, 536870912, 0, 393224, 536870912, 0, 393226, 536870912, 0, 393227, 536870912, 0, 393228, 536870912, 0, 458752, 536870912, 0, 458757, 536870912, 0, 458758, 536870912, 0, 458759, 536870912, 0, 458760, 536870912, 0, 458764, 536870912, 0, 524288, 536870912, 0, 524298, 536870912, 0, 524299, 536870912, 0, 524300, 536870912, 0, 589824, 536870912, 0, 589833, 536870912, 0, 589834, 536870912, 0, 655360, 536870912, 0, 655361, 536870912, 0, 655369, 536870912, 0, 720897, 536870912, 0, 720898, 536870912, 0, 720901, 536870912, 0, 720902, 536870912, 0, 720903, 536870912, 0, 720904, 536870912, 0, 720905, 536870912, 0, 786434, 536870912, 0, 786435, 536870912, 0, 786436, 536870912, 0, 786437, 536870912, 0 )

[node name="Camera2D" type="Camera2D" parent="."]
position = Vector2( 0, 192 )
anchor_mode = 0
current = true

[editable path="Nodes/man"]
