[gd_scene load_steps=10 format=2]

[ext_resource path="res://object/monsters/Cat.tscn" type="PackedScene" id=1]
[ext_resource path="res://tilesets/floor.tres" type="TileSet" id=2]
[ext_resource path="res://object/player.tscn" type="PackedScene" id=3]
[ext_resource path="res://scenarios/scenario.gd" type="Script" id=4]
[ext_resource path="res://object/npc.tscn" type="PackedScene" id=5]
[ext_resource path="res://tilesets/items.tres" type="TileSet" id=6]
[ext_resource path="res://object/door.tscn" type="PackedScene" id=7]
[ext_resource path="res://tilesets/mask.tres" type="TileSet" id=9]
[ext_resource path="res://tilesets/main.tres" type="TileSet" id=10]

[node name="overworld" type="Node2D"]
script = ExtResource( 4 )

[node name="FloorItems" type="TileMap" parent="."]
tile_set = ExtResource( 2 )
format = 1
tile_data = PoolIntArray( 196609, 21, 0, 196611, 21, 0, 262145, 21, 0, 262146, 21, 0, 262147, 21, 0, 262151, 13, 0, 262152, 13, 0, 327681, 21, 0, 327685, 14, 0, 327686, 15, 0, 327687, 13, 0, 327688, 13, 0, 327689, 15, 0, 327690, 14, 0, 393217, 4, 0, 393218, 4, 0, 393219, 536870916, 0, 393221, 15, 0, 393222, 14, 0, 393223, 14, 0, 393224, 14, 0, 393225, 14, 0, 393226, 15, 0, 393228, 4, 0, 393229, 4, 0, 393230, 4, 0, 458753, 4, 0, 458754, 4, 0, 458755, 4, 0, 458756, 13, 0, 458757, 13, 0, 458758, 14, 0, 458759, 13, 0, 458760, 13, 0, 458761, 14, 0, 458762, 13, 0, 458763, 13, 0, 458764, 4, 0, 458765, 4, 0, 458766, 4, 0, 524289, 4, 0, 524290, 4, 0, 524291, 4, 0, 524292, 13, 0, 524293, 13, 0, 524294, 14, 0, 524295, 13, 0, 524296, 13, 0, 524297, 14, 0, 524298, 13, 0, 524299, 13, 0, 524300, 4, 0, 524301, 4, 0, 524302, 4, 0, 589825, 4, 0, 589826, 4, 0, 589827, 4, 0, 589829, 15, 0, 589830, 14, 0, 589831, 14, 0, 589832, 14, 0, 589833, 14, 0, 589834, 15, 0, 589836, 4, 0, 589837, 4, 0, 589838, 4, 0, 655365, 14, 0, 655366, 15, 0, 655367, 13, 0, 655368, 13, 0, 655369, 15, 0, 655370, 14, 0, 720903, 13, 0, 720904, 13, 0 )

[node name="BaseItems3" type="TileMap" parent="."]
tile_set = ExtResource( 10 )
format = 1
tile_data = PoolIntArray( 196613, 38, 0, 196614, 38, 0, 196615, 38, 0, 196616, 38, 0, 196617, 38, 0, 196618, 38, 0, 262145, 38, 0, 262146, 38, 0, 262147, 38, 0, 262149, 38, 0, 262150, 38, 0, 262153, 38, 0, 262154, 38, 0, 262156, 38, 0, 262157, 38, 0, 262158, 38, 0, 327681, 38, 0, 327682, 38, 0, 327683, 38, 0, 327684, 38, 0, 327691, 38, 0, 327692, 38, 0, 327693, 38, 0, 327694, 38, 0, 393217, 37, 0, 393218, 37, 0, 393219, 37, 0, 393220, 38, 0, 393227, 38, 0, 393228, 37, 0, 393229, 37, 0, 393230, 37, 0, 458753, 37, 0, 458754, 37, 0, 458755, 37, 0, 458764, 37, 0, 458765, 37, 0, 458766, 37, 0, 524289, 37, 0, 524290, 37, 0, 524291, 37, 0, 524300, 37, 0, 524301, 37, 0, 524302, 37, 0, 589825, 37, 0, 589826, 37, 0, 589827, 37, 0, 589836, 37, 0, 589837, 37, 0, 589838, 37, 0 )

[node name="BaseItems4" type="TileMap" parent="."]
tile_set = ExtResource( 6 )
format = 1
tile_data = PoolIntArray( 196615, 1, 0, 196616, 1, 0, 196617, -1610612705, 0, 196618, -1610612705, 0, 262149, -1610612705, 0, 262153, 4, 0, 262154, 4, 0, 327685, 536870916, 0, 327689, 4, 0, 327690, 4, 0, 327693, -1073741798, 0, 327694, -1073741798, 0, 393217, 36, 0, 393218, 36, 0, 393219, 44, 0, 393221, 536870916, 0, 393222, 0, 0, 524297, -1610612705, 0, 524298, -1610612705, 0, 524301, 28, 0, 524302, 28, 0, 589825, 17, 0, 589826, 536870939, 0, 589827, 536870929, 0, 655365, 0, 0 )

[node name="BaseItems5" type="TileMap" parent="."]
tile_set = ExtResource( 6 )
format = 1
tile_data = PoolIntArray( 327693, 15, 0, 393229, -1610612725, 0, 524301, 26, 0, 524302, 536870938, 0 )

[node name="Nodes" type="YSort" parent="."]
z_as_relative = false

[node name="player" parent="Nodes" instance=ExtResource( 3 )]
position = Vector2( 448, 640 )
cameraLimit = Vector2( 1000, 1000 )

[node name="door" parent="Nodes" instance=ExtResource( 7 )]
visible = false
position = Vector2( 448, 704 )
scale = Vector2( 2, 1 )
door = "free/syntrivani"

[node name="man" parent="Nodes" instance=ExtResource( 5 )]
position = Vector2( 384, 320 )
type = "free_man"
dialog = "syntrivani_book_wanted"

[node name="Cat" parent="Nodes" instance=ExtResource( 1 )]
position = Vector2( 768, 512 )
color = "bronze"

[node name="BaseItems2" type="TileMap" parent="."]
tile_set = ExtResource( 6 )
format = 1
tile_data = PoolIntArray( 327694, 536870927, 0, 393229, 7, 0, 393230, 7, 0, 458765, 7, 0, 458766, 7, 0, 524289, 536870933, 0, 524290, 536870933, 0, 524291, 536870933, 0, 524297, -1610612705, 0, 524298, -1610612705, 0, 524301, 16, 0, 524302, 536870928, 0, 589833, 4, 0, 589834, 4, 0, 655369, 4, 0, 655370, 4, 0 )

[node name="TopItems" type="TileMap" parent="."]
tile_set = ExtResource( 6 )
format = 1
tile_data = PoolIntArray( 262144, 22, 0, 327680, 22, 0, 327684, 24, 0, 327691, 24, 0, 393220, 24, 0, 393227, 24, 0, 393229, -2147483637, 0, 393230, -2147483637, 0, 458756, 24, 0, 458763, 24, 0, 524289, 536870953, 0, 524291, 536870954, 0, 524292, 22, 0, 524299, 22, 0, 524303, 22, 0, 589838, 0, 0, 589839, 22, 0, 720903, 24, 0, 720904, 24, 0 )

[node name="collision" type="TileMap" parent="."]
visible = false
tile_set = ExtResource( 9 )
format = 1
tile_data = PoolIntArray( 196614, 0, 0, 196615, 0, 0, 196616, 0, 0, 196617, 0, 0, 262148, 0, 0, 262149, 0, 0, 262150, 0, 0, 262151, 0, 0, 262152, 0, 0, 262153, 0, 0, 262154, 0, 0, 262155, 0, 0, 327680, 0, 0, 327681, 0, 0, 327682, 0, 0, 327683, 0, 0, 327684, 0, 0, 327689, 0, 0, 327690, 0, 0, 327691, 0, 0, 327692, 0, 0, 327693, 0, 0, 327694, 0, 0, 327695, 0, 0, 393216, 0, 0, 393217, 0, 0, 393218, 0, 0, 393219, 0, 0, 393220, 0, 0, 393221, 0, 0, 393222, 0, 0, 393227, 0, 0, 393229, 0, 0, 393230, 0, 0, 393231, 0, 0, 458752, 0, 0, 458765, 0, 0, 458766, 0, 0, 458767, 0, 0, 524288, 0, 0, 524301, 0, 0, 524302, 0, 0, 524303, 0, 0, 589824, 0, 0, 589825, 0, 0, 589826, 0, 0, 589827, 0, 0, 589828, 0, 0, 589835, 0, 0, 589838, 0, 0, 589839, 0, 0, 655360, 0, 0, 655361, 0, 0, 655362, 0, 0, 655363, 0, 0, 655364, 0, 0, 655365, 0, 0, 655369, 0, 0, 655370, 0, 0, 655371, 0, 0, 655372, 0, 0, 655373, 0, 0, 655374, 0, 0, 655375, 0, 0, 720900, 0, 0, 720901, 0, 0, 720902, 0, 0, 720905, 0, 0, 720906, 0, 0, 720907, 0, 0, 786438, 0, 0, 786439, 0, 0, 786440, 0, 0, 786441, 0, 0 )

[node name="Camera2D" type="Camera2D" parent="."]
position = Vector2( 0, 160 )
anchor_mode = 0
current = true
