[gd_scene load_steps=7 format=2]

[ext_resource path="res://Player.tscn" type="PackedScene" id=1]
[ext_resource path="res://worldmap/worldmap.gd" type="Script" id=2]
[ext_resource path="res://spritesheet (17).png" type="Texture" id=3]
[ext_resource path="res://city/autotile.png" type="Texture" id=4]
[ext_resource path="res://city/forst.png" type="Texture" id=5]

[sub_resource type="TileSet" id=1]
6/name = "autotile.png 6"
6/texture = ExtResource( 4 )
6/tex_offset = Vector2( 0, 0 )
6/modulate = Color( 1, 1, 1, 1 )
6/region = Rect2( 0, 0, 256, 256 )
6/tile_mode = 1
6/autotile/bitmask_mode = 0
6/autotile/bitmask_flags = [ Vector2( 0, 0 ), 65, Vector2( 0, 1 ), 257, Vector2( 0, 2 ), 4, Vector2( 1, 0 ), 260, Vector2( 1, 1 ), 324, Vector2( 1, 2 ), 5, Vector2( 1, 3 ), 256, Vector2( 2, 0 ), 321, Vector2( 2, 1 ), 325, Vector2( 2, 2 ), 261, Vector2( 2, 3 ), 68, Vector2( 3, 0 ), 320, Vector2( 3, 1 ), 69, Vector2( 3, 2 ), 65, Vector2( 3, 3 ), 1 ]
6/autotile/icon_coordinate = Vector2( 0, 0 )
6/autotile/tile_size = Vector2( 64, 64 )
6/autotile/spacing = 0
6/autotile/occluder_map = [  ]
6/autotile/navpoly_map = [  ]
6/autotile/priority_map = [  ]
6/autotile/z_index_map = [  ]
6/occluder_offset = Vector2( 0, 0 )
6/navigation_offset = Vector2( 0, 0 )
6/shape_offset = Vector2( 0, 0 )
6/shape_transform = Transform2D( 1, 0, 0, 1, 0, 0 )
6/shape_one_way = false
6/shape_one_way_margin = 0.0
6/shapes = [  ]
6/z_index = 0
7/name = "forst.png 7"
7/texture = ExtResource( 5 )
7/tex_offset = Vector2( 0, 0 )
7/modulate = Color( 1, 1, 1, 1 )
7/region = Rect2( 0, 0, 256, 256 )
7/tile_mode = 1
7/autotile/bitmask_mode = 0
7/autotile/bitmask_flags = [ Vector2( 0, 0 ), 65, Vector2( 0, 1 ), 257, Vector2( 0, 2 ), 4, Vector2( 1, 0 ), 260, Vector2( 1, 1 ), 324, Vector2( 1, 2 ), 5, Vector2( 1, 3 ), 256, Vector2( 2, 0 ), 321, Vector2( 2, 1 ), 325, Vector2( 2, 2 ), 261, Vector2( 2, 3 ), 68, Vector2( 3, 0 ), 320, Vector2( 3, 1 ), 69, Vector2( 3, 2 ), 65, Vector2( 3, 3 ), 1 ]
7/autotile/icon_coordinate = Vector2( 0, 0 )
7/autotile/tile_size = Vector2( 64, 64 )
7/autotile/spacing = 0
7/autotile/occluder_map = [  ]
7/autotile/navpoly_map = [  ]
7/autotile/priority_map = [  ]
7/autotile/z_index_map = [  ]
7/occluder_offset = Vector2( 0, 0 )
7/navigation_offset = Vector2( 0, 0 )
7/shape_offset = Vector2( 0, 0 )
7/shape_transform = Transform2D( 1, 0, 0, 1, 0, 0 )
7/shape_one_way = false
7/shape_one_way_margin = 0.0
7/shapes = [  ]
7/z_index = 0
8/name = "spritesheet (17).png 8"
8/texture = ExtResource( 3 )
8/tex_offset = Vector2( 0, 0 )
8/modulate = Color( 1, 1, 1, 1 )
8/region = Rect2( 384, 0, 64, 64 )
8/tile_mode = 0
8/occluder_offset = Vector2( 0, 0 )
8/navigation_offset = Vector2( 0, 0 )
8/shape_offset = Vector2( 0, 0 )
8/shape_transform = Transform2D( 1, 0, 0, 1, 0, 0 )
8/shape_one_way = false
8/shape_one_way_margin = 0.0
8/shapes = [  ]
8/z_index = 0
9/name = "spritesheet (17).png 9"
9/texture = ExtResource( 3 )
9/tex_offset = Vector2( 0, 0 )
9/modulate = Color( 1, 1, 1, 1 )
9/region = Rect2( 768, 0, 64, 64 )
9/tile_mode = 0
9/occluder_offset = Vector2( 0, 0 )
9/navigation_offset = Vector2( 0, 0 )
9/shape_offset = Vector2( 0, 0 )
9/shape_transform = Transform2D( 1, 0, 0, 1, 0, 0 )
9/shape_one_way = false
9/shape_one_way_margin = 0.0
9/shapes = [  ]
9/z_index = 0
10/name = "spritesheet (17).png 10"
10/texture = ExtResource( 3 )
10/tex_offset = Vector2( 0, 0 )
10/modulate = Color( 1, 1, 1, 1 )
10/region = Rect2( 256, 0, 64, 64 )
10/tile_mode = 0
10/occluder_offset = Vector2( 0, 0 )
10/navigation_offset = Vector2( 0, 0 )
10/shape_offset = Vector2( 0, 0 )
10/shape_transform = Transform2D( 1, 0, 0, 1, 0, 0 )
10/shape_one_way = false
10/shape_one_way_margin = 0.0
10/shapes = [  ]
10/z_index = 0

[node name="worldmap" type="Node2D"]
position = Vector2( -23.4033, 135.588 )
script = ExtResource( 2 )

[node name="TileMap" type="TileMap" parent="."]
position = Vector2( -578.783, -444.85 )
z_as_relative = false
tile_set = SubResource( 1 )
cell_quadrant_size = 64
cell_custom_transform = Transform2D( 64, 0, 0, 0, 0, 0 )
cell_tile_origin = 2
cell_y_sort = true
centered_textures = true
format = 1
tile_data = PoolIntArray( 393219, 8, 0, 393220, 8, 0, 393221, 8, 0, 458755, 8, 0, 458757, 10, 0, 458758, 6, 0, 524291, 8, 0, 589827, 8, 0, 655363, 8, 0, 655366, 8, 0, 655367, 8, 0, 655368, 8, 0, 655369, 8, 0, 720899, 8, 0, 720900, 8, 0, 720901, 8, 0, 720902, 8, 0, 720903, 8, 0, 720904, 8, 0, 720905, 8, 0 )

[node name="TileMap2" type="TileMap" parent="."]
position = Vector2( -578.783, -444.85 )
z_as_relative = false
tile_set = SubResource( 1 )
cell_quadrant_size = 64
cell_custom_transform = Transform2D( 64, 0, 0, 0, 0, 0 )
cell_tile_origin = 2
cell_y_sort = true
centered_textures = true
format = 1
tile_data = PoolIntArray( 524293, 6, 0 )

[node name="Player" parent="." instance=ExtResource( 1 )]
