o Icosahedron 2
v -0.4253253936767578 0 0.525731086730957
v 0 0.2628655433654785 0.8506507873535156
v -0.2628655433654785 0.4253253936767578 0
v 0 0.2628655433654785 0.8506507873535156
v 0.2628655433654785 0.4253253936767578 0
v -0.2628655433654785 0.4253253936767578 0
v 0.2628655433654785 0.4253253936767578 0
v 0 0.2628655433654785 -0.8506507873535156
v -0.2628655433654785 0.4253253936767578 0
v 0 0.2628655433654785 -0.8506507873535156
v -0.4253253936767578 0 -0.525731086730957
v -0.2628655433654785 0.4253253936767578 0
v -0.4253253936767578 0 -0.525731086730957
v -0.4253253936767578 0 0.525731086730957
v -0.2628655433654785 0.4253253936767578 0
v 0 0.2628655433654785 0.8506507873535156
v 0.4253253936767578 0 0.525731086730957
v 0.2628655433654785 0.4253253936767578 0
v -0.4253253936767578 0 0.525731086730957
v 0 -0.2628655433654785 0.8506507873535156
v 0 0.2628655433654785 0.8506507873535156
v -0.4253253936767578 0 -0.525731086730957
v -0.2628655433654785 -0.4253253936767578 0
v -0.4253253936767578 0 0.525731086730957
v 0 0.2628655433654785 -0.8506507873535156
v 0 -0.2628655433654785 -0.8506507873535156
v -0.4253253936767578 0 -0.525731086730957
v 0.2628655433654785 0.4253253936767578 0
v 0.4253253936767578 0 -0.525731086730957
v 0 0.2628655433654785 -0.8506507873535156
v 0.4253253936767578 0 0.525731086730957
v 0 -0.2628655433654785 0.8506507873535156
v 0.2628655433654785 -0.4253253936767578 0
v 0 -0.2628655433654785 0.8506507873535156
v -0.2628655433654785 -0.4253253936767578 0
v 0.2628655433654785 -0.4253253936767578 0
v -0.2628655433654785 -0.4253253936767578 0
v 0 -0.2628655433654785 -0.8506507873535156
v 0.2628655433654785 -0.4253253936767578 0
v 0 -0.2628655433654785 -0.8506507873535156
v 0.4253253936767578 0 -0.525731086730957
v 0.2628655433654785 -0.4253253936767578 0
v 0.4253253936767578 0 -0.525731086730957
v 0.4253253936767578 0 0.525731086730957
v 0.2628655433654785 -0.4253253936767578 0
v 0.4253253936767578 0 0.525731086730957
v 0 0.2628655433654785 0.8506507873535156
v 0 -0.2628655433654785 0.8506507873535156
v 0 -0.2628655433654785 0.8506507873535156
v -0.4253253936767578 0 0.525731086730957
v -0.2628655433654785 -0.4253253936767578 0
v -0.2628655433654785 -0.4253253936767578 0
v -0.4253253936767578 0 -0.525731086730957
v 0 -0.2628655433654785 -0.8506507873535156
v 0 -0.2628655433654785 -0.8506507873535156
v 0 0.2628655433654785 -0.8506507873535156
v 0.4253253936767578 0 -0.525731086730957
v 0.4253253936767578 0 -0.525731086730957
v 0.2628655433654785 0.4253253936767578 0
v 0.4253253936767578 0 0.525731086730957
vt 0.5881040692329407 0.5
vt 0.75 0.6762081980705261
vt 0.5 0.8237918019294739
vt 0.75 0.6762081980705261
vt 1 0.8237918019294739
vt 0.5 0.8237918019294739
vt 0 0.8237918019294739
vt 0.25 0.6762081980705261
vt 0.5 0.8237918019294739
vt 0.25 0.6762081980705261
vt 0.41189590096473694 0.5
vt 0.5 0.8237918019294739
vt 0.41189590096473694 0.5
vt 0.5881040692329407 0.5
vt 0.5 0.8237918019294739
vt 0.75 0.6762081980705261
vt 0.9118959307670593 0.5
vt 1 0.8237918019294739
vt 0.5881040692329407 0.5
vt 0.75 0.3237918019294739
vt 0.75 0.6762081980705261
vt 0.41189590096473694 0.5
vt 0.5 0.17620819807052612
vt 0.5881040692329407 0.5
vt 0.25 0.6762081980705261
vt 0.25 0.3237918019294739
vt 0.41189590096473694 0.5
vt 0 0.8237918019294739
vt 0.08810409903526306 0.5
vt 0.25 0.6762081980705261
vt 0.9118959307670593 0.5
vt 0.75 0.3237918019294739
vt 1 0.17620819807052612
vt 0.75 0.3237918019294739
vt 0.5 0.17620819807052612
vt 1 0.17620819807052612
vt 0.5 0.17620819807052612
vt 0.25 0.3237918019294739
vt 0 0.17620819807052612
vt 0.25 0.3237918019294739
vt 0.08810409903526306 0.5
vt 0 0.17620819807052612
vt 1.0881041288375854 0.5
vt 0.9118959307670593 0.5
vt 1 0.17620819807052612
vt 0.9118959307670593 0.5
vt 0.75 0.6762081980705261
vt 0.75 0.3237918019294739
vt 0.75 0.3237918019294739
vt 0.5881040692329407 0.5
vt 0.5 0.17620819807052612
vt 0.5 0.17620819807052612
vt 0.41189590096473694 0.5
vt 0.25 0.3237918019294739
vt 0.25 0.3237918019294739
vt 0.25 0.6762081980705261
vt 0.08810409903526306 0.5
vt 1.0881041288375854 0.5
vt 1 0.8237918019294739
vt 0.9118959307670593 0.5
vn -1.154700517654419 1.154700517654419 0.5773502588272095
vn -1.154700517654419 1.154700517654419 0.5773502588272095
vn -1.154700517654419 1.154700517654419 0.5773502588272095
vn 0 1.8683446645736694 0.35682210326194763
vn 0 1.8683446645736694 0.35682210326194763
vn 0 1.8683446645736694 0.35682210326194763
vn 0 1.8683446645736694 -0.35682210326194763
vn 0 1.8683446645736694 -0.35682210326194763
vn 0 1.8683446645736694 -0.35682210326194763
vn -1.154700517654419 1.154700517654419 -0.5773502588272095
vn -1.154700517654419 1.154700517654419 -0.5773502588272095
vn -1.154700517654419 1.154700517654419 -0.5773502588272095
vn -1.8683446645736694 0.7136442065238953 0
vn -1.8683446645736694 0.7136442065238953 0
vn -1.8683446645736694 0.7136442065238953 0
vn 1.154700517654419 1.154700517654419 0.5773502588272095
vn 1.154700517654419 1.154700517654419 0.5773502588272095
vn 1.154700517654419 1.154700517654419 0.5773502588272095
vn -0.7136442065238953 0 0.9341723322868347
vn -0.7136442065238953 0 0.9341723322868347
vn -0.7136442065238953 0 0.9341723322868347
vn -1.8683446645736694 -0.7136442065238953 0
vn -1.8683446645736694 -0.7136442065238953 0
vn -1.8683446645736694 -0.7136442065238953 0
vn -0.7136442065238953 0 -0.9341723322868347
vn -0.7136442065238953 0 -0.9341723322868347
vn -0.7136442065238953 0 -0.9341723322868347
vn 1.154700517654419 1.154700517654419 -0.5773502588272095
vn 1.154700517654419 1.154700517654419 -0.5773502588272095
vn 1.154700517654419 1.154700517654419 -0.5773502588272095
vn 1.154700517654419 -1.154700517654419 0.5773502588272095
vn 1.154700517654419 -1.154700517654419 0.5773502588272095
vn 1.154700517654419 -1.154700517654419 0.5773502588272095
vn 0 -1.8683446645736694 0.35682210326194763
vn 0 -1.8683446645736694 0.35682210326194763
vn 0 -1.8683446645736694 0.35682210326194763
vn 0 -1.8683446645736694 -0.35682210326194763
vn 0 -1.8683446645736694 -0.35682210326194763
vn 0 -1.8683446645736694 -0.35682210326194763
vn 1.154700517654419 -1.154700517654419 -0.5773502588272095
vn 1.154700517654419 -1.154700517654419 -0.5773502588272095
vn 1.154700517654419 -1.154700517654419 -0.5773502588272095
vn 1.8683446645736694 -0.7136442065238953 0
vn 1.8683446645736694 -0.7136442065238953 0
vn 1.8683446645736694 -0.7136442065238953 0
vn 0.7136442065238953 0 0.9341723322868347
vn 0.7136442065238953 0 0.9341723322868347
vn 0.7136442065238953 0 0.9341723322868347
vn -1.154700517654419 -1.154700517654419 0.5773502588272095
vn -1.154700517654419 -1.154700517654419 0.5773502588272095
vn -1.154700517654419 -1.154700517654419 0.5773502588272095
vn -1.154700517654419 -1.154700517654419 -0.5773502588272095
vn -1.154700517654419 -1.154700517654419 -0.5773502588272095
vn -1.154700517654419 -1.154700517654419 -0.5773502588272095
vn 0.7136442065238953 0 -0.9341723322868347
vn 0.7136442065238953 0 -0.9341723322868347
vn 0.7136442065238953 0 -0.9341723322868347
vn 1.8683446645736694 0.7136442065238953 0
vn 1.8683446645736694 0.7136442065238953 0
vn 1.8683446645736694 0.7136442065238953 0
f 1/1/1 2/2/2 3/3/3
f 4/4/4 5/5/5 6/6/6
f 7/7/7 8/8/8 9/9/9
f 10/10/10 11/11/11 12/12/12
f 13/13/13 14/14/14 15/15/15
f 16/16/16 17/17/17 18/18/18
f 19/19/19 20/20/20 21/21/21
f 22/22/22 23/23/23 24/24/24
f 25/25/25 26/26/26 27/27/27
f 28/28/28 29/29/29 30/30/30
f 31/31/31 32/32/32 33/33/33
f 34/34/34 35/35/35 36/36/36
f 37/37/37 38/38/38 39/39/39
f 40/40/40 41/41/41 42/42/42
f 43/43/43 44/44/44 45/45/45
f 46/46/46 47/47/47 48/48/48
f 49/49/49 50/50/50 51/51/51
f 52/52/52 53/53/53 54/54/54
f 55/55/55 56/56/56 57/57/57
f 58/58/58 59/59/59 60/60/60
