{
	"Factions" : [
	{
		"Name" : "El Gran Imperio",
		"Government" : "Fascismo",
		"Culture" : "Japon imperial y Alemania nazi",
		"Image" : "nazi",
		"Story" : {
			"Real":"",
			"Ucrony":"",
			"WorldDomination":"",
			"SpaceHistory":""
		}		
	},
	{
		"Name" : "Union Sovietica Universal",
		"Government" : "Comunismo",
		"Culture" : "URSS y China comunista",
		"Image" : "soviet",
		"Story" : {
			"Real":"",
			"Ucrony":"",
			"WorldDomination":"",
			"SpaceHistory":"La conquista del espacio de los comunistas se inicia en medio de la guerra, con la ayuda de cientificos alemanes capturados. Tras colocar los primeros hombres en orbita y luego de la pacificacion de la Tierra, los sovieticos establecen una base permanente en la cara oculta de la Luna, y colonias orbitales en Venus. Dichas colonias pronto colonizan el cielo planetario, estableciendo enormes ciudades flotantes que acaban llenando el infernal paisaje de la atmosfera del planeta."
		}
	},
	{
		"Name" : "Confederacion de Jonia",
		"Government" : "Democracia federal",
		"Culture" : "Jonia clasica y Macedonia",
		"Image" : "ionia",
		"Story" : {
			"Real":"",
			"Ucrony":"",
			"WorldDomination":"",
			"SpaceHistory":"La civilizacion Jonica consigue grandes proezas en el espacio poco despues de conquistar America. Tras varias misiones no tripuladas a estrellas cercanas, Jonia establece varias bases en las lunas de Jupiter y Saturno, destacando sobre las demas Europa, donde pronto se erige una nueva capital, preparada para lanzar enormes flotas cientificas y colonizadoras dirigidas a otros mundos habitables mas alla de la nube de Oort."
		}		
	},
	{
		"Name" : "El Nuevo Califato",
		"Government" : "Teocracia",
		"Culture" : "Persia y Arabia",
		"Image" : "islam",
		"Story" : {
			"Real":"",
			"Ucrony":"",
			"WorldDomination":"",
			"SpaceHistory":"Pese a una gran tradicion astronomica y cientifica, la civilizacion islamica tarda un gran periodo de tiempo en lanzar sus primeras sondas no tripuladas mas alla de la atmosfera terrestre. Pocos detalles se conservan sobre la historia espacial del Califato, pero parece ser que sus primeras misiones fueron empujadas por una imminente crisis de superpoblacion en la Tierra, varios siglos despues de su total conquista."
		}
	},
	{
		"Name" : "Tercera Republica Romana",
		"Government" : "Republica",
		"Culture" : "Roma y cartago",
		"Image" : "rome",
		"Story" : {
			"Real":"",
			"Ucrony":"",
			"WorldDomination":"",
			"SpaceHistory":""
		}
	},
	{
		"Name" : "Dinastia Sikh",
		"Government" : "Democracia centralista",
		"Culture" : "Reino Sikh y China imperial",
		"Image" : "sikh",
		"Story" : {
			"Real":"",
			"Ucrony":"",
			"WorldDomination":"",
			"SpaceHistory":""
		}
	},
	{
		"Name" : "Imperio de la Serpiente",
		"Government" : "Dictadura",
		"Culture" : "Azteca e Inca",
		"Image" : "serpent",
		"Story" : {
			"Real":"",
			"Ucrony":"",
			"WorldDomination":"",
			"SpaceHistory":""
		}
	},
	{
		"Name" : "Imperio Austropruso-Espanol",
		"Government" : "Monarquia",
		"Culture" : "Imperios de Espana, Austria y Prusia",
		"Image" : "spain",
		"Story" : {
			"Real":"",
			"Ucrony":"",
			"WorldDomination":"",
			"SpaceHistory":""
		}
	},
	{
		"Name" : "Corporacion Universal",
		"Government" : "Corporativismo",
		"Culture" : "Japon postapocaliptico",
		"Image" : "corporation",
		"Story" : {
			"Real":"",
			"Ucrony":"",
			"WorldDomination":"",
			"SpaceHistory":""
		}
	},
	{
		"Name" : "Federacion Anarquista",
		"Government" : "Anarquia",
		"Culture" : "Anarquismo internacional",
		"Image" : "anarchy",
		"Story" : {
			"Real":"",
			"Ucrony":"",
			"WorldDomination":"",
			"SpaceHistory":""
		}
	},
	{
		"Name" : "EUU",
		"Government" : "Democracia federal",
		"Culture" : "Estados Unidos",
		"Image" : "usa",
		"Story" : {
			"Real":"",
			"Ucrony":"",
			"WorldDomination":"",
			"SpaceHistory":"Tras una victoriosa carrera espacial contra la Union Sovietica, los Estados Unidos situan el primer ser humano sobre la Luna. Poco tiempo despues, tras la derrota definitiva de los comunistas, se lanzan las primeras misiones tripuladas a Marte. Despues de un largo periodo y esfuerzo de terraformacion, Marte se convierte en un mundo habitable y es vastamente populado por colonos de la Tierra, con la mirada puesta a la las estrellas"
		}	
	},	
	{
		"Name" : "Imperio Francobritanico",
		"Government" : "Monarquia",
		"Culture" : "Inglaterra victoriana y Francia monarquica",
		"Image" : "france",
		"Story" : {
			"Real":"",
			"Ucrony":"",
			"WorldDomination":"",
			"SpaceHistory":""
		}
	},
	{
		"Name" : "Alianza de Isandlwana",
		"Government" : "Confederacion tribal",
		"Culture" : "Zulu y Etiope",
		"Image" : "zulu",
		"Story" : {
			"Real":"",
			"Ucrony":"",
			"WorldDomination":"",
			"SpaceHistory":""
		}
	},
	{
		"Name" : "Khanato celestial",
		"Government" : "Monarquia",
		"Culture" : "Turco Mongol",
		"Image" : "mongol",
		"Story" : {
			"Real":"",
			"Ucrony":"",
			"WorldDomination":"",
			"SpaceHistory":"La historia espacial del Khanato es de una arrolladora expansion, parecida a su advance en la Tierra. Tras unos siglos pasada la total dominacion planetaria, el Khan ordena la conquista de la Luna, que junto a una extensiva mineria asteroidal pronto lleva a dominar primero Marte y Venus, para luego expandirse a los mundos exteriores y rapidamente a las estrellas cercanas."
		}
	},
	{
		"Name" : "Condados del norte",
		"Government" : "Democracia",
		"Culture" : "Vikinga e Iroquesa ",
		"Image" : "viking",
		"Story" : {
			"Real":"",
			"Ucrony":"",
			"WorldDomination":"",
			"SpaceHistory":""
		}
	},
	{
		"Name" : "Reino Eterno de Egipto",
		"Government" : "Monarquia",
		"Culture" : "Egipto y Mesopotamia",
		"Image" : "egypt",
		"Story" : {
			"Real":"",
			"Ucrony":"",
			"WorldDomination":"",
			"SpaceHistory":""
		}
	}

	]
}