[gd_scene load_steps=6 format=2]

[ext_resource path="res://effects/effect.gd" type="Script" id=1]

[sub_resource type="Shader" id=1]
code = "/* 
Original shader from Fubucci – https://www.febucci.com/2019/05/fire-shader/ 
Converted to Godot Shader Language by Godot Shaders - godotshaders.com/shader/2D-fire/
*/

shader_type canvas_item;

uniform sampler2D noise_tex;

uniform float spread : hint_range(0.0, 1.0) = 0.9;
const float PI = 3.141592653589793238462643383;
void fragment()
{
	
	float noise_value = texture(noise_tex, UV + vec2(TIME*2.,0.0)).y;

	float gradient_value;
	
    if (sqrt(0.12-pow(UV.y-0.5,2))+0.6>UV.x && -sqrt(0.10-pow(UV.y-0.5,2))-sin(UV.y*40.)*0.1+(sin(30.*UV.y-TIME*5.)/8.)+0.6<UV.x){
		gradient_value = noise_value*2.;
	}
	else if (sqrt(0.15-pow(UV.y-0.5,2))+0.6>UV.x && -sqrt(0.15-pow(UV.y-0.5,2))-sin(UV.y*50.)*0.1+(sin(30.*UV.y-TIME*5.)/8.)+0.6<UV.x){
		gradient_value = noise_value*1.5;
	}
	else{
		gradient_value = 0.0;
	}
	
	
	COLOR = vec4(1,1,1,gradient_value);
	
}"

[sub_resource type="OpenSimplexNoise" id=2]

[sub_resource type="NoiseTexture" id=3]
width = 50
height = 100
seamless = true
noise = SubResource( 2 )

[sub_resource type="ShaderMaterial" id=4]
shader = SubResource( 1 )
shader_param/spread = 0.9
shader_param/noise_tex = SubResource( 3 )

[node name="Ball" type="ColorRect"]
modulate = Color( 1, 0, 0, 1 )
material = SubResource( 4 )
margin_right = 128.0
margin_bottom = 128.0
script = ExtResource( 1 )
__meta__ = {
"_edit_use_anchors_": false
}
