[gd_scene load_steps=4 format=2]

[ext_resource path="res://effects/effect.gd" type="Script" id=1]

[sub_resource type="Shader" id=1]
code = "shader_type canvas_item;
uniform vec4 color : hint_color = vec4(1.0, 0.8, 0.0, 1.0);
void fragment()
{
	if (distance(UV, vec2(0.5,0.5)) < 0.5 && distance(UV, vec2(0.5,0.5)) < 0.5) {
		vec3 c = vec3(0.0);
		float d = 0.0;
		
		vec2 a = UV;
		//a = UV *2.-1. ;
		d = length( abs(a)-.5 );
		COLOR = vec4(vec3(fract(d*10.0-TIME)),1.0);
	}
	else{
		COLOR.a = 0.0;
	}
}"

[sub_resource type="ShaderMaterial" id=2]
shader = SubResource( 1 )
shader_param/color = Color( 1, 0.8, 0, 1 )

[node name="Barrier" type="ColorRect"]
modulate = Color( 1, 0, 0, 1 )
material = SubResource( 2 )
margin_left = 640.0
margin_top = 128.0
margin_right = 768.0
margin_bottom = 256.0
script = ExtResource( 1 )
__meta__ = {
"_edit_use_anchors_": false
}
