[gd_scene load_steps=4 format=2]

[ext_resource path="res://effects/effect.gd" type="Script" id=1]

[sub_resource type="Shader" id=1]
code = "/* 
Original shader from Fubucci – https://www.febucci.com/2019/05/fire-shader/ 
Converted to Godot Shader Language by Godot Shaders - godotshaders.com/shader/2D-fire/
*/

shader_type canvas_item;

uniform sampler2D noise_tex;
uniform sampler2D gradient_tex;

uniform vec4 brighter_color : hint_color = vec4(1.0, 0.8, 0.0, 1.0);
uniform vec4 middle_color : hint_color  = vec4(1.0, 0.56, 0.0, 1.0);
uniform vec4 darker_color : hint_color  = vec4(0.64, 0.2, 0.05, 1.0);

uniform float spread : hint_range(0.0, 1.0) = 0.9;
const float PI = 3.141592653589793238462643383;
void fragment()
{
	
	float noise_value = texture(noise_tex, UV + vec2(0.0, TIME)).x;
	// The .yx swizzle is when using the built in horizontal gradient texture. If you have a vertical gradient texture remove .yx
	float gradient_value = texture(gradient_tex, UV.yx).x;
	
	float fun = -3.14*UV.x/1.0;
    if ((UV.y-0.5<-sin(fun)/sqrt(fun+3.14)*0.5-0.005*sin(20.0*UV.x-TIME*8.0)) && (UV.y-0.5>sin(fun)/sqrt(fun+3.14)*0.5+0.005*sin(20.0*UV.x-TIME*8.0))){
		float dis=.4;
		vec2 a = vec2(UV.x,UV.y-0.5);
        float angle=atan(a.y,a.x);
        float l=length(a);
        float offset=(log(l)+(angle/(2.*PI))*dis);
        float circles=mod(offset-TIME,dis);
		float width=.01;
		float blur=.1;
		float spiral = smoothstep(circles-blur,circles,width)-smoothstep(circles,circles+blur,width);
		if(spiral>0.4){
			gradient_value = 1.0-spiral/2.0;
		}
		else{
			gradient_value = 1.0;
		}
	}
	else{
		gradient_value = 0.0;
	}
	
	
	COLOR = vec4(1,1,1,gradient_value);
	
}"

[sub_resource type="ShaderMaterial" id=2]
shader = SubResource( 1 )
shader_param/brighter_color = Color( 1, 0.8, 0, 1 )
shader_param/middle_color = Color( 1, 0.56, 0, 1 )
shader_param/darker_color = Color( 0.64, 0.2, 0.05, 1 )
shader_param/spread = 0.609

[node name="Di" type="ColorRect"]
modulate = Color( 1, 0, 0, 1 )
material = SubResource( 2 )
margin_left = 256.0
margin_right = 384.0
margin_bottom = 128.0
color = Color( 1, 0, 0, 1 )
script = ExtResource( 1 )
__meta__ = {
"_edit_use_anchors_": false
}
