[gd_scene load_steps=4 format=2]

[ext_resource path="res://effects/effect.gd" type="Script" id=1]

[sub_resource type="Shader" id=1]
code = "
shader_type canvas_item;

void fragment()
{
	COLOR = vec4(1,1,1,sin(TIME));
}"

[sub_resource type="ShaderMaterial" id=2]
shader = SubResource( 1 )

[node name="Flash" type="ColorRect"]
modulate = Color( 1, 0, 0, 1 )
material = SubResource( 2 )
margin_left = 128.0
margin_top = 256.0
margin_right = 256.0
margin_bottom = 384.0
script = ExtResource( 1 )
__meta__ = {
"_edit_use_anchors_": false
}
