[gd_scene load_steps=6 format=2]

[ext_resource path="res://effects/effect.gd" type="Script" id=1]

[sub_resource type="Shader" id=1]
code = "/* 
Original shader from Fubucci – https://www.febucci.com/2019/05/fire-shader/ 
Converted to Godot Shader Language by Godot Shaders - godotshaders.com/shader/2D-fire/
*/

shader_type canvas_item;

uniform sampler2D noise_tex;
uniform sampler2D gradient_tex;

uniform vec4 brighter_color : hint_color = vec4(1.0, 0.8, 0.0, 1.0);
uniform vec4 middle_color : hint_color  = vec4(1.0, 0.56, 0.0, 1.0);
uniform vec4 darker_color : hint_color  = vec4(0.64, 0.2, 0.05, 1.0);

uniform float spread : hint_range(0.0, 1.0) = 0.9;

void fragment()
{
	
	float noise_value = texture(noise_tex, UV + vec2(0.0, TIME)).x;
	// The .yx swizzle is when using the built in horizontal gradient texture. If you have a vertical gradient texture remove .yx
	float gradient_value = texture(gradient_tex, UV.yx).x;
	
	gradient_value -= smoothstep(spread, spread + 0.5, length(UV + vec2(-0.5, -0.5)) / spread);
	
	float step1 = step(noise_value, gradient_value);
	float step2 = step(noise_value, gradient_value - 0.2);
	float step3 = step(noise_value, gradient_value - 0.4);
	
	vec3 bd_color = mix(brighter_color.rgb, darker_color.rgb, step1 - step2);
	
	vec4 color = vec4(bd_color, step1);
	color.rgb = mix(color.rgb, middle_color.rgb, step2 - step3);
	if(step1>0.0){
		color.a = 0.8;
	}
	COLOR = color;
}"

[sub_resource type="OpenSimplexNoise" id=2]

[sub_resource type="NoiseTexture" id=3]
width = 200
height = 300
seamless = true
noise = SubResource( 2 )

[sub_resource type="ShaderMaterial" id=4]
shader = SubResource( 1 )
shader_param/brighter_color = Color( 1, 1, 1, 1 )
shader_param/middle_color = Color( 0.941176, 0.941176, 0.941176, 1 )
shader_param/darker_color = Color( 0.854902, 0.854902, 0.854902, 1 )
shader_param/spread = 0.571
shader_param/noise_tex = SubResource( 3 )

[node name="Shield" type="ColorRect"]
modulate = Color( 0.996078, 0.00392157, 0.00392157, 1 )
material = SubResource( 4 )
margin_right = 128.0
margin_bottom = 128.0
script = ExtResource( 1 )
__meta__ = {
"_edit_use_anchors_": false
}
