o Cylinder 3
v 1.4090097423302679 1.590990257669732 0.5
v 1.715195954682664 1.897176470022128 -0.25
v 1.1028235299778717 1.2848040453173357 -0.25
v 1.4090097423302679 1.590990257669732 0.5
v 4.590990257669732 -1.590990257669732 0.5
v 4.897176470022128 -1.2848040453173357 -0.25
v 4.284804045317336 -1.897176470022128 -0.25
v 4.590990257669732 -1.590990257669732 0.5
v 1.4090097423302679 1.590990257669732 0
v 1.4090097423302679 1.590990257669732 0
v 1.4090097423302679 1.590990257669732 0
v 1.4090097423302679 1.590990257669732 0.5
v 1.715195954682664 1.897176470022128 -0.25
v 1.1028235299778717 1.2848040453173357 -0.25
v 1.4090097423302679 1.590990257669732 0.5
v 4.590990257669732 -1.590990257669732 0
v 4.590990257669732 -1.590990257669732 0
v 4.590990257669732 -1.590990257669732 0
v 4.590990257669732 -1.590990257669732 0.5
v 4.897176470022128 -1.2848040453173357 -0.25
v 4.284804045317336 -1.897176470022128 -0.25
v 4.590990257669732 -1.590990257669732 0.5
vt 0 1
vt 0.3333333432674408 1
vt 0.6666666865348816 1
vt 1 1
vt 0 0
vt 0.3333333432674408 0
vt 0.6666666865348816 0
vt 1 0
vt 0.5 0.5
vt 0.5 0.5
vt 0.5 0.5
vt 1 0.5
vt 0.25 0.9330127239227295
vt 0.25 0.0669872984290123
vt 1 0.5
vt 0.5 0.5
vt 0.5 0.5
vt 0.5 0.5
vt 1 0.5
vt 0.25 0.0669872984290123
vt 0.25 0.9330127239227295
vt 1 0.5
vn 0 0 2
vn 1.2247448494095845 1.2247448494095847 -1
vn -1.2247448494095845 -1.2247448494095847 -1
vn -3.463824376086937e-16 -3.4638243760869377e-16 2
vn 0 0 2
vn 1.2247448494095845 1.2247448494095847 -1
vn -1.2247448494095845 -1.2247448494095847 -1
vn -3.463824376086937e-16 -3.4638243760869377e-16 2
vn -0.4714045207910317 0.4714045207910316 0
vn -0.4714045207910317 0.4714045207910316 0
vn -0.4714045207910317 0.4714045207910316 0
vn -0.4714045207910317 0.4714045207910316 0
vn -0.4714045207910317 0.4714045207910316 0
vn -0.4714045207910317 0.4714045207910316 0
vn -0.4714045207910317 0.4714045207910316 0
vn 0.4714045207910317 -0.4714045207910316 0
vn 0.4714045207910317 -0.4714045207910316 0
vn 0.4714045207910317 -0.4714045207910316 0
vn 0.4714045207910317 -0.4714045207910316 0
vn 0.4714045207910317 -0.4714045207910316 0
vn 0.4714045207910317 -0.4714045207910316 0
vn 0.4714045207910317 -0.4714045207910316 0
f 1/1/1 5/5/5 2/2/2
f 5/5/5 6/6/6 2/2/2
f 2/2/2 6/6/6 3/3/3
f 6/6/6 7/7/7 3/3/3
f 3/3/3 7/7/7 4/4/4
f 7/7/7 8/8/8 4/4/4
f 12/12/12 13/13/13 9/9/9
f 13/13/13 14/14/14 10/10/10
f 14/14/14 15/15/15 11/11/11
f 20/20/20 19/19/19 16/16/16
f 21/21/21 20/20/20 17/17/17
f 22/22/22 21/21/21 18/18/18
