o Cylinder 1
v 0 2.52494278281329 4
v 0.19509032368659973 2.52494278281329 3.9807852506637573
v 0.3826834261417389 2.52494278281329 3.9238795042037964
v 0.5555702447891235 2.52494278281329 3.8314695954322815
v 0.7071067690849304 2.52494278281329 3.7071067690849304
v 0.8314695954322815 2.52494278281329 3.5555702447891235
v 0.9238795042037964 2.52494278281329 3.382683426141739
v 0.9807852506637573 2.52494278281329 3.1950903236865997
v 1 2.52494278281329 3
v 0.9807852506637573 2.52494278281329 2.8049096763134003
v 0.9238795042037964 2.52494278281329 2.617316573858261
v 0.8314695954322815 2.52494278281329 2.4444297552108765
v 0.7071067690849304 2.52494278281329 2.2928932309150696
v 0.5555702447891235 2.52494278281329 2.1685304045677185
v 0.3826834261417389 2.52494278281329 2.0761204957962036
v 0.19509032368659973 2.52494278281329 2.0192147493362427
v 1.2246468525851679e-16 2.52494278281329 2
v -0.19509032368659973 2.52494278281329 2.0192147493362427
v -0.3826834261417389 2.52494278281329 2.0761204957962036
v -0.5555702447891235 2.52494278281329 2.1685304045677185
v -0.7071067690849304 2.52494278281329 2.2928932309150696
v -0.8314695954322815 2.52494278281329 2.4444297552108765
v -0.9238795042037964 2.52494278281329 2.617316573858261
v -0.9807852506637573 2.52494278281329 2.8049096763134003
v -1 2.52494278281329 3
v -0.9807852506637573 2.52494278281329 3.1950903236865997
v -0.9238795042037964 2.52494278281329 3.382683426141739
v -0.8314695954322815 2.52494278281329 3.5555702447891235
v -0.7071067690849304 2.52494278281329 3.7071067690849304
v -0.5555702447891235 2.52494278281329 3.8314695954322815
v -0.3826834261417389 2.52494278281329 3.9238795042037964
v -0.19509032368659973 2.52494278281329 3.9807852506637573
v -2.4492937051703357e-16 2.52494278281329 4
v 0 -3.001152200716235 3
v 0 -3.001152200716235 3
v 0 -3.001152200716235 3
v 0 -3.001152200716235 3
v 0 -3.001152200716235 3
v 0 -3.001152200716235 3
v 0 -3.001152200716235 3
v 0 -3.001152200716235 3
v 0 -3.001152200716235 3
v 0 -3.001152200716235 3
v 0 -3.001152200716235 3
v 0 -3.001152200716235 3
v 0 -3.001152200716235 3
v 0 -3.001152200716235 3
v 0 -3.001152200716235 3
v 0 -3.001152200716235 3
v 0 -3.001152200716235 3
v 0 -3.001152200716235 3
v 0 -3.001152200716235 3
v 0 -3.001152200716235 3
v 0 -3.001152200716235 3
v 0 -3.001152200716235 3
v 0 -3.001152200716235 3
v 0 -3.001152200716235 3
v 0 -3.001152200716235 3
v 0 -3.001152200716235 3
v 0 -3.001152200716235 3
v 0 -3.001152200716235 3
v 0 -3.001152200716235 3
v 0 -3.001152200716235 3
v 0 -3.001152200716235 3
v 0 -3.001152200716235 3
v 0 -3.001152200716235 3
v 0 2.52494278281329 3
v 0 2.52494278281329 3
v 0 2.52494278281329 3
v 0 2.52494278281329 3
v 0 2.52494278281329 3
v 0 2.52494278281329 3
v 0 2.52494278281329 3
v 0 2.52494278281329 3
v 0 2.52494278281329 3
v 0 2.52494278281329 3
v 0 2.52494278281329 3
v 0 2.52494278281329 3
v 0 2.52494278281329 3
v 0 2.52494278281329 3
v 0 2.52494278281329 3
v 0 2.52494278281329 3
v 0 2.52494278281329 3
v 0 2.52494278281329 3
v 0 2.52494278281329 3
v 0 2.52494278281329 3
v 0 2.52494278281329 3
v 0 2.52494278281329 3
v 0 2.52494278281329 3
v 0 2.52494278281329 3
v 0 2.52494278281329 3
v 0 2.52494278281329 3
v 0 2.52494278281329 3
v 0 2.52494278281329 3
v 0 2.52494278281329 3
v 0 2.52494278281329 3
v 0 2.52494278281329 3
v 0 2.52494278281329 3
v 0 2.52494278281329 4
v 0.19509032368659973 2.52494278281329 3.9807852506637573
v 0.3826834261417389 2.52494278281329 3.9238795042037964
v 0.5555702447891235 2.52494278281329 3.8314695954322815
v 0.7071067690849304 2.52494278281329 3.7071067690849304
v 0.8314695954322815 2.52494278281329 3.5555702447891235
v 0.9238795042037964 2.52494278281329 3.382683426141739
v 0.9807852506637573 2.52494278281329 3.1950903236865997
v 1 2.52494278281329 3
v 0.9807852506637573 2.52494278281329 2.8049096763134003
v 0.9238795042037964 2.52494278281329 2.617316573858261
v 0.8314695954322815 2.52494278281329 2.4444297552108765
v 0.7071067690849304 2.52494278281329 2.2928932309150696
v 0.5555702447891235 2.52494278281329 2.1685304045677185
v 0.3826834261417389 2.52494278281329 2.0761204957962036
v 0.19509032368659973 2.52494278281329 2.0192147493362427
v 1.2246468525851679e-16 2.52494278281329 2
v -0.19509032368659973 2.52494278281329 2.0192147493362427
v -0.3826834261417389 2.52494278281329 2.0761204957962036
v -0.5555702447891235 2.52494278281329 2.1685304045677185
v -0.7071067690849304 2.52494278281329 2.2928932309150696
v -0.8314695954322815 2.52494278281329 2.4444297552108765
v -0.9238795042037964 2.52494278281329 2.617316573858261
v -0.9807852506637573 2.52494278281329 2.8049096763134003
v -1 2.52494278281329 3
v -0.9807852506637573 2.52494278281329 3.1950903236865997
v -0.9238795042037964 2.52494278281329 3.382683426141739
v -0.8314695954322815 2.52494278281329 3.5555702447891235
v -0.7071067690849304 2.52494278281329 3.7071067690849304
v -0.5555702447891235 2.52494278281329 3.8314695954322815
v -0.3826834261417389 2.52494278281329 3.9238795042037964
v -0.19509032368659973 2.52494278281329 3.9807852506637573
v -2.4492937051703357e-16 2.52494278281329 4
vt 0 1
vt 0.03125 1
vt 0.0625 1
vt 0.09375 1
vt 0.125 1
vt 0.15625 1
vt 0.1875 1
vt 0.21875 1
vt 0.25 1
vt 0.28125 1
vt 0.3125 1
vt 0.34375 1
vt 0.375 1
vt 0.40625 1
vt 0.4375 1
vt 0.46875 1
vt 0.5 1
vt 0.53125 1
vt 0.5625 1
vt 0.59375 1
vt 0.625 1
vt 0.65625 1
vt 0.6875 1
vt 0.71875 1
vt 0.75 1
vt 0.78125 1
vt 0.8125 1
vt 0.84375 1
vt 0.875 1
vt 0.90625 1
vt 0.9375 1
vt 0.96875 1
vt 1 1
vt 0 0
vt 0.03125 0
vt 0.0625 0
vt 0.09375 0
vt 0.125 0
vt 0.15625 0
vt 0.1875 0
vt 0.21875 0
vt 0.25 0
vt 0.28125 0
vt 0.3125 0
vt 0.34375 0
vt 0.375 0
vt 0.40625 0
vt 0.4375 0
vt 0.46875 0
vt 0.5 0
vt 0.53125 0
vt 0.5625 0
vt 0.59375 0
vt 0.625 0
vt 0.65625 0
vt 0.6875 0
vt 0.71875 0
vt 0.75 0
vt 0.78125 0
vt 0.8125 0
vt 0.84375 0
vt 0.875 0
vt 0.90625 0
vt 0.9375 0
vt 0.96875 0
vt 1 0
vt 0.5 0.5
vt 0.5 0.5
vt 0.5 0.5
vt 0.5 0.5
vt 0.5 0.5
vt 0.5 0.5
vt 0.5 0.5
vt 0.5 0.5
vt 0.5 0.5
vt 0.5 0.5
vt 0.5 0.5
vt 0.5 0.5
vt 0.5 0.5
vt 0.5 0.5
vt 0.5 0.5
vt 0.5 0.5
vt 0.5 0.5
vt 0.5 0.5
vt 0.5 0.5
vt 0.5 0.5
vt 0.5 0.5
vt 0.5 0.5
vt 0.5 0.5
vt 0.5 0.5
vt 0.5 0.5
vt 0.5 0.5
vt 0.5 0.5
vt 0.5 0.5
vt 0.5 0.5
vt 0.5 0.5
vt 0.5 0.5
vt 0.5 0.5
vt 1 0.5
vt 0.9903926253318787 0.5975451469421387
vt 0.9619397521018982 0.6913416981697083
vt 0.9157348275184631 0.7777851223945618
vt 0.8535534143447876 0.8535534143447876
vt 0.7777851223945618 0.9157348275184631
vt 0.6913416981697083 0.9619397521018982
vt 0.5975451469421387 0.9903926253318787
vt 0.5 1
vt 0.40245485305786133 0.9903926253318787
vt 0.30865827202796936 0.9619397521018982
vt 0.22221487760543823 0.9157348275184631
vt 0.1464466154575348 0.8535534143447876
vt 0.08426519483327866 0.7777851223945618
vt 0.03806023299694061 0.6913416981697083
vt 0.009607359766960144 0.5975451469421387
vt 0 0.5
vt 0.009607359766960144 0.40245485305786133
vt 0.03806023299694061 0.30865827202796936
vt 0.08426519483327866 0.22221487760543823
vt 0.1464466154575348 0.1464466154575348
vt 0.22221487760543823 0.08426519483327866
vt 0.30865827202796936 0.03806023299694061
vt 0.40245485305786133 0.009607359766960144
vt 0.5 0
vt 0.5975451469421387 0.009607359766960144
vt 0.6913416981697083 0.03806023299694061
vt 0.7777851223945618 0.08426519483327866
vt 0.8535534143447876 0.1464466154575348
vt 0.9157348275184631 0.22221487760543823
vt 0.9619397521018982 0.30865827202796936
vt 0.9903926253318787 0.40245485305786133
vt 1 0.5
vn 0 -0.1618551948448324 0.8944271802902222
vn 0.17449408769607544 -0.1618551948448324 0.8772410154342651
vn 0.3422824740409851 -0.1618551948448324 0.8263429999351501
vn 0.49691712856292725 -0.1618551948448324 0.7436890006065369
vn 0.6324555277824402 -0.1618551948448324 0.6324555277824402
vn 0.7436890006065369 -0.1618551948448324 0.49691712856292725
vn 0.8263429999351501 -0.1618551948448324 0.3422824740409851
vn 0.8772410154342651 -0.1618551948448324 0.17449408769607544
vn 0.8944271802902222 -0.1618551948448324 5.476786989387483e-17
vn 0.8772410154342651 -0.1618551948448324 -0.17449408769607544
vn 0.8263429999351501 -0.1618551948448324 -0.3422824740409851
vn 0.7436890006065369 -0.1618551948448324 -0.49691712856292725
vn 0.6324555277824402 -0.1618551948448324 -0.6324555277824402
vn 0.49691712856292725 -0.1618551948448324 -0.7436890006065369
vn 0.3422824740409851 -0.1618551948448324 -0.8263429999351501
vn 0.17449408769607544 -0.1618551948448324 -0.8772410154342651
vn 1.0953573978774966e-16 -0.1618551948448324 -0.8944271802902222
vn -0.17449408769607544 -0.1618551948448324 -0.8772410154342651
vn -0.3422824740409851 -0.1618551948448324 -0.8263429999351501
vn -0.49691712856292725 -0.1618551948448324 -0.7436890006065369
vn -0.6324555277824402 -0.1618551948448324 -0.6324555277824402
vn -0.7436890006065369 -0.1618551948448324 -0.49691712856292725
vn -0.8263429999351501 -0.1618551948448324 -0.3422824740409851
vn -0.8772410154342651 -0.1618551948448324 -0.17449408769607544
vn -0.8944271802902222 -0.1618551948448324 -1.6430361299034693e-16
vn -0.8772410154342651 -0.1618551948448324 0.17449408769607544
vn -0.8263429999351501 -0.1618551948448324 0.3422824740409851
vn -0.7436890006065369 -0.1618551948448324 0.49691712856292725
vn -0.6324555277824402 -0.1618551948448324 0.6324555277824402
vn -0.49691712856292725 -0.1618551948448324 0.7436890006065369
vn -0.3422824740409851 -0.1618551948448324 0.8263429999351501
vn -0.17449408769607544 -0.1618551948448324 0.8772410154342651
vn -2.190714795754993e-16 -0.1618551948448324 0.8944271802902222
vn 0 -0.1618551948448324 0.8944271802902222
vn 0.17449408769607544 -0.1618551948448324 0.8772410154342651
vn 0.3422824740409851 -0.1618551948448324 0.8263429999351501
vn 0.49691712856292725 -0.1618551948448324 0.7436890006065369
vn 0.6324555277824402 -0.1618551948448324 0.6324555277824402
vn 0.7436890006065369 -0.1618551948448324 0.49691712856292725
vn 0.8263429999351501 -0.1618551948448324 0.3422824740409851
vn 0.8772410154342651 -0.1618551948448324 0.17449408769607544
vn 0.8944271802902222 -0.1618551948448324 5.476786989387483e-17
vn 0.8772410154342651 -0.1618551948448324 -0.17449408769607544
vn 0.8263429999351501 -0.1618551948448324 -0.3422824740409851
vn 0.7436890006065369 -0.1618551948448324 -0.49691712856292725
vn 0.6324555277824402 -0.1618551948448324 -0.6324555277824402
vn 0.49691712856292725 -0.1618551948448324 -0.7436890006065369
vn 0.3422824740409851 -0.1618551948448324 -0.8263429999351501
vn 0.17449408769607544 -0.1618551948448324 -0.8772410154342651
vn 1.0953573978774966e-16 -0.1618551948448324 -0.8944271802902222
vn -0.17449408769607544 -0.1618551948448324 -0.8772410154342651
vn -0.3422824740409851 -0.1618551948448324 -0.8263429999351501
vn -0.49691712856292725 -0.1618551948448324 -0.7436890006065369
vn -0.6324555277824402 -0.1618551948448324 -0.6324555277824402
vn -0.7436890006065369 -0.1618551948448324 -0.49691712856292725
vn -0.8263429999351501 -0.1618551948448324 -0.3422824740409851
vn -0.8772410154342651 -0.1618551948448324 -0.17449408769607544
vn -0.8944271802902222 -0.1618551948448324 -1.6430361299034693e-16
vn -0.8772410154342651 -0.1618551948448324 0.17449408769607544
vn -0.8263429999351501 -0.1618551948448324 0.3422824740409851
vn -0.7436890006065369 -0.1618551948448324 0.49691712856292725
vn -0.6324555277824402 -0.1618551948448324 0.6324555277824402
vn -0.49691712856292725 -0.1618551948448324 0.7436890006065369
vn -0.3422824740409851 -0.1618551948448324 0.8263429999351501
vn -0.17449408769607544 -0.1618551948448324 0.8772410154342651
vn -2.190714795754993e-16 -0.1618551948448324 0.8944271802902222
vn 0 0.36191922251806774 0
vn 0 0.36191922251806774 0
vn 0 0.36191922251806774 0
vn 0 0.36191922251806774 0
vn 0 0.36191922251806774 0
vn 0 0.36191922251806774 0
vn 0 0.36191922251806774 0
vn 0 0.36191922251806774 0
vn 0 0.36191922251806774 0
vn 0 0.36191922251806774 0
vn 0 0.36191922251806774 0
vn 0 0.36191922251806774 0
vn 0 0.36191922251806774 0
vn 0 0.36191922251806774 0
vn 0 0.36191922251806774 0
vn 0 0.36191922251806774 0
vn 0 0.36191922251806774 0
vn 0 0.36191922251806774 0
vn 0 0.36191922251806774 0
vn 0 0.36191922251806774 0
vn 0 0.36191922251806774 0
vn 0 0.36191922251806774 0
vn 0 0.36191922251806774 0
vn 0 0.36191922251806774 0
vn 0 0.36191922251806774 0
vn 0 0.36191922251806774 0
vn 0 0.36191922251806774 0
vn 0 0.36191922251806774 0
vn 0 0.36191922251806774 0
vn 0 0.36191922251806774 0
vn 0 0.36191922251806774 0
vn 0 0.36191922251806774 0
vn 0 0.36191922251806774 0
vn 0 0.36191922251806774 0
vn 0 0.36191922251806774 0
vn 0 0.36191922251806774 0
vn 0 0.36191922251806774 0
vn 0 0.36191922251806774 0
vn 0 0.36191922251806774 0
vn 0 0.36191922251806774 0
vn 0 0.36191922251806774 0
vn 0 0.36191922251806774 0
vn 0 0.36191922251806774 0
vn 0 0.36191922251806774 0
vn 0 0.36191922251806774 0
vn 0 0.36191922251806774 0
vn 0 0.36191922251806774 0
vn 0 0.36191922251806774 0
vn 0 0.36191922251806774 0
vn 0 0.36191922251806774 0
vn 0 0.36191922251806774 0
vn 0 0.36191922251806774 0
vn 0 0.36191922251806774 0
vn 0 0.36191922251806774 0
vn 0 0.36191922251806774 0
vn 0 0.36191922251806774 0
vn 0 0.36191922251806774 0
vn 0 0.36191922251806774 0
vn 0 0.36191922251806774 0
vn 0 0.36191922251806774 0
vn 0 0.36191922251806774 0
vn 0 0.36191922251806774 0
vn 0 0.36191922251806774 0
vn 0 0.36191922251806774 0
vn 0 0.36191922251806774 0
f 1/1/1 34/34/34 2/2/2
f 34/34/34 35/35/35 2/2/2
f 2/2/2 35/35/35 3/3/3
f 35/35/35 36/36/36 3/3/3
f 3/3/3 36/36/36 4/4/4
f 36/36/36 37/37/37 4/4/4
f 4/4/4 37/37/37 5/5/5
f 37/37/37 38/38/38 5/5/5
f 5/5/5 38/38/38 6/6/6
f 38/38/38 39/39/39 6/6/6
f 6/6/6 39/39/39 7/7/7
f 39/39/39 40/40/40 7/7/7
f 7/7/7 40/40/40 8/8/8
f 40/40/40 41/41/41 8/8/8
f 8/8/8 41/41/41 9/9/9
f 41/41/41 42/42/42 9/9/9
f 9/9/9 42/42/42 10/10/10
f 42/42/42 43/43/43 10/10/10
f 10/10/10 43/43/43 11/11/11
f 43/43/43 44/44/44 11/11/11
f 11/11/11 44/44/44 12/12/12
f 44/44/44 45/45/45 12/12/12
f 12/12/12 45/45/45 13/13/13
f 45/45/45 46/46/46 13/13/13
f 13/13/13 46/46/46 14/14/14
f 46/46/46 47/47/47 14/14/14
f 14/14/14 47/47/47 15/15/15
f 47/47/47 48/48/48 15/15/15
f 15/15/15 48/48/48 16/16/16
f 48/48/48 49/49/49 16/16/16
f 16/16/16 49/49/49 17/17/17
f 49/49/49 50/50/50 17/17/17
f 17/17/17 50/50/50 18/18/18
f 50/50/50 51/51/51 18/18/18
f 18/18/18 51/51/51 19/19/19
f 51/51/51 52/52/52 19/19/19
f 19/19/19 52/52/52 20/20/20
f 52/52/52 53/53/53 20/20/20
f 20/20/20 53/53/53 21/21/21
f 53/53/53 54/54/54 21/21/21
f 21/21/21 54/54/54 22/22/22
f 54/54/54 55/55/55 22/22/22
f 22/22/22 55/55/55 23/23/23
f 55/55/55 56/56/56 23/23/23
f 23/23/23 56/56/56 24/24/24
f 56/56/56 57/57/57 24/24/24
f 24/24/24 57/57/57 25/25/25
f 57/57/57 58/58/58 25/25/25
f 25/25/25 58/58/58 26/26/26
f 58/58/58 59/59/59 26/26/26
f 26/26/26 59/59/59 27/27/27
f 59/59/59 60/60/60 27/27/27
f 27/27/27 60/60/60 28/28/28
f 60/60/60 61/61/61 28/28/28
f 28/28/28 61/61/61 29/29/29
f 61/61/61 62/62/62 29/29/29
f 29/29/29 62/62/62 30/30/30
f 62/62/62 63/63/63 30/30/30
f 30/30/30 63/63/63 31/31/31
f 63/63/63 64/64/64 31/31/31
f 31/31/31 64/64/64 32/32/32
f 64/64/64 65/65/65 32/32/32
f 32/32/32 65/65/65 33/33/33
f 65/65/65 66/66/66 33/33/33
f 99/99/99 100/100/100 67/67/67
f 100/100/100 101/101/101 68/68/68
f 101/101/101 102/102/102 69/69/69
f 102/102/102 103/103/103 70/70/70
f 103/103/103 104/104/104 71/71/71
f 104/104/104 105/105/105 72/72/72
f 105/105/105 106/106/106 73/73/73
f 106/106/106 107/107/107 74/74/74
f 107/107/107 108/108/108 75/75/75
f 108/108/108 109/109/109 76/76/76
f 109/109/109 110/110/110 77/77/77
f 110/110/110 111/111/111 78/78/78
f 111/111/111 112/112/112 79/79/79
f 112/112/112 113/113/113 80/80/80
f 113/113/113 114/114/114 81/81/81
f 114/114/114 115/115/115 82/82/82
f 115/115/115 116/116/116 83/83/83
f 116/116/116 117/117/117 84/84/84
f 117/117/117 118/118/118 85/85/85
f 118/118/118 119/119/119 86/86/86
f 119/119/119 120/120/120 87/87/87
f 120/120/120 121/121/121 88/88/88
f 121/121/121 122/122/122 89/89/89
f 122/122/122 123/123/123 90/90/90
f 123/123/123 124/124/124 91/91/91
f 124/124/124 125/125/125 92/92/92
f 125/125/125 126/126/126 93/93/93
f 126/126/126 127/127/127 94/94/94
f 127/127/127 128/128/128 95/95/95
f 128/128/128 129/129/129 96/96/96
f 129/129/129 130/130/130 97/97/97
f 130/130/130 131/131/131 98/98/98
o Box 2
v -2.7755575615628914e-17 4.069023545109729 3.25946041947626
v 0.2594604194762603 4.069023545109729 3
v -2.7755575615628914e-17 -0.2561881529879848 3.25946041947626
v 0.2594604194762603 -0.2561881529879848 3
v 2.7755575615628914e-17 4.069023545109729 2.74053958052374
v -0.2594604194762603 4.069023545109729 3
v 2.7755575615628914e-17 -0.2561881529879848 2.74053958052374
v -0.2594604194762603 -0.2561881529879848 3
v 2.7755575615628914e-17 4.069023545109729 2.74053958052374
v 0.2594604194762603 4.069023545109729 3
v -0.2594604194762603 4.069023545109729 3
v -2.7755575615628914e-17 4.069023545109729 3.25946041947626
v -0.2594604194762603 -0.2561881529879848 3
v -2.7755575615628914e-17 -0.2561881529879848 3.25946041947626
v 2.7755575615628914e-17 -0.2561881529879848 2.74053958052374
v 0.2594604194762603 -0.2561881529879848 3
v -0.2594604194762603 4.069023545109729 3
v -2.7755575615628914e-17 4.069023545109729 3.25946041947626
v -0.2594604194762603 -0.2561881529879848 3
v -2.7755575615628914e-17 -0.2561881529879848 3.25946041947626
v 0.2594604194762603 4.069023545109729 3
v 2.7755575615628914e-17 4.069023545109729 2.74053958052374
v 0.2594604194762603 -0.2561881529879848 3
v 2.7755575615628914e-17 -0.2561881529879848 2.74053958052374
vt 0 1
vt 1 1
vt 0 0
vt 1 0
vt 0 1
vt 1 1
vt 0 0
vt 1 0
vt 0 1
vt 1 1
vt 0 0
vt 1 0
vt 0 1
vt 1 1
vt 0 0
vt 1 0
vt 0 1
vt 1 1
vt 0 0
vt 1 0
vt 0 1
vt 1 1
vt 0 0
vt 1 0
vn 1.9270762030265975 0 1.927076203026598
vn 1.9270762030265975 0 1.927076203026598
vn 1.9270762030265975 0 1.927076203026598
vn 1.9270762030265975 0 1.927076203026598
vn -1.9270762030265975 0 -1.927076203026598
vn -1.9270762030265975 0 -1.927076203026598
vn -1.9270762030265975 0 -1.927076203026598
vn -1.9270762030265975 0 -1.927076203026598
vn 0 0.23120255603669368 0
vn 0 0.23120255603669368 0
vn 0 0.23120255603669368 0
vn 0 0.23120255603669368 0
vn 0 -0.23120255603669368 0
vn 0 -0.23120255603669368 0
vn 0 -0.23120255603669368 0
vn 0 -0.23120255603669368 0
vn -1.927076203026598 0 1.9270762030265975
vn -1.927076203026598 0 1.9270762030265975
vn -1.927076203026598 0 1.9270762030265975
vn -1.927076203026598 0 1.9270762030265975
vn 1.927076203026598 0 -1.9270762030265975
vn 1.927076203026598 0 -1.9270762030265975
vn 1.927076203026598 0 -1.9270762030265975
vn 1.927076203026598 0 -1.9270762030265975
f 132/132/132 134/134/134 133/133/133
f 134/134/134 135/135/135 133/133/133
f 136/136/136 138/138/138 137/137/137
f 138/138/138 139/139/139 137/137/137
f 140/140/140 142/142/142 141/141/141
f 142/142/142 143/143/143 141/141/141
f 144/144/144 146/146/146 145/145/145
f 146/146/146 147/147/147 145/145/145
f 148/148/148 150/150/150 149/149/149
f 150/150/150 151/151/151 149/149/149
f 152/152/152 154/154/154 153/153/153
f 154/154/154 155/155/155 153/153/153
o Cylinder 1
v -3 2.52494278281329 1
v -2.8049096763134003 2.52494278281329 0.9807852506637573
v -2.617316573858261 2.52494278281329 0.9238795042037964
v -2.4444297552108765 2.52494278281329 0.8314695954322815
v -2.2928932309150696 2.52494278281329 0.7071067690849304
v -2.1685304045677185 2.52494278281329 0.5555702447891235
v -2.0761204957962036 2.52494278281329 0.3826834261417389
v -2.0192147493362427 2.52494278281329 0.19509032368659973
v -2 2.52494278281329 6.123234262925839e-17
v -2.0192147493362427 2.52494278281329 -0.19509032368659973
v -2.0761204957962036 2.52494278281329 -0.3826834261417389
v -2.1685304045677185 2.52494278281329 -0.5555702447891235
v -2.2928932309150696 2.52494278281329 -0.7071067690849304
v -2.4444297552108765 2.52494278281329 -0.8314695954322815
v -2.617316573858261 2.52494278281329 -0.9238795042037964
v -2.8049096763134003 2.52494278281329 -0.9807852506637573
v -3 2.52494278281329 -1
v -3.1950903236865997 2.52494278281329 -0.9807852506637573
v -3.382683426141739 2.52494278281329 -0.9238795042037964
v -3.5555702447891235 2.52494278281329 -0.8314695954322815
v -3.7071067690849304 2.52494278281329 -0.7071067690849304
v -3.8314695954322815 2.52494278281329 -0.5555702447891235
v -3.9238795042037964 2.52494278281329 -0.3826834261417389
v -3.9807852506637573 2.52494278281329 -0.19509032368659973
v -4 2.52494278281329 -1.8369701465288538e-16
v -3.9807852506637573 2.52494278281329 0.19509032368659973
v -3.9238795042037964 2.52494278281329 0.3826834261417389
v -3.8314695954322815 2.52494278281329 0.5555702447891235
v -3.7071067690849304 2.52494278281329 0.7071067690849304
v -3.5555702447891235 2.52494278281329 0.8314695954322815
v -3.382683426141739 2.52494278281329 0.9238795042037964
v -3.1950903236865997 2.52494278281329 0.9807852506637573
v -3.0000000000000004 2.52494278281329 1
v -3 -3.001152200716235 0
v -3 -3.001152200716235 0
v -3 -3.001152200716235 0
v -3 -3.001152200716235 0
v -3 -3.001152200716235 0
v -3 -3.001152200716235 0
v -3 -3.001152200716235 0
v -3 -3.001152200716235 0
v -3 -3.001152200716235 0
v -3 -3.001152200716235 0
v -3 -3.001152200716235 0
v -3 -3.001152200716235 0
v -3 -3.001152200716235 0
v -3 -3.001152200716235 0
v -3 -3.001152200716235 0
v -3 -3.001152200716235 0
v -3 -3.001152200716235 0
v -3 -3.001152200716235 0
v -3 -3.001152200716235 0
v -3 -3.001152200716235 0
v -3 -3.001152200716235 0
v -3 -3.001152200716235 0
v -3 -3.001152200716235 0
v -3 -3.001152200716235 0
v -3 -3.001152200716235 0
v -3 -3.001152200716235 0
v -3 -3.001152200716235 0
v -3 -3.001152200716235 0
v -3 -3.001152200716235 0
v -3 -3.001152200716235 0
v -3 -3.001152200716235 0
v -3 -3.001152200716235 0
v -3 -3.001152200716235 0
v -3 2.52494278281329 0
v -3 2.52494278281329 0
v -3 2.52494278281329 0
v -3 2.52494278281329 0
v -3 2.52494278281329 0
v -3 2.52494278281329 0
v -3 2.52494278281329 0
v -3 2.52494278281329 0
v -3 2.52494278281329 0
v -3 2.52494278281329 0
v -3 2.52494278281329 0
v -3 2.52494278281329 0
v -3 2.52494278281329 0
v -3 2.52494278281329 0
v -3 2.52494278281329 0
v -3 2.52494278281329 0
v -3 2.52494278281329 0
v -3 2.52494278281329 0
v -3 2.52494278281329 0
v -3 2.52494278281329 0
v -3 2.52494278281329 0
v -3 2.52494278281329 0
v -3 2.52494278281329 0
v -3 2.52494278281329 0
v -3 2.52494278281329 0
v -3 2.52494278281329 0
v -3 2.52494278281329 0
v -3 2.52494278281329 0
v -3 2.52494278281329 0
v -3 2.52494278281329 0
v -3 2.52494278281329 0
v -3 2.52494278281329 0
v -3 2.52494278281329 1
v -2.8049096763134003 2.52494278281329 0.9807852506637573
v -2.617316573858261 2.52494278281329 0.9238795042037964
v -2.4444297552108765 2.52494278281329 0.8314695954322815
v -2.2928932309150696 2.52494278281329 0.7071067690849304
v -2.1685304045677185 2.52494278281329 0.5555702447891235
v -2.0761204957962036 2.52494278281329 0.3826834261417389
v -2.0192147493362427 2.52494278281329 0.19509032368659973
v -2 2.52494278281329 6.123234262925839e-17
v -2.0192147493362427 2.52494278281329 -0.19509032368659973
v -2.0761204957962036 2.52494278281329 -0.3826834261417389
v -2.1685304045677185 2.52494278281329 -0.5555702447891235
v -2.2928932309150696 2.52494278281329 -0.7071067690849304
v -2.4444297552108765 2.52494278281329 -0.8314695954322815
v -2.617316573858261 2.52494278281329 -0.9238795042037964
v -2.8049096763134003 2.52494278281329 -0.9807852506637573
v -3 2.52494278281329 -1
v -3.1950903236865997 2.52494278281329 -0.9807852506637573
v -3.382683426141739 2.52494278281329 -0.9238795042037964
v -3.5555702447891235 2.52494278281329 -0.8314695954322815
v -3.7071067690849304 2.52494278281329 -0.7071067690849304
v -3.8314695954322815 2.52494278281329 -0.5555702447891235
v -3.9238795042037964 2.52494278281329 -0.3826834261417389
v -3.9807852506637573 2.52494278281329 -0.19509032368659973
v -4 2.52494278281329 -1.8369701465288538e-16
v -3.9807852506637573 2.52494278281329 0.19509032368659973
v -3.9238795042037964 2.52494278281329 0.3826834261417389
v -3.8314695954322815 2.52494278281329 0.5555702447891235
v -3.7071067690849304 2.52494278281329 0.7071067690849304
v -3.5555702447891235 2.52494278281329 0.8314695954322815
v -3.382683426141739 2.52494278281329 0.9238795042037964
v -3.1950903236865997 2.52494278281329 0.9807852506637573
v -3.0000000000000004 2.52494278281329 1
vt 0 1
vt 0.03125 1
vt 0.0625 1
vt 0.09375 1
vt 0.125 1
vt 0.15625 1
vt 0.1875 1
vt 0.21875 1
vt 0.25 1
vt 0.28125 1
vt 0.3125 1
vt 0.34375 1
vt 0.375 1
vt 0.40625 1
vt 0.4375 1
vt 0.46875 1
vt 0.5 1
vt 0.53125 1
vt 0.5625 1
vt 0.59375 1
vt 0.625 1
vt 0.65625 1
vt 0.6875 1
vt 0.71875 1
vt 0.75 1
vt 0.78125 1
vt 0.8125 1
vt 0.84375 1
vt 0.875 1
vt 0.90625 1
vt 0.9375 1
vt 0.96875 1
vt 1 1
vt 0 0
vt 0.03125 0
vt 0.0625 0
vt 0.09375 0
vt 0.125 0
vt 0.15625 0
vt 0.1875 0
vt 0.21875 0
vt 0.25 0
vt 0.28125 0
vt 0.3125 0
vt 0.34375 0
vt 0.375 0
vt 0.40625 0
vt 0.4375 0
vt 0.46875 0
vt 0.5 0
vt 0.53125 0
vt 0.5625 0
vt 0.59375 0
vt 0.625 0
vt 0.65625 0
vt 0.6875 0
vt 0.71875 0
vt 0.75 0
vt 0.78125 0
vt 0.8125 0
vt 0.84375 0
vt 0.875 0
vt 0.90625 0
vt 0.9375 0
vt 0.96875 0
vt 1 0
vt 0.5 0.5
vt 0.5 0.5
vt 0.5 0.5
vt 0.5 0.5
vt 0.5 0.5
vt 0.5 0.5
vt 0.5 0.5
vt 0.5 0.5
vt 0.5 0.5
vt 0.5 0.5
vt 0.5 0.5
vt 0.5 0.5
vt 0.5 0.5
vt 0.5 0.5
vt 0.5 0.5
vt 0.5 0.5
vt 0.5 0.5
vt 0.5 0.5
vt 0.5 0.5
vt 0.5 0.5
vt 0.5 0.5
vt 0.5 0.5
vt 0.5 0.5
vt 0.5 0.5
vt 0.5 0.5
vt 0.5 0.5
vt 0.5 0.5
vt 0.5 0.5
vt 0.5 0.5
vt 0.5 0.5
vt 0.5 0.5
vt 0.5 0.5
vt 1 0.5
vt 0.9903926253318787 0.5975451469421387
vt 0.9619397521018982 0.6913416981697083
vt 0.9157348275184631 0.7777851223945618
vt 0.8535534143447876 0.8535534143447876
vt 0.7777851223945618 0.9157348275184631
vt 0.6913416981697083 0.9619397521018982
vt 0.5975451469421387 0.9903926253318787
vt 0.5 1
vt 0.40245485305786133 0.9903926253318787
vt 0.30865827202796936 0.9619397521018982
vt 0.22221487760543823 0.9157348275184631
vt 0.1464466154575348 0.8535534143447876
vt 0.08426519483327866 0.7777851223945618
vt 0.03806023299694061 0.6913416981697083
vt 0.009607359766960144 0.5975451469421387
vt 0 0.5
vt 0.009607359766960144 0.40245485305786133
vt 0.03806023299694061 0.30865827202796936
vt 0.08426519483327866 0.22221487760543823
vt 0.1464466154575348 0.1464466154575348
vt 0.22221487760543823 0.08426519483327866
vt 0.30865827202796936 0.03806023299694061
vt 0.40245485305786133 0.009607359766960144
vt 0.5 0
vt 0.5975451469421387 0.009607359766960144
vt 0.6913416981697083 0.03806023299694061
vt 0.7777851223945618 0.08426519483327866
vt 0.8535534143447876 0.1464466154575348
vt 0.9157348275184631 0.22221487760543823
vt 0.9619397521018982 0.30865827202796936
vt 0.9903926253318787 0.40245485305786133
vt 1 0.5
vn 0 -0.1618551948448324 0.8944271802902222
vn 0.17449408769607544 -0.1618551948448324 0.8772410154342651
vn 0.3422824740409851 -0.1618551948448324 0.8263429999351501
vn 0.49691712856292725 -0.1618551948448324 0.7436890006065369
vn 0.6324555277824402 -0.1618551948448324 0.6324555277824402
vn 0.7436890006065369 -0.1618551948448324 0.49691712856292725
vn 0.8263429999351501 -0.1618551948448324 0.3422824740409851
vn 0.8772410154342651 -0.1618551948448324 0.17449408769607544
vn 0.8944271802902222 -0.1618551948448324 5.476786989387483e-17
vn 0.8772410154342651 -0.1618551948448324 -0.17449408769607544
vn 0.8263429999351501 -0.1618551948448324 -0.3422824740409851
vn 0.7436890006065369 -0.1618551948448324 -0.49691712856292725
vn 0.6324555277824402 -0.1618551948448324 -0.6324555277824402
vn 0.49691712856292725 -0.1618551948448324 -0.7436890006065369
vn 0.3422824740409851 -0.1618551948448324 -0.8263429999351501
vn 0.17449408769607544 -0.1618551948448324 -0.8772410154342651
vn 1.0953573978774966e-16 -0.1618551948448324 -0.8944271802902222
vn -0.17449408769607544 -0.1618551948448324 -0.8772410154342651
vn -0.3422824740409851 -0.1618551948448324 -0.8263429999351501
vn -0.49691712856292725 -0.1618551948448324 -0.7436890006065369
vn -0.6324555277824402 -0.1618551948448324 -0.6324555277824402
vn -0.7436890006065369 -0.1618551948448324 -0.49691712856292725
vn -0.8263429999351501 -0.1618551948448324 -0.3422824740409851
vn -0.8772410154342651 -0.1618551948448324 -0.17449408769607544
vn -0.8944271802902222 -0.1618551948448324 -1.6430361299034693e-16
vn -0.8772410154342651 -0.1618551948448324 0.17449408769607544
vn -0.8263429999351501 -0.1618551948448324 0.3422824740409851
vn -0.7436890006065369 -0.1618551948448324 0.49691712856292725
vn -0.6324555277824402 -0.1618551948448324 0.6324555277824402
vn -0.49691712856292725 -0.1618551948448324 0.7436890006065369
vn -0.3422824740409851 -0.1618551948448324 0.8263429999351501
vn -0.17449408769607544 -0.1618551948448324 0.8772410154342651
vn -2.190714795754993e-16 -0.1618551948448324 0.8944271802902222
vn 0 -0.1618551948448324 0.8944271802902222
vn 0.17449408769607544 -0.1618551948448324 0.8772410154342651
vn 0.3422824740409851 -0.1618551948448324 0.8263429999351501
vn 0.49691712856292725 -0.1618551948448324 0.7436890006065369
vn 0.6324555277824402 -0.1618551948448324 0.6324555277824402
vn 0.7436890006065369 -0.1618551948448324 0.49691712856292725
vn 0.8263429999351501 -0.1618551948448324 0.3422824740409851
vn 0.8772410154342651 -0.1618551948448324 0.17449408769607544
vn 0.8944271802902222 -0.1618551948448324 5.476786989387483e-17
vn 0.8772410154342651 -0.1618551948448324 -0.17449408769607544
vn 0.8263429999351501 -0.1618551948448324 -0.3422824740409851
vn 0.7436890006065369 -0.1618551948448324 -0.49691712856292725
vn 0.6324555277824402 -0.1618551948448324 -0.6324555277824402
vn 0.49691712856292725 -0.1618551948448324 -0.7436890006065369
vn 0.3422824740409851 -0.1618551948448324 -0.8263429999351501
vn 0.17449408769607544 -0.1618551948448324 -0.8772410154342651
vn 1.0953573978774966e-16 -0.1618551948448324 -0.8944271802902222
vn -0.17449408769607544 -0.1618551948448324 -0.8772410154342651
vn -0.3422824740409851 -0.1618551948448324 -0.8263429999351501
vn -0.49691712856292725 -0.1618551948448324 -0.7436890006065369
vn -0.6324555277824402 -0.1618551948448324 -0.6324555277824402
vn -0.7436890006065369 -0.1618551948448324 -0.49691712856292725
vn -0.8263429999351501 -0.1618551948448324 -0.3422824740409851
vn -0.8772410154342651 -0.1618551948448324 -0.17449408769607544
vn -0.8944271802902222 -0.1618551948448324 -1.6430361299034693e-16
vn -0.8772410154342651 -0.1618551948448324 0.17449408769607544
vn -0.8263429999351501 -0.1618551948448324 0.3422824740409851
vn -0.7436890006065369 -0.1618551948448324 0.49691712856292725
vn -0.6324555277824402 -0.1618551948448324 0.6324555277824402
vn -0.49691712856292725 -0.1618551948448324 0.7436890006065369
vn -0.3422824740409851 -0.1618551948448324 0.8263429999351501
vn -0.17449408769607544 -0.1618551948448324 0.8772410154342651
vn -2.190714795754993e-16 -0.1618551948448324 0.8944271802902222
vn 0 0.36191922251806774 0
vn 0 0.36191922251806774 0
vn 0 0.36191922251806774 0
vn 0 0.36191922251806774 0
vn 0 0.36191922251806774 0
vn 0 0.36191922251806774 0
vn 0 0.36191922251806774 0
vn 0 0.36191922251806774 0
vn 0 0.36191922251806774 0
vn 0 0.36191922251806774 0
vn 0 0.36191922251806774 0
vn 0 0.36191922251806774 0
vn 0 0.36191922251806774 0
vn 0 0.36191922251806774 0
vn 0 0.36191922251806774 0
vn 0 0.36191922251806774 0
vn 0 0.36191922251806774 0
vn 0 0.36191922251806774 0
vn 0 0.36191922251806774 0
vn 0 0.36191922251806774 0
vn 0 0.36191922251806774 0
vn 0 0.36191922251806774 0
vn 0 0.36191922251806774 0
vn 0 0.36191922251806774 0
vn 0 0.36191922251806774 0
vn 0 0.36191922251806774 0
vn 0 0.36191922251806774 0
vn 0 0.36191922251806774 0
vn 0 0.36191922251806774 0
vn 0 0.36191922251806774 0
vn 0 0.36191922251806774 0
vn 0 0.36191922251806774 0
vn 0 0.36191922251806774 0
vn 0 0.36191922251806774 0
vn 0 0.36191922251806774 0
vn 0 0.36191922251806774 0
vn 0 0.36191922251806774 0
vn 0 0.36191922251806774 0
vn 0 0.36191922251806774 0
vn 0 0.36191922251806774 0
vn 0 0.36191922251806774 0
vn 0 0.36191922251806774 0
vn 0 0.36191922251806774 0
vn 0 0.36191922251806774 0
vn 0 0.36191922251806774 0
vn 0 0.36191922251806774 0
vn 0 0.36191922251806774 0
vn 0 0.36191922251806774 0
vn 0 0.36191922251806774 0
vn 0 0.36191922251806774 0
vn 0 0.36191922251806774 0
vn 0 0.36191922251806774 0
vn 0 0.36191922251806774 0
vn 0 0.36191922251806774 0
vn 0 0.36191922251806774 0
vn 0 0.36191922251806774 0
vn 0 0.36191922251806774 0
vn 0 0.36191922251806774 0
vn 0 0.36191922251806774 0
vn 0 0.36191922251806774 0
vn 0 0.36191922251806774 0
vn 0 0.36191922251806774 0
vn 0 0.36191922251806774 0
vn 0 0.36191922251806774 0
vn 0 0.36191922251806774 0
f 156/156/156 189/189/189 157/157/157
f 189/189/189 190/190/190 157/157/157
f 157/157/157 190/190/190 158/158/158
f 190/190/190 191/191/191 158/158/158
f 158/158/158 191/191/191 159/159/159
f 191/191/191 192/192/192 159/159/159
f 159/159/159 192/192/192 160/160/160
f 192/192/192 193/193/193 160/160/160
f 160/160/160 193/193/193 161/161/161
f 193/193/193 194/194/194 161/161/161
f 161/161/161 194/194/194 162/162/162
f 194/194/194 195/195/195 162/162/162
f 162/162/162 195/195/195 163/163/163
f 195/195/195 196/196/196 163/163/163
f 163/163/163 196/196/196 164/164/164
f 196/196/196 197/197/197 164/164/164
f 164/164/164 197/197/197 165/165/165
f 197/197/197 198/198/198 165/165/165
f 165/165/165 198/198/198 166/166/166
f 198/198/198 199/199/199 166/166/166
f 166/166/166 199/199/199 167/167/167
f 199/199/199 200/200/200 167/167/167
f 167/167/167 200/200/200 168/168/168
f 200/200/200 201/201/201 168/168/168
f 168/168/168 201/201/201 169/169/169
f 201/201/201 202/202/202 169/169/169
f 169/169/169 202/202/202 170/170/170
f 202/202/202 203/203/203 170/170/170
f 170/170/170 203/203/203 171/171/171
f 203/203/203 204/204/204 171/171/171
f 171/171/171 204/204/204 172/172/172
f 204/204/204 205/205/205 172/172/172
f 172/172/172 205/205/205 173/173/173
f 205/205/205 206/206/206 173/173/173
f 173/173/173 206/206/206 174/174/174
f 206/206/206 207/207/207 174/174/174
f 174/174/174 207/207/207 175/175/175
f 207/207/207 208/208/208 175/175/175
f 175/175/175 208/208/208 176/176/176
f 208/208/208 209/209/209 176/176/176
f 176/176/176 209/209/209 177/177/177
f 209/209/209 210/210/210 177/177/177
f 177/177/177 210/210/210 178/178/178
f 210/210/210 211/211/211 178/178/178
f 178/178/178 211/211/211 179/179/179
f 211/211/211 212/212/212 179/179/179
f 179/179/179 212/212/212 180/180/180
f 212/212/212 213/213/213 180/180/180
f 180/180/180 213/213/213 181/181/181
f 213/213/213 214/214/214 181/181/181
f 181/181/181 214/214/214 182/182/182
f 214/214/214 215/215/215 182/182/182
f 182/182/182 215/215/215 183/183/183
f 215/215/215 216/216/216 183/183/183
f 183/183/183 216/216/216 184/184/184
f 216/216/216 217/217/217 184/184/184
f 184/184/184 217/217/217 185/185/185
f 217/217/217 218/218/218 185/185/185
f 185/185/185 218/218/218 186/186/186
f 218/218/218 219/219/219 186/186/186
f 186/186/186 219/219/219 187/187/187
f 219/219/219 220/220/220 187/187/187
f 187/187/187 220/220/220 188/188/188
f 220/220/220 221/221/221 188/188/188
f 254/254/254 255/255/255 222/222/222
f 255/255/255 256/256/256 223/223/223
f 256/256/256 257/257/257 224/224/224
f 257/257/257 258/258/258 225/225/225
f 258/258/258 259/259/259 226/226/226
f 259/259/259 260/260/260 227/227/227
f 260/260/260 261/261/261 228/228/228
f 261/261/261 262/262/262 229/229/229
f 262/262/262 263/263/263 230/230/230
f 263/263/263 264/264/264 231/231/231
f 264/264/264 265/265/265 232/232/232
f 265/265/265 266/266/266 233/233/233
f 266/266/266 267/267/267 234/234/234
f 267/267/267 268/268/268 235/235/235
f 268/268/268 269/269/269 236/236/236
f 269/269/269 270/270/270 237/237/237
f 270/270/270 271/271/271 238/238/238
f 271/271/271 272/272/272 239/239/239
f 272/272/272 273/273/273 240/240/240
f 273/273/273 274/274/274 241/241/241
f 274/274/274 275/275/275 242/242/242
f 275/275/275 276/276/276 243/243/243
f 276/276/276 277/277/277 244/244/244
f 277/277/277 278/278/278 245/245/245
f 278/278/278 279/279/279 246/246/246
f 279/279/279 280/280/280 247/247/247
f 280/280/280 281/281/281 248/248/248
f 281/281/281 282/282/282 249/249/249
f 282/282/282 283/283/283 250/250/250
f 283/283/283 284/284/284 251/251/251
f 284/284/284 285/285/285 252/252/252
f 285/285/285 286/286/286 253/253/253
o Box 2
v -3 4.069023545109729 0.2594604194762603
v -2.74053958052374 4.069023545109729 2.7755575615628914e-17
v -3 -0.2561881529879848 0.2594604194762603
v -2.74053958052374 -0.2561881529879848 2.7755575615628914e-17
v -3 4.069023545109729 -0.2594604194762603
v -3.25946041947626 4.069023545109729 -2.7755575615628914e-17
v -3 -0.2561881529879848 -0.2594604194762603
v -3.25946041947626 -0.2561881529879848 -2.7755575615628914e-17
v -3 4.069023545109729 -0.2594604194762603
v -2.74053958052374 4.069023545109729 2.7755575615628914e-17
v -3.25946041947626 4.069023545109729 -2.7755575615628914e-17
v -3 4.069023545109729 0.2594604194762603
v -3.25946041947626 -0.2561881529879848 -2.7755575615628914e-17
v -3 -0.2561881529879848 0.2594604194762603
v -3 -0.2561881529879848 -0.2594604194762603
v -2.74053958052374 -0.2561881529879848 2.7755575615628914e-17
v -3.25946041947626 4.069023545109729 -2.7755575615628914e-17
v -3 4.069023545109729 0.2594604194762603
v -3.25946041947626 -0.2561881529879848 -2.7755575615628914e-17
v -3 -0.2561881529879848 0.2594604194762603
v -2.74053958052374 4.069023545109729 2.7755575615628914e-17
v -3 4.069023545109729 -0.2594604194762603
v -2.74053958052374 -0.2561881529879848 2.7755575615628914e-17
v -3 -0.2561881529879848 -0.2594604194762603
vt 0 1
vt 1 1
vt 0 0
vt 1 0
vt 0 1
vt 1 1
vt 0 0
vt 1 0
vt 0 1
vt 1 1
vt 0 0
vt 1 0
vt 0 1
vt 1 1
vt 0 0
vt 1 0
vt 0 1
vt 1 1
vt 0 0
vt 1 0
vt 0 1
vt 1 1
vt 0 0
vt 1 0
vn 1.9270762030265975 0 1.927076203026598
vn 1.9270762030265975 0 1.927076203026598
vn 1.9270762030265975 0 1.927076203026598
vn 1.9270762030265975 0 1.927076203026598
vn -1.9270762030265975 0 -1.927076203026598
vn -1.9270762030265975 0 -1.927076203026598
vn -1.9270762030265975 0 -1.927076203026598
vn -1.9270762030265975 0 -1.927076203026598
vn 0 0.23120255603669368 0
vn 0 0.23120255603669368 0
vn 0 0.23120255603669368 0
vn 0 0.23120255603669368 0
vn 0 -0.23120255603669368 0
vn 0 -0.23120255603669368 0
vn 0 -0.23120255603669368 0
vn 0 -0.23120255603669368 0
vn -1.927076203026598 0 1.9270762030265975
vn -1.927076203026598 0 1.9270762030265975
vn -1.927076203026598 0 1.9270762030265975
vn -1.927076203026598 0 1.9270762030265975
vn 1.927076203026598 0 -1.9270762030265975
vn 1.927076203026598 0 -1.9270762030265975
vn 1.927076203026598 0 -1.9270762030265975
vn 1.927076203026598 0 -1.9270762030265975
f 287/287/287 289/289/289 288/288/288
f 289/289/289 290/290/290 288/288/288
f 291/291/291 293/293/293 292/292/292
f 293/293/293 294/294/294 292/292/292
f 295/295/295 297/297/297 296/296/296
f 297/297/297 298/298/298 296/296/296
f 299/299/299 301/301/301 300/300/300
f 301/301/301 302/302/302 300/300/300
f 303/303/303 305/305/305 304/304/304
f 305/305/305 306/306/306 304/304/304
f 307/307/307 309/309/309 308/308/308
f 309/309/309 310/310/310 308/308/308
o Cylinder 1
v 0 2.52494278281329 -2
v 0.19509032368659973 2.52494278281329 -2.0192147493362427
v 0.3826834261417389 2.52494278281329 -2.0761204957962036
v 0.5555702447891235 2.52494278281329 -2.1685304045677185
v 0.7071067690849304 2.52494278281329 -2.2928932309150696
v 0.8314695954322815 2.52494278281329 -2.4444297552108765
v 0.9238795042037964 2.52494278281329 -2.617316573858261
v 0.9807852506637573 2.52494278281329 -2.8049096763134003
v 1 2.52494278281329 -3
v 0.9807852506637573 2.52494278281329 -3.1950903236865997
v 0.9238795042037964 2.52494278281329 -3.382683426141739
v 0.8314695954322815 2.52494278281329 -3.5555702447891235
v 0.7071067690849304 2.52494278281329 -3.7071067690849304
v 0.5555702447891235 2.52494278281329 -3.8314695954322815
v 0.3826834261417389 2.52494278281329 -3.9238795042037964
v 0.19509032368659973 2.52494278281329 -3.9807852506637573
v 1.2246468525851679e-16 2.52494278281329 -4
v -0.19509032368659973 2.52494278281329 -3.9807852506637573
v -0.3826834261417389 2.52494278281329 -3.9238795042037964
v -0.5555702447891235 2.52494278281329 -3.8314695954322815
v -0.7071067690849304 2.52494278281329 -3.7071067690849304
v -0.8314695954322815 2.52494278281329 -3.5555702447891235
v -0.9238795042037964 2.52494278281329 -3.382683426141739
v -0.9807852506637573 2.52494278281329 -3.1950903236865997
v -1 2.52494278281329 -3
v -0.9807852506637573 2.52494278281329 -2.8049096763134003
v -0.9238795042037964 2.52494278281329 -2.617316573858261
v -0.8314695954322815 2.52494278281329 -2.4444297552108765
v -0.7071067690849304 2.52494278281329 -2.2928932309150696
v -0.5555702447891235 2.52494278281329 -2.1685304045677185
v -0.3826834261417389 2.52494278281329 -2.0761204957962036
v -0.19509032368659973 2.52494278281329 -2.0192147493362427
v -2.4492937051703357e-16 2.52494278281329 -2
v 0 -3.001152200716235 -3
v 0 -3.001152200716235 -3
v 0 -3.001152200716235 -3
v 0 -3.001152200716235 -3
v 0 -3.001152200716235 -3
v 0 -3.001152200716235 -3
v 0 -3.001152200716235 -3
v 0 -3.001152200716235 -3
v 0 -3.001152200716235 -3
v 0 -3.001152200716235 -3
v 0 -3.001152200716235 -3
v 0 -3.001152200716235 -3
v 0 -3.001152200716235 -3
v 0 -3.001152200716235 -3
v 0 -3.001152200716235 -3
v 0 -3.001152200716235 -3
v 0 -3.001152200716235 -3
v 0 -3.001152200716235 -3
v 0 -3.001152200716235 -3
v 0 -3.001152200716235 -3
v 0 -3.001152200716235 -3
v 0 -3.001152200716235 -3
v 0 -3.001152200716235 -3
v 0 -3.001152200716235 -3
v 0 -3.001152200716235 -3
v 0 -3.001152200716235 -3
v 0 -3.001152200716235 -3
v 0 -3.001152200716235 -3
v 0 -3.001152200716235 -3
v 0 -3.001152200716235 -3
v 0 -3.001152200716235 -3
v 0 -3.001152200716235 -3
v 0 -3.001152200716235 -3
v 0 2.52494278281329 -3
v 0 2.52494278281329 -3
v 0 2.52494278281329 -3
v 0 2.52494278281329 -3
v 0 2.52494278281329 -3
v 0 2.52494278281329 -3
v 0 2.52494278281329 -3
v 0 2.52494278281329 -3
v 0 2.52494278281329 -3
v 0 2.52494278281329 -3
v 0 2.52494278281329 -3
v 0 2.52494278281329 -3
v 0 2.52494278281329 -3
v 0 2.52494278281329 -3
v 0 2.52494278281329 -3
v 0 2.52494278281329 -3
v 0 2.52494278281329 -3
v 0 2.52494278281329 -3
v 0 2.52494278281329 -3
v 0 2.52494278281329 -3
v 0 2.52494278281329 -3
v 0 2.52494278281329 -3
v 0 2.52494278281329 -3
v 0 2.52494278281329 -3
v 0 2.52494278281329 -3
v 0 2.52494278281329 -3
v 0 2.52494278281329 -3
v 0 2.52494278281329 -3
v 0 2.52494278281329 -3
v 0 2.52494278281329 -3
v 0 2.52494278281329 -3
v 0 2.52494278281329 -3
v 0 2.52494278281329 -2
v 0.19509032368659973 2.52494278281329 -2.0192147493362427
v 0.3826834261417389 2.52494278281329 -2.0761204957962036
v 0.5555702447891235 2.52494278281329 -2.1685304045677185
v 0.7071067690849304 2.52494278281329 -2.2928932309150696
v 0.8314695954322815 2.52494278281329 -2.4444297552108765
v 0.9238795042037964 2.52494278281329 -2.617316573858261
v 0.9807852506637573 2.52494278281329 -2.8049096763134003
v 1 2.52494278281329 -3
v 0.9807852506637573 2.52494278281329 -3.1950903236865997
v 0.9238795042037964 2.52494278281329 -3.382683426141739
v 0.8314695954322815 2.52494278281329 -3.5555702447891235
v 0.7071067690849304 2.52494278281329 -3.7071067690849304
v 0.5555702447891235 2.52494278281329 -3.8314695954322815
v 0.3826834261417389 2.52494278281329 -3.9238795042037964
v 0.19509032368659973 2.52494278281329 -3.9807852506637573
v 1.2246468525851679e-16 2.52494278281329 -4
v -0.19509032368659973 2.52494278281329 -3.9807852506637573
v -0.3826834261417389 2.52494278281329 -3.9238795042037964
v -0.5555702447891235 2.52494278281329 -3.8314695954322815
v -0.7071067690849304 2.52494278281329 -3.7071067690849304
v -0.8314695954322815 2.52494278281329 -3.5555702447891235
v -0.9238795042037964 2.52494278281329 -3.382683426141739
v -0.9807852506637573 2.52494278281329 -3.1950903236865997
v -1 2.52494278281329 -3
v -0.9807852506637573 2.52494278281329 -2.8049096763134003
v -0.9238795042037964 2.52494278281329 -2.617316573858261
v -0.8314695954322815 2.52494278281329 -2.4444297552108765
v -0.7071067690849304 2.52494278281329 -2.2928932309150696
v -0.5555702447891235 2.52494278281329 -2.1685304045677185
v -0.3826834261417389 2.52494278281329 -2.0761204957962036
v -0.19509032368659973 2.52494278281329 -2.0192147493362427
v -2.4492937051703357e-16 2.52494278281329 -2
vt 0 1
vt 0.03125 1
vt 0.0625 1
vt 0.09375 1
vt 0.125 1
vt 0.15625 1
vt 0.1875 1
vt 0.21875 1
vt 0.25 1
vt 0.28125 1
vt 0.3125 1
vt 0.34375 1
vt 0.375 1
vt 0.40625 1
vt 0.4375 1
vt 0.46875 1
vt 0.5 1
vt 0.53125 1
vt 0.5625 1
vt 0.59375 1
vt 0.625 1
vt 0.65625 1
vt 0.6875 1
vt 0.71875 1
vt 0.75 1
vt 0.78125 1
vt 0.8125 1
vt 0.84375 1
vt 0.875 1
vt 0.90625 1
vt 0.9375 1
vt 0.96875 1
vt 1 1
vt 0 0
vt 0.03125 0
vt 0.0625 0
vt 0.09375 0
vt 0.125 0
vt 0.15625 0
vt 0.1875 0
vt 0.21875 0
vt 0.25 0
vt 0.28125 0
vt 0.3125 0
vt 0.34375 0
vt 0.375 0
vt 0.40625 0
vt 0.4375 0
vt 0.46875 0
vt 0.5 0
vt 0.53125 0
vt 0.5625 0
vt 0.59375 0
vt 0.625 0
vt 0.65625 0
vt 0.6875 0
vt 0.71875 0
vt 0.75 0
vt 0.78125 0
vt 0.8125 0
vt 0.84375 0
vt 0.875 0
vt 0.90625 0
vt 0.9375 0
vt 0.96875 0
vt 1 0
vt 0.5 0.5
vt 0.5 0.5
vt 0.5 0.5
vt 0.5 0.5
vt 0.5 0.5
vt 0.5 0.5
vt 0.5 0.5
vt 0.5 0.5
vt 0.5 0.5
vt 0.5 0.5
vt 0.5 0.5
vt 0.5 0.5
vt 0.5 0.5
vt 0.5 0.5
vt 0.5 0.5
vt 0.5 0.5
vt 0.5 0.5
vt 0.5 0.5
vt 0.5 0.5
vt 0.5 0.5
vt 0.5 0.5
vt 0.5 0.5
vt 0.5 0.5
vt 0.5 0.5
vt 0.5 0.5
vt 0.5 0.5
vt 0.5 0.5
vt 0.5 0.5
vt 0.5 0.5
vt 0.5 0.5
vt 0.5 0.5
vt 0.5 0.5
vt 1 0.5
vt 0.9903926253318787 0.5975451469421387
vt 0.9619397521018982 0.6913416981697083
vt 0.9157348275184631 0.7777851223945618
vt 0.8535534143447876 0.8535534143447876
vt 0.7777851223945618 0.9157348275184631
vt 0.6913416981697083 0.9619397521018982
vt 0.5975451469421387 0.9903926253318787
vt 0.5 1
vt 0.40245485305786133 0.9903926253318787
vt 0.30865827202796936 0.9619397521018982
vt 0.22221487760543823 0.9157348275184631
vt 0.1464466154575348 0.8535534143447876
vt 0.08426519483327866 0.7777851223945618
vt 0.03806023299694061 0.6913416981697083
vt 0.009607359766960144 0.5975451469421387
vt 0 0.5
vt 0.009607359766960144 0.40245485305786133
vt 0.03806023299694061 0.30865827202796936
vt 0.08426519483327866 0.22221487760543823
vt 0.1464466154575348 0.1464466154575348
vt 0.22221487760543823 0.08426519483327866
vt 0.30865827202796936 0.03806023299694061
vt 0.40245485305786133 0.009607359766960144
vt 0.5 0
vt 0.5975451469421387 0.009607359766960144
vt 0.6913416981697083 0.03806023299694061
vt 0.7777851223945618 0.08426519483327866
vt 0.8535534143447876 0.1464466154575348
vt 0.9157348275184631 0.22221487760543823
vt 0.9619397521018982 0.30865827202796936
vt 0.9903926253318787 0.40245485305786133
vt 1 0.5
vn 0 -0.1618551948448324 0.8944271802902222
vn 0.17449408769607544 -0.1618551948448324 0.8772410154342651
vn 0.3422824740409851 -0.1618551948448324 0.8263429999351501
vn 0.49691712856292725 -0.1618551948448324 0.7436890006065369
vn 0.6324555277824402 -0.1618551948448324 0.6324555277824402
vn 0.7436890006065369 -0.1618551948448324 0.49691712856292725
vn 0.8263429999351501 -0.1618551948448324 0.3422824740409851
vn 0.8772410154342651 -0.1618551948448324 0.17449408769607544
vn 0.8944271802902222 -0.1618551948448324 5.476786989387483e-17
vn 0.8772410154342651 -0.1618551948448324 -0.17449408769607544
vn 0.8263429999351501 -0.1618551948448324 -0.3422824740409851
vn 0.7436890006065369 -0.1618551948448324 -0.49691712856292725
vn 0.6324555277824402 -0.1618551948448324 -0.6324555277824402
vn 0.49691712856292725 -0.1618551948448324 -0.7436890006065369
vn 0.3422824740409851 -0.1618551948448324 -0.8263429999351501
vn 0.17449408769607544 -0.1618551948448324 -0.8772410154342651
vn 1.0953573978774966e-16 -0.1618551948448324 -0.8944271802902222
vn -0.17449408769607544 -0.1618551948448324 -0.8772410154342651
vn -0.3422824740409851 -0.1618551948448324 -0.8263429999351501
vn -0.49691712856292725 -0.1618551948448324 -0.7436890006065369
vn -0.6324555277824402 -0.1618551948448324 -0.6324555277824402
vn -0.7436890006065369 -0.1618551948448324 -0.49691712856292725
vn -0.8263429999351501 -0.1618551948448324 -0.3422824740409851
vn -0.8772410154342651 -0.1618551948448324 -0.17449408769607544
vn -0.8944271802902222 -0.1618551948448324 -1.6430361299034693e-16
vn -0.8772410154342651 -0.1618551948448324 0.17449408769607544
vn -0.8263429999351501 -0.1618551948448324 0.3422824740409851
vn -0.7436890006065369 -0.1618551948448324 0.49691712856292725
vn -0.6324555277824402 -0.1618551948448324 0.6324555277824402
vn -0.49691712856292725 -0.1618551948448324 0.7436890006065369
vn -0.3422824740409851 -0.1618551948448324 0.8263429999351501
vn -0.17449408769607544 -0.1618551948448324 0.8772410154342651
vn -2.190714795754993e-16 -0.1618551948448324 0.8944271802902222
vn 0 -0.1618551948448324 0.8944271802902222
vn 0.17449408769607544 -0.1618551948448324 0.8772410154342651
vn 0.3422824740409851 -0.1618551948448324 0.8263429999351501
vn 0.49691712856292725 -0.1618551948448324 0.7436890006065369
vn 0.6324555277824402 -0.1618551948448324 0.6324555277824402
vn 0.7436890006065369 -0.1618551948448324 0.49691712856292725
vn 0.8263429999351501 -0.1618551948448324 0.3422824740409851
vn 0.8772410154342651 -0.1618551948448324 0.17449408769607544
vn 0.8944271802902222 -0.1618551948448324 5.476786989387483e-17
vn 0.8772410154342651 -0.1618551948448324 -0.17449408769607544
vn 0.8263429999351501 -0.1618551948448324 -0.3422824740409851
vn 0.7436890006065369 -0.1618551948448324 -0.49691712856292725
vn 0.6324555277824402 -0.1618551948448324 -0.6324555277824402
vn 0.49691712856292725 -0.1618551948448324 -0.7436890006065369
vn 0.3422824740409851 -0.1618551948448324 -0.8263429999351501
vn 0.17449408769607544 -0.1618551948448324 -0.8772410154342651
vn 1.0953573978774966e-16 -0.1618551948448324 -0.8944271802902222
vn -0.17449408769607544 -0.1618551948448324 -0.8772410154342651
vn -0.3422824740409851 -0.1618551948448324 -0.8263429999351501
vn -0.49691712856292725 -0.1618551948448324 -0.7436890006065369
vn -0.6324555277824402 -0.1618551948448324 -0.6324555277824402
vn -0.7436890006065369 -0.1618551948448324 -0.49691712856292725
vn -0.8263429999351501 -0.1618551948448324 -0.3422824740409851
vn -0.8772410154342651 -0.1618551948448324 -0.17449408769607544
vn -0.8944271802902222 -0.1618551948448324 -1.6430361299034693e-16
vn -0.8772410154342651 -0.1618551948448324 0.17449408769607544
vn -0.8263429999351501 -0.1618551948448324 0.3422824740409851
vn -0.7436890006065369 -0.1618551948448324 0.49691712856292725
vn -0.6324555277824402 -0.1618551948448324 0.6324555277824402
vn -0.49691712856292725 -0.1618551948448324 0.7436890006065369
vn -0.3422824740409851 -0.1618551948448324 0.8263429999351501
vn -0.17449408769607544 -0.1618551948448324 0.8772410154342651
vn -2.190714795754993e-16 -0.1618551948448324 0.8944271802902222
vn 0 0.36191922251806774 0
vn 0 0.36191922251806774 0
vn 0 0.36191922251806774 0
vn 0 0.36191922251806774 0
vn 0 0.36191922251806774 0
vn 0 0.36191922251806774 0
vn 0 0.36191922251806774 0
vn 0 0.36191922251806774 0
vn 0 0.36191922251806774 0
vn 0 0.36191922251806774 0
vn 0 0.36191922251806774 0
vn 0 0.36191922251806774 0
vn 0 0.36191922251806774 0
vn 0 0.36191922251806774 0
vn 0 0.36191922251806774 0
vn 0 0.36191922251806774 0
vn 0 0.36191922251806774 0
vn 0 0.36191922251806774 0
vn 0 0.36191922251806774 0
vn 0 0.36191922251806774 0
vn 0 0.36191922251806774 0
vn 0 0.36191922251806774 0
vn 0 0.36191922251806774 0
vn 0 0.36191922251806774 0
vn 0 0.36191922251806774 0
vn 0 0.36191922251806774 0
vn 0 0.36191922251806774 0
vn 0 0.36191922251806774 0
vn 0 0.36191922251806774 0
vn 0 0.36191922251806774 0
vn 0 0.36191922251806774 0
vn 0 0.36191922251806774 0
vn 0 0.36191922251806774 0
vn 0 0.36191922251806774 0
vn 0 0.36191922251806774 0
vn 0 0.36191922251806774 0
vn 0 0.36191922251806774 0
vn 0 0.36191922251806774 0
vn 0 0.36191922251806774 0
vn 0 0.36191922251806774 0
vn 0 0.36191922251806774 0
vn 0 0.36191922251806774 0
vn 0 0.36191922251806774 0
vn 0 0.36191922251806774 0
vn 0 0.36191922251806774 0
vn 0 0.36191922251806774 0
vn 0 0.36191922251806774 0
vn 0 0.36191922251806774 0
vn 0 0.36191922251806774 0
vn 0 0.36191922251806774 0
vn 0 0.36191922251806774 0
vn 0 0.36191922251806774 0
vn 0 0.36191922251806774 0
vn 0 0.36191922251806774 0
vn 0 0.36191922251806774 0
vn 0 0.36191922251806774 0
vn 0 0.36191922251806774 0
vn 0 0.36191922251806774 0
vn 0 0.36191922251806774 0
vn 0 0.36191922251806774 0
vn 0 0.36191922251806774 0
vn 0 0.36191922251806774 0
vn 0 0.36191922251806774 0
vn 0 0.36191922251806774 0
vn 0 0.36191922251806774 0
f 311/311/311 344/344/344 312/312/312
f 344/344/344 345/345/345 312/312/312
f 312/312/312 345/345/345 313/313/313
f 345/345/345 346/346/346 313/313/313
f 313/313/313 346/346/346 314/314/314
f 346/346/346 347/347/347 314/314/314
f 314/314/314 347/347/347 315/315/315
f 347/347/347 348/348/348 315/315/315
f 315/315/315 348/348/348 316/316/316
f 348/348/348 349/349/349 316/316/316
f 316/316/316 349/349/349 317/317/317
f 349/349/349 350/350/350 317/317/317
f 317/317/317 350/350/350 318/318/318
f 350/350/350 351/351/351 318/318/318
f 318/318/318 351/351/351 319/319/319
f 351/351/351 352/352/352 319/319/319
f 319/319/319 352/352/352 320/320/320
f 352/352/352 353/353/353 320/320/320
f 320/320/320 353/353/353 321/321/321
f 353/353/353 354/354/354 321/321/321
f 321/321/321 354/354/354 322/322/322
f 354/354/354 355/355/355 322/322/322
f 322/322/322 355/355/355 323/323/323
f 355/355/355 356/356/356 323/323/323
f 323/323/323 356/356/356 324/324/324
f 356/356/356 357/357/357 324/324/324
f 324/324/324 357/357/357 325/325/325
f 357/357/357 358/358/358 325/325/325
f 325/325/325 358/358/358 326/326/326
f 358/358/358 359/359/359 326/326/326
f 326/326/326 359/359/359 327/327/327
f 359/359/359 360/360/360 327/327/327
f 327/327/327 360/360/360 328/328/328
f 360/360/360 361/361/361 328/328/328
f 328/328/328 361/361/361 329/329/329
f 361/361/361 362/362/362 329/329/329
f 329/329/329 362/362/362 330/330/330
f 362/362/362 363/363/363 330/330/330
f 330/330/330 363/363/363 331/331/331
f 363/363/363 364/364/364 331/331/331
f 331/331/331 364/364/364 332/332/332
f 364/364/364 365/365/365 332/332/332
f 332/332/332 365/365/365 333/333/333
f 365/365/365 366/366/366 333/333/333
f 333/333/333 366/366/366 334/334/334
f 366/366/366 367/367/367 334/334/334
f 334/334/334 367/367/367 335/335/335
f 367/367/367 368/368/368 335/335/335
f 335/335/335 368/368/368 336/336/336
f 368/368/368 369/369/369 336/336/336
f 336/336/336 369/369/369 337/337/337
f 369/369/369 370/370/370 337/337/337
f 337/337/337 370/370/370 338/338/338
f 370/370/370 371/371/371 338/338/338
f 338/338/338 371/371/371 339/339/339
f 371/371/371 372/372/372 339/339/339
f 339/339/339 372/372/372 340/340/340
f 372/372/372 373/373/373 340/340/340
f 340/340/340 373/373/373 341/341/341
f 373/373/373 374/374/374 341/341/341
f 341/341/341 374/374/374 342/342/342
f 374/374/374 375/375/375 342/342/342
f 342/342/342 375/375/375 343/343/343
f 375/375/375 376/376/376 343/343/343
f 409/409/409 410/410/410 377/377/377
f 410/410/410 411/411/411 378/378/378
f 411/411/411 412/412/412 379/379/379
f 412/412/412 413/413/413 380/380/380
f 413/413/413 414/414/414 381/381/381
f 414/414/414 415/415/415 382/382/382
f 415/415/415 416/416/416 383/383/383
f 416/416/416 417/417/417 384/384/384
f 417/417/417 418/418/418 385/385/385
f 418/418/418 419/419/419 386/386/386
f 419/419/419 420/420/420 387/387/387
f 420/420/420 421/421/421 388/388/388
f 421/421/421 422/422/422 389/389/389
f 422/422/422 423/423/423 390/390/390
f 423/423/423 424/424/424 391/391/391
f 424/424/424 425/425/425 392/392/392
f 425/425/425 426/426/426 393/393/393
f 426/426/426 427/427/427 394/394/394
f 427/427/427 428/428/428 395/395/395
f 428/428/428 429/429/429 396/396/396
f 429/429/429 430/430/430 397/397/397
f 430/430/430 431/431/431 398/398/398
f 431/431/431 432/432/432 399/399/399
f 432/432/432 433/433/433 400/400/400
f 433/433/433 434/434/434 401/401/401
f 434/434/434 435/435/435 402/402/402
f 435/435/435 436/436/436 403/403/403
f 436/436/436 437/437/437 404/404/404
f 437/437/437 438/438/438 405/405/405
f 438/438/438 439/439/439 406/406/406
f 439/439/439 440/440/440 407/407/407
f 440/440/440 441/441/441 408/408/408
o Box 2
v -2.7755575615628914e-17 4.069023545109729 -2.74053958052374
v 0.2594604194762603 4.069023545109729 -3
v -2.7755575615628914e-17 -0.2561881529879848 -2.74053958052374
v 0.2594604194762603 -0.2561881529879848 -3
v 2.7755575615628914e-17 4.069023545109729 -3.25946041947626
v -0.2594604194762603 4.069023545109729 -3
v 2.7755575615628914e-17 -0.2561881529879848 -3.25946041947626
v -0.2594604194762603 -0.2561881529879848 -3
v 2.7755575615628914e-17 4.069023545109729 -3.25946041947626
v 0.2594604194762603 4.069023545109729 -3
v -0.2594604194762603 4.069023545109729 -3
v -2.7755575615628914e-17 4.069023545109729 -2.74053958052374
v -0.2594604194762603 -0.2561881529879848 -3
v -2.7755575615628914e-17 -0.2561881529879848 -2.74053958052374
v 2.7755575615628914e-17 -0.2561881529879848 -3.25946041947626
v 0.2594604194762603 -0.2561881529879848 -3
v -0.2594604194762603 4.069023545109729 -3
v -2.7755575615628914e-17 4.069023545109729 -2.74053958052374
v -0.2594604194762603 -0.2561881529879848 -3
v -2.7755575615628914e-17 -0.2561881529879848 -2.74053958052374
v 0.2594604194762603 4.069023545109729 -3
v 2.7755575615628914e-17 4.069023545109729 -3.25946041947626
v 0.2594604194762603 -0.2561881529879848 -3
v 2.7755575615628914e-17 -0.2561881529879848 -3.25946041947626
vt 0 1
vt 1 1
vt 0 0
vt 1 0
vt 0 1
vt 1 1
vt 0 0
vt 1 0
vt 0 1
vt 1 1
vt 0 0
vt 1 0
vt 0 1
vt 1 1
vt 0 0
vt 1 0
vt 0 1
vt 1 1
vt 0 0
vt 1 0
vt 0 1
vt 1 1
vt 0 0
vt 1 0
vn 1.9270762030265975 0 1.927076203026598
vn 1.9270762030265975 0 1.927076203026598
vn 1.9270762030265975 0 1.927076203026598
vn 1.9270762030265975 0 1.927076203026598
vn -1.9270762030265975 0 -1.927076203026598
vn -1.9270762030265975 0 -1.927076203026598
vn -1.9270762030265975 0 -1.927076203026598
vn -1.9270762030265975 0 -1.927076203026598
vn 0 0.23120255603669368 0
vn 0 0.23120255603669368 0
vn 0 0.23120255603669368 0
vn 0 0.23120255603669368 0
vn 0 -0.23120255603669368 0
vn 0 -0.23120255603669368 0
vn 0 -0.23120255603669368 0
vn 0 -0.23120255603669368 0
vn -1.927076203026598 0 1.9270762030265975
vn -1.927076203026598 0 1.9270762030265975
vn -1.927076203026598 0 1.9270762030265975
vn -1.927076203026598 0 1.9270762030265975
vn 1.927076203026598 0 -1.9270762030265975
vn 1.927076203026598 0 -1.9270762030265975
vn 1.927076203026598 0 -1.9270762030265975
vn 1.927076203026598 0 -1.9270762030265975
f 442/442/442 444/444/444 443/443/443
f 444/444/444 445/445/445 443/443/443
f 446/446/446 448/448/448 447/447/447
f 448/448/448 449/449/449 447/447/447
f 450/450/450 452/452/452 451/451/451
f 452/452/452 453/453/453 451/451/451
f 454/454/454 456/456/456 455/455/455
f 456/456/456 457/457/457 455/455/455
f 458/458/458 460/460/460 459/459/459
f 460/460/460 461/461/461 459/459/459
f 462/462/462 464/464/464 463/463/463
f 464/464/464 465/465/465 463/463/463
o Cylinder 1
v 3 2.52494278281329 1
v 3.1950903236865997 2.52494278281329 0.9807852506637573
v 3.382683426141739 2.52494278281329 0.9238795042037964
v 3.5555702447891235 2.52494278281329 0.8314695954322815
v 3.7071067690849304 2.52494278281329 0.7071067690849304
v 3.8314695954322815 2.52494278281329 0.5555702447891235
v 3.9238795042037964 2.52494278281329 0.3826834261417389
v 3.9807852506637573 2.52494278281329 0.19509032368659973
v 4 2.52494278281329 6.123234262925839e-17
v 3.9807852506637573 2.52494278281329 -0.19509032368659973
v 3.9238795042037964 2.52494278281329 -0.3826834261417389
v 3.8314695954322815 2.52494278281329 -0.5555702447891235
v 3.7071067690849304 2.52494278281329 -0.7071067690849304
v 3.5555702447891235 2.52494278281329 -0.8314695954322815
v 3.382683426141739 2.52494278281329 -0.9238795042037964
v 3.1950903236865997 2.52494278281329 -0.9807852506637573
v 3 2.52494278281329 -1
v 2.8049096763134003 2.52494278281329 -0.9807852506637573
v 2.617316573858261 2.52494278281329 -0.9238795042037964
v 2.4444297552108765 2.52494278281329 -0.8314695954322815
v 2.2928932309150696 2.52494278281329 -0.7071067690849304
v 2.1685304045677185 2.52494278281329 -0.5555702447891235
v 2.0761204957962036 2.52494278281329 -0.3826834261417389
v 2.0192147493362427 2.52494278281329 -0.19509032368659973
v 2 2.52494278281329 -1.8369701465288538e-16
v 2.0192147493362427 2.52494278281329 0.19509032368659973
v 2.0761204957962036 2.52494278281329 0.3826834261417389
v 2.1685304045677185 2.52494278281329 0.5555702447891235
v 2.2928932309150696 2.52494278281329 0.7071067690849304
v 2.4444297552108765 2.52494278281329 0.8314695954322815
v 2.617316573858261 2.52494278281329 0.9238795042037964
v 2.8049096763134003 2.52494278281329 0.9807852506637573
v 2.9999999999999996 2.52494278281329 1
v 3 -3.001152200716235 0
v 3 -3.001152200716235 0
v 3 -3.001152200716235 0
v 3 -3.001152200716235 0
v 3 -3.001152200716235 0
v 3 -3.001152200716235 0
v 3 -3.001152200716235 0
v 3 -3.001152200716235 0
v 3 -3.001152200716235 0
v 3 -3.001152200716235 0
v 3 -3.001152200716235 0
v 3 -3.001152200716235 0
v 3 -3.001152200716235 0
v 3 -3.001152200716235 0
v 3 -3.001152200716235 0
v 3 -3.001152200716235 0
v 3 -3.001152200716235 0
v 3 -3.001152200716235 0
v 3 -3.001152200716235 0
v 3 -3.001152200716235 0
v 3 -3.001152200716235 0
v 3 -3.001152200716235 0
v 3 -3.001152200716235 0
v 3 -3.001152200716235 0
v 3 -3.001152200716235 0
v 3 -3.001152200716235 0
v 3 -3.001152200716235 0
v 3 -3.001152200716235 0
v 3 -3.001152200716235 0
v 3 -3.001152200716235 0
v 3 -3.001152200716235 0
v 3 -3.001152200716235 0
v 3 -3.001152200716235 0
v 3 2.52494278281329 0
v 3 2.52494278281329 0
v 3 2.52494278281329 0
v 3 2.52494278281329 0
v 3 2.52494278281329 0
v 3 2.52494278281329 0
v 3 2.52494278281329 0
v 3 2.52494278281329 0
v 3 2.52494278281329 0
v 3 2.52494278281329 0
v 3 2.52494278281329 0
v 3 2.52494278281329 0
v 3 2.52494278281329 0
v 3 2.52494278281329 0
v 3 2.52494278281329 0
v 3 2.52494278281329 0
v 3 2.52494278281329 0
v 3 2.52494278281329 0
v 3 2.52494278281329 0
v 3 2.52494278281329 0
v 3 2.52494278281329 0
v 3 2.52494278281329 0
v 3 2.52494278281329 0
v 3 2.52494278281329 0
v 3 2.52494278281329 0
v 3 2.52494278281329 0
v 3 2.52494278281329 0
v 3 2.52494278281329 0
v 3 2.52494278281329 0
v 3 2.52494278281329 0
v 3 2.52494278281329 0
v 3 2.52494278281329 0
v 3 2.52494278281329 1
v 3.1950903236865997 2.52494278281329 0.9807852506637573
v 3.382683426141739 2.52494278281329 0.9238795042037964
v 3.5555702447891235 2.52494278281329 0.8314695954322815
v 3.7071067690849304 2.52494278281329 0.7071067690849304
v 3.8314695954322815 2.52494278281329 0.5555702447891235
v 3.9238795042037964 2.52494278281329 0.3826834261417389
v 3.9807852506637573 2.52494278281329 0.19509032368659973
v 4 2.52494278281329 6.123234262925839e-17
v 3.9807852506637573 2.52494278281329 -0.19509032368659973
v 3.9238795042037964 2.52494278281329 -0.3826834261417389
v 3.8314695954322815 2.52494278281329 -0.5555702447891235
v 3.7071067690849304 2.52494278281329 -0.7071067690849304
v 3.5555702447891235 2.52494278281329 -0.8314695954322815
v 3.382683426141739 2.52494278281329 -0.9238795042037964
v 3.1950903236865997 2.52494278281329 -0.9807852506637573
v 3 2.52494278281329 -1
v 2.8049096763134003 2.52494278281329 -0.9807852506637573
v 2.617316573858261 2.52494278281329 -0.9238795042037964
v 2.4444297552108765 2.52494278281329 -0.8314695954322815
v 2.2928932309150696 2.52494278281329 -0.7071067690849304
v 2.1685304045677185 2.52494278281329 -0.5555702447891235
v 2.0761204957962036 2.52494278281329 -0.3826834261417389
v 2.0192147493362427 2.52494278281329 -0.19509032368659973
v 2 2.52494278281329 -1.8369701465288538e-16
v 2.0192147493362427 2.52494278281329 0.19509032368659973
v 2.0761204957962036 2.52494278281329 0.3826834261417389
v 2.1685304045677185 2.52494278281329 0.5555702447891235
v 2.2928932309150696 2.52494278281329 0.7071067690849304
v 2.4444297552108765 2.52494278281329 0.8314695954322815
v 2.617316573858261 2.52494278281329 0.9238795042037964
v 2.8049096763134003 2.52494278281329 0.9807852506637573
v 2.9999999999999996 2.52494278281329 1
vt 0 1
vt 0.03125 1
vt 0.0625 1
vt 0.09375 1
vt 0.125 1
vt 0.15625 1
vt 0.1875 1
vt 0.21875 1
vt 0.25 1
vt 0.28125 1
vt 0.3125 1
vt 0.34375 1
vt 0.375 1
vt 0.40625 1
vt 0.4375 1
vt 0.46875 1
vt 0.5 1
vt 0.53125 1
vt 0.5625 1
vt 0.59375 1
vt 0.625 1
vt 0.65625 1
vt 0.6875 1
vt 0.71875 1
vt 0.75 1
vt 0.78125 1
vt 0.8125 1
vt 0.84375 1
vt 0.875 1
vt 0.90625 1
vt 0.9375 1
vt 0.96875 1
vt 1 1
vt 0 0
vt 0.03125 0
vt 0.0625 0
vt 0.09375 0
vt 0.125 0
vt 0.15625 0
vt 0.1875 0
vt 0.21875 0
vt 0.25 0
vt 0.28125 0
vt 0.3125 0
vt 0.34375 0
vt 0.375 0
vt 0.40625 0
vt 0.4375 0
vt 0.46875 0
vt 0.5 0
vt 0.53125 0
vt 0.5625 0
vt 0.59375 0
vt 0.625 0
vt 0.65625 0
vt 0.6875 0
vt 0.71875 0
vt 0.75 0
vt 0.78125 0
vt 0.8125 0
vt 0.84375 0
vt 0.875 0
vt 0.90625 0
vt 0.9375 0
vt 0.96875 0
vt 1 0
vt 0.5 0.5
vt 0.5 0.5
vt 0.5 0.5
vt 0.5 0.5
vt 0.5 0.5
vt 0.5 0.5
vt 0.5 0.5
vt 0.5 0.5
vt 0.5 0.5
vt 0.5 0.5
vt 0.5 0.5
vt 0.5 0.5
vt 0.5 0.5
vt 0.5 0.5
vt 0.5 0.5
vt 0.5 0.5
vt 0.5 0.5
vt 0.5 0.5
vt 0.5 0.5
vt 0.5 0.5
vt 0.5 0.5
vt 0.5 0.5
vt 0.5 0.5
vt 0.5 0.5
vt 0.5 0.5
vt 0.5 0.5
vt 0.5 0.5
vt 0.5 0.5
vt 0.5 0.5
vt 0.5 0.5
vt 0.5 0.5
vt 0.5 0.5
vt 1 0.5
vt 0.9903926253318787 0.5975451469421387
vt 0.9619397521018982 0.6913416981697083
vt 0.9157348275184631 0.7777851223945618
vt 0.8535534143447876 0.8535534143447876
vt 0.7777851223945618 0.9157348275184631
vt 0.6913416981697083 0.9619397521018982
vt 0.5975451469421387 0.9903926253318787
vt 0.5 1
vt 0.40245485305786133 0.9903926253318787
vt 0.30865827202796936 0.9619397521018982
vt 0.22221487760543823 0.9157348275184631
vt 0.1464466154575348 0.8535534143447876
vt 0.08426519483327866 0.7777851223945618
vt 0.03806023299694061 0.6913416981697083
vt 0.009607359766960144 0.5975451469421387
vt 0 0.5
vt 0.009607359766960144 0.40245485305786133
vt 0.03806023299694061 0.30865827202796936
vt 0.08426519483327866 0.22221487760543823
vt 0.1464466154575348 0.1464466154575348
vt 0.22221487760543823 0.08426519483327866
vt 0.30865827202796936 0.03806023299694061
vt 0.40245485305786133 0.009607359766960144
vt 0.5 0
vt 0.5975451469421387 0.009607359766960144
vt 0.6913416981697083 0.03806023299694061
vt 0.7777851223945618 0.08426519483327866
vt 0.8535534143447876 0.1464466154575348
vt 0.9157348275184631 0.22221487760543823
vt 0.9619397521018982 0.30865827202796936
vt 0.9903926253318787 0.40245485305786133
vt 1 0.5
vn 0 -0.1618551948448324 0.8944271802902222
vn 0.17449408769607544 -0.1618551948448324 0.8772410154342651
vn 0.3422824740409851 -0.1618551948448324 0.8263429999351501
vn 0.49691712856292725 -0.1618551948448324 0.7436890006065369
vn 0.6324555277824402 -0.1618551948448324 0.6324555277824402
vn 0.7436890006065369 -0.1618551948448324 0.49691712856292725
vn 0.8263429999351501 -0.1618551948448324 0.3422824740409851
vn 0.8772410154342651 -0.1618551948448324 0.17449408769607544
vn 0.8944271802902222 -0.1618551948448324 5.476786989387483e-17
vn 0.8772410154342651 -0.1618551948448324 -0.17449408769607544
vn 0.8263429999351501 -0.1618551948448324 -0.3422824740409851
vn 0.7436890006065369 -0.1618551948448324 -0.49691712856292725
vn 0.6324555277824402 -0.1618551948448324 -0.6324555277824402
vn 0.49691712856292725 -0.1618551948448324 -0.7436890006065369
vn 0.3422824740409851 -0.1618551948448324 -0.8263429999351501
vn 0.17449408769607544 -0.1618551948448324 -0.8772410154342651
vn 1.0953573978774966e-16 -0.1618551948448324 -0.8944271802902222
vn -0.17449408769607544 -0.1618551948448324 -0.8772410154342651
vn -0.3422824740409851 -0.1618551948448324 -0.8263429999351501
vn -0.49691712856292725 -0.1618551948448324 -0.7436890006065369
vn -0.6324555277824402 -0.1618551948448324 -0.6324555277824402
vn -0.7436890006065369 -0.1618551948448324 -0.49691712856292725
vn -0.8263429999351501 -0.1618551948448324 -0.3422824740409851
vn -0.8772410154342651 -0.1618551948448324 -0.17449408769607544
vn -0.8944271802902222 -0.1618551948448324 -1.6430361299034693e-16
vn -0.8772410154342651 -0.1618551948448324 0.17449408769607544
vn -0.8263429999351501 -0.1618551948448324 0.3422824740409851
vn -0.7436890006065369 -0.1618551948448324 0.49691712856292725
vn -0.6324555277824402 -0.1618551948448324 0.6324555277824402
vn -0.49691712856292725 -0.1618551948448324 0.7436890006065369
vn -0.3422824740409851 -0.1618551948448324 0.8263429999351501
vn -0.17449408769607544 -0.1618551948448324 0.8772410154342651
vn -2.190714795754993e-16 -0.1618551948448324 0.8944271802902222
vn 0 -0.1618551948448324 0.8944271802902222
vn 0.17449408769607544 -0.1618551948448324 0.8772410154342651
vn 0.3422824740409851 -0.1618551948448324 0.8263429999351501
vn 0.49691712856292725 -0.1618551948448324 0.7436890006065369
vn 0.6324555277824402 -0.1618551948448324 0.6324555277824402
vn 0.7436890006065369 -0.1618551948448324 0.49691712856292725
vn 0.8263429999351501 -0.1618551948448324 0.3422824740409851
vn 0.8772410154342651 -0.1618551948448324 0.17449408769607544
vn 0.8944271802902222 -0.1618551948448324 5.476786989387483e-17
vn 0.8772410154342651 -0.1618551948448324 -0.17449408769607544
vn 0.8263429999351501 -0.1618551948448324 -0.3422824740409851
vn 0.7436890006065369 -0.1618551948448324 -0.49691712856292725
vn 0.6324555277824402 -0.1618551948448324 -0.6324555277824402
vn 0.49691712856292725 -0.1618551948448324 -0.7436890006065369
vn 0.3422824740409851 -0.1618551948448324 -0.8263429999351501
vn 0.17449408769607544 -0.1618551948448324 -0.8772410154342651
vn 1.0953573978774966e-16 -0.1618551948448324 -0.8944271802902222
vn -0.17449408769607544 -0.1618551948448324 -0.8772410154342651
vn -0.3422824740409851 -0.1618551948448324 -0.8263429999351501
vn -0.49691712856292725 -0.1618551948448324 -0.7436890006065369
vn -0.6324555277824402 -0.1618551948448324 -0.6324555277824402
vn -0.7436890006065369 -0.1618551948448324 -0.49691712856292725
vn -0.8263429999351501 -0.1618551948448324 -0.3422824740409851
vn -0.8772410154342651 -0.1618551948448324 -0.17449408769607544
vn -0.8944271802902222 -0.1618551948448324 -1.6430361299034693e-16
vn -0.8772410154342651 -0.1618551948448324 0.17449408769607544
vn -0.8263429999351501 -0.1618551948448324 0.3422824740409851
vn -0.7436890006065369 -0.1618551948448324 0.49691712856292725
vn -0.6324555277824402 -0.1618551948448324 0.6324555277824402
vn -0.49691712856292725 -0.1618551948448324 0.7436890006065369
vn -0.3422824740409851 -0.1618551948448324 0.8263429999351501
vn -0.17449408769607544 -0.1618551948448324 0.8772410154342651
vn -2.190714795754993e-16 -0.1618551948448324 0.8944271802902222
vn 0 0.36191922251806774 0
vn 0 0.36191922251806774 0
vn 0 0.36191922251806774 0
vn 0 0.36191922251806774 0
vn 0 0.36191922251806774 0
vn 0 0.36191922251806774 0
vn 0 0.36191922251806774 0
vn 0 0.36191922251806774 0
vn 0 0.36191922251806774 0
vn 0 0.36191922251806774 0
vn 0 0.36191922251806774 0
vn 0 0.36191922251806774 0
vn 0 0.36191922251806774 0
vn 0 0.36191922251806774 0
vn 0 0.36191922251806774 0
vn 0 0.36191922251806774 0
vn 0 0.36191922251806774 0
vn 0 0.36191922251806774 0
vn 0 0.36191922251806774 0
vn 0 0.36191922251806774 0
vn 0 0.36191922251806774 0
vn 0 0.36191922251806774 0
vn 0 0.36191922251806774 0
vn 0 0.36191922251806774 0
vn 0 0.36191922251806774 0
vn 0 0.36191922251806774 0
vn 0 0.36191922251806774 0
vn 0 0.36191922251806774 0
vn 0 0.36191922251806774 0
vn 0 0.36191922251806774 0
vn 0 0.36191922251806774 0
vn 0 0.36191922251806774 0
vn 0 0.36191922251806774 0
vn 0 0.36191922251806774 0
vn 0 0.36191922251806774 0
vn 0 0.36191922251806774 0
vn 0 0.36191922251806774 0
vn 0 0.36191922251806774 0
vn 0 0.36191922251806774 0
vn 0 0.36191922251806774 0
vn 0 0.36191922251806774 0
vn 0 0.36191922251806774 0
vn 0 0.36191922251806774 0
vn 0 0.36191922251806774 0
vn 0 0.36191922251806774 0
vn 0 0.36191922251806774 0
vn 0 0.36191922251806774 0
vn 0 0.36191922251806774 0
vn 0 0.36191922251806774 0
vn 0 0.36191922251806774 0
vn 0 0.36191922251806774 0
vn 0 0.36191922251806774 0
vn 0 0.36191922251806774 0
vn 0 0.36191922251806774 0
vn 0 0.36191922251806774 0
vn 0 0.36191922251806774 0
vn 0 0.36191922251806774 0
vn 0 0.36191922251806774 0
vn 0 0.36191922251806774 0
vn 0 0.36191922251806774 0
vn 0 0.36191922251806774 0
vn 0 0.36191922251806774 0
vn 0 0.36191922251806774 0
vn 0 0.36191922251806774 0
vn 0 0.36191922251806774 0
f 466/466/466 499/499/499 467/467/467
f 499/499/499 500/500/500 467/467/467
f 467/467/467 500/500/500 468/468/468
f 500/500/500 501/501/501 468/468/468
f 468/468/468 501/501/501 469/469/469
f 501/501/501 502/502/502 469/469/469
f 469/469/469 502/502/502 470/470/470
f 502/502/502 503/503/503 470/470/470
f 470/470/470 503/503/503 471/471/471
f 503/503/503 504/504/504 471/471/471
f 471/471/471 504/504/504 472/472/472
f 504/504/504 505/505/505 472/472/472
f 472/472/472 505/505/505 473/473/473
f 505/505/505 506/506/506 473/473/473
f 473/473/473 506/506/506 474/474/474
f 506/506/506 507/507/507 474/474/474
f 474/474/474 507/507/507 475/475/475
f 507/507/507 508/508/508 475/475/475
f 475/475/475 508/508/508 476/476/476
f 508/508/508 509/509/509 476/476/476
f 476/476/476 509/509/509 477/477/477
f 509/509/509 510/510/510 477/477/477
f 477/477/477 510/510/510 478/478/478
f 510/510/510 511/511/511 478/478/478
f 478/478/478 511/511/511 479/479/479
f 511/511/511 512/512/512 479/479/479
f 479/479/479 512/512/512 480/480/480
f 512/512/512 513/513/513 480/480/480
f 480/480/480 513/513/513 481/481/481
f 513/513/513 514/514/514 481/481/481
f 481/481/481 514/514/514 482/482/482
f 514/514/514 515/515/515 482/482/482
f 482/482/482 515/515/515 483/483/483
f 515/515/515 516/516/516 483/483/483
f 483/483/483 516/516/516 484/484/484
f 516/516/516 517/517/517 484/484/484
f 484/484/484 517/517/517 485/485/485
f 517/517/517 518/518/518 485/485/485
f 485/485/485 518/518/518 486/486/486
f 518/518/518 519/519/519 486/486/486
f 486/486/486 519/519/519 487/487/487
f 519/519/519 520/520/520 487/487/487
f 487/487/487 520/520/520 488/488/488
f 520/520/520 521/521/521 488/488/488
f 488/488/488 521/521/521 489/489/489
f 521/521/521 522/522/522 489/489/489
f 489/489/489 522/522/522 490/490/490
f 522/522/522 523/523/523 490/490/490
f 490/490/490 523/523/523 491/491/491
f 523/523/523 524/524/524 491/491/491
f 491/491/491 524/524/524 492/492/492
f 524/524/524 525/525/525 492/492/492
f 492/492/492 525/525/525 493/493/493
f 525/525/525 526/526/526 493/493/493
f 493/493/493 526/526/526 494/494/494
f 526/526/526 527/527/527 494/494/494
f 494/494/494 527/527/527 495/495/495
f 527/527/527 528/528/528 495/495/495
f 495/495/495 528/528/528 496/496/496
f 528/528/528 529/529/529 496/496/496
f 496/496/496 529/529/529 497/497/497
f 529/529/529 530/530/530 497/497/497
f 497/497/497 530/530/530 498/498/498
f 530/530/530 531/531/531 498/498/498
f 564/564/564 565/565/565 532/532/532
f 565/565/565 566/566/566 533/533/533
f 566/566/566 567/567/567 534/534/534
f 567/567/567 568/568/568 535/535/535
f 568/568/568 569/569/569 536/536/536
f 569/569/569 570/570/570 537/537/537
f 570/570/570 571/571/571 538/538/538
f 571/571/571 572/572/572 539/539/539
f 572/572/572 573/573/573 540/540/540
f 573/573/573 574/574/574 541/541/541
f 574/574/574 575/575/575 542/542/542
f 575/575/575 576/576/576 543/543/543
f 576/576/576 577/577/577 544/544/544
f 577/577/577 578/578/578 545/545/545
f 578/578/578 579/579/579 546/546/546
f 579/579/579 580/580/580 547/547/547
f 580/580/580 581/581/581 548/548/548
f 581/581/581 582/582/582 549/549/549
f 582/582/582 583/583/583 550/550/550
f 583/583/583 584/584/584 551/551/551
f 584/584/584 585/585/585 552/552/552
f 585/585/585 586/586/586 553/553/553
f 586/586/586 587/587/587 554/554/554
f 587/587/587 588/588/588 555/555/555
f 588/588/588 589/589/589 556/556/556
f 589/589/589 590/590/590 557/557/557
f 590/590/590 591/591/591 558/558/558
f 591/591/591 592/592/592 559/559/559
f 592/592/592 593/593/593 560/560/560
f 593/593/593 594/594/594 561/561/561
f 594/594/594 595/595/595 562/562/562
f 595/595/595 596/596/596 563/563/563
o Box 2
v 3 4.069023545109729 0.2594604194762603
v 3.25946041947626 4.069023545109729 2.7755575615628914e-17
v 3 -0.2561881529879848 0.2594604194762603
v 3.25946041947626 -0.2561881529879848 2.7755575615628914e-17
v 3 4.069023545109729 -0.2594604194762603
v 2.74053958052374 4.069023545109729 -2.7755575615628914e-17
v 3 -0.2561881529879848 -0.2594604194762603
v 2.74053958052374 -0.2561881529879848 -2.7755575615628914e-17
v 3 4.069023545109729 -0.2594604194762603
v 3.25946041947626 4.069023545109729 2.7755575615628914e-17
v 2.74053958052374 4.069023545109729 -2.7755575615628914e-17
v 3 4.069023545109729 0.2594604194762603
v 2.74053958052374 -0.2561881529879848 -2.7755575615628914e-17
v 3 -0.2561881529879848 0.2594604194762603
v 3 -0.2561881529879848 -0.2594604194762603
v 3.25946041947626 -0.2561881529879848 2.7755575615628914e-17
v 2.74053958052374 4.069023545109729 -2.7755575615628914e-17
v 3 4.069023545109729 0.2594604194762603
v 2.74053958052374 -0.2561881529879848 -2.7755575615628914e-17
v 3 -0.2561881529879848 0.2594604194762603
v 3.25946041947626 4.069023545109729 2.7755575615628914e-17
v 3 4.069023545109729 -0.2594604194762603
v 3.25946041947626 -0.2561881529879848 2.7755575615628914e-17
v 3 -0.2561881529879848 -0.2594604194762603
vt 0 1
vt 1 1
vt 0 0
vt 1 0
vt 0 1
vt 1 1
vt 0 0
vt 1 0
vt 0 1
vt 1 1
vt 0 0
vt 1 0
vt 0 1
vt 1 1
vt 0 0
vt 1 0
vt 0 1
vt 1 1
vt 0 0
vt 1 0
vt 0 1
vt 1 1
vt 0 0
vt 1 0
vn 1.9270762030265975 0 1.927076203026598
vn 1.9270762030265975 0 1.927076203026598
vn 1.9270762030265975 0 1.927076203026598
vn 1.9270762030265975 0 1.927076203026598
vn -1.9270762030265975 0 -1.927076203026598
vn -1.9270762030265975 0 -1.927076203026598
vn -1.9270762030265975 0 -1.927076203026598
vn -1.9270762030265975 0 -1.927076203026598
vn 0 0.23120255603669368 0
vn 0 0.23120255603669368 0
vn 0 0.23120255603669368 0
vn 0 0.23120255603669368 0
vn 0 -0.23120255603669368 0
vn 0 -0.23120255603669368 0
vn 0 -0.23120255603669368 0
vn 0 -0.23120255603669368 0
vn -1.927076203026598 0 1.9270762030265975
vn -1.927076203026598 0 1.9270762030265975
vn -1.927076203026598 0 1.9270762030265975
vn -1.927076203026598 0 1.9270762030265975
vn 1.927076203026598 0 -1.9270762030265975
vn 1.927076203026598 0 -1.9270762030265975
vn 1.927076203026598 0 -1.9270762030265975
vn 1.927076203026598 0 -1.9270762030265975
f 597/597/597 599/599/599 598/598/598
f 599/599/599 600/600/600 598/598/598
f 601/601/601 603/603/603 602/602/602
f 603/603/603 604/604/604 602/602/602
f 605/605/605 607/607/607 606/606/606
f 607/607/607 608/608/608 606/606/606
f 609/609/609 611/611/611 610/610/610
f 611/611/611 612/612/612 610/610/610
f 613/613/613 615/615/615 614/614/614
f 615/615/615 616/616/616 614/614/614
f 617/617/617 619/619/619 618/618/618
f 619/619/619 620/620/620 618/618/618
