[gd_scene load_steps=10 format=2]

[ext_resource path="res://object/monsters/Cat.tscn" type="PackedScene" id=1]
[ext_resource path="res://object/path.gd" type="Script" id=2]
[ext_resource path="res://object/player.tscn" type="PackedScene" id=3]
[ext_resource path="res://scenarios/scenario.gd" type="Script" id=4]
[ext_resource path="res://object/npc.tscn" type="PackedScene" id=5]
[ext_resource path="res://tilesets/items.tres" type="TileSet" id=6]
[ext_resource path="res://object/door.tscn" type="PackedScene" id=7]
[ext_resource path="res://tilesets/mask.tres" type="TileSet" id=9]

[sub_resource type="Curve2D" id=1]
_data = {
"points": PoolVector2Array( 0, 0, 0, 0, 160, 160, 0, 0, 0, 0, 160, 480, 0, 0, 0, 0, 288, 480, 0, 0, 0, 0, 288, 160, 0, 0, 0, 0, 544, 160, 0, 0, 0, 0, 96, 160, 0, 0, 0, 0, 160, 160, 0, 0, 0, 0, 160, 480, 0, 0, 0, 0, 352, 480, 0, 0, 0, 0, 352, 416, 0, 0, 0, 0, 736, 416, 0, 0, 0, 0, 736, 160, 0, 0, 0, 0, 864, 160, 0, 0, 0, 0, 160, 160 )
}

[node name="overworld" type="Node2D"]
script = ExtResource( 4 )

[node name="FloorItems" type="TileMap" parent="."]
tile_set = ExtResource( 6 )
format = 1
tile_data = PoolIntArray( 1, 14, 0, 2, 14, 0, 3, 14, 0, 4, 14, 0, 5, 14, 0, 6, 14, 0, 7, 14, 0, 8, 14, 0, 9, 14, 0, 10, 14, 0, 11, 14, 0, 12, 14, 0, 13, 14, 0, 14, 14, 0, 65537, 14, 0, 65538, 14, 0, 65539, 14, 0, 65540, 14, 0, 65541, 14, 0, 65542, 14, 0, 65543, 14, 0, 65544, 14, 0, 65545, 14, 0, 65546, 14, 0, 65547, 14, 0, 65548, 14, 0, 65549, 14, 0, 65550, 14, 0, 131073, 18, 0, 131074, 18, 0, 131075, 18, 0, 131076, 10, 0, 131077, 18, 0, 131078, 18, 0, 131079, 18, 0, 131080, 18, 0, 131081, 10, 0, 131082, 18, 0, 131083, 18, 0, 131084, 10, 0, 131085, 10, 0, 131086, 10, 0, 196609, 18, 0, 196610, 18, 0, 196611, 18, 0, 196612, 10, 0, 196613, 18, 0, 196614, 18, 0, 196615, 18, 0, 196616, 18, 0, 196617, 18, 0, 196618, 18, 0, 196619, 18, 0, 196620, 10, 0, 196621, 10, 0, 196622, 10, 0, 262145, 18, 0, 262146, 18, 0, 262147, 18, 0, 262148, 18, 0, 262149, 18, 0, 262150, 18, 0, 262151, 18, 0, 262152, 18, 0, 262153, 18, 0, 262154, 18, 0, 262155, 18, 0, 262156, 18, 0, 262157, 18, 0, 262158, 18, 0, 327681, 18, 0, 327682, 18, 0, 327683, 18, 0, 327684, 18, 0, 327685, 18, 0, 327686, 10, 0, 327687, 18, 0, 327688, 18, 0, 327689, 18, 0, 327690, 18, 0, 327691, 18, 0, 327692, 18, 0, 327693, 18, 0, 327694, 18, 0, 393217, 18, 0, 393218, 18, 0, 393219, 18, 0, 393220, 18, 0, 393221, 18, 0, 393222, 18, 0, 393223, 18, 0, 393224, 18, 0, 393225, 18, 0, 393226, 18, 0, 393227, 18, 0, 393228, 18, 0, 393229, 18, 0, 393230, 18, 0, 458753, 10, 0, 458754, 18, 0, 458755, 18, 0, 458756, 18, 0, 458757, 18, 0, 458758, 18, 0, 458759, 18, 0, 458760, 18, 0, 458761, 18, 0, 458762, 18, 0, 458763, 18, 0, 458764, 10, 0, 458765, 18, 0, 458766, 18, 0 )

[node name="BaseItems" type="TileMap" parent="."]
tile_set = ExtResource( 6 )
format = 1
tile_data = PoolIntArray( 14, 21, 0, 65537, 21, 0, 65539, 21, 0, 65541, 4, 0, 65542, 4, 0, 65543, 4, 0, 65544, 4, 0, 65550, 4, 0, 131073, 21, 0, 131075, 21, 0, 131077, 4, 0, 131078, 4, 0, 131079, 4, 0, 131080, 4, 0, 131081, 0, 0, 131086, 4, 0, 196609, 21, 0, 196611, 21, 0, 196613, 4, 0, 196614, 4, 0, 196615, 4, 0, 196616, 4, 0, 262145, 21, 0, 262147, 21, 0, 262149, 4, 0, 262150, 4, 0, 262151, 4, 0, 262152, 4, 0, 327681, 4, 0, 327683, 4, 0, 327686, 0, 0, 393217, 4, 0, 393219, 4, 0, 458764, 0, 0 )

[node name="BaseItems2" type="TileMap" parent="."]
tile_set = ExtResource( 6 )
cell_size = Vector2( 32, 32 )
format = 1
tile_data = PoolIntArray( 589848, 17, 0, 589852, 536870929, 0 )

[node name="Nodes" type="YSort" parent="."]
z_as_relative = false

[node name="player" parent="Nodes" instance=ExtResource( 3 )]
position = Vector2( 480, 448 )
cameraLimit = Vector2( 1000, 1000 )

[node name="major" parent="Nodes" instance=ExtResource( 5 )]
position = Vector2( 832, 192 )
type = "feudal_worker"
dialog = "hogt_delivery"

[node name="npc" parent="Nodes" instance=ExtResource( 5 )]
position = Vector2( 128, 128 )
type = "feudal_woman"

[node name="door_out" parent="Nodes" instance=ExtResource( 7 )]
position = Vector2( 448, 512 )
scale = Vector2( 2, 1 )
door = "tornstad/hogt"

[node name="Cat" parent="Nodes" instance=ExtResource( 1 )]
position = Vector2( 704, 448 )

[node name="BaseItems3" type="TileMap" parent="."]
tile_set = ExtResource( 6 )
cell_size = Vector2( 32, 32 )
format = 1
tile_data = PoolIntArray( 458776, 21, 0, 458777, 21, 0, 458778, 21, 0, 458779, 21, 0, 458780, 21, 0 )

[node name="TopItems" type="TileMap" parent="."]
tile_set = ExtResource( 6 )
format = 1
tile_data = PoolIntArray( 0, 22, 0, 5, 21, 0, 6, 21, 0, 7, 21, 0, 8, 21, 0, 15, 22, 0, 65536, 22, 0, 65537, 21, 0, 65539, 21, 0, 65551, 22, 0, 131072, 22, 0, 131073, 21, 0, 131075, 21, 0, 131077, 21, 0, 131078, 21, 0, 131079, 21, 0, 131080, 21, 0, 131087, 22, 0, 196608, 22, 0, 196609, 21, 0, 196611, 21, 0, 196613, 4, 0, 196614, 4, 0, 196615, 4, 0, 196616, 4, 0, 196623, 22, 0, 262144, 22, 0, 262145, 21, 0, 262147, 21, 0, 262159, 22, 0, 327680, 22, 0, 327695, 22, 0, 393216, 22, 0, 393231, 22, 0, 458752, 22, 0, 458767, 22, 0, 524288, 22, 0, 524289, 22, 0, 524290, 22, 0, 524291, 22, 0, 524292, 22, 0, 524293, 22, 0, 524294, 22, 0, 524297, 22, 0, 524298, 22, 0, 524299, 22, 0, 524300, 22, 0, 524301, 22, 0, 524302, 22, 0, 524303, 22, 0, 589824, 22, 0, 589825, 22, 0, 589826, 22, 0, 589827, 22, 0, 589828, 22, 0, 589829, 22, 0, 589830, 22, 0, 589831, 22, 0, 589832, 22, 0, 589833, 22, 0, 589834, 22, 0, 589835, 22, 0, 589836, 22, 0, 589837, 22, 0, 589838, 22, 0, 589839, 22, 0 )

[node name="empty" type="TileMap" parent="."]
tile_set = ExtResource( 6 )
format = 1

[node name="collision" type="TileMap" parent="."]
tile_set = ExtResource( 9 )
format = 1
tile_data = PoolIntArray( 0, 0, 0, 1, 0, 0, 2, 0, 0, 3, 0, 0, 4, 0, 0, 5, 0, 0, 6, 0, 0, 7, 0, 0, 8, 0, 0, 9, 0, 0, 10, 0, 0, 11, 0, 0, 12, 0, 0, 13, 0, 0, 14, 0, 0, 15, 0, 0, 65536, 0, 0, 65537, 0, 0, 65538, 0, 0, 65539, 0, 0, 65540, 0, 0, 65541, 0, 0, 65542, 0, 0, 65543, 0, 0, 65544, 0, 0, 65545, 0, 0, 65546, 0, 0, 65547, 0, 0, 65548, 0, 0, 65549, 0, 0, 65550, 0, 0, 65551, 0, 0, 131072, 0, 0, 131077, 0, 0, 131078, 0, 0, 131079, 0, 0, 131080, 0, 0, 131081, 0, 0, 131086, 0, 0, 131087, 0, 0, 196608, 0, 0, 196609, 0, 0, 196611, 0, 0, 196623, 0, 0, 262144, 0, 0, 262145, 0, 0, 262147, 0, 0, 262149, 0, 0, 262150, 0, 0, 262151, 0, 0, 262152, 0, 0, 262156, 536870912, 0, 262157, 536870912, 0, 262158, 536870912, 0, 262159, 0, 0, 327680, 0, 0, 327681, 0, 0, 327683, 0, 0, 327686, 0, 0, 327692, 536870912, 0, 327693, 536870912, 0, 327694, 536870912, 0, 327695, 0, 0, 393216, 0, 0, 393217, 0, 0, 393219, 0, 0, 393231, 0, 0, 458752, 0, 0, 458764, 0, 0, 458767, 0, 0, 524288, 0, 0, 524289, 0, 0, 524290, 0, 0, 524291, 0, 0, 524292, 0, 0, 524293, 0, 0, 524294, 0, 0, 524297, 0, 0, 524298, 0, 0, 524299, 0, 0, 524300, 0, 0, 524301, 0, 0, 524302, 0, 0, 524303, 0, 0, 589830, 0, 0, 589831, 0, 0, 589832, 0, 0, 589833, 0, 0 )

[node name="extracol" type="TileMap" parent="."]
visible = false
tile_set = ExtResource( 9 )
cell_size = Vector2( 32, 32 )
format = 1
tile_data = PoolIntArray( 458776, 0, 0, 458778, 0, 0, 458780, 0, 0, 589848, 0, 0, 589852, 0, 0 )

[node name="Camera2D" type="Camera2D" parent="."]
anchor_mode = 0
current = true

[node name="Paths" type="Node2D" parent="."]
position = Vector2( -32, -32 )

[node name="Path2D" type="Path2D" parent="Paths"]
curve = SubResource( 1 )
script = ExtResource( 2 )
speed = 75
autostart = true

[node name="PathFollow2D" type="PathFollow2D" parent="Paths/Path2D"]
position = Vector2( 160, 160 )
rotate = false

[node name="RemoteTransform2D" type="RemoteTransform2D" parent="Paths/Path2D/PathFollow2D"]
remote_path = NodePath("../../../../Nodes/npc")
