[gd_scene load_steps=7 format=2]

[ext_resource path="res://tilesets/main.tres" type="TileSet" id=1]
[ext_resource path="res://tilesets/floor.tres" type="TileSet" id=2]
[ext_resource path="res://object/player.tscn" type="PackedScene" id=3]
[ext_resource path="res://scenarios/scenario.gd" type="Script" id=4]
[ext_resource path="res://object/npc.tscn" type="PackedScene" id=5]
[ext_resource path="res://tilesets/mask.tres" type="TileSet" id=9]

[node name="overworld" type="Node2D"]
script = ExtResource( 4 )

[node name="Floor" type="TileMap" parent="."]
tile_set = ExtResource( 2 )
format = 1
tile_data = PoolIntArray( 0, 536870912, 0, 1, 536870912, 0, 2, 536870912, 0, 3, 536870912, 0, 4, 536870912, 0, 5, 536870912, 0, 6, 536870912, 0, 7, 536870912, 0, 8, 536870912, 0, 9, 536870912, 0, 10, 536870912, 0, 11, 536870912, 0, 12, 536870912, 0, 13, 536870912, 0, 14, 536870912, 0, 15, 536870912, 0, 16, 536870912, 0, 17, 536870912, 0, 18, 536870912, 0, 19, 536870912, 0, 20, 536870912, 0, 65536, 536870912, 0, 65537, 536870912, 0, 65538, 536870912, 0, 65539, 536870912, 0, 65540, 536870912, 0, 65541, 536870912, 0, 65542, 536870912, 0, 65543, 536870912, 0, 65544, 536870912, 0, 65545, 536870912, 0, 65546, 536870912, 0, 65547, 536870912, 0, 65548, 536870912, 0, 65549, 536870912, 0, 65550, 536870912, 0, 65551, 536870912, 0, 65552, 536870912, 0, 65553, 536870912, 0, 65554, 536870912, 0, 65555, 536870912, 0, 65556, 536870912, 0, 131072, 536870912, 0, 131073, 536870912, 0, 131074, 536870912, 0, 131075, 536870912, 0, 131076, 536870912, 0, 131077, 536870912, 0, 131078, 536870912, 0, 131079, 536870912, 0, 131080, 536870912, 0, 131081, 536870912, 0, 131082, 536870912, 0, 131083, 536870912, 0, 131084, 536870912, 0, 131085, 536870912, 0, 131086, 536870912, 0, 131087, 536870912, 0, 131088, 536870912, 0, 131089, 536870912, 0, 131090, 536870912, 0, 131091, 536870912, 0, 131092, 536870912, 0, 196608, 536870912, 0, 196609, 536870912, 0, 196610, 536870912, 0, 196611, 536870912, 0, 196612, 536870912, 0, 196613, 536870912, 0, 196614, 536870912, 0, 196615, 536870912, 0, 196616, 536870912, 0, 196617, 536870912, 0, 196618, 536870912, 0, 196619, 536870912, 0, 196620, 536870912, 0, 196621, 536870912, 0, 196622, 536870912, 0, 196623, 536870912, 0, 196624, 536870912, 0, 196625, 536870912, 0, 196626, 536870912, 0, 196627, 536870912, 0, 196628, 536870912, 0, 262144, 536870912, 0, 262145, 536870912, 0, 262146, 536870912, 0, 262147, 536870912, 0, 262148, 536870912, 0, 262149, 536870912, 0, 262150, 536870912, 0, 262151, 536870912, 0, 262152, 536870912, 0, 262153, 536870912, 0, 262154, 536870912, 0, 262155, 536870912, 0, 262156, 536870912, 0, 262157, 536870912, 0, 262158, 536870912, 0, 262159, 536870912, 0, 262160, 536870912, 0, 262161, 536870912, 0, 262162, 536870912, 0, 262163, 536870912, 0, 262164, 536870912, 0, 327680, 536870912, 0, 327681, 536870912, 0, 327682, 536870912, 0, 327683, 536870912, 0, 327684, 536870912, 0, 327685, 536870912, 0, 327686, 536870912, 0, 327687, 536870912, 0, 327688, 536870912, 0, 327689, 536870912, 0, 327690, 536870912, 0, 327691, 536870912, 0, 327692, 536870912, 0, 327693, 536870912, 0, 327694, 536870912, 0, 327695, 536870912, 0, 327696, 536870912, 0, 327697, 536870912, 0, 327698, 536870912, 0, 327699, 536870912, 0, 327700, 536870912, 0, 393216, 536870912, 0, 393217, 536870912, 0, 393218, 536870912, 0, 393219, 536870912, 0, 393220, 536870912, 0, 393221, 536870912, 0, 393222, 536870912, 0, 393223, 536870912, 0, 393224, 536870912, 0, 393225, 536870912, 0, 393226, 536870912, 0, 393227, 536870912, 0, 393228, 536870912, 0, 393229, 536870912, 0, 393230, 536870912, 0, 393231, 536870912, 0, 393232, 536870912, 0, 393233, 536870912, 0, 393234, 536870912, 0, 393235, 536870912, 0, 393236, 536870912, 0, 458752, 536870912, 0, 458753, 536870912, 0, 458754, 536870912, 0, 458755, 536870912, 0, 458756, 536870912, 0, 458757, 536870912, 0, 458758, 536870912, 0, 458759, 536870912, 0, 458760, 536870912, 0, 458761, 536870912, 0, 458762, 536870912, 0, 458763, 536870912, 0, 458764, 536870912, 0, 458765, 536870912, 0, 458766, 536870912, 0, 458767, 536870912, 0, 458768, 536870912, 0, 458769, 536870912, 0, 458770, 536870912, 0, 458771, 536870912, 0, 458772, 536870912, 0, 524288, 536870912, 0, 524289, 536870912, 0, 524290, 536870912, 0, 524291, 536870912, 0, 524292, 536870912, 0, 524293, 536870912, 0, 524294, 536870912, 0, 524295, 536870912, 0, 524296, 536870912, 0, 524297, 536870912, 0, 524298, 536870912, 0, 524299, 536870912, 0, 524300, 536870912, 0, 524301, 536870912, 0, 524302, 536870912, 0, 524303, 536870912, 0, 524304, 536870912, 0, 524305, 536870912, 0, 524306, 536870912, 0, 524307, 536870912, 0, 524308, 536870912, 0, 589824, 536870912, 0, 589825, 536870912, 0, 589826, 536870912, 0, 589827, 536870912, 0, 589828, 536870912, 0, 589829, 536870912, 0, 589830, 536870912, 0, 589831, 536870912, 0, 589832, 536870912, 0, 589833, 536870912, 0, 589834, 536870912, 0, 589835, 536870912, 0, 589836, 536870912, 0, 589837, 536870912, 0, 589838, 536870912, 0, 589839, 536870912, 0, 589840, 536870912, 0, 589841, 536870912, 0, 589842, 536870912, 0, 589843, 536870912, 0, 589844, 536870912, 0, 655360, 536870912, 0, 655361, 536870912, 0, 655362, 536870912, 0, 655363, 536870912, 0, 655364, 536870912, 0, 655365, 536870912, 0, 655366, 536870912, 0, 655367, 536870912, 0, 655368, 536870912, 0, 655369, 536870912, 0, 655370, 536870912, 0, 655371, 536870912, 0, 655372, 536870912, 0, 655373, 536870912, 0, 655374, 536870912, 0, 655375, 536870912, 0, 655376, 536870912, 0, 655377, 536870912, 0, 655378, 536870912, 0, 655379, 536870912, 0, 655380, 536870912, 0, 720896, 536870912, 0, 720897, 536870912, 0, 720898, 536870912, 0, 720899, 536870912, 0, 720900, 536870912, 0, 720901, 536870912, 0, 720902, 536870912, 0, 720903, 536870912, 0, 720904, 536870912, 0, 720905, 536870912, 0, 720906, 536870912, 0, 720907, 536870912, 0, 720908, 536870912, 0, 720909, 536870912, 0, 720910, 536870912, 0, 720911, 536870912, 0, 720912, 536870912, 0, 720913, 536870912, 0, 720914, 536870912, 0, 720915, 536870912, 0, 720916, 536870912, 0, 786432, 536870912, 0, 786433, 536870912, 0, 786434, 536870912, 0, 786435, 536870912, 0, 786436, 536870912, 0, 786437, 536870912, 0, 786438, 536870912, 0, 786439, 536870912, 0, 786440, 536870912, 0, 786441, 536870912, 0, 786442, 536870912, 0, 786443, 536870912, 0, 786444, 536870912, 0, 786445, 536870912, 0, 786446, 536870912, 0, 786447, 536870912, 0, 786448, 536870912, 0, 786449, 536870912, 0, 786450, 536870912, 0, 786451, 536870912, 0, 786452, 536870912, 0, 851968, 536870912, 0, 851969, 536870912, 0, 851970, 536870912, 0, 851971, 536870912, 0, 851972, 536870912, 0, 851973, 536870912, 0, 851974, 536870912, 0, 851975, 536870912, 0, 851976, 536870912, 0, 851977, 536870912, 0, 851978, 536870912, 0, 851979, 536870912, 0, 851980, 536870912, 0, 851981, 536870912, 0, 851982, 536870912, 0, 851983, 536870912, 0, 851984, 536870912, 0, 851985, 536870912, 0, 851986, 536870912, 0, 851987, 536870912, 0, 851988, 536870912, 0, 917504, 536870912, 0, 917505, 536870912, 0, 917506, 536870912, 0, 917507, 536870912, 0, 917508, 536870912, 0, 917509, 536870912, 0, 917510, 536870912, 0, 917511, 536870912, 0, 917512, 536870912, 0, 917513, 536870912, 0, 917514, 536870912, 0, 917515, 536870912, 0, 917516, 536870912, 0, 917517, 536870912, 0, 917518, 536870912, 0, 917519, 536870912, 0, 917520, 536870912, 0, 917521, 536870912, 0, 917522, 536870912, 0, 917523, 536870912, 0, 917524, 536870912, 0, 983040, 536870912, 0, 983041, 536870912, 0, 983042, 536870912, 0, 983043, 536870912, 0, 983044, 536870912, 0, 983045, 536870912, 0, 983046, 536870912, 0, 983047, 536870912, 0, 983048, 536870912, 0, 983049, 536870912, 0, 983050, 536870912, 0, 983051, 536870912, 0, 983052, 536870912, 0, 983053, 536870912, 0, 983054, 536870912, 0, 983055, 536870912, 0, 983056, 536870912, 0, 983057, 536870912, 0, 983058, 536870912, 0, 983059, 536870912, 0, 983060, 536870912, 0, 1048576, 536870912, 0, 1048577, 536870912, 0, 1048578, 536870912, 0, 1048579, 536870912, 0, 1048580, 536870912, 0, 1048581, 536870912, 0, 1048582, 536870912, 0, 1048583, 536870912, 0, 1048584, 536870912, 0, 1048585, 536870912, 0, 1048586, 536870912, 0, 1048587, 536870912, 0, 1048588, 536870912, 0, 1048589, 536870912, 0, 1048590, 536870912, 0, 1048591, 536870912, 0, 1048592, 536870912, 0, 1048593, 536870912, 0, 1048594, 536870912, 0, 1048595, 536870912, 0, 1048596, 536870912, 0, 1114112, 536870912, 0, 1114113, 536870912, 0, 1114114, 536870912, 0, 1114115, 536870912, 0, 1114116, 536870912, 0, 1114117, 536870912, 0, 1114118, 536870912, 0, 1114119, 536870912, 0, 1114120, 536870912, 0, 1114121, 536870912, 0, 1114122, 536870912, 0, 1114123, 536870912, 0, 1114124, 536870912, 0, 1114125, 536870912, 0, 1114126, 536870912, 0, 1114127, 536870912, 0, 1114128, 536870912, 0, 1114129, 536870912, 0, 1114130, 536870912, 0, 1114131, 536870912, 0, 1114132, 536870912, 0, 1179648, 536870912, 0, 1179649, 536870912, 0, 1179650, 536870912, 0, 1179651, 536870912, 0, 1179652, 536870912, 0, 1179653, 536870912, 0, 1179654, 536870912, 0, 1179655, 536870912, 0, 1179656, 536870912, 0, 1179657, 536870912, 0, 1179658, 536870912, 0, 1179659, 536870912, 0, 1179660, 536870912, 0, 1179661, 536870912, 0, 1179662, 536870912, 0, 1179663, 536870912, 0, 1179664, 536870912, 0, 1179665, 536870912, 0, 1179666, 536870912, 0, 1179667, 536870912, 0, 1179668, 536870912, 0, 1245184, 536870912, 0, 1245185, 536870912, 0, 1245186, 536870912, 0, 1245187, 536870912, 0, 1245188, 536870912, 0, 1245189, 536870912, 0, 1245190, 536870912, 0, 1245191, 536870912, 0, 1245192, 536870912, 0, 1245193, 536870912, 0, 1245194, 536870912, 0, 1245195, 536870912, 0, 1245196, 536870912, 0, 1245197, 536870912, 0, 1245198, 536870912, 0, 1245199, 536870912, 0, 1245200, 536870912, 0, 1245201, 536870912, 0, 1245202, 536870912, 0, 1245203, 536870912, 0, 1245204, 536870912, 0, 1310720, 536870912, 0, 1310721, 536870912, 0, 1310722, 536870912, 0, 1310723, 536870912, 0, 1310724, 536870912, 0, 1310725, 536870912, 0, 1310726, 536870912, 0, 1310727, 536870912, 0, 1310728, 536870912, 0, 1310729, 536870912, 0, 1310730, 536870912, 0, 1310731, 536870912, 0, 1310732, 536870912, 0, 1310733, 536870912, 0, 1310734, 536870912, 0, 1310735, 536870912, 0, 1310736, 536870912, 0, 1310737, 536870912, 0, 1310738, 536870912, 0, 1310739, 536870912, 0, 1310740, 536870912, 0 )

[node name="FloorOverlay" type="TileMap" parent="."]
tile_set = ExtResource( 2 )
format = 1
tile_data = PoolIntArray( -131071, 1, 65541, -1, 1, 7, -65536, 1, 262149, -65535, 1, 65537, 65535, 1, 131076, 0, 1, 131077, 131071, 1, 65543, 65536, 1, 327683, 131072, 1, 262146, 131073, 1, 8, 196608, 1, 327682, 196609, 1, 65544, 327679, 1, 7, 262144, 1, 262147, 393215, 1, 131076, 327680, 1, 131077, 327682, 1, 65541, 458751, 1, 131076, 393216, 1, 196608, 393217, 1, 262149, 393218, 1, 65537, 524287, 1, 65543, 458752, 1, 196613, 458753, 1, 327683, 524289, 1, 65538, 589825, 1, 6, 655360, 1, 65541, 720896, 1, 6, 786433, 1, 7, 786434, 1, 8, 851969, 1, 65543, 851970, 1, 65544, 983039, 1, 65541, 1048575, 1, 262146, 983040, 1, 8, 1114111, 1, 131076, 1048576, 1, 196608, 1048577, 1, 8, 1179647, 1, 131076, 1114112, 1, 131078, 1114113, 1, 131077, 1245183, 1, 131076, 1179648, 1, 131078, 1179649, 1, 131077, 1179661, 1, 7, 1179662, 1, 196612, 1179663, 1, 196612, 1179664, 1, 8, 1310719, 1, 131076, 1245184, 1, 131078, 1245185, 1, 131077, 1245187, 1, 7, 1245188, 1, 196612, 1245189, 1, 196612, 1245190, 1, 8, 1245194, 1, 7, 1245195, 1, 196612, 1245196, 1, 196612, 1245197, 1, 196609, 1245198, 1, 131078, 1245199, 1, 131078, 1245200, 1, 196608, 1245201, 1, 8, 1245204, 1, 7, 1245205, 1, 8, 1376255, 1, 65543, 1310720, 1, 131074, 1310721, 1, 327685, 1310722, 1, 262148, 1310723, 1, 196609, 1310724, 1, 131078, 1310725, 1, 131078, 1310726, 1, 131077, 1310730, 1, 65543, 1310731, 1, 131073, 1310732, 1, 131078, 1310733, 1, 131078, 1310734, 1, 131078, 1310735, 1, 131078, 1310736, 1, 131072, 1310737, 1, 65544, 1310739, 1, 7, 1310740, 1, 327686, 1310741, 1, 65544, 1376256, 1, 6, 1376258, 1, 65543, 1376259, 1, 196613, 1376260, 1, 196613, 1376261, 1, 196613, 1376262, 1, 327685, 1376263, 1, 5, 1376267, 1, 65543, 1376268, 1, 196613, 1376269, 1, 196613, 1376270, 1, 196613, 1376271, 1, 196613, 1376272, 1, 65544, 1376275, 1, 65543, 1376276, 1, 65544 )

[node name="MainBelow" type="TileMap" parent="."]
tile_set = ExtResource( 1 )
format = 1
tile_data = PoolIntArray( 3, 536870933, 0, 4, 536870934, 0, 5, 536870934, 0, 6, 536870933, 0, 65539, 536870936, 0, 65540, 536870934, 0, 65541, 536870934, 0, 65542, 536870936, 0, 131075, 536870933, 0, 131076, 536870934, 0, 131077, 536870934, 0, 131078, 536870933, 0, 131081, 536870933, 0, 131082, 536870933, 0, 196611, 536870936, 0, 196612, 536870934, 0, 196613, 536870934, 0, 196614, 536870936, 0, 196616, 536870933, 0, 196617, 536870933, 0, 196618, 536870933, 0, 196619, 536870933, 0, 262147, 536870933, 0, 262148, 536870934, 0, 262149, 536870934, 0, 262150, 536870933, 0, 262152, 536870933, 0, 262153, 536870933, 0, 262154, 536870933, 0, 262155, 536870933, 0, 327683, 536870936, 0, 327684, 536870934, 0, 327685, 536870934, 0, 327686, 536870936, 0, 327688, 536870933, 0, 327689, 536870933, 0, 327690, 536870933, 0, 327691, 536870933, 0, 327696, 536870933, 0, 327697, 536870933, 0, 393219, 536870933, 0, 393220, 536870934, 0, 393221, 536870934, 0, 393222, 536870933, 0, 393224, 536870933, 0, 393225, 536870933, 0, 393226, 536870933, 0, 393227, 536870933, 0, 393231, 536870933, 0, 393232, 536870933, 0, 393233, 536870933, 0, 393234, 536870933, 0, 458755, 536870936, 0, 458756, 536870934, 0, 458757, 536870934, 0, 458758, 536870936, 0, 458767, 536870933, 0, 458768, 536870933, 0, 458769, 536870933, 0, 458770, 536870933, 0, 524291, 536870933, 0, 524292, 536870934, 0, 524293, 536870934, 0, 524294, 536870933, 0, 524303, 536870933, 0, 524304, 536870933, 0, 524305, 536870933, 0, 524306, 536870933, 0, 589827, 536870936, 0, 589828, 536870934, 0, 589829, 536870934, 0, 589830, 536870936, 0, 589839, 536870933, 0, 589840, 536870933, 0, 589841, 536870933, 0, 589842, 536870933, 0, 655363, 536870933, 0, 655364, 536870934, 0, 655365, 536870934, 0, 655366, 536870933, 0, 851972, 536870933, 0, 851973, 536870933, 0, 851977, 536870933, 0, 851978, 536870933, 0, 851979, 536870933, 0, 917507, 536870933, 0, 917508, 536870933, 0, 917509, 536870933, 0, 917510, 536870933, 0, 917513, 536870933, 0, 917514, 536870933, 0, 917515, 536870933, 0, 917516, 536870933, 0, 983043, 536870933, 0, 983044, 536870933, 0, 983045, 536870933, 0, 983046, 536870933, 0, 983049, 536870933, 0, 983050, 536870933, 0, 983051, 536870933, 0, 983052, 536870933, 0, 983054, 536870933, 0, 983056, 536870933, 0, 983058, 536870933, 0, 983060, 536870933, 0, 1048579, 536870933, 0, 1048580, 536870933, 0, 1048581, 536870933, 0, 1048582, 536870933, 0, 1048585, 536870933, 0, 1048586, 536870933, 0, 1048587, 536870933, 0, 1048588, 536870933, 0, 1048589, 536870933, 0, 1048590, 536870933, 0, 1048591, 536870933, 0, 1048592, 536870933, 0, 1048593, 536870933, 0, 1048594, 536870933, 0, 1048595, 536870933, 0, 1048596, 536870933, 0, 1114115, 536870933, 0, 1114116, 536870933, 0, 1114117, 536870933, 0, 1114118, 536870933, 0, 1114121, 536870933, 0, 1114122, 536870933, 0, 1114123, 536870933, 0, 1114124, 536870933, 0, 1114125, 536870933, 0, 1114126, 536870933, 0, 1114127, 536870933, 0, 1114128, 536870933, 0, 1114129, 536870933, 0, 1114130, 536870933, 0, 1114131, 536870933, 0, 1114132, 536870933, 0 )

[node name="MainBelowOverlay" type="TileMap" parent="."]
tile_set = ExtResource( 1 )
format = 1
tile_data = PoolIntArray( 196617, 43, 0, 196618, 43, 0, 262153, 43, 0, 262154, 43, 0, 393232, 43, 0, 393233, 43, 0, 458768, 43, 0, 458769, 43, 0, 917508, 43, 0, 917509, 43, 0, 917514, 43, 0, 917515, 43, 0, 983044, 43, 0, 983045, 43, 0, 983050, 43, 0, 983051, 43, 0 )

[node name="MainBelowOverlay2" type="TileMap" parent="."]
tile_set = ExtResource( 1 )
format = 1
tile_data = PoolIntArray( 196616, 47, 0, 196618, 47, 0, 262152, 47, 0, 262154, 47, 0, 327688, 47, 0, 327690, 47, 0, 393224, 47, 0, 393226, 47, 0, 393231, 47, 0, 393233, 47, 0, 458767, 47, 0, 458769, 47, 0, 524303, 47, 0, 524305, 47, 0, 589839, 47, 0, 589841, 47, 0, 917507, 47, 0, 917509, 47, 0, 917513, 47, 0, 917515, 47, 0, 983043, 47, 0, 983045, 47, 0, 983049, 47, 0, 983051, 47, 0, 983054, 47, 0, 1048579, 47, 0, 1048581, 47, 0, 1048585, 47, 0, 1048587, 47, 0, 1114115, 47, 0, 1114117, 47, 0, 1114121, 47, 0, 1114123, 47, 0 )

[node name="Nodes" type="YSort" parent="."]

[node name="player" parent="Nodes" instance=ExtResource( 3 )]
position = Vector2( 1280, 64 )
doorOut = "worldmap_full"
cameraLimit = Vector2( 21, 21 )

[node name="npc" parent="Nodes" instance=ExtResource( 5 )]
position = Vector2( 480, 1088 )
type = "tornstad_ward"
direction = "up"

[node name="npc2" parent="Nodes" instance=ExtResource( 5 )]
position = Vector2( 576, 448 )
type = "tornstad_ward"

[node name="npc3" parent="Nodes" instance=ExtResource( 5 )]
position = Vector2( 256, 64 )
type = "tornstad_ward"
direction = "left"

[node name="npc4" parent="Nodes" instance=ExtResource( 5 )]
position = Vector2( 1216, 832 )
z_index = 1
type = "tornstad_ward"

[node name="merchant" parent="Nodes" instance=ExtResource( 5 )]
position = Vector2( 1216, 448 )
type = "feudal_worker"
dialog = "kant_delivery"
direction = "left"

[node name="Main" type="TileMap" parent="."]
tile_set = ExtResource( 1 )
format = 1
tile_data = PoolIntArray( -65527, 536870912, 0, -65526, 0, 0, 8, 536870912, 0, 9, 536870912, 0, 10, 0, 0, 11, 0, 0, 65544, 536870912, 0, 65545, 536870912, 0, 65546, 0, 0, 65547, 0, 0, 131080, 536870912, 0, 131083, 0, 0, 131088, 536870912, 0, 131089, 0, 0, 196623, 536870912, 0, 196624, 536870912, 0, 196625, 0, 0, 196626, 0, 0, 262159, 536870912, 0, 262160, 536870912, 0, 262161, 0, 0, 262162, 0, 0, 327695, 536870912, 0, 327698, 0, 0, 589828, 536870912, 0, 589829, 0, 0, 589834, 536870912, 0, 589835, 0, 0, 655363, 536870912, 0, 655364, 536870912, 0, 655365, 0, 0, 655366, 0, 0, 655369, 536870912, 0, 655370, 536870912, 0, 655371, 0, 0, 655372, 0, 0, 720899, 536870912, 0, 720900, 536870912, 0, 720901, 0, 0, 720902, 0, 0, 720905, 536870912, 0, 720906, 536870912, 0, 720907, 0, 0, 720908, 0, 0, 720910, 536870936, 0, 720912, 536870936, 0, 720914, 536870936, 0, 720916, 536870936, 0, 786435, 536870912, 0, 786436, 536870912, 0, 786437, 0, 0, 786438, 0, 0, 786441, 536870912, 0, 786442, 536870912, 0, 786443, 0, 0, 786444, 0, 0, 786445, 536870936, 0, 786446, 536870933, 0, 786447, 536870936, 0, 786448, 536870933, 0, 786449, 536870936, 0, 786450, 536870933, 0, 786451, 536870936, 0, 786452, 536870933, 0, 851971, 536870912, 0, 851974, 0, 0, 851977, 536870912, 0, 851980, 0, 0, 851981, 536870934, 0, 851982, 536870936, 0, 851983, 536870934, 0, 851984, 536870936, 0, 851985, 536870934, 0, 851986, 536870936, 0, 851987, 536870934, 0, 851988, 536870936, 0, 917517, 536870936, 0, 917518, 536870933, 0, 917519, 536870936, 0, 917520, 536870933, 0, 917521, 536870936, 0, 917522, 536870933, 0, 917523, 536870936, 0, 917524, 536870933, 0, 983053, 536870933, 0, 983054, 536870933, 0, 983055, 536870933, 0, 983056, 536870933, 0, 983057, 536870933, 0, 983058, 536870933, 0, 983059, 536870933, 0, 983060, 536870933, 0 )

[node name="MainDetail" type="TileMap" parent="."]
tile_set = ExtResource( 1 )
format = 1
tile_data = PoolIntArray( 983052, 46, 0, 983054, 46, 0, 983056, 46, 0, 983058, 46, 0, 983060, 46, 0, 1048588, 46, 0, 1048590, 46, 0, 1048592, 46, 0, 1048594, 46, 0, 1048596, 46, 0, 1114124, 46, 0, 1114126, 46, 0, 1114128, 46, 0, 1114130, 46, 0, 1114132, 46, 0 )

[node name="MainOverlay" type="TileMap" parent="."]
tile_set = ExtResource( 1 )
format = 1
tile_data = PoolIntArray( 131081, 53, 0, 131082, 53, 0, 262152, 53, 0, 262153, 53, 0, 262154, 53, 0, 262155, 53, 0, 327696, 53, 0, 327697, 53, 0, 458767, 53, 0, 458768, 53, 0, 458769, 53, 0, 458770, 53, 0, 851972, 53, 0, 851973, 53, 0, 851978, 53, 0, 851979, 53, 0, 983043, 53, 0, 983044, 53, 0, 983045, 53, 0, 983046, 53, 0, 983049, 53, 0, 983050, 53, 0, 983051, 53, 0, 983052, 53, 0, 1048589, 52, 0, 1048590, 52, 0, 1048591, 52, 0, 1048592, 52, 0, 1048593, 52, 0, 1048594, 52, 0, 1048595, 52, 0, 1048596, 52, 0 )

[node name="collision" type="TileMap" parent="."]
tile_set = ExtResource( 9 )
format = 1
tile_data = PoolIntArray( -65533, 0, 0, -65530, 0, 0, 3, 0, 0, 6, 0, 0, 65539, 0, 0, 65542, 0, 0, 131075, 0, 0, 131078, 0, 0, 131080, 0, 0, 131081, 0, 0, 131082, 0, 0, 131083, 0, 0, 196611, 0, 0, 196614, 0, 0, 196616, 0, 0, 196619, 0, 0, 262147, 0, 0, 262150, 0, 0, 262152, 0, 0, 262155, 0, 0, 327683, 0, 0, 327686, 0, 0, 327688, 0, 0, 327691, 0, 0, 327695, 0, 0, 327696, 0, 0, 327697, 0, 0, 327698, 0, 0, 393219, 0, 0, 393222, 0, 0, 393224, 0, 0, 393225, 0, 0, 393226, 0, 0, 393227, 0, 0, 393231, 0, 0, 393234, 0, 0, 458755, 0, 0, 458758, 0, 0, 458767, 0, 0, 458770, 0, 0, 524291, 0, 0, 524294, 0, 0, 524303, 0, 0, 524306, 0, 0, 589827, 0, 0, 589830, 0, 0, 589839, 0, 0, 589840, 0, 0, 589841, 0, 0, 589842, 0, 0, 655363, 0, 0, 655366, 0, 0, 720899, 0, 0, 720902, 0, 0, 786435, 0, 0, 786438, 0, 0, 851971, 0, 0, 851974, 0, 0, 851977, 0, 0, 851978, 0, 0, 851979, 0, 0, 851980, 0, 0, 851981, 0, 0, 851982, 0, 0, 851983, 0, 0, 851984, 0, 0, 851985, 0, 0, 851986, 0, 0, 851987, 0, 0, 851988, 0, 0, 851989, 0, 0, 917507, 0, 0, 917510, 0, 0, 917513, 0, 0, 983043, 0, 0, 983046, 0, 0, 983049, 0, 0, 1048579, 0, 0, 1048582, 0, 0, 1048585, 0, 0, 1114115, 0, 0, 1114116, 0, 0, 1114117, 0, 0, 1114118, 0, 0, 1114119, 0, 0, 1114120, 0, 0, 1114121, 0, 0, 1114122, 0, 0, 1114123, 0, 0, 1114124, 0, 0, 1114125, 0, 0, 1114126, 0, 0, 1114127, 0, 0, 1114128, 0, 0, 1114129, 0, 0, 1114130, 0, 0, 1114131, 0, 0, 1114132, 0, 0, 1114133, 0, 0 )
