[gd_scene load_steps=7 format=2]

[ext_resource path="res://object/player.tscn" type="PackedScene" id=3]
[ext_resource path="res://scenarios/scenario.gd" type="Script" id=4]
[ext_resource path="res://object/npc.tscn" type="PackedScene" id=5]
[ext_resource path="res://tilesets/items.tres" type="TileSet" id=6]
[ext_resource path="res://object/door.tscn" type="PackedScene" id=7]
[ext_resource path="res://tilesets/mask.tres" type="TileSet" id=9]

[node name="overworld" type="Node2D"]
script = ExtResource( 4 )

[node name="FloorItems" type="TileMap" parent="."]
tile_set = ExtResource( 6 )
format = 1
tile_data = PoolIntArray( 1, 14, 0, 2, 14, 0, 3, 14, 0, 4, 14, 0, 5, 14, 0, 6, 14, 0, 7, 14, 0, 8, 14, 0, 9, 14, 0, 10, 14, 0, 11, 14, 0, 12, 14, 0, 13, 14, 0, 14, 14, 0, 65537, 14, 0, 65538, 14, 0, 65540, 14, 0, 65541, 14, 0, 65542, 14, 0, 65543, 14, 0, 65544, 14, 0, 65545, 14, 0, 65546, 14, 0, 65547, 14, 0, 65548, 14, 0, 65549, 14, 0, 65550, 14, 0, 131073, 13, 0, 131074, 13, 0, 131075, 13, 0, 131076, 13, 0, 131077, 13, 0, 131078, 13, 0, 131079, 13, 0, 131080, 13, 0, 131081, 13, 0, 131082, 13, 0, 131083, 13, 0, 131084, 13, 0, 131085, 13, 0, 131086, 13, 0, 196609, 13, 0, 196610, 13, 0, 196611, 13, 0, 196612, 13, 0, 196613, 13, 0, 196614, 13, 0, 196615, 13, 0, 196616, 13, 0, 196617, 13, 0, 196618, 13, 0, 196619, 13, 0, 196620, 13, 0, 196621, 13, 0, 196622, 13, 0, 262145, 13, 0, 262146, 13, 0, 262147, 13, 0, 262148, 13, 0, 262149, 13, 0, 262150, 13, 0, 262151, 13, 0, 262152, 13, 0, 262153, 13, 0, 262154, 13, 0, 262155, 13, 0, 262156, 13, 0, 262157, 13, 0, 262158, 13, 0, 327681, 13, 0, 327682, 13, 0, 327683, 13, 0, 327684, 13, 0, 327685, 13, 0, 327686, 13, 0, 327687, 13, 0, 327688, 13, 0, 327689, 13, 0, 327690, 13, 0, 327691, 13, 0, 327692, 13, 0, 327693, 13, 0, 327694, 13, 0, 393217, 13, 0, 393218, 13, 0, 393219, 13, 0, 393220, 13, 0, 393221, 13, 0, 393222, 13, 0, 393223, 13, 0, 393224, 13, 0, 393225, 13, 0, 393226, 13, 0, 393227, 13, 0, 393228, 13, 0, 393229, 13, 0, 393230, 13, 0, 458753, 13, 0, 458754, 13, 0, 458755, 13, 0, 458756, 13, 0, 458757, 13, 0, 458758, 13, 0, 458759, 13, 0, 458760, 13, 0, 458761, 13, 0, 458762, 13, 0, 458763, 13, 0, 458764, 13, 0, 458765, 13, 0, 458766, 13, 0 )

[node name="BaseItems" type="TileMap" parent="."]
tile_set = ExtResource( 6 )
format = 1
tile_data = PoolIntArray( 4, 14, 0, 5, 14, 0, 6, 14, 0, 7, 14, 0, 8, 14, 0, 9, 14, 0, 10, 14, 0, 11, 14, 0, 12, 14, 0, 13, 14, 0, 14, 14, 0, 65537, 14, 0, 65538, 14, 0, 65539, 14, 0, 65540, 14, 0, 65541, 14, 0, 65542, 14, 0, 65543, 14, 0, 65544, 14, 0, 65545, 14, 0, 65546, 14, 0, 65547, 14, 0, 65548, 14, 0, 65549, 14, 0, 65550, 14, 0, 131078, 0, 0, 131082, 0, 0, 196609, 0, 0, 196610, 29, 0, 196611, 0, 0, 196613, 0, 0, 196614, 29, 0, 196615, 0, 0, 196618, 29, 0, 196619, 0, 0, 262146, 0, 0, 327681, 0, 0, 327682, 29, 0, 327686, 29, 0, 327687, 0, 0, 327689, 0, 0, 327690, 29, 0, 393222, 0, 0, 393229, 14, 0, 393230, 14, 0 )

[node name="Nodes" type="YSort" parent="."]
z_as_relative = false

[node name="player" parent="Nodes" instance=ExtResource( 3 )]
position = Vector2( 480, 448 )
cameraLimit = Vector2( 1000, 1000 )

[node name="hunter" parent="Nodes" instance=ExtResource( 5 )]
position = Vector2( 896, 128 )
type = "tornstad_ward"
dialog = "sjo_hunt"

[node name="npc" parent="Nodes" instance=ExtResource( 5 )]
position = Vector2( 192, 384 )
type = "feudal_worker"

[node name="npc2" parent="Nodes" instance=ExtResource( 5 )]
position = Vector2( 704, 320 )
type = "feudal_worker"

[node name="npc3" parent="Nodes" instance=ExtResource( 5 )]
position = Vector2( 128, 126 )
type = "feudal_worker"

[node name="door_out" parent="Nodes" instance=ExtResource( 7 )]
position = Vector2( 448, 512 )
scale = Vector2( 2, 1 )
door = "tornstad/sjo"

[node name="TopItems" type="TileMap" parent="."]
tile_set = ExtResource( 6 )
format = 1
tile_data = PoolIntArray( 0, 22, 0, 15, 22, 0, 65536, 22, 0, 65551, 22, 0, 131072, 22, 0, 131087, 22, 0, 196608, 22, 0, 196621, 22, 0, 196622, 22, 0, 196623, 22, 0, 262144, 22, 0, 262157, 14, 0, 262158, 14, 0, 262159, 22, 0, 327680, 22, 0, 327693, 14, 0, 327694, 14, 0, 327695, 22, 0, 393216, 22, 0, 393231, 22, 0, 458752, 22, 0, 458767, 22, 0, 524288, 22, 0, 524289, 22, 0, 524290, 22, 0, 524291, 22, 0, 524292, 22, 0, 524293, 22, 0, 524294, 22, 0, 524295, 24, 0, 524296, 24, 0, 524297, 22, 0, 524298, 22, 0, 524299, 22, 0, 524300, 22, 0, 524301, 22, 0, 524302, 22, 0, 524303, 22, 0, 589824, 22, 0, 589825, 22, 0, 589826, 22, 0, 589827, 22, 0, 589828, 22, 0, 589829, 22, 0, 589830, 22, 0, 589831, 22, 0, 589832, 22, 0, 589833, 22, 0, 589834, 22, 0, 589835, 22, 0, 589836, 22, 0, 589837, 22, 0, 589838, 22, 0, 589839, 22, 0 )

[node name="empty" type="TileMap" parent="."]
tile_set = ExtResource( 6 )
format = 1

[node name="collision" type="TileMap" parent="."]
tile_set = ExtResource( 9 )
format = 1
tile_data = PoolIntArray( 65536, 536870912, 0, 65537, 536870912, 0, 65538, 536870912, 0, 65539, 536870912, 0, 65540, 536870912, 0, 65541, 536870912, 0, 65542, 536870912, 0, 65543, 536870912, 0, 65544, 536870912, 0, 65545, 536870912, 0, 65546, 536870912, 0, 65547, 536870912, 0, 65548, 536870912, 0, 65549, 536870912, 0, 65550, 536870912, 0, 65551, 536870912, 0, 131072, 536870912, 0, 131078, 536870912, 0, 131082, 536870912, 0, 131087, 536870912, 0, 196608, 536870912, 0, 196609, 536870912, 0, 196610, 536870912, 0, 196611, 536870912, 0, 196613, 536870912, 0, 196614, 536870912, 0, 196615, 536870912, 0, 196618, 536870912, 0, 196619, 536870912, 0, 196623, 536870912, 0, 262144, 536870912, 0, 262146, 536870912, 0, 262159, 536870912, 0, 327680, 536870912, 0, 327681, 536870912, 0, 327682, 536870912, 0, 327686, 536870912, 0, 327687, 536870912, 0, 327689, 536870912, 0, 327690, 536870912, 0, 327695, 536870912, 0, 393216, 536870912, 0, 393222, 536870912, 0, 393229, 536870912, 0, 393230, 536870912, 0, 393231, 536870912, 0, 458752, 536870912, 0, 458767, 536870912, 0, 524288, 536870912, 0, 524289, 536870912, 0, 524290, 536870912, 0, 524291, 536870912, 0, 524292, 536870912, 0, 524293, 536870912, 0, 524294, 536870912, 0, 524297, 536870912, 0, 524298, 536870912, 0, 524299, 536870912, 0, 524300, 536870912, 0, 524301, 536870912, 0, 524302, 536870912, 0, 524303, 536870912, 0, 589830, 536870912, 0, 589831, 536870912, 0, 589832, 536870912, 0, 589833, 536870912, 0 )

[node name="Camera2D" type="Camera2D" parent="."]
anchor_mode = 0
current = true
