[gd_scene load_steps=8 format=2]

[ext_resource path="res://tilesets/main.tres" type="TileSet" id=1]
[ext_resource path="res://tilesets/floor.tres" type="TileSet" id=2]
[ext_resource path="res://object/player.tscn" type="PackedScene" id=3]
[ext_resource path="res://scenarios/scenario.gd" type="Script" id=4]
[ext_resource path="res://object/door.tscn" type="PackedScene" id=5]
[ext_resource path="res://tilesets/items.tres" type="TileSet" id=6]
[ext_resource path="res://tilesets/mask.tres" type="TileSet" id=9]

[node name="overworld" type="Node2D"]
script = ExtResource( 4 )

[node name="MainBelow" type="TileMap" parent="."]
tile_set = ExtResource( 1 )
format = 1
tile_data = PoolIntArray( 0, 28, 0, 1, 28, 0, 2, 28, 0, 3, 28, 0, 4, 28, 0, 5, 28, 0, 6, 28, 0, 7, 28, 0, 8, 28, 0, 9, 28, 0, 10, 28, 0, 11, 28, 0, 12, 28, 0, 13, 28, 0, 14, 28, 0, 15, 28, 0, 65536, 28, 0, 65537, 28, 0, 65538, 28, 0, 65539, 28, 0, 65540, 28, 0, 65541, 28, 0, 65542, 28, 0, 65543, 28, 0, 65544, 28, 0, 65545, 28, 0, 65546, 28, 0, 65547, 28, 0, 65548, 28, 0, 65549, 28, 0, 65550, 28, 0, 65551, 28, 0, 131072, 28, 0, 131073, 28, 0, 131074, 28, 0, 131075, 28, 0, 131076, 28, 0, 131077, 28, 0, 131078, 28, 0, 131079, 28, 0, 131080, 28, 0, 131081, 28, 0, 131082, 28, 0, 131083, 28, 0, 131084, 28, 0, 131085, 28, 0, 131086, 28, 0, 196608, 28, 0, 196609, 28, 0, 196610, 28, 0, 196611, 28, 0, 196612, 28, 0, 196613, 28, 0, 196614, 28, 0, 196615, 28, 0, 196616, 28, 0, 196617, 28, 0, 196618, 28, 0, 196619, 28, 0, 196620, 28, 0, 196621, 28, 0, 196622, 28, 0, 262144, 28, 0, 262145, 28, 0, 262146, 28, 0, 262147, 28, 0, 262148, 28, 0, 262149, 28, 0, 262150, 28, 0, 262151, 28, 0, 262152, 28, 0, 262153, 28, 0, 262154, 28, 0, 262155, 28, 0, 262156, 28, 0, 262157, 28, 0, 262158, 28, 0, 262159, 28, 0, 327680, 28, 0, 327681, 28, 0, 327682, 28, 0, 327683, 28, 0, 327684, 28, 0, 327685, 28, 0, 327686, 28, 0, 327687, 28, 0, 327688, 28, 0, 327689, 28, 0, 327690, 28, 0, 327691, 28, 0, 327692, 28, 0, 327693, 28, 0, 327694, 28, 0, 327695, 28, 0, 393216, 28, 0, 393217, 28, 0, 393218, 28, 0, 393219, 28, 0, 393220, 28, 0, 393221, 28, 0, 393222, 28, 0, 393223, 28, 0, 393224, 28, 0, 393225, 28, 0, 393226, 28, 0, 393227, 28, 0, 393228, 28, 0, 393229, 28, 0, 393230, 28, 0, 393231, 28, 0, 458752, 28, 0, 458753, 28, 0, 458754, 28, 0, 458755, 28, 0, 458756, 28, 0, 458757, 28, 0, 458758, 28, 0, 458759, 28, 0, 458760, 28, 0, 458761, 28, 0, 458762, 28, 0, 458763, 28, 0, 458764, 28, 0, 458765, 28, 0, 458766, 28, 0, 458767, 28, 0, 524288, 28, 0, 524289, 28, 0, 524290, 28, 0, 524291, 28, 0, 524292, 28, 0, 524293, 28, 0, 524294, 28, 0, 524295, 28, 0, 524296, 28, 0, 524297, 28, 0, 524298, 28, 0, 524299, 28, 0, 524300, 28, 0, 524301, 28, 0, 524302, 28, 0, 524303, 28, 0, 589824, 28, 0, 589825, 28, 0, 589826, 28, 0, 589827, 28, 0, 589828, 28, 0, 589829, 28, 0, 589830, 28, 0, 589831, 28, 0, 589832, 28, 0, 589833, 28, 0, 589834, 28, 0, 589835, 28, 0, 589836, 28, 0, 589837, 28, 0, 589838, 28, 0, 589839, 28, 0 )

[node name="FloorOverlay" type="TileMap" parent="."]
tile_set = ExtResource( 2 )
format = 1
tile_data = PoolIntArray( 65542, 3, 7, 65543, 3, 196612, 65544, 3, 8, 131073, 3, 7, 131074, 3, 196612, 131075, 3, 196612, 131076, 3, 196612, 131077, 3, 196612, 131078, 3, 196609, 131079, 3, 131078, 131080, 3, 196608, 131081, 3, 196612, 131082, 3, 8, 196609, 3, 131076, 196610, 3, 131078, 196611, 3, 131078, 196612, 3, 131078, 196613, 3, 131078, 196614, 3, 131078, 196615, 3, 131078, 196616, 3, 131078, 196617, 3, 131078, 196618, 3, 196608, 196619, 3, 196612, 196620, 3, 196612, 196621, 3, 8, 262145, 3, 131076, 262146, 3, 131078, 262147, 3, 131078, 262148, 3, 131078, 262149, 3, 131078, 262150, 3, 131078, 262151, 3, 131078, 262152, 3, 131078, 262153, 3, 131078, 262154, 3, 131078, 262155, 3, 131078, 262156, 3, 131078, 262157, 3, 196608, 262158, 3, 8, 327681, 3, 131076, 327682, 3, 131078, 327683, 3, 131078, 327684, 3, 131078, 327685, 3, 131078, 327686, 3, 131078, 327687, 3, 131078, 327688, 3, 131078, 327689, 3, 131078, 327690, 3, 131078, 327691, 3, 131078, 327692, 3, 131078, 327693, 3, 131078, 327694, 3, 196608, 327695, 3, 196612, 327696, 3, 8, 393216, 3, 7, 393217, 3, 196609, 393218, 3, 131078, 393219, 3, 131078, 393220, 3, 131078, 393221, 3, 131078, 393222, 3, 131078, 393223, 3, 131078, 393224, 3, 131078, 393225, 3, 131078, 393226, 3, 131078, 393227, 3, 131078, 393228, 3, 131078, 393229, 3, 131078, 393230, 3, 131072, 393231, 3, 196613, 393232, 3, 65544, 458752, 3, 65543, 458753, 3, 131074, 458754, 3, 196613, 458755, 3, 196613, 458756, 3, 196613, 458757, 3, 196613, 458758, 3, 131073, 458759, 3, 131078, 458760, 3, 131078, 458761, 3, 131078, 458762, 3, 131078, 458763, 3, 131078, 458764, 3, 131072, 458765, 3, 196613, 458766, 3, 65544, 524289, 3, 6, 524294, 3, 65543, 524295, 3, 131073, 524296, 3, 131072, 524297, 3, 196613, 524298, 3, 196613, 524299, 3, 196613, 524300, 3, 65544, 589831, 3, 65543, 589832, 3, 65544 )

[node name="FloorOverlay2" type="TileMap" parent="."]
tile_set = ExtResource( 2 )
format = 1
tile_data = PoolIntArray( 65542, 3, 65542, 65543, 3, 2, 65544, 3, 1, 131073, 3, 0, 131074, 3, 5, 131075, 1, 7, 131076, 1, 196612, 131077, 1, 196612, 131078, 1, 196612, 131079, 1, 8, 131080, 3, 65536, 131081, 3, 2, 131082, 3, 1, 196609, 3, 6, 196610, 1, 7, 196611, 1, 196609, 196612, 1, 131078, 196613, 1, 131078, 196614, 1, 131078, 196615, 1, 196608, 196616, 1, 196612, 196617, 1, 8, 196618, 3, 65536, 196619, 3, 2, 196620, 3, 2, 196621, 3, 1, 262145, 1, 7, 262146, 1, 196609, 262147, 1, 131078, 262148, 1, 131078, 262149, 1, 131078, 262150, 1, 131078, 262151, 1, 131078, 262152, 1, 131078, 262153, 1, 196608, 262154, 1, 196612, 262155, 1, 196612, 262156, 1, 8, 262157, 3, 65536, 262158, 3, 1, 327681, 1, 65543, 327682, 1, 131073, 327683, 1, 131078, 327684, 1, 131078, 327685, 1, 131078, 327686, 1, 131078, 327687, 1, 131078, 327688, 1, 131078, 327689, 1, 131078, 327690, 1, 131078, 327691, 1, 131078, 327692, 1, 196608, 327693, 1, 8, 327694, 3, 262146, 327695, 3, 196612, 327696, 3, 8, 458751, 3, 7, 393216, 3, 196612, 393217, 3, 8, 393218, 1, 65543, 393219, 1, 131073, 393220, 1, 131078, 393221, 1, 131078, 393222, 1, 131078, 393223, 1, 131078, 393224, 1, 131078, 393225, 1, 131078, 393226, 1, 131078, 393227, 1, 131078, 393228, 1, 131072, 393229, 1, 65544, 393230, 3, 327682, 393231, 3, 196613, 393232, 3, 65544, 524287, 3, 65543, 458752, 3, 196613, 458753, 3, 327681, 458754, 3, 5, 458755, 1, 65543, 458756, 1, 196613, 458757, 1, 196613, 458758, 1, 196613, 458759, 1, 131073, 458760, 1, 131078, 458761, 1, 131072, 458762, 1, 196613, 458763, 1, 196613, 458764, 1, 65544, 458765, 3, 65542, 458766, 3, 65537, 524289, 3, 6, 524294, 3, 196614, 524295, 1, 65543, 524296, 1, 196613, 524297, 1, 65544, 524298, 3, 65542, 524299, 3, 2, 524300, 3, 5, 589831, 3, 65542, 589832, 3, 5 )

[node name="MainBelowOverlay" type="TileMap" parent="."]
tile_set = ExtResource( 1 )
format = 1
tile_data = PoolIntArray( 131076, 24, 0, 131077, 24, 0, 131078, 24, 0, 131079, 24, 0, 131080, 24, 0, 131081, 24, 0, 131087, 28, 0, 196612, 24, 0, 196613, 24, 0, 196614, 24, 0, 196615, 24, 0, 196616, 24, 0, 196617, 24, 0, 196623, 28, 0, 262148, 24, 0, 262149, 24, 0, 262150, 24, 0, 262151, 24, 0, 262152, 24, 0, 262153, 24, 0, 327684, 24, 0, 327685, 24, 0, 327686, 24, 0, 327687, 24, 0, 327688, 24, 0, 327689, 24, 0, 393227, 1073741883, 0 )

[node name="MainBelowOverlay2" type="TileMap" parent="."]
tile_set = ExtResource( 1 )
format = 1
tile_data = PoolIntArray( 131076, 52, 0, 131077, 52, 0, 131078, 24, 0, 131079, 24, 0, 131080, 52, 0, 131081, 52, 0, 196612, 24, 0, 196613, 24, 0, 196614, 24, 0, 196615, 24, 0, 196616, 24, 0, 196617, 24, 0, 262148, 51, 0, 262149, 51, 0, 262150, 536870985, 0, 262151, 73, 0, 262152, 51, 0, 262153, 51, 0, 327684, 536870957, 0, 327688, 536870957, 0, 327689, 24, 0 )

[node name="Items" type="TileMap" parent="."]
tile_set = ExtResource( 6 )
format = 1

[node name="Nodes" type="YSort" parent="."]
z_as_relative = false

[node name="player" parent="Nodes" instance=ExtResource( 3 )]
position = Vector2( 896, 374 )
doorOut = "worldmap_full"

[node name="door" parent="Nodes" instance=ExtResource( 5 )]
position = Vector2( 0, 384 )
scale = Vector2( 1, 2 )
door = "caves/syntrivani_cave"

[node name="door2" parent="Nodes" instance=ExtResource( 5 )]
position = Vector2( 960, 320 )
scale = Vector2( 1, 2 )
door = "caves/two_valleys_cave"

[node name="door3" parent="Nodes" instance=ExtResource( 5 )]
position = Vector2( 384, 320 )
scale = Vector2( 2, 1 )
door = "tornstad/two_caves_inn"

[node name="Dark" type="TileMap" parent="."]
position = Vector2( 8, 0 )
tile_set = ExtResource( 2 )
format = 1
tile_data = PoolIntArray( -1, 9, 7, -65536, 9, 196612, -65535, 9, 196612, -65534, 9, 196612, -65533, 9, 196612, -65532, 9, 262149, -65531, 9, 2, -65530, 9, 2, -65529, 9, 2, -65528, 9, 2, -65527, 9, 2, -65526, 9, 262148, -65525, 9, 196612, -65524, 9, 196612, -65523, 9, 196612, -65522, 9, 196612, -65521, 9, 8, 65535, 9, 131076, 0, 9, 131072, 1, 9, 196613, 2, 9, 196613, 3, 9, 196613, 4, 9, 65544, 10, 9, 65543, 11, 9, 196613, 12, 9, 196613, 13, 9, 131074, 14, 9, 196613, 15, 9, 327683, 131071, 9, 327682, 65536, 9, 65544, 65549, 9, 6, 65551, 9, 65538, 196607, 9, 65538, 131086, 9, 65542, 131087, 9, 65540, 262143, 9, 262146, 196608, 9, 8, 196623, 9, 6, 327679, 9, 327682, 262144, 9, 65544, 393215, 9, 65538, 458751, 9, 65538, 524287, 9, 65538, 458767, 9, 65541, 589823, 9, 262146, 524288, 9, 8, 524290, 9, 7, 524291, 9, 196612, 524292, 9, 196612, 524293, 9, 8, 524301, 9, 7, 524302, 9, 196612, 524303, 9, 262147, 655359, 9, 65543, 589824, 9, 327685, 589825, 9, 2, 589826, 9, 327684, 589827, 9, 196613, 589828, 9, 196613, 589829, 9, 327685, 589830, 9, 5, 589833, 9, 65542, 589834, 9, 2, 589835, 9, 2, 589836, 9, 2, 589837, 9, 327684, 589838, 9, 196613, 589839, 9, 65544 )

[node name="MainDetail" type="TileMap" parent="."]
tile_set = ExtResource( 1 )
format = 1
tile_data = PoolIntArray( -65532, 536870914, 0, -65530, 23, 0, -65529, 23, 0, -65528, 2, 0, 4, 536870914, 0, 6, 23, 0, 7, 23, 0, 8, 2, 0, 65540, 536870914, 0, 65542, 23, 0, 65543, 23, 0, 65544, 2, 0, 131076, 46, 0, 131077, 46, 0, 131078, 69, 0, 131079, 46, 0, 131080, 46, 0, 196612, 46, 0, 196613, 46, 0, 196615, 46, 0, 196616, 46, 0, 196619, 1073741884, 0, 262148, 46, 0, 262149, 46, 0, 262151, 46, 0, 262152, 46, 0, 262155, 1073741884, 0, 327691, 1073741884, 0 )

[node name="MainDetail2" type="TileMap" parent="."]
tile_set = ExtResource( 1 )
format = 1
tile_data = PoolIntArray( 10, 70, 7, 11, 70, 8, 65540, 536870914, 0, 65544, 2, 0, 65545, 70, 7, 65546, 70, 196609, 65547, 70, 196608, 65548, 70, 8, 131078, 82, 0, 131081, 70, 131076, 131082, 70, 131078, 131083, 70, 131078, 131084, 70, 196608, 131085, 70, 8, 196613, 43, 0, 196616, 43, 0, 196617, 70, 65543, 196618, 70, 131073, 196619, 70, 131078, 196620, 70, 131072, 196621, 70, 65544, 262149, 43, 0, 262152, 43, 0, 262154, 70, 65543, 262155, 70, 196613, 262156, 70, 65544 )

[node name="collision" type="TileMap" parent="."]
tile_set = ExtResource( 9 )
format = 1
tile_data = PoolIntArray( 65536, 0, 0, 65537, 0, 0, 65538, 0, 0, 65539, 0, 0, 65540, 0, 0, 65545, 0, 0, 65546, 0, 0, 65547, 0, 0, 65548, 0, 0, 131072, 0, 0, 131076, 0, 0, 131080, 0, 0, 131081, 0, 0, 131084, 0, 0, 131085, 0, 0, 131086, 0, 0, 196608, 0, 0, 196612, 0, 0, 196616, 0, 0, 196617, 0, 0, 196622, 0, 0, 196623, 0, 0, 262144, 0, 0, 262148, 0, 0, 262149, 0, 0, 262150, 0, 0, 262151, 0, 0, 262152, 0, 0, 262153, 0, 0, 262159, 0, 0, 393215, 0, 0, 327680, 0, 0, 327684, 0, 0, 327685, 0, 0, 327688, 0, 0, 327689, 0, 0, 458751, 0, 0, 393227, 0, 0, 524287, 0, 0, 458767, 0, 0, 589823, 0, 0, 524288, 0, 0, 524290, 0, 0, 524291, 0, 0, 524292, 0, 0, 524293, 0, 0, 524301, 0, 0, 524302, 0, 0, 524303, 0, 0, 655359, 0, 0, 589824, 0, 0, 589825, 0, 0, 589826, 0, 0, 589829, 0, 0, 589830, 0, 0, 589833, 0, 0, 589834, 0, 0, 589835, 0, 0, 589836, 0, 0, 589837, 0, 0, 655366, 0, 0, 655367, 0, 0, 655368, 0, 0, 655369, 0, 0 )

[node name="Camera2D" type="Camera2D" parent="."]
anchor_mode = 0
current = true
