[gd_scene load_steps=11 format=2]

[ext_resource path="res://object/item.tscn" type="PackedScene" id=1]
[ext_resource path="res://object/path.gd" type="Script" id=2]
[ext_resource path="res://object/player.tscn" type="PackedScene" id=3]
[ext_resource path="res://scenarios/scenario.gd" type="Script" id=4]
[ext_resource path="res://object/npc.tscn" type="PackedScene" id=5]
[ext_resource path="res://tilesets/items.tres" type="TileSet" id=6]
[ext_resource path="res://object/door.tscn" type="PackedScene" id=7]
[ext_resource path="res://minigames/character_creation.tscn" type="PackedScene" id=8]
[ext_resource path="res://tilesets/mask.tres" type="TileSet" id=9]

[sub_resource type="Curve2D" id=1]
_data = {
"points": PoolVector2Array( 0, 0, 0, 0, 736, 224, 0, 0, 0, 0, 736, 672 )
}

[node name="overworld" type="Node2D"]
script = ExtResource( 4 )

[node name="FloorItems" type="TileMap" parent="."]
tile_set = ExtResource( 6 )
format = 1
tile_data = PoolIntArray( 3, 14, 0, 4, 14, 0, 5, 14, 0, 6, 14, 0, 7, 14, 0, 8, 14, 0, 9, 14, 0, 10, 14, 0, 11, 14, 0, 12, 14, 0, 65539, 14, 0, 65540, 14, 0, 65541, 14, 0, 65542, 14, 0, 65543, 14, 0, 65544, 14, 0, 65545, 14, 0, 65546, 14, 0, 65547, 14, 0, 65548, 536870926, 0, 131075, 13, 0, 131076, 13, 0, 131077, 13, 0, 131078, 13, 0, 131079, 13, 0, 131080, 13, 0, 131081, 19, 0, 131082, 19, 0, 131083, 19, 0, 131084, 19, 0, 196609, 14, 0, 196610, 14, 0, 196611, 14, 0, 196612, 19, 0, 196613, 14, 0, 196614, 536870926, 0, 196615, 536870926, 0, 196616, 13, 0, 196617, 19, 0, 196618, 19, 0, 196619, 19, 0, 196620, 19, 0, 262145, 14, 0, 262146, 14, 0, 262147, 14, 0, 262148, 19, 0, 262149, 14, 0, 262150, 536870926, 0, 262151, 536870926, 0, 262152, 13, 0, 262153, 536870925, 0, 262155, 536870925, 0, 327681, 13, 0, 327682, 13, 0, 327683, 13, 0, 327684, 13, 0, 327685, 13, 0, 327686, 13, 0, 327687, 13, 0, 327688, 13, 0, 327689, 13, 0, 327690, 14, 0, 327691, 21, 0, 327692, 14, 0, 327693, 536870926, 0, 327694, 536870926, 0, 393217, 13, 0, 393218, 13, 0, 393219, 7, 0, 393220, 13, 0, 393221, 13, 0, 393222, 13, 0, 393223, 13, 0, 393224, 13, 0, 393225, 13, 0, 393226, 14, 0, 393227, 21, 0, 393228, 14, 0, 393229, 536870926, 0, 393230, 536870926, 0, 458753, 13, 0, 458754, 13, 0, 458755, 13, 0, 458756, 13, 0, 458757, 13, 0, 458758, 13, 0, 458759, 13, 0, 458760, 13, 0, 458761, 13, 0, 458762, 21, 0, 458763, 21, 0, 458764, 21, 0, 458765, 21, 0, 458766, 21, 0, 524289, 13, 0, 524290, 13, 0, 524291, 13, 0, 524292, 13, 0, 524293, 13, 0, 524294, 13, 0, 524295, 13, 0, 524296, 13, 0, 524297, 13, 0, 524298, 13, 0 )

[node name="BaseItems" type="TileMap" parent="."]
tile_set = ExtResource( 6 )
format = 1
tile_data = PoolIntArray( 3, 14, 0, 4, 14, 0, 5, 14, 0, 6, 14, 0, 7, 14, 0, 8, 14, 0, 9, 14, 0, 10, 14, 0, 11, 14, 0, 12, 14, 0, 65539, 536870926, 0, 65540, 536870926, 0, 65541, 536870926, 0, 65542, 536870926, 0, 65543, 536870926, 0, 65544, 536870926, 0, 65545, 536870926, 0, 65546, 18, 0, 65547, 18, 0, 65548, 536870915, 0, 131075, 13, 0, 131076, 19, 0, 131077, 13, 0, 131078, 13, 0, 131079, 13, 0, 131082, 17, 0, 131083, 536870929, 0, 196609, 14, 0, 196610, 14, 0, 196611, 14, 0, 196612, 21, 0, 196613, 14, 0, 196616, 13, 0, 262145, 536870926, 0, 262146, 536870926, 0, 262147, 536870926, 0, 262148, 21, 0, 262149, 536870926, 0, 262152, 13, 0, 327686, 536870913, 0, 327687, 536870913, 0, 327690, 14, 0, 393218, 7, 0, 393219, 7, 0, 393226, 536870926, 0, 393228, 536870926, 0, 393229, 536870926, 0, 393230, 536870926, 0, 458753, 536870938, 0, 458754, 28, 0, 458755, 28, 0, 458756, 16, 0 )

[node name="Paths" type="Node2D" parent="."]

[node name="widow" type="Path2D" parent="Paths"]
position = Vector2( -32, -32 )
curve = SubResource( 1 )
script = ExtResource( 2 )

[node name="PathFollow2D" type="PathFollow2D" parent="Paths/widow"]
position = Vector2( 736, 224 )
rotate = false
loop = false

[node name="RemoteTransform2D" type="RemoteTransform2D" parent="Paths/widow/PathFollow2D"]
remote_path = NodePath("../../../../Nodes/widow")

[node name="Nodes" type="YSort" parent="."]
z_as_relative = false

[node name="player" parent="Nodes" instance=ExtResource( 3 )]
position = Vector2( 128, 307.732 )
cameraLimit = Vector2( 1000, 1000 )

[node name="mirror" parent="Nodes" instance=ExtResource( 1 )]
position = Vector2( 384, 430.732 )
scale = Vector2( 2, 2 )
dialog = "start_mirror"

[node name="door" parent="Nodes" instance=ExtResource( 7 )]
position = Vector2( 704, 512 )
door = "tornstad/widows_house"

[node name="widow" parent="Nodes" instance=ExtResource( 5 )]
position = Vector2( 704, 192 )
type = "widow"
dialog = "start_widow"

[node name="BaseItems2" type="TileMap" parent="."]
tile_set = ExtResource( 6 )
format = 1
tile_data = PoolIntArray( 327681, 536870927, 0, 393217, 536870938, 0, 393220, 16, 0, 393222, 18, 0, 393223, 18, 0, 458759, 18, 0, 524294, 17, 0, 524295, 536870929, 0, 524299, 46, 0 )

[node name="TopItems" type="TileMap" parent="."]
tile_set = ExtResource( 6 )
format = 1
tile_data = PoolIntArray( 0, 22, 0, 1, 22, 0, 2, 22, 0, 13, 22, 0, 14, 22, 0, 15, 22, 0, 65536, 22, 0, 65537, 22, 0, 65538, 22, 0, 65549, 22, 0, 65550, 22, 0, 65551, 22, 0, 131072, 22, 0, 131073, 22, 0, 131074, 22, 0, 131075, 22, 0, 131076, 22, 0, 131077, 22, 0, 131078, 536870934, 0, 131079, 536870934, 0, 131080, 536870934, 0, 131085, 22, 0, 131086, 22, 0, 131087, 22, 0, 196608, 22, 0, 196611, 14, 0, 196613, 14, 0, 196614, 14, 0, 196615, 14, 0, 196616, 536870934, 0, 196621, 22, 0, 196622, 536870934, 0, 196623, 22, 0, 262144, 22, 0, 262152, 536870934, 0, 262153, 536870934, 0, 262154, 536870934, 0, 262155, 22, 0, 262156, 536870934, 0, 262157, 536870934, 0, 262158, 536870934, 0, 262159, 22, 0, 327680, 22, 0, 327686, 536870913, 0, 327687, 536870913, 0, 327688, 536870934, 0, 327689, 536870934, 0, 327695, 22, 0, 393216, 22, 0, 393217, 536870927, 0, 393218, 7, 0, 393219, 7, 0, 393222, 18, 0, 393223, 18, 0, 393224, 536870934, 0, 393225, 536870934, 0, 393231, 22, 0, 458752, 22, 0, 458758, 18, 0, 458759, 18, 0, 458760, 536870934, 0, 458761, 536870934, 0, 458767, 22, 0, 524288, 22, 0, 524296, 536870934, 0, 524297, 536870934, 0, 524298, 536870934, 0, 524300, 536870934, 0, 524301, 536870934, 0, 524302, 536870934, 0, 524303, 22, 0, 589824, 22, 0, 589825, 22, 0, 589826, 22, 0, 589827, 22, 0, 589828, 22, 0, 589829, 22, 0, 589830, 22, 0, 589831, 536870934, 0, 589832, 22, 0, 589833, 22, 0, 589834, 22, 0, 589835, 22, 0, 589836, 22, 0, 589837, 22, 0, 589838, 22, 0, 589839, 22, 0 )

[node name="empty" type="TileMap" parent="."]
tile_set = ExtResource( 6 )
format = 1
tile_data = PoolIntArray( 393218, 11, 0, 458758, 37, 0 )

[node name="collision" type="TileMap" parent="."]
visible = false
tile_set = ExtResource( 9 )
format = 1
tile_data = PoolIntArray( 65538, 0, 0, 65539, 0, 0, 65540, 0, 0, 65541, 0, 0, 65542, 0, 0, 65543, 0, 0, 65544, 0, 0, 65545, 0, 0, 65546, 0, 0, 65547, 0, 0, 65548, 0, 0, 65549, 0, 0, 131074, 0, 0, 131082, 0, 0, 131083, 0, 0, 131084, 0, 0, 131085, 0, 0, 196610, 0, 0, 196621, 0, 0, 262144, 0, 0, 262145, 0, 0, 262146, 0, 0, 262147, 0, 0, 262148, 0, 0, 262149, 0, 0, 262150, 0, 0, 262151, 0, 0, 262152, 0, 0, 262157, 0, 0, 327680, 0, 0, 327688, 536870912, 0, 327689, 0, 0, 327690, 0, 0, 327692, 0, 0, 327693, 0, 0, 393216, 0, 0, 393222, 0, 0, 393223, 536870912, 0, 393224, 536870912, 0, 393226, 0, 0, 393228, 536870912, 0, 393229, 536870912, 0, 393230, 536870912, 0, 393231, 536870912, 0, 458752, 0, 0, 458754, 536870912, 0, 458755, 536870912, 0, 458758, 0, 0, 458761, 536870912, 0, 458767, 536870912, 0, 524288, 0, 0, 524294, 0, 0, 524298, 536870912, 0, 524300, 536870912, 0, 524301, 536870912, 0, 524302, 536870912, 0, 524303, 536870912, 0, 589824, 0, 0, 589825, 0, 0, 589826, 0, 0, 589827, 0, 0, 589828, 0, 0, 589829, 0, 0, 589830, 0, 0 )

[node name="extracol" type="TileMap" parent="."]
visible = false
tile_set = ExtResource( 6 )
format = 1
tile_data = PoolIntArray( 393218, 11, 0, 458753, 536870941, 0, 458756, 29, 0, 458758, 536870918, 0 )

[node name="creator" parent="." instance=ExtResource( 8 )]
visible = false
anchor_left = 1.0
anchor_top = 1.0
anchor_right = 1.0
anchor_bottom = 1.0
margin_left = 512.0
margin_top = 320.0
margin_right = 512.0
margin_bottom = 320.0

[node name="Camera2D" type="Camera2D" parent="."]
anchor_mode = 0
current = true
